                           |canTro         |canSoj         |canVis         |canFri         |canNer         |canDub         |canAlb         |canMal         |debHan         |picFar         
canTro                    |  0,00000000000|810,11703757472|810,11703757472|810,11703757472|810,11703757472|810,11703757472|810,11703757472|810,11703757472|810,11703757472|810,11703757472
canSoj                    |810,11703757472|  0,00000000000|757,70039120095|757,70039120095|757,70039120095|757,70039120095|757,70039120095|772,26779869733|762,86458217834|797,43898094803
canVis                    |810,11703757472|757,70039120095|  0,00000000000|752,48025157029|752,48025157029|752,48025157029|752,48025157029|772,26779869733|762,86458217834|797,43898094803
canFri                    |810,11703757472|757,70039120095|752,48025157029|  0,00000000000|624,14570994053|731,46888550985|731,46888550985|772,26779869733|762,86458217834|797,43898094803
canNer                    |810,11703757472|757,70039120095|752,48025157029|624,14570994053|  0,00000000000|731,46888550985|731,46888550985|772,26779869733|762,86458217834|797,43898094803
canDub                    |810,11703757472|757,70039120095|752,48025157029|731,46888550985|731,46888550985|  0,00000000000|559,44497835504|772,26779869733|762,86458217834|797,43898094803
canAlb                    |810,11703757472|757,70039120095|752,48025157029|731,46888550985|731,46888550985|559,44497835504|  0,00000000000|772,26779869733|762,86458217834|797,43898094803
canMal                    |810,11703757472|772,26779869733|772,26779869733|772,26779869733|772,26779869733|772,26779869733|772,26779869733|  0,00000000000|772,26779869733|797,43898094803
debHan                    |810,11703757472|762,86458217834|762,86458217834|762,86458217834|762,86458217834|762,86458217834|762,86458217834|772,26779869733|  0,00000000000|797,43898094803
picFar                    |810,11703757472|797,43898094803|797,43898094803|797,43898094803|797,43898094803|797,43898094803|797,43898094803|797,43898094803|797,43898094803|  0,00000000000
                           |canTro         |canSoj         |canVis         |canFri         |canNer         |canDub         |canAlb         |canMal         |debHan         |picFar         
canTro                    |  0,00000000000| 10,91977184960| 10,91977184960| 10,91977184960| 10,91977184960| 10,91977184960| 10,91977184960| 10,91977184960| 10,91977184960| 10,91977184960
canSoj                    | 10,91977184960|  0,00000000000|  9,77415561276|  9,77415561276|  9,77415561276|  9,77415561276|  9,77415561276| 10,09254031898|  9,88702397507| 10,64268072440
canVis                    | 10,91977184960|  9,77415561276|  0,00000000000|  9,66006443881|  9,66006443881|  9,66006443881|  9,66006443881| 10,09254031898|  9,88702397507| 10,64268072440
canFri                    | 10,91977184960|  9,77415561276|  9,66006443881|  0,00000000000|  6,85518956012|  9,20084081840|  9,20084081840| 10,09254031898|  9,88702397507| 10,64268072440
canNer                    | 10,91977184960|  9,77415561276|  9,66006443881|  6,85518956012|  0,00000000000|  9,20084081840|  9,20084081840| 10,09254031898|  9,88702397507| 10,64268072440
canDub                    | 10,91977184960|  9,77415561276|  9,66006443881|  9,20084081840|  9,20084081840|  0,00000000000|  5,44109282239| 10,09254031898|  9,88702397507| 10,64268072440
canAlb                    | 10,91977184960|  9,77415561276|  9,66006443881|  9,20084081840|  9,20084081840|  5,44109282239|  0,00000000000| 10,09254031898|  9,88702397507| 10,64268072440
canMal                    | 10,91977184960| 10,09254031898| 10,09254031898| 10,09254031898| 10,09254031898| 10,09254031898| 10,09254031898|  0,00000000000| 10,09254031898| 10,64268072440
debHan                    | 10,91977184960|  9,88702397507|  9,88702397507|  9,88702397507|  9,88702397507|  9,88702397507|  9,88702397507| 10,09254031898|  0,00000000000| 10,64268072440
picFar                    | 10,91977184960| 10,64268072440| 10,64268072440| 10,64268072440| 10,64268072440| 10,64268072440| 10,64268072440| 10,64268072440| 10,64268072440|  0,00000000000
                           |canTro         |canSoj         |canVis         |canFri         |canNer         |canDub         |canAlb         |canMal         |debHan         |picFar         
canTro                    |  0,00000000000|  6,00000000000|  7,00000000000|  9,00000000000|  9,00000000000|  9,00000000000|  9,00000000000|  4,00000000000|  5,00000000000|  3,00000000000
canSoj                    |  6,00000000000|  0,00000000000|  3,00000000000|  5,00000000000|  5,00000000000|  5,00000000000|  5,00000000000|  4,00000000000|  3,00000000000|  5,00000000000
canVis                    |  7,00000000000|  3,00000000000|  0,00000000000|  4,00000000000|  4,00000000000|  4,00000000000|  4,00000000000|  5,00000000000|  4,00000000000|  6,00000000000
canFri                    |  9,00000000000|  5,00000000000|  4,00000000000|  0,00000000000|  2,00000000000|  4,00000000000|  4,00000000000|  7,00000000000|  6,00000000000|  8,00000000000
canNer                    |  9,00000000000|  5,00000000000|  4,00000000000|  2,00000000000|  0,00000000000|  4,00000000000|  4,00000000000|  7,00000000000|  6,00000000000|  8,00000000000
canDub                    |  9,00000000000|  5,00000000000|  4,00000000000|  4,00000000000|  4,00000000000|  0,00000000000|  2,00000000000|  7,00000000000|  6,00000000000|  8,00000000000
canAlb                    |  9,00000000000|  5,00000000000|  4,00000000000|  4,00000000000|  4,00000000000|  2,00000000000|  0,00000000000|  7,00000000000|  6,00000000000|  8,00000000000
canMal                    |  4,00000000000|  4,00000000000|  5,00000000000|  7,00000000000|  7,00000000000|  7,00000000000|  7,00000000000|  0,00000000000|  3,00000000000|  3,00000000000
debHan                    |  5,00000000000|  3,00000000000|  4,00000000000|  6,00000000000|  6,00000000000|  6,00000000000|  6,00000000000|  3,00000000000|  0,00000000000|  4,00000000000
picFar                    |  3,00000000000|  5,00000000000|  6,00000000000|  8,00000000000|  8,00000000000|  8,00000000000|  8,00000000000|  3,00000000000|  4,00000000000|  0,00000000000
