                           |canTro         |canSoj         |canVis         |canFri         |canNer         |canDub         |canAlb         |canMal         |debHan         |picFar         
canTro                    |  0,00000000000|  9,18058298683|  9,18058298683|  9,18058298683|  9,18058298683|  9,18058298683|  9,18058298683|  9,18058298683|  9,18058298683|  9,18058298683
canSoj                    |  9,18058298683|  0,00000000000|  6,87225101716|  6,38444587210|  6,38444587210|  6,93377283368|  6,93377283368|  6,89204229015|  7,64128774935|  8,96010667546
canVis                    |  9,18058298683|  6,87225101716|  0,00000000000|  6,87225101716|  6,87225101716|  6,93377283368|  6,93377283368|  6,89204229015|  7,64128774935|  8,96010667546
canFri                    |  9,18058298683|  6,38444587210|  6,87225101716|  0,00000000000|  5,68420121785|  6,93377283368|  6,93377283368|  6,89204229015|  7,64128774935|  8,96010667546
canNer                    |  9,18058298683|  6,38444587210|  6,87225101716|  5,68420121785|  0,00000000000|  6,93377283368|  6,93377283368|  6,89204229015|  7,64128774935|  8,96010667546
canDub                    |  9,18058298683|  6,93377283368|  6,93377283368|  6,93377283368|  6,93377283368|  0,00000000000|  6,09667354153|  6,93377283368|  7,64128774935|  8,96010667546
canAlb                    |  9,18058298683|  6,93377283368|  6,93377283368|  6,93377283368|  6,93377283368|  6,09667354153|  0,00000000000|  6,93377283368|  7,64128774935|  8,96010667546
canMal                    |  9,18058298683|  6,89204229015|  6,89204229015|  6,89204229015|  6,89204229015|  6,93377283368|  6,93377283368|  0,00000000000|  7,64128774935|  8,96010667546
debHan                    |  9,18058298683|  7,64128774935|  7,64128774935|  7,64128774935|  7,64128774935|  7,64128774935|  7,64128774935|  7,64128774935|  0,00000000000|  8,96010667546
picFar                    |  9,18058298683|  8,96010667546|  8,96010667546|  8,96010667546|  8,96010667546|  8,96010667546|  8,96010667546|  8,96010667546|  8,96010667546|  0,00000000000
                           |canTro         |canSoj         |canVis         |canFri         |canNer         |canDub         |canAlb         |canMal         |debHan         |picFar         
canTro                    |  0,00000000000| 11,29730859284| 11,29730859284| 11,29730859284| 11,29730859284| 11,29730859284| 11,29730859284| 11,29730859284| 11,29730859284| 11,29730859284
canSoj                    | 11,29730859284|  0,00000000000|  9,16704280402|  8,71686725484|  8,71686725484|  9,22381878889|  9,22381878889|  9,18530736575|  9,87675555870| 11,09383996288
canVis                    | 11,29730859284|  9,16704280402|  0,00000000000|  9,16704280402|  9,16704280402|  9,22381878889|  9,22381878889|  9,18530736575|  9,87675555870| 11,09383996288
canFri                    | 11,29730859284|  8,71686725484|  9,16704280402|  0,00000000000|  8,07063991390|  9,22381878889|  9,22381878889|  9,18530736575|  9,87675555870| 11,09383996288
canNer                    | 11,29730859284|  8,71686725484|  9,16704280402|  8,07063991390|  0,00000000000|  9,22381878889|  9,22381878889|  9,18530736575|  9,87675555870| 11,09383996288
canDub                    | 11,29730859284|  9,22381878889|  9,22381878889|  9,22381878889|  9,22381878889|  0,00000000000|  8,45129386295|  9,22381878889|  9,87675555870| 11,09383996288
canAlb                    | 11,29730859284|  9,22381878889|  9,22381878889|  9,22381878889|  9,22381878889|  8,45129386295|  0,00000000000|  9,22381878889|  9,87675555870| 11,09383996288
canMal                    | 11,29730859284|  9,18530736575|  9,18530736575|  9,18530736575|  9,18530736575|  9,22381878889|  9,22381878889|  0,00000000000|  9,87675555870| 11,09383996288
debHan                    | 11,29730859284|  9,87675555870|  9,87675555870|  9,87675555870|  9,87675555870|  9,87675555870|  9,87675555870|  9,87675555870|  0,00000000000| 11,09383996288
picFar                    | 11,29730859284| 11,09383996288| 11,09383996288| 11,09383996288| 11,09383996288| 11,09383996288| 11,09383996288| 11,09383996288| 11,09383996288|  0,00000000000
                           |canTro         |canSoj         |canVis         |canFri         |canNer         |canDub         |canAlb         |canMal         |debHan         |picFar         
canTro                    |  0,00000000000|  8,00000000000|  7,00000000000|  9,00000000000|  9,00000000000|  6,00000000000|  6,00000000000|  6,00000000000|  4,00000000000|  3,00000000000
canSoj                    |  8,00000000000|  0,00000000000|  3,00000000000|  3,00000000000|  3,00000000000|  6,00000000000|  6,00000000000|  4,00000000000|  6,00000000000|  7,00000000000
canVis                    |  7,00000000000|  3,00000000000|  0,00000000000|  4,00000000000|  4,00000000000|  5,00000000000|  5,00000000000|  3,00000000000|  5,00000000000|  6,00000000000
canFri                    |  9,00000000000|  3,00000000000|  4,00000000000|  0,00000000000|  2,00000000000|  7,00000000000|  7,00000000000|  5,00000000000|  7,00000000000|  8,00000000000
canNer                    |  9,00000000000|  3,00000000000|  4,00000000000|  2,00000000000|  0,00000000000|  7,00000000000|  7,00000000000|  5,00000000000|  7,00000000000|  8,00000000000
canDub                    |  6,00000000000|  6,00000000000|  5,00000000000|  7,00000000000|  7,00000000000|  0,00000000000|  2,00000000000|  4,00000000000|  4,00000000000|  5,00000000000
canAlb                    |  6,00000000000|  6,00000000000|  5,00000000000|  7,00000000000|  7,00000000000|  2,00000000000|  0,00000000000|  4,00000000000|  4,00000000000|  5,00000000000
canMal                    |  6,00000000000|  4,00000000000|  3,00000000000|  5,00000000000|  5,00000000000|  4,00000000000|  4,00000000000|  0,00000000000|  4,00000000000|  5,00000000000
debHan                    |  4,00000000000|  6,00000000000|  5,00000000000|  7,00000000000|  7,00000000000|  4,00000000000|  4,00000000000|  4,00000000000|  0,00000000000|  3,00000000000
picFar                    |  3,00000000000|  7,00000000000|  6,00000000000|  8,00000000000|  8,00000000000|  5,00000000000|  5,00000000000|  5,00000000000|  3,00000000000|  0,00000000000
