                           |canTro         |canSoj         |canVis         |canFri         |canNer         |canDub         |canAlb         |canMal         |debHan         |picFar         
canTro                    |  0,00000000000|2506,91122669714|2865,73710610869|2843,25609078611|2843,25609078611|2843,25609078611|2843,25609078611|2843,25609078611|3154,00796207131|3217,26184185726
canSoj                    |2506,91122669714|  0,00000000000|2865,73710610869|2843,25609078611|2843,25609078611|2843,25609078611|2843,25609078611|2843,25609078611|3154,00796207131|3217,26184185726
canVis                    |2865,73710610869|2865,73710610869|  0,00000000000|2865,73710610869|2865,73710610869|2865,73710610869|2865,73710610869|2865,73710610869|3154,00796207131|3217,26184185726
canFri                    |2843,25609078611|2843,25609078611|2865,73710610869|  0,00000000000|2437,78314347104|2709,24491074153|2709,24491074153|2814,19504616532|3154,00796207131|3217,26184185726
canNer                    |2843,25609078611|2843,25609078611|2865,73710610869|2437,78314347104|  0,00000000000|2709,24491074153|2709,24491074153|2814,19504616532|3154,00796207131|3217,26184185726
canDub                    |2843,25609078611|2843,25609078611|2865,73710610869|2709,24491074153|2709,24491074153|  0,00000000000|2249,76712084988|2814,19504616532|3154,00796207131|3217,26184185726
canAlb                    |2843,25609078611|2843,25609078611|2865,73710610869|2709,24491074153|2709,24491074153|2249,76712084988|  0,00000000000|2814,19504616532|3154,00796207131|3217,26184185726
canMal                    |2843,25609078611|2843,25609078611|2865,73710610869|2814,19504616532|2814,19504616532|2814,19504616532|2814,19504616532|  0,00000000000|3154,00796207131|3217,26184185726
debHan                    |3154,00796207131|3154,00796207131|3154,00796207131|3154,00796207131|3154,00796207131|3154,00796207131|3154,00796207131|3154,00796207131|  0,00000000000|3217,26184185726
picFar                    |3217,26184185726|3217,26184185726|3217,26184185726|3217,26184185726|3217,26184185726|3217,26184185726|3217,26184185726|3217,26184185726|3217,26184185726|  0,00000000000
                           |canTro         |canSoj         |canVis         |canFri         |canNer         |canDub         |canAlb         |canMal         |debHan         |picFar         
canTro                    |  0,00000000000|  8,14905746447|  9,70916169352|  9,61141866803|  9,61141866803|  9,61141866803|  9,61141866803|  9,61141866803| 10,96250658112| 11,23752198837
canSoj                    |  8,14905746447|  0,00000000000|  9,70916169352|  9,61141866803|  9,61141866803|  9,61141866803|  9,61141866803|  9,61141866803| 10,96250658112| 11,23752198837
canVis                    |  9,70916169352|  9,70916169352|  0,00000000000|  9,70916169352|  9,70916169352|  9,70916169352|  9,70916169352|  9,70916169352| 10,96250658112| 11,23752198837
canFri                    |  9,61141866803|  9,61141866803|  9,70916169352|  0,00000000000|  7,84850217798|  9,02876445961|  9,02876445961|  9,48506697152| 10,96250658112| 11,23752198837
canNer                    |  9,61141866803|  9,61141866803|  9,70916169352|  7,84850217798|  0,00000000000|  9,02876445961|  9,02876445961|  9,48506697152| 10,96250658112| 11,23752198837
canDub                    |  9,61141866803|  9,61141866803|  9,70916169352|  9,02876445961|  9,02876445961|  0,00000000000|  7,03104555389|  9,48506697152| 10,96250658112| 11,23752198837
canAlb                    |  9,61141866803|  9,61141866803|  9,70916169352|  9,02876445961|  9,02876445961|  7,03104555389|  0,00000000000|  9,48506697152| 10,96250658112| 11,23752198837
canMal                    |  9,61141866803|  9,61141866803|  9,70916169352|  9,48506697152|  9,48506697152|  9,48506697152|  9,48506697152|  0,00000000000| 10,96250658112| 11,23752198837
debHan                    | 10,96250658112| 10,96250658112| 10,96250658112| 10,96250658112| 10,96250658112| 10,96250658112| 10,96250658112| 10,96250658112|  0,00000000000| 11,23752198837
picFar                    | 11,23752198837| 11,23752198837| 11,23752198837| 11,23752198837| 11,23752198837| 11,23752198837| 11,23752198837| 11,23752198837| 11,23752198837|  0,00000000000
                           |canTro         |canSoj         |canVis         |canFri         |canNer         |canDub         |canAlb         |canMal         |debHan         |picFar         
canTro                    |  0,00000000000|  2,00000000000|  4,00000000000|  6,00000000000|  6,00000000000|  6,00000000000|  6,00000000000|  4,00000000000|  5,00000000000|  6,00000000000
canSoj                    |  2,00000000000|  0,00000000000|  4,00000000000|  6,00000000000|  6,00000000000|  6,00000000000|  6,00000000000|  4,00000000000|  5,00000000000|  6,00000000000
canVis                    |  4,00000000000|  4,00000000000|  0,00000000000|  6,00000000000|  6,00000000000|  6,00000000000|  6,00000000000|  4,00000000000|  3,00000000000|  4,00000000000
canFri                    |  6,00000000000|  6,00000000000|  6,00000000000|  0,00000000000|  2,00000000000|  4,00000000000|  4,00000000000|  4,00000000000|  7,00000000000|  8,00000000000
canNer                    |  6,00000000000|  6,00000000000|  6,00000000000|  2,00000000000|  0,00000000000|  4,00000000000|  4,00000000000|  4,00000000000|  7,00000000000|  8,00000000000
canDub                    |  6,00000000000|  6,00000000000|  6,00000000000|  4,00000000000|  4,00000000000|  0,00000000000|  2,00000000000|  4,00000000000|  7,00000000000|  8,00000000000
canAlb                    |  6,00000000000|  6,00000000000|  6,00000000000|  4,00000000000|  4,00000000000|  2,00000000000|  0,00000000000|  4,00000000000|  7,00000000000|  8,00000000000
canMal                    |  4,00000000000|  4,00000000000|  4,00000000000|  4,00000000000|  4,00000000000|  4,00000000000|  4,00000000000|  0,00000000000|  5,00000000000|  6,00000000000
debHan                    |  5,00000000000|  5,00000000000|  3,00000000000|  7,00000000000|  7,00000000000|  7,00000000000|  7,00000000000|  5,00000000000|  0,00000000000|  3,00000000000
picFar                    |  6,00000000000|  6,00000000000|  4,00000000000|  8,00000000000|  8,00000000000|  8,00000000000|  8,00000000000|  6,00000000000|  3,00000000000|  0,00000000000
