                           |canTro         |canSoj         |canVis         |canFri         |canNer         |canDub         |canAlb         |canMal         |debHan         |picFar         
canTro                    |  0,00000000000|596,17855800373|596,17855800373|737,48884658022|487,39481481242|596,17855800373|487,41857330531|596,17855800373|626,95066728914|655,76113285961
canSoj                    |596,17855800373|  0,00000000000|586,23409551206|737,48884658022|596,17855800373|586,23409551206|596,17855800373|568,15643883791|626,95066728914|655,76113285961
canVis                    |596,17855800373|586,23409551206|  0,00000000000|737,48884658022|596,17855800373|541,67947026160|596,17855800373|586,23409551206|626,95066728914|655,76113285961
canFri                    |737,48884658022|737,48884658022|737,48884658022|  0,00000000000|737,48884658022|737,48884658022|737,48884658022|737,48884658022|737,48884658022|737,48884658022
canNer                    |487,39481481242|596,17855800373|596,17855800373|737,48884658022|  0,00000000000|596,17855800373|487,41857330531|596,17855800373|626,95066728914|655,76113285961
canDub                    |596,17855800373|586,23409551206|541,67947026160|737,48884658022|596,17855800373|  0,00000000000|596,17855800373|586,23409551206|626,95066728914|655,76113285961
canAlb                    |487,41857330531|596,17855800373|596,17855800373|737,48884658022|487,41857330531|596,17855800373|  0,00000000000|596,17855800373|626,95066728914|655,76113285961
canMal                    |596,17855800373|568,15643883791|586,23409551206|737,48884658022|596,17855800373|586,23409551206|596,17855800373|  0,00000000000|626,95066728914|655,76113285961
debHan                    |626,95066728914|626,95066728914|626,95066728914|737,48884658022|626,95066728914|626,95066728914|626,95066728914|626,95066728914|  0,00000000000|655,76113285961
picFar                    |655,76113285961|655,76113285961|655,76113285961|737,48884658022|655,76113285961|655,76113285961|655,76113285961|655,76113285961|655,76113285961|  0,00000000000
                           |canTro         |canSoj         |canVis         |canFri         |canNer         |canDub         |canAlb         |canMal         |debHan         |picFar         
canTro                    |  0,00000000000|  9,49911311933|  9,49911311933| 11,60114923315|  7,88091985762|  9,49911311933|  7,88127327286|  9,49911311933|  9,95685816867| 10,38542313513
canSoj                    |  9,49911311933|  0,00000000000|  9,35118603277| 11,60114923315|  9,49911311933|  9,35118603277|  9,49911311933|  9,08227505986|  9,95685816867| 10,38542313513
canVis                    |  9,49911311933|  9,35118603277|  0,00000000000| 11,60114923315|  9,49911311933|  8,68842161372|  9,49911311933|  9,35118603277|  9,95685816867| 10,38542313513
canFri                    | 11,60114923315| 11,60114923315| 11,60114923315|  0,00000000000| 11,60114923315| 11,60114923315| 11,60114923315| 11,60114923315| 11,60114923315| 11,60114923315
canNer                    |  7,88091985762|  9,49911311933|  9,49911311933| 11,60114923315|  0,00000000000|  9,49911311933|  7,88127327286|  9,49911311933|  9,95685816867| 10,38542313513
canDub                    |  9,49911311933|  9,35118603277|  8,68842161372| 11,60114923315|  9,49911311933|  0,00000000000|  9,49911311933|  9,35118603277|  9,95685816867| 10,38542313513
canAlb                    |  7,88127327286|  9,49911311933|  9,49911311933| 11,60114923315|  7,88127327286|  9,49911311933|  0,00000000000|  9,49911311933|  9,95685816867| 10,38542313513
canMal                    |  9,49911311933|  9,08227505986|  9,35118603277| 11,60114923315|  9,49911311933|  9,35118603277|  9,49911311933|  0,00000000000|  9,95685816867| 10,38542313513
debHan                    |  9,95685816867|  9,95685816867|  9,95685816867| 11,60114923315|  9,95685816867|  9,95685816867|  9,95685816867|  9,95685816867|  0,00000000000| 10,38542313513
picFar                    | 10,38542313513| 10,38542313513| 10,38542313513| 11,60114923315| 10,38542313513| 10,38542313513| 10,38542313513| 10,38542313513| 10,38542313513|  0,00000000000
                           |canTro         |canSoj         |canVis         |canFri         |canNer         |canDub         |canAlb         |canMal         |debHan         |picFar         
canTro                    |  0,00000000000|  6,00000000000|  6,00000000000|  7,00000000000|  2,00000000000|  6,00000000000|  3,00000000000|  6,00000000000|  5,00000000000|  6,00000000000
canSoj                    |  6,00000000000|  0,00000000000|  4,00000000000|  7,00000000000|  6,00000000000|  4,00000000000|  5,00000000000|  2,00000000000|  5,00000000000|  6,00000000000
canVis                    |  6,00000000000|  4,00000000000|  0,00000000000|  7,00000000000|  6,00000000000|  2,00000000000|  5,00000000000|  4,00000000000|  5,00000000000|  6,00000000000
canFri                    |  7,00000000000|  7,00000000000|  7,00000000000|  0,00000000000|  7,00000000000|  7,00000000000|  6,00000000000|  7,00000000000|  4,00000000000|  3,00000000000
canNer                    |  2,00000000000|  6,00000000000|  6,00000000000|  7,00000000000|  0,00000000000|  6,00000000000|  3,00000000000|  6,00000000000|  5,00000000000|  6,00000000000
canDub                    |  6,00000000000|  4,00000000000|  2,00000000000|  7,00000000000|  6,00000000000|  0,00000000000|  5,00000000000|  4,00000000000|  5,00000000000|  6,00000000000
canAlb                    |  3,00000000000|  5,00000000000|  5,00000000000|  6,00000000000|  3,00000000000|  5,00000000000|  0,00000000000|  5,00000000000|  4,00000000000|  5,00000000000
canMal                    |  6,00000000000|  2,00000000000|  4,00000000000|  7,00000000000|  6,00000000000|  4,00000000000|  5,00000000000|  0,00000000000|  5,00000000000|  6,00000000000
debHan                    |  5,00000000000|  5,00000000000|  5,00000000000|  4,00000000000|  5,00000000000|  5,00000000000|  4,00000000000|  5,00000000000|  0,00000000000|  3,00000000000
picFar                    |  6,00000000000|  6,00000000000|  6,00000000000|  3,00000000000|  6,00000000000|  6,00000000000|  5,00000000000|  6,00000000000|  3,00000000000|  0,00000000000
