                           |canTro         |canSoj         |canVis         |canFri         |canNer         |canDub         |canAlb         |canMal         |debHan         |picFar         
canTro                    |  0,00000000000|9090,69349429284|9313,06502109436|9428,03939397994|9428,03939397994|9428,03939397994|9428,03939397994|9927,01955877209|10241,17756553560|10495,56673214447
canSoj                    |9090,69349429284|  0,00000000000|9313,06502109436|9428,03939397994|9428,03939397994|9428,03939397994|9428,03939397994|9927,01955877209|10241,17756553560|10495,56673214447
canVis                    |9313,06502109436|9313,06502109436|  0,00000000000|9428,03939397994|9428,03939397994|9428,03939397994|9428,03939397994|9927,01955877209|10241,17756553560|10495,56673214447
canFri                    |9428,03939397994|9428,03939397994|9428,03939397994|  0,00000000000|8275,61390934866|9203,46198327755|9203,46198327755|9927,01955877209|10241,17756553560|10495,56673214447
canNer                    |9428,03939397994|9428,03939397994|9428,03939397994|8275,61390934866|  0,00000000000|9203,46198327755|9203,46198327755|9927,01955877209|10241,17756553560|10495,56673214447
canDub                    |9428,03939397994|9428,03939397994|9428,03939397994|9203,46198327755|9203,46198327755|  0,00000000000|7767,91748089478|9927,01955877209|10241,17756553560|10495,56673214447
canAlb                    |9428,03939397994|9428,03939397994|9428,03939397994|9203,46198327755|9203,46198327755|7767,91748089478|  0,00000000000|9927,01955877209|10241,17756553560|10495,56673214447
canMal                    |9927,01955877209|9927,01955877209|9927,01955877209|9927,01955877209|9927,01955877209|9927,01955877209|9927,01955877209|  0,00000000000|10241,17756553560|10495,56673214447
debHan                    |10241,17756553560|10241,17756553560|10241,17756553560|10241,17756553560|10241,17756553560|10241,17756553560|10241,17756553560|10241,17756553560|  0,00000000000|10495,56673214447
picFar                    |10495,56673214447|10495,56673214447|10495,56673214447|10495,56673214447|10495,56673214447|10495,56673214447|10495,56673214447|10495,56673214447|10495,56673214447|  0,00000000000
                           |canTro         |canSoj         |canVis         |canFri         |canNer         |canDub         |canAlb         |canMal         |debHan         |picFar         
canTro                    |  0,00000000000|  8,88019384901|  9,24749222134|  9,43739917853|  9,43739917853|  9,43739917853|  9,43739917853| 10,26158114547| 10,78048626880| 11,20066923096
canSoj                    |  8,88019384901|  0,00000000000|  9,24749222134|  9,43739917853|  9,43739917853|  9,43739917853|  9,43739917853| 10,26158114547| 10,78048626880| 11,20066923096
canVis                    |  9,24749222134|  9,24749222134|  0,00000000000|  9,43739917853|  9,43739917853|  9,43739917853|  9,43739917853| 10,26158114547| 10,78048626880| 11,20066923096
canFri                    |  9,43739917853|  9,43739917853|  9,43739917853|  0,00000000000|  7,53390006233|  9,06645727514|  9,06645727514| 10,26158114547| 10,78048626880| 11,20066923096
canNer                    |  9,43739917853|  9,43739917853|  9,43739917853|  7,53390006233|  0,00000000000|  9,06645727514|  9,06645727514| 10,26158114547| 10,78048626880| 11,20066923096
canDub                    |  9,43739917853|  9,43739917853|  9,43739917853|  9,06645727514|  9,06645727514|  0,00000000000|  6,69532115572| 10,26158114547| 10,78048626880| 11,20066923096
canAlb                    |  9,43739917853|  9,43739917853|  9,43739917853|  9,06645727514|  9,06645727514|  6,69532115572|  0,00000000000| 10,26158114547| 10,78048626880| 11,20066923096
canMal                    | 10,26158114547| 10,26158114547| 10,26158114547| 10,26158114547| 10,26158114547| 10,26158114547| 10,26158114547|  0,00000000000| 10,78048626880| 11,20066923096
debHan                    | 10,78048626880| 10,78048626880| 10,78048626880| 10,78048626880| 10,78048626880| 10,78048626880| 10,78048626880| 10,78048626880|  0,00000000000| 11,20066923096
picFar                    | 11,20066923096| 11,20066923096| 11,20066923096| 11,20066923096| 11,20066923096| 11,20066923096| 11,20066923096| 11,20066923096| 11,20066923096|  0,00000000000
                           |canTro         |canSoj         |canVis         |canFri         |canNer         |canDub         |canAlb         |canMal         |debHan         |picFar         
canTro                    |  0,00000000000|  2,00000000000|  3,00000000000|  6,00000000000|  6,00000000000|  6,00000000000|  6,00000000000|  5,00000000000|  6,00000000000|  7,00000000000
canSoj                    |  2,00000000000|  0,00000000000|  3,00000000000|  6,00000000000|  6,00000000000|  6,00000000000|  6,00000000000|  5,00000000000|  6,00000000000|  7,00000000000
canVis                    |  3,00000000000|  3,00000000000|  0,00000000000|  5,00000000000|  5,00000000000|  5,00000000000|  5,00000000000|  4,00000000000|  5,00000000000|  6,00000000000
canFri                    |  6,00000000000|  6,00000000000|  5,00000000000|  0,00000000000|  2,00000000000|  4,00000000000|  4,00000000000|  5,00000000000|  6,00000000000|  7,00000000000
canNer                    |  6,00000000000|  6,00000000000|  5,00000000000|  2,00000000000|  0,00000000000|  4,00000000000|  4,00000000000|  5,00000000000|  6,00000000000|  7,00000000000
canDub                    |  6,00000000000|  6,00000000000|  5,00000000000|  4,00000000000|  4,00000000000|  0,00000000000|  2,00000000000|  5,00000000000|  6,00000000000|  7,00000000000
canAlb                    |  6,00000000000|  6,00000000000|  5,00000000000|  4,00000000000|  4,00000000000|  2,00000000000|  0,00000000000|  5,00000000000|  6,00000000000|  7,00000000000
canMal                    |  5,00000000000|  5,00000000000|  4,00000000000|  5,00000000000|  5,00000000000|  5,00000000000|  5,00000000000|  0,00000000000|  3,00000000000|  4,00000000000
debHan                    |  6,00000000000|  6,00000000000|  5,00000000000|  6,00000000000|  6,00000000000|  6,00000000000|  6,00000000000|  3,00000000000|  0,00000000000|  3,00000000000
picFar                    |  7,00000000000|  7,00000000000|  6,00000000000|  7,00000000000|  7,00000000000|  7,00000000000|  7,00000000000|  4,00000000000|  3,00000000000|  0,00000000000
