                           |Human          |P_Chim         |Com_Chim       |Gibbon         |Ver_Monkey     |Macaca_Thibet  |Bor_Oran       |Sum_Oran       |Gorilla        
Human                     |  0,00000000000|5256,82165861598|5256,82165861598|6748,62868704286|6895,46308468976|6895,46308468976|12936,73111987807|12936,73111987807|5281,57551676993
P_Chim                    |5256,82165861598|  0,00000000000|3735,18385860668|6748,62868704286|6895,46308468976|6895,46308468976|12936,73111987807|12936,73111987807|5281,57551676993
Com_Chim                  |5256,82165861598|3735,18385860668|  0,00000000000|6748,62868704286|6895,46308468976|6895,46308468976|12936,73111987807|12936,73111987807|5281,57551676993
Gibbon                    |6748,62868704286|6748,62868704286|6748,62868704286|  0,00000000000|6895,46308468976|6895,46308468976|12936,73111987807|12936,73111987807|6748,62868704286
Ver_Monkey                |6895,46308468976|6895,46308468976|6895,46308468976|6895,46308468976|  0,00000000000|6586,93801610793|12936,73111987807|12936,73111987807|6895,46308468976
Macaca_Thibet             |6895,46308468976|6895,46308468976|6895,46308468976|6895,46308468976|6586,93801610793|  0,00000000000|12936,73111987807|12936,73111987807|6895,46308468976
Bor_Oran                  |12936,73111987807|12936,73111987807|12936,73111987807|12936,73111987807|12936,73111987807|12936,73111987807|  0,00000000000|4684,53549169522|12936,73111987807
Sum_Oran                  |12936,73111987807|12936,73111987807|12936,73111987807|12936,73111987807|12936,73111987807|12936,73111987807|4684,53549169522|  0,00000000000|12936,73111987807
Gorilla                   |5281,57551676993|5281,57551676993|5281,57551676993|6748,62868704286|6895,46308468976|6895,46308468976|12936,73111987807|12936,73111987807|  0,00000000000
                           |Human          |P_Chim         |Com_Chim       |Gibbon         |Ver_Monkey     |Macaca_Thibet  |Bor_Oran       |Sum_Oran       |Gorilla        
Human                     |  0,00000000000|  8,92661188318|  8,92661188318|  9,37285049140|  9,41677251080|  9,41677251080| 11,22387422607| 11,22387422607|  8,93401641138
P_Chim                    |  8,92661188318|  0,00000000000|  8,47145010879|  9,37285049140|  9,41677251080|  9,41677251080| 11,22387422607| 11,22387422607|  8,93401641138
Com_Chim                  |  8,92661188318|  8,47145010879|  0,00000000000|  9,37285049140|  9,41677251080|  9,41677251080| 11,22387422607| 11,22387422607|  8,93401641138
Gibbon                    |  9,37285049140|  9,37285049140|  9,37285049140|  0,00000000000|  9,41677251080|  9,41677251080| 11,22387422607| 11,22387422607|  9,37285049140
Ver_Monkey                |  9,41677251080|  9,41677251080|  9,41677251080|  9,41677251080|  0,00000000000|  9,32448457102| 11,22387422607| 11,22387422607|  9,41677251080
Macaca_Thibet             |  9,41677251080|  9,41677251080|  9,41677251080|  9,41677251080|  9,32448457102|  0,00000000000| 11,22387422607| 11,22387422607|  9,41677251080
Bor_Oran                  | 11,22387422607| 11,22387422607| 11,22387422607| 11,22387422607| 11,22387422607| 11,22387422607|  0,00000000000|  8,75542608115| 11,22387422607
Sum_Oran                  | 11,22387422607| 11,22387422607| 11,22387422607| 11,22387422607| 11,22387422607| 11,22387422607|  8,75542608115|  0,00000000000| 11,22387422607
Gorilla                   |  8,93401641138|  8,93401641138|  8,93401641138|  9,37285049140|  9,41677251080|  9,41677251080| 11,22387422607| 11,22387422607|  0,00000000000
                           |Human          |P_Chim         |Com_Chim       |Gibbon         |Ver_Monkey     |Macaca_Thibet  |Bor_Oran       |Sum_Oran       |Gorilla        
Human                     |  0,00000000000|  3,00000000000|  3,00000000000|  4,00000000000|  6,00000000000|  6,00000000000|  7,00000000000|  7,00000000000|  3,00000000000
P_Chim                    |  3,00000000000|  0,00000000000|  2,00000000000|  5,00000000000|  7,00000000000|  7,00000000000|  8,00000000000|  8,00000000000|  4,00000000000
Com_Chim                  |  3,00000000000|  2,00000000000|  0,00000000000|  5,00000000000|  7,00000000000|  7,00000000000|  8,00000000000|  8,00000000000|  4,00000000000
Gibbon                    |  4,00000000000|  5,00000000000|  5,00000000000|  0,00000000000|  4,00000000000|  4,00000000000|  5,00000000000|  5,00000000000|  3,00000000000
Ver_Monkey                |  6,00000000000|  7,00000000000|  7,00000000000|  4,00000000000|  0,00000000000|  2,00000000000|  5,00000000000|  5,00000000000|  5,00000000000
Macaca_Thibet             |  6,00000000000|  7,00000000000|  7,00000000000|  4,00000000000|  2,00000000000|  0,00000000000|  5,00000000000|  5,00000000000|  5,00000000000
Bor_Oran                  |  7,00000000000|  8,00000000000|  8,00000000000|  5,00000000000|  5,00000000000|  5,00000000000|  0,00000000000|  2,00000000000|  6,00000000000
Sum_Oran                  |  7,00000000000|  8,00000000000|  8,00000000000|  5,00000000000|  5,00000000000|  5,00000000000|  2,00000000000|  0,00000000000|  6,00000000000
Gorilla                   |  3,00000000000|  4,00000000000|  4,00000000000|  3,00000000000|  5,00000000000|  5,00000000000|  6,00000000000|  6,00000000000|  0,00000000000
