                           |aspNig         |debHan         |canMal         |canAlb         |canDub         |canSoj         |canTro         |canPar         |sacPas         |sacCer         
aspNig                    |  0,00000000000|  0,42840268548|  0,70039440800|  0,12652281426|  0,26188265876|  0,12652281426|  0,26188265876|  0,04084974244|  0,20580576579|  0,20580576579
debHan                    |  0,42840268548|  0,00000000000|  0,70039440800|  0,42840268548|  0,42840268548|  0,42840268548|  0,42840268548|  0,42840268548|  0,42840268548|  0,42840268548
canMal                    |  0,70039440800|  0,70039440800|  0,00000000000|  0,70039440800|  0,70039440800|  0,70039440800|  0,70039440800|  0,70039440800|  0,70039440800|  0,70039440800
canAlb                    |  0,12652281426|  0,42840268548|  0,70039440800|  0,00000000000|  0,26188265876|  0,08394002914|  0,26188265876|  0,12652281426|  0,20580576579|  0,20580576579
canDub                    |  0,26188265876|  0,42840268548|  0,70039440800|  0,26188265876|  0,00000000000|  0,26188265876|  0,13206796652|  0,26188265876|  0,26188265876|  0,26188265876
canSoj                    |  0,12652281426|  0,42840268548|  0,70039440800|  0,08394002914|  0,26188265876|  0,00000000000|  0,26188265876|  0,12652281426|  0,20580576579|  0,20580576579
canTro                    |  0,26188265876|  0,42840268548|  0,70039440800|  0,26188265876|  0,13206796652|  0,26188265876|  0,00000000000|  0,26188265876|  0,26188265876|  0,26188265876
canPar                    |  0,04084974244|  0,42840268548|  0,70039440800|  0,12652281426|  0,26188265876|  0,12652281426|  0,26188265876|  0,00000000000|  0,20580576579|  0,20580576579
sacPas                    |  0,20580576579|  0,42840268548|  0,70039440800|  0,20580576579|  0,26188265876|  0,20580576579|  0,26188265876|  0,20580576579|  0,00000000000|  0,14441798828
sacCer                    |  0,20580576579|  0,42840268548|  0,70039440800|  0,20580576579|  0,26188265876|  0,20580576579|  0,26188265876|  0,20580576579|  0,14441798828|  0,00000000000
                           |aspNig         |debHan         |canMal         |canAlb         |canDub         |canSoj         |canTro         |canPar         |sacPas         |sacCer         
aspNig                    |  0,00000000000| 10,42010729461| 11,75535286019|  8,93813660943|  9,60263709664|  8,93813660943|  9,60263709664|  8,51755546757|  9,32734775337|  9,32734775337
debHan                    | 10,42010729461|  0,00000000000| 11,75535286019| 10,42010729461| 10,42010729461| 10,42010729461| 10,42010729461| 10,42010729461| 10,42010729461| 10,42010729461
canMal                    | 11,75535286019| 11,75535286019|  0,00000000000| 11,75535286019| 11,75535286019| 11,75535286019| 11,75535286019| 11,75535286019| 11,75535286019| 11,75535286019
canAlb                    |  8,93813660943| 10,42010729461| 11,75535286019|  0,00000000000|  9,60263709664|  8,72909173677|  9,60263709664|  8,93813660943|  9,32734775337|  9,32734775337
canDub                    |  9,60263709664| 10,42010729461| 11,75535286019|  9,60263709664|  0,00000000000|  9,60263709664|  8,96535854069|  9,60263709664|  9,60263709664|  9,60263709664
canSoj                    |  8,93813660943| 10,42010729461| 11,75535286019|  8,72909173677|  9,60263709664|  0,00000000000|  9,60263709664|  8,93813660943|  9,32734775337|  9,32734775337
canTro                    |  9,60263709664| 10,42010729461| 11,75535286019|  9,60263709664|  8,96535854069|  9,60263709664|  0,00000000000|  9,60263709664|  9,60263709664|  9,60263709664
canPar                    |  8,51755546757| 10,42010729461| 11,75535286019|  8,93813660943|  9,60263709664|  8,93813660943|  9,60263709664|  0,00000000000|  9,32734775337|  9,32734775337
sacPas                    |  9,32734775337| 10,42010729461| 11,75535286019|  9,32734775337|  9,60263709664|  9,32734775337|  9,60263709664|  9,32734775337|  0,00000000000|  9,02598653197
sacCer                    |  9,32734775337| 10,42010729461| 11,75535286019|  9,32734775337|  9,60263709664|  9,32734775337|  9,60263709664|  9,32734775337|  9,02598653197|  0,00000000000
                           |aspNig         |debHan         |canMal         |canAlb         |canDub         |canSoj         |canTro         |canPar         |sacPas         |sacCer         
aspNig                    |  0,00000000000|  6,00000000000|  7,00000000000|  4,00000000000|  6,00000000000|  4,00000000000|  6,00000000000|  2,00000000000|  5,00000000000|  5,00000000000
debHan                    |  6,00000000000|  0,00000000000|  3,00000000000|  6,00000000000|  4,00000000000|  6,00000000000|  4,00000000000|  6,00000000000|  5,00000000000|  5,00000000000
canMal                    |  7,00000000000|  3,00000000000|  0,00000000000|  7,00000000000|  5,00000000000|  7,00000000000|  5,00000000000|  7,00000000000|  6,00000000000|  6,00000000000
canAlb                    |  4,00000000000|  6,00000000000|  7,00000000000|  0,00000000000|  6,00000000000|  2,00000000000|  6,00000000000|  4,00000000000|  5,00000000000|  5,00000000000
canDub                    |  6,00000000000|  4,00000000000|  5,00000000000|  6,00000000000|  0,00000000000|  6,00000000000|  2,00000000000|  6,00000000000|  5,00000000000|  5,00000000000
canSoj                    |  4,00000000000|  6,00000000000|  7,00000000000|  2,00000000000|  6,00000000000|  0,00000000000|  6,00000000000|  4,00000000000|  5,00000000000|  5,00000000000
canTro                    |  6,00000000000|  4,00000000000|  5,00000000000|  6,00000000000|  2,00000000000|  6,00000000000|  0,00000000000|  6,00000000000|  5,00000000000|  5,00000000000
canPar                    |  2,00000000000|  6,00000000000|  7,00000000000|  4,00000000000|  6,00000000000|  4,00000000000|  6,00000000000|  0,00000000000|  5,00000000000|  5,00000000000
sacPas                    |  5,00000000000|  5,00000000000|  6,00000000000|  5,00000000000|  5,00000000000|  5,00000000000|  5,00000000000|  5,00000000000|  0,00000000000|  2,00000000000
sacCer                    |  5,00000000000|  5,00000000000|  6,00000000000|  5,00000000000|  5,00000000000|  5,00000000000|  5,00000000000|  5,00000000000|  2,00000000000|  0,00000000000
