                           |Human          |Pig_Chim       |Com_Chim       |Gibbon         |Baboon         |Ver_Monkey     |Macaca_Thibet  |Bor_Oran       |Sum_Oran       |Gorilla        |Cat            |Dog            |Pig            |Sheep          |Goat           |Cow            |Buffalo        |Wolf           |Tiger          |Leopard        |Indian_Rhino   |White_Rhino    |Black_Bear     |Brown_Bear     |Polar_Bear     |Giant_Panda    |Rabbit         |Hedgehog       |Dormouse       |Squirrel       |Blue_Whale     
Human                     |  0,00000000000|  9,46666717529|  9,46666717529| 16,80000050863| 21,33333333333| 21,33333333333| 21,33333333333| 18,66666666667| 18,66666666667|  9,86666768392| 22,93333333333| 22,93333333333| 22,93333333333| 22,93333333333| 22,93333333333| 22,93333333333| 22,93333333333| 22,93333333333| 22,93333333333| 22,93333333333| 22,93333333333| 22,93333333333| 22,93333333333| 22,93333333333| 22,93333333333| 23,33333536784| 23,73333435059| 29,06666768392| 24,93333384196| 25,33333435059| 22,93333333333
Pig_Chim                  |  9,46666717529|  0,00000000000|  4,13333435059| 16,80000050863| 21,33333333333| 21,33333333333| 21,33333333333| 18,66666666667| 18,66666666667|  9,86666768392| 22,93333333333| 22,93333333333| 22,93333333333| 22,93333333333| 22,93333333333| 22,93333333333| 22,93333333333| 22,93333333333| 22,93333333333| 22,93333333333| 22,93333333333| 22,93333333333| 22,93333333333| 22,93333333333| 22,93333333333| 23,33333536784| 23,73333435059| 29,06666768392| 24,93333384196| 25,33333435059| 22,93333333333
Com_Chim                  |  9,46666717529|  4,13333435059|  0,00000000000| 16,80000050863| 21,33333333333| 21,33333333333| 21,33333333333| 18,66666666667| 18,66666666667|  9,86666768392| 22,93333333333| 22,93333333333| 22,93333333333| 22,93333333333| 22,93333333333| 22,93333333333| 22,93333333333| 22,93333333333| 22,93333333333| 22,93333333333| 22,93333333333| 22,93333333333| 22,93333333333| 22,93333333333| 22,93333333333| 23,33333536784| 23,73333435059| 29,06666768392| 24,93333384196| 25,33333435059| 22,93333333333
Gibbon                    | 16,80000050863| 16,80000050863| 16,80000050863|  0,00000000000| 21,33333333333| 21,33333333333| 21,33333333333| 18,66666666667| 18,66666666667| 16,80000050863| 22,93333333333| 22,93333333333| 22,93333333333| 22,93333333333| 22,93333333333| 22,93333333333| 22,93333333333| 22,93333333333| 22,93333333333| 22,93333333333| 22,93333333333| 22,93333333333| 22,93333333333| 22,93333333333| 22,93333333333| 23,33333536784| 23,73333435059| 29,06666768392| 24,93333384196| 25,33333435059| 22,93333333333
Baboon                    | 21,33333333333| 21,33333333333| 21,33333333333| 21,33333333333|  0,00000000000| 19,86666717529| 17,73333384196| 21,33333333333| 21,33333333333| 21,33333333333| 22,93333333333| 22,93333333333| 22,93333333333| 22,93333333333| 22,93333333333| 22,93333333333| 22,93333333333| 22,93333333333| 22,93333333333| 22,93333333333| 22,93333333333| 22,93333333333| 22,93333333333| 22,93333333333| 22,93333333333| 23,33333536784| 23,73333435059| 29,06666768392| 24,93333384196| 25,33333435059| 22,93333333333
Ver_Monkey                | 21,33333333333| 21,33333333333| 21,33333333333| 21,33333333333| 19,86666717529|  0,00000000000| 19,86666717529| 21,33333333333| 21,33333333333| 21,33333333333| 22,93333333333| 22,93333333333| 22,93333333333| 22,93333333333| 22,93333333333| 22,93333333333| 22,93333333333| 22,93333333333| 22,93333333333| 22,93333333333| 22,93333333333| 22,93333333333| 22,93333333333| 22,93333333333| 22,93333333333| 23,33333536784| 23,73333435059| 29,06666768392| 24,93333384196| 25,33333435059| 22,93333333333
Macaca_Thibet             | 21,33333333333| 21,33333333333| 21,33333333333| 21,33333333333| 17,73333384196| 19,86666717529|  0,00000000000| 21,33333333333| 21,33333333333| 21,33333333333| 22,93333333333| 22,93333333333| 22,93333333333| 22,93333333333| 22,93333333333| 22,93333333333| 22,93333333333| 22,93333333333| 22,93333333333| 22,93333333333| 22,93333333333| 22,93333333333| 22,93333333333| 22,93333333333| 22,93333333333| 23,33333536784| 23,73333435059| 29,06666768392| 24,93333384196| 25,33333435059| 22,93333333333
Bor_Oran                  | 18,66666666667| 18,66666666667| 18,66666666667| 18,66666666667| 21,33333333333| 21,33333333333| 21,33333333333|  0,00000000000|  8,66666666667| 18,66666666667| 22,93333333333| 22,93333333333| 22,93333333333| 22,93333333333| 22,93333333333| 22,93333333333| 22,93333333333| 22,93333333333| 22,93333333333| 22,93333333333| 22,93333333333| 22,93333333333| 22,93333333333| 22,93333333333| 22,93333333333| 23,33333536784| 23,73333435059| 29,06666768392| 24,93333384196| 25,33333435059| 22,93333333333
Sum_Oran                  | 18,66666666667| 18,66666666667| 18,66666666667| 18,66666666667| 21,33333333333| 21,33333333333| 21,33333333333|  8,66666666667|  0,00000000000| 18,66666666667| 22,93333333333| 22,93333333333| 22,93333333333| 22,93333333333| 22,93333333333| 22,93333333333| 22,93333333333| 22,93333333333| 22,93333333333| 22,93333333333| 22,93333333333| 22,93333333333| 22,93333333333| 22,93333333333| 22,93333333333| 23,33333536784| 23,73333435059| 29,06666768392| 24,93333384196| 25,33333435059| 22,93333333333
Gorilla                   |  9,86666768392|  9,86666768392|  9,86666768392| 16,80000050863| 21,33333333333| 21,33333333333| 21,33333333333| 18,66666666667| 18,66666666667|  0,00000000000| 22,93333333333| 22,93333333333| 22,93333333333| 22,93333333333| 22,93333333333| 22,93333333333| 22,93333333333| 22,93333333333| 22,93333333333| 22,93333333333| 22,93333333333| 22,93333333333| 22,93333333333| 22,93333333333| 22,93333333333| 23,33333536784| 23,73333435059| 29,06666768392| 24,93333384196| 25,33333435059| 22,93333333333
Cat                       | 22,93333333333| 22,93333333333| 22,93333333333| 22,93333333333| 22,93333333333| 22,93333333333| 22,93333333333| 22,93333333333| 22,93333333333| 22,93333333333|  0,00000000000| 21,86666717529| 21,86666717529| 21,86666717529| 21,86666717529| 21,86666717529| 21,86666717529| 21,86666717529| 13,33333536784| 13,33333536784| 21,86666717529| 21,86666717529| 22,40000203451| 22,40000203451| 22,40000203451| 23,33333536784| 23,73333435059| 29,06666768392| 24,93333384196| 25,33333435059| 21,86666717529
Dog                       | 22,93333333333| 22,93333333333| 22,93333333333| 22,93333333333| 22,93333333333| 22,93333333333| 22,93333333333| 22,93333333333| 22,93333333333| 22,93333333333| 21,86666717529|  0,00000000000| 20,66666666667| 20,66666666667| 20,66666666667| 20,66666666667| 20,66666666667|  4,00000000000| 21,86666717529| 21,86666717529| 20,66666666667| 20,66666666667| 22,40000203451| 22,40000203451| 22,40000203451| 23,33333536784| 23,73333435059| 29,06666768392| 24,93333384196| 25,33333435059| 20,66666666667
Pig                       | 22,93333333333| 22,93333333333| 22,93333333333| 22,93333333333| 22,93333333333| 22,93333333333| 22,93333333333| 22,93333333333| 22,93333333333| 22,93333333333| 21,86666717529| 20,66666666667|  0,00000000000| 19,33333384196| 19,33333384196| 19,33333384196| 19,33333384196| 20,66666666667| 21,86666717529| 21,86666717529| 19,33333384196| 19,33333384196| 22,40000203451| 22,40000203451| 22,40000203451| 23,33333536784| 23,73333435059| 29,06666768392| 24,93333384196| 25,33333435059| 20,66666666667
Sheep                     | 22,93333333333| 22,93333333333| 22,93333333333| 22,93333333333| 22,93333333333| 22,93333333333| 22,93333333333| 22,93333333333| 22,93333333333| 22,93333333333| 21,86666717529| 20,66666666667| 19,33333384196|  0,00000000000| 12,40000000000| 17,20000101725| 17,20000101725| 20,66666666667| 21,86666717529| 21,86666717529| 19,20000000000| 19,20000000000| 22,40000203451| 22,40000203451| 22,40000203451| 23,33333536784| 23,73333435059| 29,06666768392| 24,93333384196| 25,33333435059| 20,66666666667
Goat                      | 22,93333333333| 22,93333333333| 22,93333333333| 22,93333333333| 22,93333333333| 22,93333333333| 22,93333333333| 22,93333333333| 22,93333333333| 22,93333333333| 21,86666717529| 20,66666666667| 19,33333384196| 12,40000000000|  0,00000000000| 17,20000101725| 17,20000101725| 20,66666666667| 21,86666717529| 21,86666717529| 19,20000000000| 19,20000000000| 22,40000203451| 22,40000203451| 22,40000203451| 23,33333536784| 23,73333435059| 29,06666768392| 24,93333384196| 25,33333435059| 20,66666666667
Cow                       | 22,93333333333| 22,93333333333| 22,93333333333| 22,93333333333| 22,93333333333| 22,93333333333| 22,93333333333| 22,93333333333| 22,93333333333| 22,93333333333| 21,86666717529| 20,66666666667| 19,33333384196| 17,20000101725| 17,20000101725|  0,00000000000| 17,06666768392| 20,66666666667| 21,86666717529| 21,86666717529| 19,20000000000| 19,20000000000| 22,40000203451| 22,40000203451| 22,40000203451| 23,33333536784| 23,73333435059| 29,06666768392| 24,93333384196| 25,33333435059| 20,66666666667
Buffalo                   | 22,93333333333| 22,93333333333| 22,93333333333| 22,93333333333| 22,93333333333| 22,93333333333| 22,93333333333| 22,93333333333| 22,93333333333| 22,93333333333| 21,86666717529| 20,66666666667| 19,33333384196| 17,20000101725| 17,20000101725| 17,06666768392|  0,00000000000| 20,66666666667| 21,86666717529| 21,86666717529| 19,20000000000| 19,20000000000| 22,40000203451| 22,40000203451| 22,40000203451| 23,33333536784| 23,73333435059| 29,06666768392| 24,93333384196| 25,33333435059| 20,66666666667
Wolf                      | 22,93333333333| 22,93333333333| 22,93333333333| 22,93333333333| 22,93333333333| 22,93333333333| 22,93333333333| 22,93333333333| 22,93333333333| 22,93333333333| 21,86666717529|  4,00000000000| 20,66666666667| 20,66666666667| 20,66666666667| 20,66666666667| 20,66666666667|  0,00000000000| 21,86666717529| 21,86666717529| 20,66666666667| 20,66666666667| 22,40000203451| 22,40000203451| 22,40000203451| 23,33333536784| 23,73333435059| 29,06666768392| 24,93333384196| 25,33333435059| 20,66666666667
Tiger                     | 22,93333333333| 22,93333333333| 22,93333333333| 22,93333333333| 22,93333333333| 22,93333333333| 22,93333333333| 22,93333333333| 22,93333333333| 22,93333333333| 13,33333536784| 21,86666717529| 21,86666717529| 21,86666717529| 21,86666717529| 21,86666717529| 21,86666717529| 21,86666717529|  0,00000000000| 11,06666666667| 21,86666717529| 21,86666717529| 22,40000203451| 22,40000203451| 22,40000203451| 23,33333536784| 23,73333435059| 29,06666768392| 24,93333384196| 25,33333435059| 21,86666717529
Leopard                   | 22,93333333333| 22,93333333333| 22,93333333333| 22,93333333333| 22,93333333333| 22,93333333333| 22,93333333333| 22,93333333333| 22,93333333333| 22,93333333333| 13,33333536784| 21,86666717529| 21,86666717529| 21,86666717529| 21,86666717529| 21,86666717529| 21,86666717529| 21,86666717529| 11,06666666667|  0,00000000000| 21,86666717529| 21,86666717529| 22,40000203451| 22,40000203451| 22,40000203451| 23,33333536784| 23,73333435059| 29,06666768392| 24,93333384196| 25,33333435059| 21,86666717529
Indian_Rhino              | 22,93333333333| 22,93333333333| 22,93333333333| 22,93333333333| 22,93333333333| 22,93333333333| 22,93333333333| 22,93333333333| 22,93333333333| 22,93333333333| 21,86666717529| 20,66666666667| 19,33333384196| 19,20000000000| 19,20000000000| 19,20000000000| 19,20000000000| 20,66666666667| 21,86666717529| 21,86666717529|  0,00000000000| 12,00000101725| 22,40000203451| 22,40000203451| 22,40000203451| 23,33333536784| 23,73333435059| 29,06666768392| 24,93333384196| 25,33333435059| 20,66666666667
White_Rhino               | 22,93333333333| 22,93333333333| 22,93333333333| 22,93333333333| 22,93333333333| 22,93333333333| 22,93333333333| 22,93333333333| 22,93333333333| 22,93333333333| 21,86666717529| 20,66666666667| 19,33333384196| 19,20000000000| 19,20000000000| 19,20000000000| 19,20000000000| 20,66666666667| 21,86666717529| 21,86666717529| 12,00000101725|  0,00000000000| 22,40000203451| 22,40000203451| 22,40000203451| 23,33333536784| 23,73333435059| 29,06666768392| 24,93333384196| 25,33333435059| 20,66666666667
Black_Bear                | 22,93333333333| 22,93333333333| 22,93333333333| 22,93333333333| 22,93333333333| 22,93333333333| 22,93333333333| 22,93333333333| 22,93333333333| 22,93333333333| 22,40000203451| 22,40000203451| 22,40000203451| 22,40000203451| 22,40000203451| 22,40000203451| 22,40000203451| 22,40000203451| 22,40000203451| 22,40000203451| 22,40000203451| 22,40000203451|  0,00000000000| 11,73333536784| 11,73333536784| 23,33333536784| 23,73333435059| 29,06666768392| 24,93333384196| 25,33333435059| 22,40000203451
Brown_Bear                | 22,93333333333| 22,93333333333| 22,93333333333| 22,93333333333| 22,93333333333| 22,93333333333| 22,93333333333| 22,93333333333| 22,93333333333| 22,93333333333| 22,40000203451| 22,40000203451| 22,40000203451| 22,40000203451| 22,40000203451| 22,40000203451| 22,40000203451| 22,40000203451| 22,40000203451| 22,40000203451| 22,40000203451| 22,40000203451| 11,73333536784|  0,00000000000|  3,60000000000| 23,33333536784| 23,73333435059| 29,06666768392| 24,93333384196| 25,33333435059| 22,40000203451
Polar_Bear                | 22,93333333333| 22,93333333333| 22,93333333333| 22,93333333333| 22,93333333333| 22,93333333333| 22,93333333333| 22,93333333333| 22,93333333333| 22,93333333333| 22,40000203451| 22,40000203451| 22,40000203451| 22,40000203451| 22,40000203451| 22,40000203451| 22,40000203451| 22,40000203451| 22,40000203451| 22,40000203451| 22,40000203451| 22,40000203451| 11,73333536784|  3,60000000000|  0,00000000000| 23,33333536784| 23,73333435059| 29,06666768392| 24,93333384196| 25,33333435059| 22,40000203451
Giant_Panda               | 23,33333536784| 23,33333536784| 23,33333536784| 23,33333536784| 23,33333536784| 23,33333536784| 23,33333536784| 23,33333536784| 23,33333536784| 23,33333536784| 23,33333536784| 23,33333536784| 23,33333536784| 23,33333536784| 23,33333536784| 23,33333536784| 23,33333536784| 23,33333536784| 23,33333536784| 23,33333536784| 23,33333536784| 23,33333536784| 23,33333536784| 23,33333536784| 23,33333536784|  0,00000000000| 23,73333435059| 29,06666768392| 24,93333384196| 25,33333435059| 23,33333536784
Rabbit                    | 23,73333435059| 23,73333435059| 23,73333435059| 23,73333435059| 23,73333435059| 23,73333435059| 23,73333435059| 23,73333435059| 23,73333435059| 23,73333435059| 23,73333435059| 23,73333435059| 23,73333435059| 23,73333435059| 23,73333435059| 23,73333435059| 23,73333435059| 23,73333435059| 23,73333435059| 23,73333435059| 23,73333435059| 23,73333435059| 23,73333435059| 23,73333435059| 23,73333435059| 23,73333435059|  0,00000000000| 29,06666768392| 24,93333384196| 25,33333435059| 23,73333435059
Hedgehog                  | 29,06666768392| 29,06666768392| 29,06666768392| 29,06666768392| 29,06666768392| 29,06666768392| 29,06666768392| 29,06666768392| 29,06666768392| 29,06666768392| 29,06666768392| 29,06666768392| 29,06666768392| 29,06666768392| 29,06666768392| 29,06666768392| 29,06666768392| 29,06666768392| 29,06666768392| 29,06666768392| 29,06666768392| 29,06666768392| 29,06666768392| 29,06666768392| 29,06666768392| 29,06666768392| 29,06666768392|  0,00000000000| 29,06666768392| 29,06666768392| 29,06666768392
Dormouse                  | 24,93333384196| 24,93333384196| 24,93333384196| 24,93333384196| 24,93333384196| 24,93333384196| 24,93333384196| 24,93333384196| 24,93333384196| 24,93333384196| 24,93333384196| 24,93333384196| 24,93333384196| 24,93333384196| 24,93333384196| 24,93333384196| 24,93333384196| 24,93333384196| 24,93333384196| 24,93333384196| 24,93333384196| 24,93333384196| 24,93333384196| 24,93333384196| 24,93333384196| 24,93333384196| 24,93333384196| 29,06666768392|  0,00000000000| 25,33333435059| 24,93333384196
Squirrel                  | 25,33333435059| 25,33333435059| 25,33333435059| 25,33333435059| 25,33333435059| 25,33333435059| 25,33333435059| 25,33333435059| 25,33333435059| 25,33333435059| 25,33333435059| 25,33333435059| 25,33333435059| 25,33333435059| 25,33333435059| 25,33333435059| 25,33333435059| 25,33333435059| 25,33333435059| 25,33333435059| 25,33333435059| 25,33333435059| 25,33333435059| 25,33333435059| 25,33333435059| 25,33333435059| 25,33333435059| 29,06666768392| 25,33333435059|  0,00000000000| 25,33333435059
Blue_Whale                | 22,93333333333| 22,93333333333| 22,93333333333| 22,93333333333| 22,93333333333| 22,93333333333| 22,93333333333| 22,93333333333| 22,93333333333| 22,93333333333| 21,86666717529| 20,66666666667| 20,66666666667| 20,66666666667| 20,66666666667| 20,66666666667| 20,66666666667| 20,66666666667| 21,86666717529| 21,86666717529| 20,66666666667| 20,66666666667| 22,40000203451| 22,40000203451| 22,40000203451| 23,33333536784| 23,73333435059| 29,06666768392| 24,93333384196| 25,33333435059|  0,00000000000
                           |Human          |Pig_Chim       |Com_Chim       |Gibbon         |Baboon         |Ver_Monkey     |Macaca_Thibet  |Bor_Oran       |Sum_Oran       |Gorilla        |Cat            |Dog            |Pig            |Sheep          |Goat           |Cow            |Buffalo        |Wolf           |Tiger          |Leopard        |Indian_Rhino   |White_Rhino    |Black_Bear     |Brown_Bear     |Polar_Bear     |Giant_Panda    |Rabbit         |Hedgehog       |Dormouse       |Squirrel       |Blue_Whale     
Human                     |  0,00000000000|  6,11441016124|  6,11441016124|  8,28870474149|  9,63281396757|  9,63281396757|  9,63281396757|  8,84216139293|  8,84216139293|  6,23300819824| 10,10720551236| 10,10720551236| 10,10720551236| 10,10720551236| 10,10720551236| 10,10720551236| 10,10720551236| 10,10720551236| 10,10720551236| 10,10720551236| 10,10720551236| 10,10720551236| 10,10720551236| 10,10720551236| 10,10720551236| 10,22580400177| 10,34440158636| 11,92570673563| 10,70019509414| 10,81879313114| 10,10720551236
Pig_Chim                  |  6,11441016124|  0,00000000000|  4,53310516277|  8,28870474149|  9,63281396757|  9,63281396757|  9,63281396757|  8,84216139293|  8,84216139293|  6,23300819824| 10,10720551236| 10,10720551236| 10,10720551236| 10,10720551236| 10,10720551236| 10,10720551236| 10,10720551236| 10,10720551236| 10,10720551236| 10,10720551236| 10,10720551236| 10,10720551236| 10,10720551236| 10,10720551236| 10,10720551236| 10,22580400177| 10,34440158636| 11,92570673563| 10,70019509414| 10,81879313114| 10,10720551236
Com_Chim                  |  6,11441016124|  4,53310516277|  0,00000000000|  8,28870474149|  9,63281396757|  9,63281396757|  9,63281396757|  8,84216139293|  8,84216139293|  6,23300819824| 10,10720551236| 10,10720551236| 10,10720551236| 10,10720551236| 10,10720551236| 10,10720551236| 10,10720551236| 10,10720551236| 10,10720551236| 10,10720551236| 10,10720551236| 10,10720551236| 10,10720551236| 10,10720551236| 10,10720551236| 10,22580400177| 10,34440158636| 11,92570673563| 10,70019509414| 10,81879313114| 10,10720551236
Gibbon                    |  8,28870474149|  8,28870474149|  8,28870474149|  0,00000000000|  9,63281396757|  9,63281396757|  9,63281396757|  8,84216139293|  8,84216139293|  8,28870474149| 10,10720551236| 10,10720551236| 10,10720551236| 10,10720551236| 10,10720551236| 10,10720551236| 10,10720551236| 10,10720551236| 10,10720551236| 10,10720551236| 10,10720551236| 10,10720551236| 10,10720551236| 10,10720551236| 10,10720551236| 10,22580400177| 10,34440158636| 11,92570673563| 10,70019509414| 10,81879313114| 10,10720551236
Baboon                    |  9,63281396757|  9,63281396757|  9,63281396757|  9,63281396757|  0,00000000000|  9,19795520233|  8,56543314262|  9,63281396757|  9,63281396757|  9,63281396757| 10,10720551236| 10,10720551236| 10,10720551236| 10,10720551236| 10,10720551236| 10,10720551236| 10,10720551236| 10,10720551236| 10,10720551236| 10,10720551236| 10,10720551236| 10,10720551236| 10,10720551236| 10,10720551236| 10,10720551236| 10,22580400177| 10,34440158636| 11,92570673563| 10,70019509414| 10,81879313114| 10,10720551236
Ver_Monkey                |  9,63281396757|  9,63281396757|  9,63281396757|  9,63281396757|  9,19795520233|  0,00000000000|  9,19795520233|  9,63281396757|  9,63281396757|  9,63281396757| 10,10720551236| 10,10720551236| 10,10720551236| 10,10720551236| 10,10720551236| 10,10720551236| 10,10720551236| 10,10720551236| 10,10720551236| 10,10720551236| 10,10720551236| 10,10720551236| 10,10720551236| 10,10720551236| 10,10720551236| 10,22580400177| 10,34440158636| 11,92570673563| 10,70019509414| 10,81879313114| 10,10720551236
Macaca_Thibet             |  9,63281396757|  9,63281396757|  9,63281396757|  9,63281396757|  8,56543314262|  9,19795520233|  0,00000000000|  9,63281396757|  9,63281396757|  9,63281396757| 10,10720551236| 10,10720551236| 10,10720551236| 10,10720551236| 10,10720551236| 10,10720551236| 10,10720551236| 10,10720551236| 10,10720551236| 10,10720551236| 10,10720551236| 10,10720551236| 10,10720551236| 10,10720551236| 10,10720551236| 10,22580400177| 10,34440158636| 11,92570673563| 10,70019509414| 10,81879313114| 10,10720551236
Bor_Oran                  |  8,84216139293|  8,84216139293|  8,84216139293|  8,84216139293|  9,63281396757|  9,63281396757|  9,63281396757|  0,00000000000|  5,87721423804|  8,84216139293| 10,10720551236| 10,10720551236| 10,10720551236| 10,10720551236| 10,10720551236| 10,10720551236| 10,10720551236| 10,10720551236| 10,10720551236| 10,10720551236| 10,10720551236| 10,10720551236| 10,10720551236| 10,10720551236| 10,10720551236| 10,22580400177| 10,34440158636| 11,92570673563| 10,70019509414| 10,81879313114| 10,10720551236
Sum_Oran                  |  8,84216139293|  8,84216139293|  8,84216139293|  8,84216139293|  9,63281396757|  9,63281396757|  9,63281396757|  5,87721423804|  0,00000000000|  8,84216139293| 10,10720551236| 10,10720551236| 10,10720551236| 10,10720551236| 10,10720551236| 10,10720551236| 10,10720551236| 10,10720551236| 10,10720551236| 10,10720551236| 10,10720551236| 10,10720551236| 10,10720551236| 10,10720551236| 10,10720551236| 10,22580400177| 10,34440158636| 11,92570673563| 10,70019509414| 10,81879313114| 10,10720551236
Gorilla                   |  6,23300819824|  6,23300819824|  6,23300819824|  8,28870474149|  9,63281396757|  9,63281396757|  9,63281396757|  8,84216139293|  8,84216139293|  0,00000000000| 10,10720551236| 10,10720551236| 10,10720551236| 10,10720551236| 10,10720551236| 10,10720551236| 10,10720551236| 10,10720551236| 10,10720551236| 10,10720551236| 10,10720551236| 10,10720551236| 10,10720551236| 10,10720551236| 10,10720551236| 10,22580400177| 10,34440158636| 11,92570673563| 10,70019509414| 10,81879313114| 10,10720551236
Cat                       | 10,10720551236| 10,10720551236| 10,10720551236| 10,10720551236| 10,10720551236| 10,10720551236| 10,10720551236| 10,10720551236| 10,10720551236| 10,10720551236|  0,00000000000|  9,79094463331|  9,79094463331|  9,79094463331|  9,79094463331|  9,79094463331|  9,79094463331|  9,79094463331|  7,26085684688|  7,26085684688|  9,79094463331|  9,79094463331|  9,94907560065|  9,94907560065|  9,94907560065| 10,22580400177| 10,34440158636| 11,92570673563| 10,70019509414| 10,81879313114|  9,79094463331
Dog                       | 10,10720551236| 10,10720551236| 10,10720551236| 10,10720551236| 10,10720551236| 10,10720551236| 10,10720551236| 10,10720551236| 10,10720551236| 10,10720551236|  9,79094463331|  0,00000000000|  9,43515082391|  9,43515082391|  9,43515082391|  9,43515082391|  9,43515082391|  4,49357223242|  9,79094463331|  9,79094463331|  9,43515082391|  9,43515082391|  9,94907560065|  9,94907560065|  9,94907560065| 10,22580400177| 10,34440158636| 11,92570673563| 10,70019509414| 10,81879313114|  9,43515082391
Pig                       | 10,10720551236| 10,10720551236| 10,10720551236| 10,10720551236| 10,10720551236| 10,10720551236| 10,10720551236| 10,10720551236| 10,10720551236| 10,10720551236|  9,79094463331|  9,43515082391|  0,00000000000|  9,03982468740|  9,03982468740|  9,03982468740|  9,03982468740|  9,43515082391|  9,79094463331|  9,79094463331|  9,03982468740|  9,03982468740|  9,94907560065|  9,94907560065|  9,94907560065| 10,22580400177| 10,34440158636| 11,92570673563| 10,70019509414| 10,81879313114|  9,43515082391
Sheep                     | 10,10720551236| 10,10720551236| 10,10720551236| 10,10720551236| 10,10720551236| 10,10720551236| 10,10720551236| 10,10720551236| 10,10720551236| 10,10720551236|  9,79094463331|  9,43515082391|  9,03982468740|  0,00000000000|  6,98412784253|  8,40730277849|  8,40730277849|  9,43515082391|  9,79094463331|  9,79094463331|  9,00029190786|  9,00029190786|  9,94907560065|  9,94907560065|  9,94907560065| 10,22580400177| 10,34440158636| 11,92570673563| 10,70019509414| 10,81879313114|  9,43515082391
Goat                      | 10,10720551236| 10,10720551236| 10,10720551236| 10,10720551236| 10,10720551236| 10,10720551236| 10,10720551236| 10,10720551236| 10,10720551236| 10,10720551236|  9,79094463331|  9,43515082391|  9,03982468740|  6,98412784253|  0,00000000000|  8,40730277849|  8,40730277849|  9,43515082391|  9,79094463331|  9,79094463331|  9,00029190786|  9,00029190786|  9,94907560065|  9,94907560065|  9,94907560065| 10,22580400177| 10,34440158636| 11,92570673563| 10,70019509414| 10,81879313114|  9,43515082391
Cow                       | 10,10720551236| 10,10720551236| 10,10720551236| 10,10720551236| 10,10720551236| 10,10720551236| 10,10720551236| 10,10720551236| 10,10720551236| 10,10720551236|  9,79094463331|  9,43515082391|  9,03982468740|  8,40730277849|  8,40730277849|  0,00000000000|  8,36777014976|  9,43515082391|  9,79094463331|  9,79094463331|  9,00029190786|  9,00029190786|  9,94907560065|  9,94907560065|  9,94907560065| 10,22580400177| 10,34440158636| 11,92570673563| 10,70019509414| 10,81879313114|  9,43515082391
Buffalo                   | 10,10720551236| 10,10720551236| 10,10720551236| 10,10720551236| 10,10720551236| 10,10720551236| 10,10720551236| 10,10720551236| 10,10720551236| 10,10720551236|  9,79094463331|  9,43515082391|  9,03982468740|  8,40730277849|  8,40730277849|  8,36777014976|  0,00000000000|  9,43515082391|  9,79094463331|  9,79094463331|  9,00029190786|  9,00029190786|  9,94907560065|  9,94907560065|  9,94907560065| 10,22580400177| 10,34440158636| 11,92570673563| 10,70019509414| 10,81879313114|  9,43515082391
Wolf                      | 10,10720551236| 10,10720551236| 10,10720551236| 10,10720551236| 10,10720551236| 10,10720551236| 10,10720551236| 10,10720551236| 10,10720551236| 10,10720551236|  9,79094463331|  4,49357223242|  9,43515082391|  9,43515082391|  9,43515082391|  9,43515082391|  9,43515082391|  0,00000000000|  9,79094463331|  9,79094463331|  9,43515082391|  9,43515082391|  9,94907560065|  9,94907560065|  9,94907560065| 10,22580400177| 10,34440158636| 11,92570673563| 10,70019509414| 10,81879313114|  9,43515082391
Tiger                     | 10,10720551236| 10,10720551236| 10,10720551236| 10,10720551236| 10,10720551236| 10,10720551236| 10,10720551236| 10,10720551236| 10,10720551236| 10,10720551236|  7,26085684688|  9,79094463331|  9,79094463331|  9,79094463331|  9,79094463331|  9,79094463331|  9,79094463331|  9,79094463331|  0,00000000000|  6,58880155521|  9,79094463331|  9,79094463331|  9,94907560065|  9,94907560065|  9,94907560065| 10,22580400177| 10,34440158636| 11,92570673563| 10,70019509414| 10,81879313114|  9,79094463331
Leopard                   | 10,10720551236| 10,10720551236| 10,10720551236| 10,10720551236| 10,10720551236| 10,10720551236| 10,10720551236| 10,10720551236| 10,10720551236| 10,10720551236|  7,26085684688|  9,79094463331|  9,79094463331|  9,79094463331|  9,79094463331|  9,79094463331|  9,79094463331|  9,79094463331|  6,58880155521|  0,00000000000|  9,79094463331|  9,79094463331|  9,94907560065|  9,94907560065|  9,94907560065| 10,22580400177| 10,34440158636| 11,92570673563| 10,70019509414| 10,81879313114|  9,79094463331
Indian_Rhino              | 10,10720551236| 10,10720551236| 10,10720551236| 10,10720551236| 10,10720551236| 10,10720551236| 10,10720551236| 10,10720551236| 10,10720551236| 10,10720551236|  9,79094463331|  9,43515082391|  9,03982468740|  9,00029190786|  9,00029190786|  9,00029190786|  9,00029190786|  9,43515082391|  9,79094463331|  9,79094463331|  0,00000000000|  6,86553025795|  9,94907560065|  9,94907560065|  9,94907560065| 10,22580400177| 10,34440158636| 11,92570673563| 10,70019509414| 10,81879313114|  9,43515082391
White_Rhino               | 10,10720551236| 10,10720551236| 10,10720551236| 10,10720551236| 10,10720551236| 10,10720551236| 10,10720551236| 10,10720551236| 10,10720551236| 10,10720551236|  9,79094463331|  9,43515082391|  9,03982468740|  9,00029190786|  9,00029190786|  9,00029190786|  9,00029190786|  9,43515082391|  9,79094463331|  9,79094463331|  6,86553025795|  0,00000000000|  9,94907560065|  9,94907560065|  9,94907560065| 10,22580400177| 10,34440158636| 11,92570673563| 10,70019509414| 10,81879313114|  9,43515082391
Black_Bear                | 10,10720551236| 10,10720551236| 10,10720551236| 10,10720551236| 10,10720551236| 10,10720551236| 10,10720551236| 10,10720551236| 10,10720551236| 10,10720551236|  9,94907560065|  9,94907560065|  9,94907560065|  9,94907560065|  9,94907560065|  9,94907560065|  9,94907560065|  9,94907560065|  9,94907560065|  9,94907560065|  9,94907560065|  9,94907560065|  0,00000000000|  6,78646530209|  6,78646530209| 10,22580400177| 10,34440158636| 11,92570673563| 10,70019509414| 10,81879313114|  9,94907560065
Brown_Bear                | 10,10720551236| 10,10720551236| 10,10720551236| 10,10720551236| 10,10720551236| 10,10720551236| 10,10720551236| 10,10720551236| 10,10720551236| 10,10720551236|  9,94907560065|  9,94907560065|  9,94907560065|  9,94907560065|  9,94907560065|  9,94907560065|  9,94907560065|  9,94907560065|  9,94907560065|  9,94907560065|  9,94907560065|  9,94907560065|  6,78646530209|  0,00000000000|  4,37497434623| 10,22580400177| 10,34440158636| 11,92570673563| 10,70019509414| 10,81879313114|  9,94907560065
Polar_Bear                | 10,10720551236| 10,10720551236| 10,10720551236| 10,10720551236| 10,10720551236| 10,10720551236| 10,10720551236| 10,10720551236| 10,10720551236| 10,10720551236|  9,94907560065|  9,94907560065|  9,94907560065|  9,94907560065|  9,94907560065|  9,94907560065|  9,94907560065|  9,94907560065|  9,94907560065|  9,94907560065|  9,94907560065|  9,94907560065|  6,78646530209|  4,37497434623|  0,00000000000| 10,22580400177| 10,34440158636| 11,92570673563| 10,70019509414| 10,81879313114|  9,94907560065
Giant_Panda               | 10,22580400177| 10,22580400177| 10,22580400177| 10,22580400177| 10,22580400177| 10,22580400177| 10,22580400177| 10,22580400177| 10,22580400177| 10,22580400177| 10,22580400177| 10,22580400177| 10,22580400177| 10,22580400177| 10,22580400177| 10,22580400177| 10,22580400177| 10,22580400177| 10,22580400177| 10,22580400177| 10,22580400177| 10,22580400177| 10,22580400177| 10,22580400177| 10,22580400177|  0,00000000000| 10,34440158636| 11,92570673563| 10,70019509414| 10,81879313114| 10,22580400177
Rabbit                    | 10,34440158636| 10,34440158636| 10,34440158636| 10,34440158636| 10,34440158636| 10,34440158636| 10,34440158636| 10,34440158636| 10,34440158636| 10,34440158636| 10,34440158636| 10,34440158636| 10,34440158636| 10,34440158636| 10,34440158636| 10,34440158636| 10,34440158636| 10,34440158636| 10,34440158636| 10,34440158636| 10,34440158636| 10,34440158636| 10,34440158636| 10,34440158636| 10,34440158636| 10,34440158636|  0,00000000000| 11,92570673563| 10,70019509414| 10,81879313114| 10,34440158636
Hedgehog                  | 11,92570673563| 11,92570673563| 11,92570673563| 11,92570673563| 11,92570673563| 11,92570673563| 11,92570673563| 11,92570673563| 11,92570673563| 11,92570673563| 11,92570673563| 11,92570673563| 11,92570673563| 11,92570673563| 11,92570673563| 11,92570673563| 11,92570673563| 11,92570673563| 11,92570673563| 11,92570673563| 11,92570673563| 11,92570673563| 11,92570673563| 11,92570673563| 11,92570673563| 11,92570673563| 11,92570673563|  0,00000000000| 11,92570673563| 11,92570673563| 11,92570673563
Dormouse                  | 10,70019509414| 10,70019509414| 10,70019509414| 10,70019509414| 10,70019509414| 10,70019509414| 10,70019509414| 10,70019509414| 10,70019509414| 10,70019509414| 10,70019509414| 10,70019509414| 10,70019509414| 10,70019509414| 10,70019509414| 10,70019509414| 10,70019509414| 10,70019509414| 10,70019509414| 10,70019509414| 10,70019509414| 10,70019509414| 10,70019509414| 10,70019509414| 10,70019509414| 10,70019509414| 10,70019509414| 11,92570673563|  0,00000000000| 10,81879313114| 10,70019509414
Squirrel                  | 10,81879313114| 10,81879313114| 10,81879313114| 10,81879313114| 10,81879313114| 10,81879313114| 10,81879313114| 10,81879313114| 10,81879313114| 10,81879313114| 10,81879313114| 10,81879313114| 10,81879313114| 10,81879313114| 10,81879313114| 10,81879313114| 10,81879313114| 10,81879313114| 10,81879313114| 10,81879313114| 10,81879313114| 10,81879313114| 10,81879313114| 10,81879313114| 10,81879313114| 10,81879313114| 10,81879313114| 11,92570673563| 10,81879313114|  0,00000000000| 10,81879313114
Blue_Whale                | 10,10720551236| 10,10720551236| 10,10720551236| 10,10720551236| 10,10720551236| 10,10720551236| 10,10720551236| 10,10720551236| 10,10720551236| 10,10720551236|  9,79094463331|  9,43515082391|  9,43515082391|  9,43515082391|  9,43515082391|  9,43515082391|  9,43515082391|  9,43515082391|  9,79094463331|  9,79094463331|  9,43515082391|  9,43515082391|  9,94907560065|  9,94907560065|  9,94907560065| 10,22580400177| 10,34440158636| 11,92570673563| 10,70019509414| 10,81879313114|  0,00000000000
                           |Human          |Pig_Chim       |Com_Chim       |Gibbon         |Baboon         |Ver_Monkey     |Macaca_Thibet  |Bor_Oran       |Sum_Oran       |Gorilla        |Cat            |Dog            |Pig            |Sheep          |Goat           |Cow            |Buffalo        |Wolf           |Tiger          |Leopard        |Indian_Rhino   |White_Rhino    |Black_Bear     |Brown_Bear     |Polar_Bear     |Giant_Panda    |Rabbit         |Hedgehog       |Dormouse       |Squirrel       |Blue_Whale     
Human                     |  0,00000000000|  3,00000000000|  3,00000000000|  4,00000000000|  8,00000000000|  7,00000000000|  8,00000000000|  6,00000000000|  6,00000000000|  3,00000000000| 10,00000000000| 11,00000000000| 12,00000000000| 15,00000000000| 15,00000000000| 15,00000000000| 15,00000000000| 11,00000000000| 11,00000000000| 11,00000000000| 14,00000000000| 14,00000000000|  9,00000000000| 10,00000000000| 10,00000000000|  8,00000000000|  9,00000000000| 12,00000000000| 10,00000000000| 11,00000000000| 11,00000000000
Pig_Chim                  |  3,00000000000|  0,00000000000|  2,00000000000|  5,00000000000|  9,00000000000|  8,00000000000|  9,00000000000|  7,00000000000|  7,00000000000|  4,00000000000| 11,00000000000| 12,00000000000| 13,00000000000| 16,00000000000| 16,00000000000| 16,00000000000| 16,00000000000| 12,00000000000| 12,00000000000| 12,00000000000| 15,00000000000| 15,00000000000| 10,00000000000| 11,00000000000| 11,00000000000|  9,00000000000| 10,00000000000| 13,00000000000| 11,00000000000| 12,00000000000| 12,00000000000
Com_Chim                  |  3,00000000000|  2,00000000000|  0,00000000000|  5,00000000000|  9,00000000000|  8,00000000000|  9,00000000000|  7,00000000000|  7,00000000000|  4,00000000000| 11,00000000000| 12,00000000000| 13,00000000000| 16,00000000000| 16,00000000000| 16,00000000000| 16,00000000000| 12,00000000000| 12,00000000000| 12,00000000000| 15,00000000000| 15,00000000000| 10,00000000000| 11,00000000000| 11,00000000000|  9,00000000000| 10,00000000000| 13,00000000000| 11,00000000000| 12,00000000000| 12,00000000000
Gibbon                    |  4,00000000000|  5,00000000000|  5,00000000000|  0,00000000000|  6,00000000000|  5,00000000000|  6,00000000000|  4,00000000000|  4,00000000000|  3,00000000000|  8,00000000000|  9,00000000000| 10,00000000000| 13,00000000000| 13,00000000000| 13,00000000000| 13,00000000000|  9,00000000000|  9,00000000000|  9,00000000000| 12,00000000000| 12,00000000000|  7,00000000000|  8,00000000000|  8,00000000000|  6,00000000000|  7,00000000000| 10,00000000000|  8,00000000000|  9,00000000000|  9,00000000000
Baboon                    |  8,00000000000|  9,00000000000|  9,00000000000|  6,00000000000|  0,00000000000|  3,00000000000|  2,00000000000|  6,00000000000|  6,00000000000|  7,00000000000|  8,00000000000|  9,00000000000| 10,00000000000| 13,00000000000| 13,00000000000| 13,00000000000| 13,00000000000|  9,00000000000|  9,00000000000|  9,00000000000| 12,00000000000| 12,00000000000|  7,00000000000|  8,00000000000|  8,00000000000|  6,00000000000|  7,00000000000| 10,00000000000|  8,00000000000|  9,00000000000|  9,00000000000
Ver_Monkey                |  7,00000000000|  8,00000000000|  8,00000000000|  5,00000000000|  3,00000000000|  0,00000000000|  3,00000000000|  5,00000000000|  5,00000000000|  6,00000000000|  7,00000000000|  8,00000000000|  9,00000000000| 12,00000000000| 12,00000000000| 12,00000000000| 12,00000000000|  8,00000000000|  8,00000000000|  8,00000000000| 11,00000000000| 11,00000000000|  6,00000000000|  7,00000000000|  7,00000000000|  5,00000000000|  6,00000000000|  9,00000000000|  7,00000000000|  8,00000000000|  8,00000000000
Macaca_Thibet             |  8,00000000000|  9,00000000000|  9,00000000000|  6,00000000000|  2,00000000000|  3,00000000000|  0,00000000000|  6,00000000000|  6,00000000000|  7,00000000000|  8,00000000000|  9,00000000000| 10,00000000000| 13,00000000000| 13,00000000000| 13,00000000000| 13,00000000000|  9,00000000000|  9,00000000000|  9,00000000000| 12,00000000000| 12,00000000000|  7,00000000000|  8,00000000000|  8,00000000000|  6,00000000000|  7,00000000000| 10,00000000000|  8,00000000000|  9,00000000000|  9,00000000000
Bor_Oran                  |  6,00000000000|  7,00000000000|  7,00000000000|  4,00000000000|  6,00000000000|  5,00000000000|  6,00000000000|  0,00000000000|  2,00000000000|  5,00000000000|  8,00000000000|  9,00000000000| 10,00000000000| 13,00000000000| 13,00000000000| 13,00000000000| 13,00000000000|  9,00000000000|  9,00000000000|  9,00000000000| 12,00000000000| 12,00000000000|  7,00000000000|  8,00000000000|  8,00000000000|  6,00000000000|  7,00000000000| 10,00000000000|  8,00000000000|  9,00000000000|  9,00000000000
Sum_Oran                  |  6,00000000000|  7,00000000000|  7,00000000000|  4,00000000000|  6,00000000000|  5,00000000000|  6,00000000000|  2,00000000000|  0,00000000000|  5,00000000000|  8,00000000000|  9,00000000000| 10,00000000000| 13,00000000000| 13,00000000000| 13,00000000000| 13,00000000000|  9,00000000000|  9,00000000000|  9,00000000000| 12,00000000000| 12,00000000000|  7,00000000000|  8,00000000000|  8,00000000000|  6,00000000000|  7,00000000000| 10,00000000000|  8,00000000000|  9,00000000000|  9,00000000000
Gorilla                   |  3,00000000000|  4,00000000000|  4,00000000000|  3,00000000000|  7,00000000000|  6,00000000000|  7,00000000000|  5,00000000000|  5,00000000000|  0,00000000000|  9,00000000000| 10,00000000000| 11,00000000000| 14,00000000000| 14,00000000000| 14,00000000000| 14,00000000000| 10,00000000000| 10,00000000000| 10,00000000000| 13,00000000000| 13,00000000000|  8,00000000000|  9,00000000000|  9,00000000000|  7,00000000000|  8,00000000000| 11,00000000000|  9,00000000000| 10,00000000000| 10,00000000000
Cat                       | 10,00000000000| 11,00000000000| 11,00000000000|  8,00000000000|  8,00000000000|  7,00000000000|  8,00000000000|  8,00000000000|  8,00000000000|  9,00000000000|  0,00000000000|  5,00000000000|  6,00000000000|  9,00000000000|  9,00000000000|  9,00000000000|  9,00000000000|  5,00000000000|  3,00000000000|  3,00000000000|  8,00000000000|  8,00000000000|  5,00000000000|  6,00000000000|  6,00000000000|  6,00000000000|  7,00000000000| 10,00000000000|  8,00000000000|  9,00000000000|  5,00000000000
Dog                       | 11,00000000000| 12,00000000000| 12,00000000000|  9,00000000000|  9,00000000000|  8,00000000000|  9,00000000000|  9,00000000000|  9,00000000000| 10,00000000000|  5,00000000000|  0,00000000000|  5,00000000000|  8,00000000000|  8,00000000000|  8,00000000000|  8,00000000000|  2,00000000000|  6,00000000000|  6,00000000000|  7,00000000000|  7,00000000000|  6,00000000000|  7,00000000000|  7,00000000000|  7,00000000000|  8,00000000000| 11,00000000000|  9,00000000000| 10,00000000000|  4,00000000000
Pig                       | 12,00000000000| 13,00000000000| 13,00000000000| 10,00000000000| 10,00000000000|  9,00000000000| 10,00000000000| 10,00000000000| 10,00000000000| 11,00000000000|  6,00000000000|  5,00000000000|  0,00000000000|  5,00000000000|  5,00000000000|  5,00000000000|  5,00000000000|  5,00000000000|  7,00000000000|  7,00000000000|  4,00000000000|  4,00000000000|  7,00000000000|  8,00000000000|  8,00000000000|  8,00000000000|  9,00000000000| 12,00000000000| 10,00000000000| 11,00000000000|  3,00000000000
Sheep                     | 15,00000000000| 16,00000000000| 16,00000000000| 13,00000000000| 13,00000000000| 12,00000000000| 13,00000000000| 13,00000000000| 13,00000000000| 14,00000000000|  9,00000000000|  8,00000000000|  5,00000000000|  0,00000000000|  2,00000000000|  4,00000000000|  4,00000000000|  8,00000000000| 10,00000000000| 10,00000000000|  5,00000000000|  5,00000000000| 10,00000000000| 11,00000000000| 11,00000000000| 11,00000000000| 12,00000000000| 15,00000000000| 13,00000000000| 14,00000000000|  6,00000000000
Goat                      | 15,00000000000| 16,00000000000| 16,00000000000| 13,00000000000| 13,00000000000| 12,00000000000| 13,00000000000| 13,00000000000| 13,00000000000| 14,00000000000|  9,00000000000|  8,00000000000|  5,00000000000|  2,00000000000|  0,00000000000|  4,00000000000|  4,00000000000|  8,00000000000| 10,00000000000| 10,00000000000|  5,00000000000|  5,00000000000| 10,00000000000| 11,00000000000| 11,00000000000| 11,00000000000| 12,00000000000| 15,00000000000| 13,00000000000| 14,00000000000|  6,00000000000
Cow                       | 15,00000000000| 16,00000000000| 16,00000000000| 13,00000000000| 13,00000000000| 12,00000000000| 13,00000000000| 13,00000000000| 13,00000000000| 14,00000000000|  9,00000000000|  8,00000000000|  5,00000000000|  4,00000000000|  4,00000000000|  0,00000000000|  2,00000000000|  8,00000000000| 10,00000000000| 10,00000000000|  5,00000000000|  5,00000000000| 10,00000000000| 11,00000000000| 11,00000000000| 11,00000000000| 12,00000000000| 15,00000000000| 13,00000000000| 14,00000000000|  6,00000000000
Buffalo                   | 15,00000000000| 16,00000000000| 16,00000000000| 13,00000000000| 13,00000000000| 12,00000000000| 13,00000000000| 13,00000000000| 13,00000000000| 14,00000000000|  9,00000000000|  8,00000000000|  5,00000000000|  4,00000000000|  4,00000000000|  2,00000000000|  0,00000000000|  8,00000000000| 10,00000000000| 10,00000000000|  5,00000000000|  5,00000000000| 10,00000000000| 11,00000000000| 11,00000000000| 11,00000000000| 12,00000000000| 15,00000000000| 13,00000000000| 14,00000000000|  6,00000000000
Wolf                      | 11,00000000000| 12,00000000000| 12,00000000000|  9,00000000000|  9,00000000000|  8,00000000000|  9,00000000000|  9,00000000000|  9,00000000000| 10,00000000000|  5,00000000000|  2,00000000000|  5,00000000000|  8,00000000000|  8,00000000000|  8,00000000000|  8,00000000000|  0,00000000000|  6,00000000000|  6,00000000000|  7,00000000000|  7,00000000000|  6,00000000000|  7,00000000000|  7,00000000000|  7,00000000000|  8,00000000000| 11,00000000000|  9,00000000000| 10,00000000000|  4,00000000000
Tiger                     | 11,00000000000| 12,00000000000| 12,00000000000|  9,00000000000|  9,00000000000|  8,00000000000|  9,00000000000|  9,00000000000|  9,00000000000| 10,00000000000|  3,00000000000|  6,00000000000|  7,00000000000| 10,00000000000| 10,00000000000| 10,00000000000| 10,00000000000|  6,00000000000|  0,00000000000|  2,00000000000|  9,00000000000|  9,00000000000|  6,00000000000|  7,00000000000|  7,00000000000|  7,00000000000|  8,00000000000| 11,00000000000|  9,00000000000| 10,00000000000|  6,00000000000
Leopard                   | 11,00000000000| 12,00000000000| 12,00000000000|  9,00000000000|  9,00000000000|  8,00000000000|  9,00000000000|  9,00000000000|  9,00000000000| 10,00000000000|  3,00000000000|  6,00000000000|  7,00000000000| 10,00000000000| 10,00000000000| 10,00000000000| 10,00000000000|  6,00000000000|  2,00000000000|  0,00000000000|  9,00000000000|  9,00000000000|  6,00000000000|  7,00000000000|  7,00000000000|  7,00000000000|  8,00000000000| 11,00000000000|  9,00000000000| 10,00000000000|  6,00000000000
Indian_Rhino              | 14,00000000000| 15,00000000000| 15,00000000000| 12,00000000000| 12,00000000000| 11,00000000000| 12,00000000000| 12,00000000000| 12,00000000000| 13,00000000000|  8,00000000000|  7,00000000000|  4,00000000000|  5,00000000000|  5,00000000000|  5,00000000000|  5,00000000000|  7,00000000000|  9,00000000000|  9,00000000000|  0,00000000000|  2,00000000000|  9,00000000000| 10,00000000000| 10,00000000000| 10,00000000000| 11,00000000000| 14,00000000000| 12,00000000000| 13,00000000000|  5,00000000000
White_Rhino               | 14,00000000000| 15,00000000000| 15,00000000000| 12,00000000000| 12,00000000000| 11,00000000000| 12,00000000000| 12,00000000000| 12,00000000000| 13,00000000000|  8,00000000000|  7,00000000000|  4,00000000000|  5,00000000000|  5,00000000000|  5,00000000000|  5,00000000000|  7,00000000000|  9,00000000000|  9,00000000000|  2,00000000000|  0,00000000000|  9,00000000000| 10,00000000000| 10,00000000000| 10,00000000000| 11,00000000000| 14,00000000000| 12,00000000000| 13,00000000000|  5,00000000000
Black_Bear                |  9,00000000000| 10,00000000000| 10,00000000000|  7,00000000000|  7,00000000000|  6,00000000000|  7,00000000000|  7,00000000000|  7,00000000000|  8,00000000000|  5,00000000000|  6,00000000000|  7,00000000000| 10,00000000000| 10,00000000000| 10,00000000000| 10,00000000000|  6,00000000000|  6,00000000000|  6,00000000000|  9,00000000000|  9,00000000000|  0,00000000000|  3,00000000000|  3,00000000000|  5,00000000000|  6,00000000000|  9,00000000000|  7,00000000000|  8,00000000000|  6,00000000000
Brown_Bear                | 10,00000000000| 11,00000000000| 11,00000000000|  8,00000000000|  8,00000000000|  7,00000000000|  8,00000000000|  8,00000000000|  8,00000000000|  9,00000000000|  6,00000000000|  7,00000000000|  8,00000000000| 11,00000000000| 11,00000000000| 11,00000000000| 11,00000000000|  7,00000000000|  7,00000000000|  7,00000000000| 10,00000000000| 10,00000000000|  3,00000000000|  0,00000000000|  2,00000000000|  6,00000000000|  7,00000000000| 10,00000000000|  8,00000000000|  9,00000000000|  7,00000000000
Polar_Bear                | 10,00000000000| 11,00000000000| 11,00000000000|  8,00000000000|  8,00000000000|  7,00000000000|  8,00000000000|  8,00000000000|  8,00000000000|  9,00000000000|  6,00000000000|  7,00000000000|  8,00000000000| 11,00000000000| 11,00000000000| 11,00000000000| 11,00000000000|  7,00000000000|  7,00000000000|  7,00000000000| 10,00000000000| 10,00000000000|  3,00000000000|  2,00000000000|  0,00000000000|  6,00000000000|  7,00000000000| 10,00000000000|  8,00000000000|  9,00000000000|  7,00000000000
Giant_Panda               |  8,00000000000|  9,00000000000|  9,00000000000|  6,00000000000|  6,00000000000|  5,00000000000|  6,00000000000|  6,00000000000|  6,00000000000|  7,00000000000|  6,00000000000|  7,00000000000|  8,00000000000| 11,00000000000| 11,00000000000| 11,00000000000| 11,00000000000|  7,00000000000|  7,00000000000|  7,00000000000| 10,00000000000| 10,00000000000|  5,00000000000|  6,00000000000|  6,00000000000|  0,00000000000|  3,00000000000|  6,00000000000|  4,00000000000|  5,00000000000|  7,00000000000
Rabbit                    |  9,00000000000| 10,00000000000| 10,00000000000|  7,00000000000|  7,00000000000|  6,00000000000|  7,00000000000|  7,00000000000|  7,00000000000|  8,00000000000|  7,00000000000|  8,00000000000|  9,00000000000| 12,00000000000| 12,00000000000| 12,00000000000| 12,00000000000|  8,00000000000|  8,00000000000|  8,00000000000| 11,00000000000| 11,00000000000|  6,00000000000|  7,00000000000|  7,00000000000|  3,00000000000|  0,00000000000|  5,00000000000|  3,00000000000|  4,00000000000|  8,00000000000
Hedgehog                  | 12,00000000000| 13,00000000000| 13,00000000000| 10,00000000000| 10,00000000000|  9,00000000000| 10,00000000000| 10,00000000000| 10,00000000000| 11,00000000000| 10,00000000000| 11,00000000000| 12,00000000000| 15,00000000000| 15,00000000000| 15,00000000000| 15,00000000000| 11,00000000000| 11,00000000000| 11,00000000000| 14,00000000000| 14,00000000000|  9,00000000000| 10,00000000000| 10,00000000000|  6,00000000000|  5,00000000000|  0,00000000000|  4,00000000000|  3,00000000000| 11,00000000000
Dormouse                  | 10,00000000000| 11,00000000000| 11,00000000000|  8,00000000000|  8,00000000000|  7,00000000000|  8,00000000000|  8,00000000000|  8,00000000000|  9,00000000000|  8,00000000000|  9,00000000000| 10,00000000000| 13,00000000000| 13,00000000000| 13,00000000000| 13,00000000000|  9,00000000000|  9,00000000000|  9,00000000000| 12,00000000000| 12,00000000000|  7,00000000000|  8,00000000000|  8,00000000000|  4,00000000000|  3,00000000000|  4,00000000000|  0,00000000000|  3,00000000000|  9,00000000000
Squirrel                  | 11,00000000000| 12,00000000000| 12,00000000000|  9,00000000000|  9,00000000000|  8,00000000000|  9,00000000000|  9,00000000000|  9,00000000000| 10,00000000000|  9,00000000000| 10,00000000000| 11,00000000000| 14,00000000000| 14,00000000000| 14,00000000000| 14,00000000000| 10,00000000000| 10,00000000000| 10,00000000000| 13,00000000000| 13,00000000000|  8,00000000000|  9,00000000000|  9,00000000000|  5,00000000000|  4,00000000000|  3,00000000000|  3,00000000000|  0,00000000000| 10,00000000000
Blue_Whale                | 11,00000000000| 12,00000000000| 12,00000000000|  9,00000000000|  9,00000000000|  8,00000000000|  9,00000000000|  9,00000000000|  9,00000000000| 10,00000000000|  5,00000000000|  4,00000000000|  3,00000000000|  6,00000000000|  6,00000000000|  6,00000000000|  6,00000000000|  4,00000000000|  6,00000000000|  6,00000000000|  5,00000000000|  5,00000000000|  6,00000000000|  7,00000000000|  7,00000000000|  7,00000000000|  8,00000000000| 11,00000000000|  9,00000000000| 10,00000000000|  0,00000000000
