                           |Human          |Pig_Chim       |Com_Chim       |Gibbon         |Baboon         |Ver_Monkey     |Macaca_Thibet  |Bor_Oran       |Sum_Oran       |Gorilla        |Cat            |Dog            |Pig            |Sheep          |Goat           |Cow            |Buffalo        |Wolf           |Tiger          |Leopard        |Indian_Rhino   |White_Rhino    |Black_Bear     |Brown_Bear     |Polar_Bear     |Giant_Panda    |Rabbit         |Hedgehog       |Dormouse       |Squirrel       |Blue_Whale     
Human                     |  0,00000000000|  1,83495145631|  1,83495145631|  1,83495145631|  1,83495145631|  1,83495145631|  1,83495145631|  1,83495145631|  1,83495145631|  1,83495145631|  1,83495145631|  1,83495145631|  1,83495145631|  1,83495145631|  1,83495145631|  1,83980582524|  1,83495145631|  1,83495145631|  1,83495145631|  1,83495145631|  1,83495145631|  1,83495145631|  1,83495145631|  1,83757575758|  1,83757575758|  1,83658536585|  1,83495145631|  1,83495145631|  1,83495145631|  1,83515151515|  1,83495145631
Pig_Chim                  |  1,83495145631|  0,00000000000|  1,64004767580|  1,75862068966|  1,78417266187|  1,76102088167|  1,80691299166|  1,79644970414|  1,79737783075|  1,65196662694|  1,83075089392|  1,82060606061|  1,80691299166|  1,81323877069|  1,81323877069|  1,83980582524|  1,81323877069|  1,82060606061|  1,83075089392|  1,83075089392|  1,80691299166|  1,80691299166|  1,83173076923|  1,83757575758|  1,83757575758|  1,83658536585|  1,82164090369|  1,82009345794|  1,82439024390|  1,83515151515|  1,83495145631
Com_Chim                  |  1,83495145631|  1,64004767580|  0,00000000000|  1,75862068966|  1,78417266187|  1,76102088167|  1,80691299166|  1,79644970414|  1,79737783075|  1,65196662694|  1,83075089392|  1,82060606061|  1,80691299166|  1,81323877069|  1,81323877069|  1,83980582524|  1,81323877069|  1,82060606061|  1,83075089392|  1,83075089392|  1,80691299166|  1,80691299166|  1,83173076923|  1,83757575758|  1,83757575758|  1,83658536585|  1,82164090369|  1,82009345794|  1,82439024390|  1,83515151515|  1,83495145631
Gibbon                    |  1,83495145631|  1,75862068966|  1,75862068966|  0,00000000000|  1,78417266187|  1,76102088167|  1,80691299166|  1,79644970414|  1,79737783075|  1,75862068966|  1,83075089392|  1,82060606061|  1,80691299166|  1,81323877069|  1,81323877069|  1,83980582524|  1,81323877069|  1,82060606061|  1,83075089392|  1,83075089392|  1,80691299166|  1,80691299166|  1,83173076923|  1,83757575758|  1,83757575758|  1,83658536585|  1,82164090369|  1,82009345794|  1,82439024390|  1,83515151515|  1,83495145631
Baboon                    |  1,83495145631|  1,78417266187|  1,78417266187|  1,78417266187|  0,00000000000|  1,78417266187|  1,80691299166|  1,79644970414|  1,79737783075|  1,78417266187|  1,83075089392|  1,82060606061|  1,80691299166|  1,81323877069|  1,81323877069|  1,83980582524|  1,81323877069|  1,82060606061|  1,83075089392|  1,83075089392|  1,80691299166|  1,80691299166|  1,83173076923|  1,83757575758|  1,83757575758|  1,83658536585|  1,82164090369|  1,82009345794|  1,82439024390|  1,83515151515|  1,83495145631
Ver_Monkey                |  1,83495145631|  1,76102088167|  1,76102088167|  1,76102088167|  1,78417266187|  0,00000000000|  1,80691299166|  1,79644970414|  1,79737783075|  1,76102088167|  1,83075089392|  1,82060606061|  1,80691299166|  1,81323877069|  1,81323877069|  1,83980582524|  1,81323877069|  1,82060606061|  1,83075089392|  1,83075089392|  1,80691299166|  1,80691299166|  1,83173076923|  1,83757575758|  1,83757575758|  1,83658536585|  1,82164090369|  1,82009345794|  1,82439024390|  1,83515151515|  1,83495145631
Macaca_Thibet             |  1,83495145631|  1,80691299166|  1,80691299166|  1,80691299166|  1,80691299166|  1,80691299166|  0,00000000000|  1,80691299166|  1,80691299166|  1,80691299166|  1,83075089392|  1,82060606061|  1,80365296804|  1,81323877069|  1,81323877069|  1,83980582524|  1,81323877069|  1,82060606061|  1,83075089392|  1,83075089392|  1,80378250591|  1,80378250591|  1,83173076923|  1,83757575758|  1,83757575758|  1,83658536585|  1,82164090369|  1,82009345794|  1,82439024390|  1,83515151515|  1,83495145631
Bor_Oran                  |  1,83495145631|  1,79644970414|  1,79644970414|  1,79644970414|  1,79644970414|  1,79644970414|  1,80691299166|  0,00000000000|  1,79737783075|  1,79644970414|  1,83075089392|  1,82060606061|  1,80691299166|  1,81323877069|  1,81323877069|  1,83980582524|  1,81323877069|  1,82060606061|  1,83075089392|  1,83075089392|  1,80691299166|  1,80691299166|  1,83173076923|  1,83757575758|  1,83757575758|  1,83658536585|  1,82164090369|  1,82009345794|  1,82439024390|  1,83515151515|  1,83495145631
Sum_Oran                  |  1,83495145631|  1,79737783075|  1,79737783075|  1,79737783075|  1,79737783075|  1,79737783075|  1,80691299166|  1,79737783075|  0,00000000000|  1,79737783075|  1,83075089392|  1,82060606061|  1,80691299166|  1,81323877069|  1,81323877069|  1,83980582524|  1,81323877069|  1,82060606061|  1,83075089392|  1,83075089392|  1,80691299166|  1,80691299166|  1,83173076923|  1,83757575758|  1,83757575758|  1,83658536585|  1,82164090369|  1,82009345794|  1,82439024390|  1,83515151515|  1,83495145631
Gorilla                   |  1,83495145631|  1,65196662694|  1,65196662694|  1,75862068966|  1,78417266187|  1,76102088167|  1,80691299166|  1,79644970414|  1,79737783075|  0,00000000000|  1,83075089392|  1,82060606061|  1,80691299166|  1,81323877069|  1,81323877069|  1,83980582524|  1,81323877069|  1,82060606061|  1,83075089392|  1,83075089392|  1,80691299166|  1,80691299166|  1,83173076923|  1,83757575758|  1,83757575758|  1,83658536585|  1,82164090369|  1,82009345794|  1,82439024390|  1,83515151515|  1,83495145631
Cat                       |  1,83495145631|  1,83075089392|  1,83075089392|  1,83075089392|  1,83075089392|  1,83075089392|  1,83075089392|  1,83075089392|  1,83075089392|  1,83075089392|  0,00000000000|  1,83075089392|  1,83075089392|  1,83075089392|  1,83075089392|  1,83980582524|  1,83075089392|  1,83075089392|  1,73301549464|  1,80851063830|  1,83075089392|  1,83075089392|  1,83173076923|  1,83757575758|  1,83757575758|  1,83658536585|  1,83075089392|  1,83075089392|  1,83075089392|  1,83515151515|  1,83495145631
Dog                       |  1,83495145631|  1,82060606061|  1,82060606061|  1,82060606061|  1,82060606061|  1,82060606061|  1,82060606061|  1,82060606061|  1,82060606061|  1,82060606061|  1,83075089392|  0,00000000000|  1,82060606061|  1,82060606061|  1,82060606061|  1,83980582524|  1,82060606061|  1,45121951220|  1,83075089392|  1,83075089392|  1,82060606061|  1,82060606061|  1,83173076923|  1,83757575758|  1,83757575758|  1,83658536585|  1,82164090369|  1,82060606061|  1,82439024390|  1,83515151515|  1,83495145631
Pig                       |  1,83495145631|  1,80691299166|  1,80691299166|  1,80691299166|  1,80691299166|  1,80691299166|  1,80365296804|  1,80691299166|  1,80691299166|  1,80691299166|  1,83075089392|  1,82060606061|  0,00000000000|  1,81323877069|  1,81323877069|  1,83980582524|  1,81323877069|  1,82060606061|  1,83075089392|  1,83075089392|  1,80378250591|  1,80378250591|  1,83173076923|  1,83757575758|  1,83757575758|  1,83658536585|  1,82164090369|  1,82009345794|  1,82439024390|  1,83515151515|  1,83495145631
Sheep                     |  1,83495145631|  1,81323877069|  1,81323877069|  1,81323877069|  1,81323877069|  1,81323877069|  1,81323877069|  1,81323877069|  1,81323877069|  1,81323877069|  1,83075089392|  1,82060606061|  1,81323877069|  0,00000000000|  1,75500588928|  1,83980582524|  1,75500588928|  1,82060606061|  1,83075089392|  1,83075089392|  1,81323877069|  1,81323877069|  1,83173076923|  1,83757575758|  1,83757575758|  1,83658536585|  1,82164090369|  1,82009345794|  1,82439024390|  1,83515151515|  1,83495145631
Goat                      |  1,83495145631|  1,81323877069|  1,81323877069|  1,81323877069|  1,81323877069|  1,81323877069|  1,81323877069|  1,81323877069|  1,81323877069|  1,81323877069|  1,83075089392|  1,82060606061|  1,81323877069|  1,75500588928|  0,00000000000|  1,83980582524|  1,70909090909|  1,82060606061|  1,83075089392|  1,83075089392|  1,81323877069|  1,81323877069|  1,83173076923|  1,83757575758|  1,83757575758|  1,83658536585|  1,82164090369|  1,82009345794|  1,82439024390|  1,83515151515|  1,83495145631
Cow                       |  1,83980582524|  1,83980582524|  1,83980582524|  1,83980582524|  1,83980582524|  1,83980582524|  1,83980582524|  1,83980582524|  1,83980582524|  1,83980582524|  1,83980582524|  1,83980582524|  1,83980582524|  1,83980582524|  1,83980582524|  0,00000000000|  1,83980582524|  1,83980582524|  1,83980582524|  1,83980582524|  1,83980582524|  1,83980582524|  1,83980582524|  1,83980582524|  1,83980582524|  1,83980582524|  1,83980582524|  1,83980582524|  1,83980582524|  1,83980582524|  1,83980582524
Buffalo                   |  1,83495145631|  1,81323877069|  1,81323877069|  1,81323877069|  1,81323877069|  1,81323877069|  1,81323877069|  1,81323877069|  1,81323877069|  1,81323877069|  1,83075089392|  1,82060606061|  1,81323877069|  1,75500588928|  1,70909090909|  1,83980582524|  0,00000000000|  1,82060606061|  1,83075089392|  1,83075089392|  1,81323877069|  1,81323877069|  1,83173076923|  1,83757575758|  1,83757575758|  1,83658536585|  1,82164090369|  1,82009345794|  1,82439024390|  1,83515151515|  1,83495145631
Wolf                      |  1,83495145631|  1,82060606061|  1,82060606061|  1,82060606061|  1,82060606061|  1,82060606061|  1,82060606061|  1,82060606061|  1,82060606061|  1,82060606061|  1,83075089392|  1,45121951220|  1,82060606061|  1,82060606061|  1,82060606061|  1,83980582524|  1,82060606061|  0,00000000000|  1,83075089392|  1,83075089392|  1,82060606061|  1,82060606061|  1,83173076923|  1,83757575758|  1,83757575758|  1,83658536585|  1,82164090369|  1,82060606061|  1,82439024390|  1,83515151515|  1,83495145631
Tiger                     |  1,83495145631|  1,83075089392|  1,83075089392|  1,83075089392|  1,83075089392|  1,83075089392|  1,83075089392|  1,83075089392|  1,83075089392|  1,83075089392|  1,73301549464|  1,83075089392|  1,83075089392|  1,83075089392|  1,83075089392|  1,83980582524|  1,83075089392|  1,83075089392|  0,00000000000|  1,80851063830|  1,83075089392|  1,83075089392|  1,83173076923|  1,83757575758|  1,83757575758|  1,83658536585|  1,83075089392|  1,83075089392|  1,83075089392|  1,83515151515|  1,83495145631
Leopard                   |  1,83495145631|  1,83075089392|  1,83075089392|  1,83075089392|  1,83075089392|  1,83075089392|  1,83075089392|  1,83075089392|  1,83075089392|  1,83075089392|  1,80851063830|  1,83075089392|  1,83075089392|  1,83075089392|  1,83075089392|  1,83980582524|  1,83075089392|  1,83075089392|  1,80851063830|  0,00000000000|  1,83075089392|  1,83075089392|  1,83173076923|  1,83757575758|  1,83757575758|  1,83658536585|  1,83075089392|  1,83075089392|  1,83075089392|  1,83515151515|  1,83495145631
Indian_Rhino              |  1,83495145631|  1,80691299166|  1,80691299166|  1,80691299166|  1,80691299166|  1,80691299166|  1,80378250591|  1,80691299166|  1,80691299166|  1,80691299166|  1,83075089392|  1,82060606061|  1,80378250591|  1,81323877069|  1,81323877069|  1,83980582524|  1,81323877069|  1,82060606061|  1,83075089392|  1,83075089392|  0,00000000000|  1,75544794189|  1,83173076923|  1,83757575758|  1,83757575758|  1,83658536585|  1,82164090369|  1,82009345794|  1,82439024390|  1,83515151515|  1,83495145631
White_Rhino               |  1,83495145631|  1,80691299166|  1,80691299166|  1,80691299166|  1,80691299166|  1,80691299166|  1,80378250591|  1,80691299166|  1,80691299166|  1,80691299166|  1,83075089392|  1,82060606061|  1,80378250591|  1,81323877069|  1,81323877069|  1,83980582524|  1,81323877069|  1,82060606061|  1,83075089392|  1,83075089392|  1,75544794189|  0,00000000000|  1,83173076923|  1,83757575758|  1,83757575758|  1,83658536585|  1,82164090369|  1,82009345794|  1,82439024390|  1,83515151515|  1,83495145631
Black_Bear                |  1,83495145631|  1,83173076923|  1,83173076923|  1,83173076923|  1,83173076923|  1,83173076923|  1,83173076923|  1,83173076923|  1,83173076923|  1,83173076923|  1,83173076923|  1,83173076923|  1,83173076923|  1,83173076923|  1,83173076923|  1,83980582524|  1,83173076923|  1,83173076923|  1,83173076923|  1,83173076923|  1,83173076923|  1,83173076923|  0,00000000000|  1,83757575758|  1,83757575758|  1,83658536585|  1,83173076923|  1,83173076923|  1,83173076923|  1,83515151515|  1,83495145631
Brown_Bear                |  1,83757575758|  1,83757575758|  1,83757575758|  1,83757575758|  1,83757575758|  1,83757575758|  1,83757575758|  1,83757575758|  1,83757575758|  1,83757575758|  1,83757575758|  1,83757575758|  1,83757575758|  1,83757575758|  1,83757575758|  1,83980582524|  1,83757575758|  1,83757575758|  1,83757575758|  1,83757575758|  1,83757575758|  1,83757575758|  1,83757575758|  0,00000000000|  1,76969696970|  1,83757575758|  1,83757575758|  1,83757575758|  1,83757575758|  1,83757575758|  1,83757575758
Polar_Bear                |  1,83757575758|  1,83757575758|  1,83757575758|  1,83757575758|  1,83757575758|  1,83757575758|  1,83757575758|  1,83757575758|  1,83757575758|  1,83757575758|  1,83757575758|  1,83757575758|  1,83757575758|  1,83757575758|  1,83757575758|  1,83980582524|  1,83757575758|  1,83757575758|  1,83757575758|  1,83757575758|  1,83757575758|  1,83757575758|  1,83757575758|  1,76969696970|  0,00000000000|  1,83757575758|  1,83757575758|  1,83757575758|  1,83757575758|  1,83757575758|  1,83757575758
Giant_Panda               |  1,83658536585|  1,83658536585|  1,83658536585|  1,83658536585|  1,83658536585|  1,83658536585|  1,83658536585|  1,83658536585|  1,83658536585|  1,83658536585|  1,83658536585|  1,83658536585|  1,83658536585|  1,83658536585|  1,83658536585|  1,83980582524|  1,83658536585|  1,83658536585|  1,83658536585|  1,83658536585|  1,83658536585|  1,83658536585|  1,83658536585|  1,83757575758|  1,83757575758|  0,00000000000|  1,83658536585|  1,83658536585|  1,83658536585|  1,83658536585|  1,83658536585
Rabbit                    |  1,83495145631|  1,82164090369|  1,82164090369|  1,82164090369|  1,82164090369|  1,82164090369|  1,82164090369|  1,82164090369|  1,82164090369|  1,82164090369|  1,83075089392|  1,82164090369|  1,82164090369|  1,82164090369|  1,82164090369|  1,83980582524|  1,82164090369|  1,82164090369|  1,83075089392|  1,83075089392|  1,82164090369|  1,82164090369|  1,83173076923|  1,83757575758|  1,83757575758|  1,83658536585|  0,00000000000|  1,82164090369|  1,82439024390|  1,83515151515|  1,83495145631
Hedgehog                  |  1,83495145631|  1,82009345794|  1,82009345794|  1,82009345794|  1,82009345794|  1,82009345794|  1,82009345794|  1,82009345794|  1,82009345794|  1,82009345794|  1,83075089392|  1,82060606061|  1,82009345794|  1,82009345794|  1,82009345794|  1,83980582524|  1,82009345794|  1,82060606061|  1,83075089392|  1,83075089392|  1,82009345794|  1,82009345794|  1,83173076923|  1,83757575758|  1,83757575758|  1,83658536585|  1,82164090369|  0,00000000000|  1,82439024390|  1,83515151515|  1,83495145631
Dormouse                  |  1,83495145631|  1,82439024390|  1,82439024390|  1,82439024390|  1,82439024390|  1,82439024390|  1,82439024390|  1,82439024390|  1,82439024390|  1,82439024390|  1,83075089392|  1,82439024390|  1,82439024390|  1,82439024390|  1,82439024390|  1,83980582524|  1,82439024390|  1,82439024390|  1,83075089392|  1,83075089392|  1,82439024390|  1,82439024390|  1,83173076923|  1,83757575758|  1,83757575758|  1,83658536585|  1,82439024390|  1,82439024390|  0,00000000000|  1,83515151515|  1,83495145631
Squirrel                  |  1,83515151515|  1,83515151515|  1,83515151515|  1,83515151515|  1,83515151515|  1,83515151515|  1,83515151515|  1,83515151515|  1,83515151515|  1,83515151515|  1,83515151515|  1,83515151515|  1,83515151515|  1,83515151515|  1,83515151515|  1,83980582524|  1,83515151515|  1,83515151515|  1,83515151515|  1,83515151515|  1,83515151515|  1,83515151515|  1,83515151515|  1,83757575758|  1,83757575758|  1,83658536585|  1,83515151515|  1,83515151515|  1,83515151515|  0,00000000000|  1,83515151515
Blue_Whale                |  1,83495145631|  1,83495145631|  1,83495145631|  1,83495145631|  1,83495145631|  1,83495145631|  1,83495145631|  1,83495145631|  1,83495145631|  1,83495145631|  1,83495145631|  1,83495145631|  1,83495145631|  1,83495145631|  1,83495145631|  1,83980582524|  1,83495145631|  1,83495145631|  1,83495145631|  1,83495145631|  1,83495145631|  1,83495145631|  1,83495145631|  1,83757575758|  1,83757575758|  1,83658536585|  1,83495145631|  1,83495145631|  1,83495145631|  1,83515151515|  0,00000000000
                           |Human          |Pig_Chim       |Com_Chim       |Gibbon         |Baboon         |Ver_Monkey     |Macaca_Thibet  |Bor_Oran       |Sum_Oran       |Gorilla        |Cat            |Dog            |Pig            |Sheep          |Goat           |Cow            |Buffalo        |Wolf           |Tiger          |Leopard        |Indian_Rhino   |White_Rhino    |Black_Bear     |Brown_Bear     |Polar_Bear     |Giant_Panda    |Rabbit         |Hedgehog       |Dormouse       |Squirrel       |Blue_Whale     
Human                     |  0,00000000000| 10,43913293038| 10,43913293038| 10,43913293038| 10,43913293038| 10,43913293038| 10,43913293038| 10,43913293038| 10,43913293038| 10,43913293038| 10,43913293038| 10,43913293038| 10,43913293038| 10,43913293038| 10,43913293038| 10,61170958376| 10,43913293038| 10,43913293038| 10,43913293038| 10,43913293038| 10,43913293038| 10,43913293038| 10,43913293038| 10,53242891512| 10,53242891512| 10,49721970640| 10,43913293038| 10,43913293038| 10,43913293038| 10,44624518034| 10,43913293038
Pig_Chim                  | 10,43913293038|  0,00000000000|  3,51014944324|  7,72551382898|  8,63390664252|  7,81084255271|  9,44234334484|  9,07036520146|  9,10336083618|  3,93387757907| 10,28979961649|  9,92914277167|  9,44234334484|  9,66722979045|  9,66722979045| 10,61170958376|  9,66722979045|  9,92914277167| 10,28979961649| 10,28979961649|  9,44234334484|  9,44234334484| 10,32463495843| 10,53242891512| 10,53242891512| 10,49721970640|  9,96593226131|  9,91091934177| 10,06367347962| 10,44624518034| 10,43913293038
Com_Chim                  | 10,43913293038|  3,51014944324|  0,00000000000|  7,72551382898|  8,63390664252|  7,81084255271|  9,44234334484|  9,07036520146|  9,10336083618|  3,93387757907| 10,28979961649|  9,92914277167|  9,44234334484|  9,66722979045|  9,66722979045| 10,61170958376|  9,66722979045|  9,92914277167| 10,28979961649| 10,28979961649|  9,44234334484|  9,44234334484| 10,32463495843| 10,53242891512| 10,53242891512| 10,49721970640|  9,96593226131|  9,91091934177| 10,06367347962| 10,44624518034| 10,43913293038
Gibbon                    | 10,43913293038|  7,72551382898|  7,72551382898|  0,00000000000|  8,63390664252|  7,81084255271|  9,44234334484|  9,07036520146|  9,10336083618|  7,72551382898| 10,28979961649|  9,92914277167|  9,44234334484|  9,66722979045|  9,66722979045| 10,61170958376|  9,66722979045|  9,92914277167| 10,28979961649| 10,28979961649|  9,44234334484|  9,44234334484| 10,32463495843| 10,53242891512| 10,53242891512| 10,49721970640|  9,96593226131|  9,91091934177| 10,06367347962| 10,44624518034| 10,43913293038
Baboon                    | 10,43913293038|  8,63390664252|  8,63390664252|  8,63390664252|  0,00000000000|  8,63390664252|  9,44234334484|  9,07036520146|  9,10336083618|  8,63390664252| 10,28979961649|  9,92914277167|  9,44234334484|  9,66722979045|  9,66722979045| 10,61170958376|  9,66722979045|  9,92914277167| 10,28979961649| 10,28979961649|  9,44234334484|  9,44234334484| 10,32463495843| 10,53242891512| 10,53242891512| 10,49721970640|  9,96593226131|  9,91091934177| 10,06367347962| 10,44624518034| 10,43913293038
Ver_Monkey                | 10,43913293038|  7,81084255271|  7,81084255271|  7,81084255271|  8,63390664252|  0,00000000000|  9,44234334484|  9,07036520146|  9,10336083618|  7,81084255271| 10,28979961649|  9,92914277167|  9,44234334484|  9,66722979045|  9,66722979045| 10,61170958376|  9,66722979045|  9,92914277167| 10,28979961649| 10,28979961649|  9,44234334484|  9,44234334484| 10,32463495843| 10,53242891512| 10,53242891512| 10,49721970640|  9,96593226131|  9,91091934177| 10,06367347962| 10,44624518034| 10,43913293038
Macaca_Thibet             | 10,43913293038|  9,44234334484|  9,44234334484|  9,44234334484|  9,44234334484|  9,44234334484|  0,00000000000|  9,44234334484|  9,44234334484|  9,44234334484| 10,28979961649|  9,92914277167|  9,32644692778|  9,66722979045|  9,66722979045| 10,61170958376|  9,66722979045|  9,92914277167| 10,28979961649| 10,28979961649|  9,33105210160|  9,33105210160| 10,32463495843| 10,53242891512| 10,53242891512| 10,49721970640|  9,96593226131|  9,91091934177| 10,06367347962| 10,44624518034| 10,43913293038
Bor_Oran                  | 10,43913293038|  9,07036520146|  9,07036520146|  9,07036520146|  9,07036520146|  9,07036520146|  9,44234334484|  0,00000000000|  9,10336083618|  9,07036520146| 10,28979961649|  9,92914277167|  9,44234334484|  9,66722979045|  9,66722979045| 10,61170958376|  9,66722979045|  9,92914277167| 10,28979961649| 10,28979961649|  9,44234334484|  9,44234334484| 10,32463495843| 10,53242891512| 10,53242891512| 10,49721970640|  9,96593226131|  9,91091934177| 10,06367347962| 10,44624518034| 10,43913293038
Sum_Oran                  | 10,43913293038|  9,10336083618|  9,10336083618|  9,10336083618|  9,10336083618|  9,10336083618|  9,44234334484|  9,10336083618|  0,00000000000|  9,10336083618| 10,28979961649|  9,92914277167|  9,44234334484|  9,66722979045|  9,66722979045| 10,61170958376|  9,66722979045|  9,92914277167| 10,28979961649| 10,28979961649|  9,44234334484|  9,44234334484| 10,32463495843| 10,53242891512| 10,53242891512| 10,49721970640|  9,96593226131|  9,91091934177| 10,06367347962| 10,44624518034| 10,43913293038
Gorilla                   | 10,43913293038|  3,93387757907|  3,93387757907|  7,72551382898|  8,63390664252|  7,81084255271|  9,44234334484|  9,07036520146|  9,10336083618|  0,00000000000| 10,28979961649|  9,92914277167|  9,44234334484|  9,66722979045|  9,66722979045| 10,61170958376|  9,66722979045|  9,92914277167| 10,28979961649| 10,28979961649|  9,44234334484|  9,44234334484| 10,32463495843| 10,53242891512| 10,53242891512| 10,49721970640|  9,96593226131|  9,91091934177| 10,06367347962| 10,44624518034| 10,43913293038
Cat                       | 10,43913293038| 10,28979961649| 10,28979961649| 10,28979961649| 10,28979961649| 10,28979961649| 10,28979961649| 10,28979961649| 10,28979961649| 10,28979961649|  0,00000000000| 10,28979961649| 10,28979961649| 10,28979961649| 10,28979961649| 10,61170958376| 10,28979961649| 10,28979961649|  6,81522890270|  9,49914094602| 10,28979961649| 10,28979961649| 10,32463495843| 10,53242891512| 10,53242891512| 10,49721970640| 10,28979961649| 10,28979961649| 10,28979961649| 10,44624518034| 10,43913293038
Dog                       | 10,43913293038|  9,92914277167|  9,92914277167|  9,92914277167|  9,92914277167|  9,92914277167|  9,92914277167|  9,92914277167|  9,92914277167|  9,92914277167| 10,28979961649|  0,00000000000|  9,92914277167|  9,92914277167|  9,92914277167| 10,61170958376|  9,92914277167| -3,20284105986| 10,28979961649| 10,28979961649|  9,92914277167|  9,92914277167| 10,32463495843| 10,53242891512| 10,53242891512| 10,49721970640|  9,96593226131|  9,92914277167| 10,06367347962| 10,44624518034| 10,43913293038
Pig                       | 10,43913293038|  9,44234334484|  9,44234334484|  9,44234334484|  9,44234334484|  9,44234334484|  9,32644692778|  9,44234334484|  9,44234334484|  9,44234334484| 10,28979961649|  9,92914277167|  0,00000000000|  9,66722979045|  9,66722979045| 10,61170958376|  9,66722979045|  9,92914277167| 10,28979961649| 10,28979961649|  9,33105210160|  9,33105210160| 10,32463495843| 10,53242891512| 10,53242891512| 10,49721970640|  9,96593226131|  9,91091934177| 10,06367347962| 10,44624518034| 10,43913293038
Sheep                     | 10,43913293038|  9,66722979045|  9,66722979045|  9,66722979045|  9,66722979045|  9,66722979045|  9,66722979045|  9,66722979045|  9,66722979045|  9,66722979045| 10,28979961649|  9,92914277167|  9,66722979045|  0,00000000000|  7,59700481785| 10,61170958376|  7,59700481785|  9,92914277167| 10,28979961649| 10,28979961649|  9,66722979045|  9,66722979045| 10,32463495843| 10,53242891512| 10,53242891512| 10,49721970640|  9,96593226131|  9,91091934177| 10,06367347962| 10,44624518034| 10,43913293038
Goat                      | 10,43913293038|  9,66722979045|  9,66722979045|  9,66722979045|  9,66722979045|  9,66722979045|  9,66722979045|  9,66722979045|  9,66722979045|  9,66722979045| 10,28979961649|  9,92914277167|  9,66722979045|  7,59700481785|  0,00000000000| 10,61170958376|  5,96469097188|  9,92914277167| 10,28979961649| 10,28979961649|  9,66722979045|  9,66722979045| 10,32463495843| 10,53242891512| 10,53242891512| 10,49721970640|  9,96593226131|  9,91091934177| 10,06367347962| 10,44624518034| 10,43913293038
Cow                       | 10,61170958376| 10,61170958376| 10,61170958376| 10,61170958376| 10,61170958376| 10,61170958376| 10,61170958376| 10,61170958376| 10,61170958376| 10,61170958376| 10,61170958376| 10,61170958376| 10,61170958376| 10,61170958376| 10,61170958376|  0,00000000000| 10,61170958376| 10,61170958376| 10,61170958376| 10,61170958376| 10,61170958376| 10,61170958376| 10,61170958376| 10,61170958376| 10,61170958376| 10,61170958376| 10,61170958376| 10,61170958376| 10,61170958376| 10,61170958376| 10,61170958376
Buffalo                   | 10,43913293038|  9,66722979045|  9,66722979045|  9,66722979045|  9,66722979045|  9,66722979045|  9,66722979045|  9,66722979045|  9,66722979045|  9,66722979045| 10,28979961649|  9,92914277167|  9,66722979045|  7,59700481785|  5,96469097188| 10,61170958376|  0,00000000000|  9,92914277167| 10,28979961649| 10,28979961649|  9,66722979045|  9,66722979045| 10,32463495843| 10,53242891512| 10,53242891512| 10,49721970640|  9,96593226131|  9,91091934177| 10,06367347962| 10,44624518034| 10,43913293038
Wolf                      | 10,43913293038|  9,92914277167|  9,92914277167|  9,92914277167|  9,92914277167|  9,92914277167|  9,92914277167|  9,92914277167|  9,92914277167|  9,92914277167| 10,28979961649| -3,20284105986|  9,92914277167|  9,92914277167|  9,92914277167| 10,61170958376|  9,92914277167|  0,00000000000| 10,28979961649| 10,28979961649|  9,92914277167|  9,92914277167| 10,32463495843| 10,53242891512| 10,53242891512| 10,49721970640|  9,96593226131|  9,92914277167| 10,06367347962| 10,44624518034| 10,43913293038
Tiger                     | 10,43913293038| 10,28979961649| 10,28979961649| 10,28979961649| 10,28979961649| 10,28979961649| 10,28979961649| 10,28979961649| 10,28979961649| 10,28979961649|  6,81522890270| 10,28979961649| 10,28979961649| 10,28979961649| 10,28979961649| 10,61170958376| 10,28979961649| 10,28979961649|  0,00000000000|  9,49914094602| 10,28979961649| 10,28979961649| 10,32463495843| 10,53242891512| 10,53242891512| 10,49721970640| 10,28979961649| 10,28979961649| 10,28979961649| 10,44624518034| 10,43913293038
Leopard                   | 10,43913293038| 10,28979961649| 10,28979961649| 10,28979961649| 10,28979961649| 10,28979961649| 10,28979961649| 10,28979961649| 10,28979961649| 10,28979961649|  9,49914094602| 10,28979961649| 10,28979961649| 10,28979961649| 10,28979961649| 10,61170958376| 10,28979961649| 10,28979961649|  9,49914094602|  0,00000000000| 10,28979961649| 10,28979961649| 10,32463495843| 10,53242891512| 10,53242891512| 10,49721970640| 10,28979961649| 10,28979961649| 10,28979961649| 10,44624518034| 10,43913293038
Indian_Rhino              | 10,43913293038|  9,44234334484|  9,44234334484|  9,44234334484|  9,44234334484|  9,44234334484|  9,33105210160|  9,44234334484|  9,44234334484|  9,44234334484| 10,28979961649|  9,92914277167|  9,33105210160|  9,66722979045|  9,66722979045| 10,61170958376|  9,66722979045|  9,92914277167| 10,28979961649| 10,28979961649|  0,00000000000|  7,61272013752| 10,32463495843| 10,53242891512| 10,53242891512| 10,49721970640|  9,96593226131|  9,91091934177| 10,06367347962| 10,44624518034| 10,43913293038
White_Rhino               | 10,43913293038|  9,44234334484|  9,44234334484|  9,44234334484|  9,44234334484|  9,44234334484|  9,33105210160|  9,44234334484|  9,44234334484|  9,44234334484| 10,28979961649|  9,92914277167|  9,33105210160|  9,66722979045|  9,66722979045| 10,61170958376|  9,66722979045|  9,92914277167| 10,28979961649| 10,28979961649|  7,61272013752|  0,00000000000| 10,32463495843| 10,53242891512| 10,53242891512| 10,49721970640|  9,96593226131|  9,91091934177| 10,06367347962| 10,44624518034| 10,43913293038
Black_Bear                | 10,43913293038| 10,32463495843| 10,32463495843| 10,32463495843| 10,32463495843| 10,32463495843| 10,32463495843| 10,32463495843| 10,32463495843| 10,32463495843| 10,32463495843| 10,32463495843| 10,32463495843| 10,32463495843| 10,32463495843| 10,61170958376| 10,32463495843| 10,32463495843| 10,32463495843| 10,32463495843| 10,32463495843| 10,32463495843|  0,00000000000| 10,53242891512| 10,53242891512| 10,49721970640| 10,32463495843| 10,32463495843| 10,32463495843| 10,44624518034| 10,43913293038
Brown_Bear                | 10,53242891512| 10,53242891512| 10,53242891512| 10,53242891512| 10,53242891512| 10,53242891512| 10,53242891512| 10,53242891512| 10,53242891512| 10,53242891512| 10,53242891512| 10,53242891512| 10,53242891512| 10,53242891512| 10,53242891512| 10,61170958376| 10,53242891512| 10,53242891512| 10,53242891512| 10,53242891512| 10,53242891512| 10,53242891512| 10,53242891512|  0,00000000000|  8,11928434133| 10,53242891512| 10,53242891512| 10,53242891512| 10,53242891512| 10,53242891512| 10,53242891512
Polar_Bear                | 10,53242891512| 10,53242891512| 10,53242891512| 10,53242891512| 10,53242891512| 10,53242891512| 10,53242891512| 10,53242891512| 10,53242891512| 10,53242891512| 10,53242891512| 10,53242891512| 10,53242891512| 10,53242891512| 10,53242891512| 10,61170958376| 10,53242891512| 10,53242891512| 10,53242891512| 10,53242891512| 10,53242891512| 10,53242891512| 10,53242891512|  8,11928434133|  0,00000000000| 10,53242891512| 10,53242891512| 10,53242891512| 10,53242891512| 10,53242891512| 10,53242891512
Giant_Panda               | 10,49721970640| 10,49721970640| 10,49721970640| 10,49721970640| 10,49721970640| 10,49721970640| 10,49721970640| 10,49721970640| 10,49721970640| 10,49721970640| 10,49721970640| 10,49721970640| 10,49721970640| 10,49721970640| 10,49721970640| 10,61170958376| 10,49721970640| 10,49721970640| 10,49721970640| 10,49721970640| 10,49721970640| 10,49721970640| 10,49721970640| 10,53242891512| 10,53242891512|  0,00000000000| 10,49721970640| 10,49721970640| 10,49721970640| 10,49721970640| 10,49721970640
Rabbit                    | 10,43913293038|  9,96593226131|  9,96593226131|  9,96593226131|  9,96593226131|  9,96593226131|  9,96593226131|  9,96593226131|  9,96593226131|  9,96593226131| 10,28979961649|  9,96593226131|  9,96593226131|  9,96593226131|  9,96593226131| 10,61170958376|  9,96593226131|  9,96593226131| 10,28979961649| 10,28979961649|  9,96593226131|  9,96593226131| 10,32463495843| 10,53242891512| 10,53242891512| 10,49721970640|  0,00000000000|  9,96593226131| 10,06367347962| 10,44624518034| 10,43913293038
Hedgehog                  | 10,43913293038|  9,91091934177|  9,91091934177|  9,91091934177|  9,91091934177|  9,91091934177|  9,91091934177|  9,91091934177|  9,91091934177|  9,91091934177| 10,28979961649|  9,92914277167|  9,91091934177|  9,91091934177|  9,91091934177| 10,61170958376|  9,91091934177|  9,92914277167| 10,28979961649| 10,28979961649|  9,91091934177|  9,91091934177| 10,32463495843| 10,53242891512| 10,53242891512| 10,49721970640|  9,96593226131|  0,00000000000| 10,06367347962| 10,44624518034| 10,43913293038
Dormouse                  | 10,43913293038| 10,06367347962| 10,06367347962| 10,06367347962| 10,06367347962| 10,06367347962| 10,06367347962| 10,06367347962| 10,06367347962| 10,06367347962| 10,28979961649| 10,06367347962| 10,06367347962| 10,06367347962| 10,06367347962| 10,61170958376| 10,06367347962| 10,06367347962| 10,28979961649| 10,28979961649| 10,06367347962| 10,06367347962| 10,32463495843| 10,53242891512| 10,53242891512| 10,49721970640| 10,06367347962| 10,06367347962|  0,00000000000| 10,44624518034| 10,43913293038
Squirrel                  | 10,44624518034| 10,44624518034| 10,44624518034| 10,44624518034| 10,44624518034| 10,44624518034| 10,44624518034| 10,44624518034| 10,44624518034| 10,44624518034| 10,44624518034| 10,44624518034| 10,44624518034| 10,44624518034| 10,44624518034| 10,61170958376| 10,44624518034| 10,44624518034| 10,44624518034| 10,44624518034| 10,44624518034| 10,44624518034| 10,44624518034| 10,53242891512| 10,53242891512| 10,49721970640| 10,44624518034| 10,44624518034| 10,44624518034|  0,00000000000| 10,44624518034
Blue_Whale                | 10,43913293038| 10,43913293038| 10,43913293038| 10,43913293038| 10,43913293038| 10,43913293038| 10,43913293038| 10,43913293038| 10,43913293038| 10,43913293038| 10,43913293038| 10,43913293038| 10,43913293038| 10,43913293038| 10,43913293038| 10,61170958376| 10,43913293038| 10,43913293038| 10,43913293038| 10,43913293038| 10,43913293038| 10,43913293038| 10,43913293038| 10,53242891512| 10,53242891512| 10,49721970640| 10,43913293038| 10,43913293038| 10,43913293038| 10,44624518034|  0,00000000000
                           |Human          |Pig_Chim       |Com_Chim       |Gibbon         |Baboon         |Ver_Monkey     |Macaca_Thibet  |Bor_Oran       |Sum_Oran       |Gorilla        |Cat            |Dog            |Pig            |Sheep          |Goat           |Cow            |Buffalo        |Wolf           |Tiger          |Leopard        |Indian_Rhino   |White_Rhino    |Black_Bear     |Brown_Bear     |Polar_Bear     |Giant_Panda    |Rabbit         |Hedgehog       |Dormouse       |Squirrel       |Blue_Whale     
Human                     |  0,00000000000| 18,00000000000| 18,00000000000| 16,00000000000| 14,00000000000| 15,00000000000| 13,00000000000| 13,00000000000| 12,00000000000| 17,00000000000|  7,00000000000|  9,00000000000| 13,00000000000| 11,00000000000| 12,00000000000|  6,00000000000| 12,00000000000|  9,00000000000|  7,00000000000|  6,00000000000| 13,00000000000| 13,00000000000|  4,00000000000|  6,00000000000|  6,00000000000|  4,00000000000|  7,00000000000|  9,00000000000|  6,00000000000|  3,00000000000|  3,00000000000
Pig_Chim                  | 18,00000000000|  0,00000000000|  2,00000000000|  4,00000000000|  6,00000000000|  5,00000000000| 11,00000000000|  7,00000000000|  8,00000000000|  3,00000000000| 17,00000000000| 13,00000000000| 11,00000000000| 11,00000000000| 12,00000000000| 22,00000000000| 12,00000000000| 13,00000000000| 17,00000000000| 16,00000000000| 11,00000000000| 11,00000000000| 16,00000000000| 22,00000000000| 22,00000000000| 20,00000000000| 13,00000000000| 11,00000000000| 14,00000000000| 19,00000000000| 17,00000000000
Com_Chim                  | 18,00000000000|  2,00000000000|  0,00000000000|  4,00000000000|  6,00000000000|  5,00000000000| 11,00000000000|  7,00000000000|  8,00000000000|  3,00000000000| 17,00000000000| 13,00000000000| 11,00000000000| 11,00000000000| 12,00000000000| 22,00000000000| 12,00000000000| 13,00000000000| 17,00000000000| 16,00000000000| 11,00000000000| 11,00000000000| 16,00000000000| 22,00000000000| 22,00000000000| 20,00000000000| 13,00000000000| 11,00000000000| 14,00000000000| 19,00000000000| 17,00000000000
Gibbon                    | 16,00000000000|  4,00000000000|  4,00000000000|  0,00000000000|  4,00000000000|  3,00000000000|  9,00000000000|  5,00000000000|  6,00000000000|  3,00000000000| 15,00000000000| 11,00000000000|  9,00000000000|  9,00000000000| 10,00000000000| 20,00000000000| 10,00000000000| 11,00000000000| 15,00000000000| 14,00000000000|  9,00000000000|  9,00000000000| 14,00000000000| 20,00000000000| 20,00000000000| 18,00000000000| 11,00000000000|  9,00000000000| 12,00000000000| 17,00000000000| 15,00000000000
Baboon                    | 14,00000000000|  6,00000000000|  6,00000000000|  4,00000000000|  0,00000000000|  3,00000000000|  7,00000000000|  3,00000000000|  4,00000000000|  5,00000000000| 13,00000000000|  9,00000000000|  7,00000000000|  7,00000000000|  8,00000000000| 18,00000000000|  8,00000000000|  9,00000000000| 13,00000000000| 12,00000000000|  7,00000000000|  7,00000000000| 12,00000000000| 18,00000000000| 18,00000000000| 16,00000000000|  9,00000000000|  7,00000000000| 10,00000000000| 15,00000000000| 13,00000000000
Ver_Monkey                | 15,00000000000|  5,00000000000|  5,00000000000|  3,00000000000|  3,00000000000|  0,00000000000|  8,00000000000|  4,00000000000|  5,00000000000|  4,00000000000| 14,00000000000| 10,00000000000|  8,00000000000|  8,00000000000|  9,00000000000| 19,00000000000|  9,00000000000| 10,00000000000| 14,00000000000| 13,00000000000|  8,00000000000|  8,00000000000| 13,00000000000| 19,00000000000| 19,00000000000| 17,00000000000| 10,00000000000|  8,00000000000| 11,00000000000| 16,00000000000| 14,00000000000
Macaca_Thibet             | 13,00000000000| 11,00000000000| 11,00000000000|  9,00000000000|  7,00000000000|  8,00000000000|  0,00000000000|  6,00000000000|  5,00000000000| 10,00000000000| 12,00000000000|  8,00000000000|  2,00000000000|  6,00000000000|  7,00000000000| 17,00000000000|  7,00000000000|  8,00000000000| 12,00000000000| 11,00000000000|  4,00000000000|  4,00000000000| 11,00000000000| 17,00000000000| 17,00000000000| 15,00000000000|  8,00000000000|  6,00000000000|  9,00000000000| 14,00000000000| 12,00000000000
Bor_Oran                  | 13,00000000000|  7,00000000000|  7,00000000000|  5,00000000000|  3,00000000000|  4,00000000000|  6,00000000000|  0,00000000000|  3,00000000000|  6,00000000000| 12,00000000000|  8,00000000000|  6,00000000000|  6,00000000000|  7,00000000000| 17,00000000000|  7,00000000000|  8,00000000000| 12,00000000000| 11,00000000000|  6,00000000000|  6,00000000000| 11,00000000000| 17,00000000000| 17,00000000000| 15,00000000000|  8,00000000000|  6,00000000000|  9,00000000000| 14,00000000000| 12,00000000000
Sum_Oran                  | 12,00000000000|  8,00000000000|  8,00000000000|  6,00000000000|  4,00000000000|  5,00000000000|  5,00000000000|  3,00000000000|  0,00000000000|  7,00000000000| 11,00000000000|  7,00000000000|  5,00000000000|  5,00000000000|  6,00000000000| 16,00000000000|  6,00000000000|  7,00000000000| 11,00000000000| 10,00000000000|  5,00000000000|  5,00000000000| 10,00000000000| 16,00000000000| 16,00000000000| 14,00000000000|  7,00000000000|  5,00000000000|  8,00000000000| 13,00000000000| 11,00000000000
Gorilla                   | 17,00000000000|  3,00000000000|  3,00000000000|  3,00000000000|  5,00000000000|  4,00000000000| 10,00000000000|  6,00000000000|  7,00000000000|  0,00000000000| 16,00000000000| 12,00000000000| 10,00000000000| 10,00000000000| 11,00000000000| 21,00000000000| 11,00000000000| 12,00000000000| 16,00000000000| 15,00000000000| 10,00000000000| 10,00000000000| 15,00000000000| 21,00000000000| 21,00000000000| 19,00000000000| 12,00000000000| 10,00000000000| 13,00000000000| 18,00000000000| 16,00000000000
Cat                       |  7,00000000000| 17,00000000000| 17,00000000000| 15,00000000000| 13,00000000000| 14,00000000000| 12,00000000000| 12,00000000000| 11,00000000000| 16,00000000000|  0,00000000000|  8,00000000000| 12,00000000000| 10,00000000000| 11,00000000000| 11,00000000000| 11,00000000000|  8,00000000000|  2,00000000000|  3,00000000000| 12,00000000000| 12,00000000000|  5,00000000000| 11,00000000000| 11,00000000000|  9,00000000000|  6,00000000000|  8,00000000000|  5,00000000000|  8,00000000000|  6,00000000000
Dog                       |  9,00000000000| 13,00000000000| 13,00000000000| 11,00000000000|  9,00000000000| 10,00000000000|  8,00000000000|  8,00000000000|  7,00000000000| 12,00000000000|  8,00000000000|  0,00000000000|  8,00000000000|  6,00000000000|  7,00000000000| 13,00000000000|  7,00000000000|  2,00000000000|  8,00000000000|  7,00000000000|  8,00000000000|  8,00000000000|  7,00000000000| 13,00000000000| 13,00000000000| 11,00000000000|  4,00000000000|  4,00000000000|  5,00000000000| 10,00000000000|  8,00000000000
Pig                       | 13,00000000000| 11,00000000000| 11,00000000000|  9,00000000000|  7,00000000000|  8,00000000000|  2,00000000000|  6,00000000000|  5,00000000000| 10,00000000000| 12,00000000000|  8,00000000000|  0,00000000000|  6,00000000000|  7,00000000000| 17,00000000000|  7,00000000000|  8,00000000000| 12,00000000000| 11,00000000000|  4,00000000000|  4,00000000000| 11,00000000000| 17,00000000000| 17,00000000000| 15,00000000000|  8,00000000000|  6,00000000000|  9,00000000000| 14,00000000000| 12,00000000000
Sheep                     | 11,00000000000| 11,00000000000| 11,00000000000|  9,00000000000|  7,00000000000|  8,00000000000|  6,00000000000|  6,00000000000|  5,00000000000| 10,00000000000| 10,00000000000|  6,00000000000|  6,00000000000|  0,00000000000|  3,00000000000| 15,00000000000|  3,00000000000|  6,00000000000| 10,00000000000|  9,00000000000|  6,00000000000|  6,00000000000|  9,00000000000| 15,00000000000| 15,00000000000| 13,00000000000|  6,00000000000|  4,00000000000|  7,00000000000| 12,00000000000| 10,00000000000
Goat                      | 12,00000000000| 12,00000000000| 12,00000000000| 10,00000000000|  8,00000000000|  9,00000000000|  7,00000000000|  7,00000000000|  6,00000000000| 11,00000000000| 11,00000000000|  7,00000000000|  7,00000000000|  3,00000000000|  0,00000000000| 16,00000000000|  2,00000000000|  7,00000000000| 11,00000000000| 10,00000000000|  7,00000000000|  7,00000000000| 10,00000000000| 16,00000000000| 16,00000000000| 14,00000000000|  7,00000000000|  5,00000000000|  8,00000000000| 13,00000000000| 11,00000000000
Cow                       |  6,00000000000| 22,00000000000| 22,00000000000| 20,00000000000| 18,00000000000| 19,00000000000| 17,00000000000| 17,00000000000| 16,00000000000| 21,00000000000| 11,00000000000| 13,00000000000| 17,00000000000| 15,00000000000| 16,00000000000|  0,00000000000| 16,00000000000| 13,00000000000| 11,00000000000| 10,00000000000| 17,00000000000| 17,00000000000|  8,00000000000|  4,00000000000|  4,00000000000|  4,00000000000| 11,00000000000| 13,00000000000| 10,00000000000|  5,00000000000|  7,00000000000
Buffalo                   | 12,00000000000| 12,00000000000| 12,00000000000| 10,00000000000|  8,00000000000|  9,00000000000|  7,00000000000|  7,00000000000|  6,00000000000| 11,00000000000| 11,00000000000|  7,00000000000|  7,00000000000|  3,00000000000|  2,00000000000| 16,00000000000|  0,00000000000|  7,00000000000| 11,00000000000| 10,00000000000|  7,00000000000|  7,00000000000| 10,00000000000| 16,00000000000| 16,00000000000| 14,00000000000|  7,00000000000|  5,00000000000|  8,00000000000| 13,00000000000| 11,00000000000
Wolf                      |  9,00000000000| 13,00000000000| 13,00000000000| 11,00000000000|  9,00000000000| 10,00000000000|  8,00000000000|  8,00000000000|  7,00000000000| 12,00000000000|  8,00000000000|  2,00000000000|  8,00000000000|  6,00000000000|  7,00000000000| 13,00000000000|  7,00000000000|  0,00000000000|  8,00000000000|  7,00000000000|  8,00000000000|  8,00000000000|  7,00000000000| 13,00000000000| 13,00000000000| 11,00000000000|  4,00000000000|  4,00000000000|  5,00000000000| 10,00000000000|  8,00000000000
Tiger                     |  7,00000000000| 17,00000000000| 17,00000000000| 15,00000000000| 13,00000000000| 14,00000000000| 12,00000000000| 12,00000000000| 11,00000000000| 16,00000000000|  2,00000000000|  8,00000000000| 12,00000000000| 10,00000000000| 11,00000000000| 11,00000000000| 11,00000000000|  8,00000000000|  0,00000000000|  3,00000000000| 12,00000000000| 12,00000000000|  5,00000000000| 11,00000000000| 11,00000000000|  9,00000000000|  6,00000000000|  8,00000000000|  5,00000000000|  8,00000000000|  6,00000000000
Leopard                   |  6,00000000000| 16,00000000000| 16,00000000000| 14,00000000000| 12,00000000000| 13,00000000000| 11,00000000000| 11,00000000000| 10,00000000000| 15,00000000000|  3,00000000000|  7,00000000000| 11,00000000000|  9,00000000000| 10,00000000000| 10,00000000000| 10,00000000000|  7,00000000000|  3,00000000000|  0,00000000000| 11,00000000000| 11,00000000000|  4,00000000000| 10,00000000000| 10,00000000000|  8,00000000000|  5,00000000000|  7,00000000000|  4,00000000000|  7,00000000000|  5,00000000000
Indian_Rhino              | 13,00000000000| 11,00000000000| 11,00000000000|  9,00000000000|  7,00000000000|  8,00000000000|  4,00000000000|  6,00000000000|  5,00000000000| 10,00000000000| 12,00000000000|  8,00000000000|  4,00000000000|  6,00000000000|  7,00000000000| 17,00000000000|  7,00000000000|  8,00000000000| 12,00000000000| 11,00000000000|  0,00000000000|  2,00000000000| 11,00000000000| 17,00000000000| 17,00000000000| 15,00000000000|  8,00000000000|  6,00000000000|  9,00000000000| 14,00000000000| 12,00000000000
White_Rhino               | 13,00000000000| 11,00000000000| 11,00000000000|  9,00000000000|  7,00000000000|  8,00000000000|  4,00000000000|  6,00000000000|  5,00000000000| 10,00000000000| 12,00000000000|  8,00000000000|  4,00000000000|  6,00000000000|  7,00000000000| 17,00000000000|  7,00000000000|  8,00000000000| 12,00000000000| 11,00000000000|  2,00000000000|  0,00000000000| 11,00000000000| 17,00000000000| 17,00000000000| 15,00000000000|  8,00000000000|  6,00000000000|  9,00000000000| 14,00000000000| 12,00000000000
Black_Bear                |  4,00000000000| 16,00000000000| 16,00000000000| 14,00000000000| 12,00000000000| 13,00000000000| 11,00000000000| 11,00000000000| 10,00000000000| 15,00000000000|  5,00000000000|  7,00000000000| 11,00000000000|  9,00000000000| 10,00000000000|  8,00000000000| 10,00000000000|  7,00000000000|  5,00000000000|  4,00000000000| 11,00000000000| 11,00000000000|  0,00000000000|  8,00000000000|  8,00000000000|  6,00000000000|  5,00000000000|  7,00000000000|  4,00000000000|  5,00000000000|  3,00000000000
Brown_Bear                |  6,00000000000| 22,00000000000| 22,00000000000| 20,00000000000| 18,00000000000| 19,00000000000| 17,00000000000| 17,00000000000| 16,00000000000| 21,00000000000| 11,00000000000| 13,00000000000| 17,00000000000| 15,00000000000| 16,00000000000|  4,00000000000| 16,00000000000| 13,00000000000| 11,00000000000| 10,00000000000| 17,00000000000| 17,00000000000|  8,00000000000|  0,00000000000|  2,00000000000|  4,00000000000| 11,00000000000| 13,00000000000| 10,00000000000|  5,00000000000|  7,00000000000
Polar_Bear                |  6,00000000000| 22,00000000000| 22,00000000000| 20,00000000000| 18,00000000000| 19,00000000000| 17,00000000000| 17,00000000000| 16,00000000000| 21,00000000000| 11,00000000000| 13,00000000000| 17,00000000000| 15,00000000000| 16,00000000000|  4,00000000000| 16,00000000000| 13,00000000000| 11,00000000000| 10,00000000000| 17,00000000000| 17,00000000000|  8,00000000000|  2,00000000000|  0,00000000000|  4,00000000000| 11,00000000000| 13,00000000000| 10,00000000000|  5,00000000000|  7,00000000000
Giant_Panda               |  4,00000000000| 20,00000000000| 20,00000000000| 18,00000000000| 16,00000000000| 17,00000000000| 15,00000000000| 15,00000000000| 14,00000000000| 19,00000000000|  9,00000000000| 11,00000000000| 15,00000000000| 13,00000000000| 14,00000000000|  4,00000000000| 14,00000000000| 11,00000000000|  9,00000000000|  8,00000000000| 15,00000000000| 15,00000000000|  6,00000000000|  4,00000000000|  4,00000000000|  0,00000000000|  9,00000000000| 11,00000000000|  8,00000000000|  3,00000000000|  5,00000000000
Rabbit                    |  7,00000000000| 13,00000000000| 13,00000000000| 11,00000000000|  9,00000000000| 10,00000000000|  8,00000000000|  8,00000000000|  7,00000000000| 12,00000000000|  6,00000000000|  4,00000000000|  8,00000000000|  6,00000000000|  7,00000000000| 11,00000000000|  7,00000000000|  4,00000000000|  6,00000000000|  5,00000000000|  8,00000000000|  8,00000000000|  5,00000000000| 11,00000000000| 11,00000000000|  9,00000000000|  0,00000000000|  4,00000000000|  3,00000000000|  8,00000000000|  6,00000000000
Hedgehog                  |  9,00000000000| 11,00000000000| 11,00000000000|  9,00000000000|  7,00000000000|  8,00000000000|  6,00000000000|  6,00000000000|  5,00000000000| 10,00000000000|  8,00000000000|  4,00000000000|  6,00000000000|  4,00000000000|  5,00000000000| 13,00000000000|  5,00000000000|  4,00000000000|  8,00000000000|  7,00000000000|  6,00000000000|  6,00000000000|  7,00000000000| 13,00000000000| 13,00000000000| 11,00000000000|  4,00000000000|  0,00000000000|  5,00000000000| 10,00000000000|  8,00000000000
Dormouse                  |  6,00000000000| 14,00000000000| 14,00000000000| 12,00000000000| 10,00000000000| 11,00000000000|  9,00000000000|  9,00000000000|  8,00000000000| 13,00000000000|  5,00000000000|  5,00000000000|  9,00000000000|  7,00000000000|  8,00000000000| 10,00000000000|  8,00000000000|  5,00000000000|  5,00000000000|  4,00000000000|  9,00000000000|  9,00000000000|  4,00000000000| 10,00000000000| 10,00000000000|  8,00000000000|  3,00000000000|  5,00000000000|  0,00000000000|  7,00000000000|  5,00000000000
Squirrel                  |  3,00000000000| 19,00000000000| 19,00000000000| 17,00000000000| 15,00000000000| 16,00000000000| 14,00000000000| 14,00000000000| 13,00000000000| 18,00000000000|  8,00000000000| 10,00000000000| 14,00000000000| 12,00000000000| 13,00000000000|  5,00000000000| 13,00000000000| 10,00000000000|  8,00000000000|  7,00000000000| 14,00000000000| 14,00000000000|  5,00000000000|  5,00000000000|  5,00000000000|  3,00000000000|  8,00000000000| 10,00000000000|  7,00000000000|  0,00000000000|  4,00000000000
Blue_Whale                |  3,00000000000| 17,00000000000| 17,00000000000| 15,00000000000| 13,00000000000| 14,00000000000| 12,00000000000| 12,00000000000| 11,00000000000| 16,00000000000|  6,00000000000|  8,00000000000| 12,00000000000| 10,00000000000| 11,00000000000|  7,00000000000| 11,00000000000|  8,00000000000|  6,00000000000|  5,00000000000| 12,00000000000| 12,00000000000|  3,00000000000|  7,00000000000|  7,00000000000|  5,00000000000|  6,00000000000|  8,00000000000|  5,00000000000|  4,00000000000|  0,00000000000
