                           |Human          |Pig_Chim       |Com_Chim       |Gibbon         |Baboon         |Ver_Monkey     |Macaca_Thibet  |Bor_Oran       |Sum_Oran       |Gorilla        |Cat            |Dog            |Pig            |Sheep          |Goat           |Cow            |Buffalo        |Wolf           |Tiger          |Leopard        |Indian_Rhino   |White_Rhino    |Black_Bear     |Brown_Bear     |Polar_Bear     |Giant_Panda    |Rabbit         |Hedgehog       |Dormouse       |Squirrel       |Blue_Whale     
Human                     |  0,00000000000|  1,09218559219|  1,09218559219|  1,33516483516|  1,42735042735|  1,42307692308|  1,47008547009|  1,43711843712|  1,43711843712|  1,17826617827|  1,51282051282|  1,51282051282|  1,51282051282|  1,51282051282|  1,51282051282|  1,51282051282|  1,51282051282|  1,51282051282|  1,51282051282|  1,51282051282|  1,51282051282|  1,51282051282|  1,51282051282|  1,51282051282|  1,51282051282|  1,51282051282|  1,51282051282|  1,51648351648|  1,51587301587|  1,51282051282|  1,51282051282
Pig_Chim                  |  1,09218559219|  0,00000000000|  0,99450549451|  1,33516483516|  1,42735042735|  1,42307692308|  1,47008547009|  1,43711843712|  1,43711843712|  1,17826617827|  1,51282051282|  1,51282051282|  1,51282051282|  1,51282051282|  1,51282051282|  1,51282051282|  1,51282051282|  1,51282051282|  1,51282051282|  1,51282051282|  1,51282051282|  1,51282051282|  1,51282051282|  1,51282051282|  1,51282051282|  1,51282051282|  1,51282051282|  1,51648351648|  1,51587301587|  1,51282051282|  1,51282051282
Com_Chim                  |  1,09218559219|  0,99450549451|  0,00000000000|  1,33516483516|  1,42735042735|  1,42307692308|  1,47008547009|  1,43711843712|  1,43711843712|  1,17826617827|  1,51282051282|  1,51282051282|  1,51282051282|  1,51282051282|  1,51282051282|  1,51282051282|  1,51282051282|  1,51282051282|  1,51282051282|  1,51282051282|  1,51282051282|  1,51282051282|  1,51282051282|  1,51282051282|  1,51282051282|  1,51282051282|  1,51282051282|  1,51648351648|  1,51587301587|  1,51282051282|  1,51282051282
Gibbon                    |  1,33516483516|  1,33516483516|  1,33516483516|  0,00000000000|  1,42735042735|  1,42307692308|  1,47008547009|  1,43711843712|  1,43711843712|  1,33516483516|  1,51282051282|  1,51282051282|  1,51282051282|  1,51282051282|  1,51282051282|  1,51282051282|  1,51282051282|  1,51282051282|  1,51282051282|  1,51282051282|  1,51282051282|  1,51282051282|  1,51282051282|  1,51282051282|  1,51282051282|  1,51282051282|  1,51282051282|  1,51648351648|  1,51587301587|  1,51282051282|  1,51282051282
Baboon                    |  1,42735042735|  1,42735042735|  1,42735042735|  1,42735042735|  0,00000000000|  1,42735042735|  1,47008547009|  1,43711843712|  1,43711843712|  1,42735042735|  1,51282051282|  1,51282051282|  1,51282051282|  1,51282051282|  1,51282051282|  1,51282051282|  1,51282051282|  1,51282051282|  1,51282051282|  1,51282051282|  1,51282051282|  1,51282051282|  1,51282051282|  1,51282051282|  1,51282051282|  1,51282051282|  1,51282051282|  1,51648351648|  1,51587301587|  1,51282051282|  1,51282051282
Ver_Monkey                |  1,42307692308|  1,42307692308|  1,42307692308|  1,42307692308|  1,42735042735|  0,00000000000|  1,47008547009|  1,43711843712|  1,43711843712|  1,42307692308|  1,51282051282|  1,51282051282|  1,51282051282|  1,51282051282|  1,51282051282|  1,51282051282|  1,51282051282|  1,51282051282|  1,51282051282|  1,51282051282|  1,51282051282|  1,51282051282|  1,51282051282|  1,51282051282|  1,51282051282|  1,51282051282|  1,51282051282|  1,51648351648|  1,51587301587|  1,51282051282|  1,51282051282
Macaca_Thibet             |  1,47008547009|  1,47008547009|  1,47008547009|  1,47008547009|  1,47008547009|  1,47008547009|  0,00000000000|  1,47008547009|  1,47008547009|  1,47008547009|  1,51282051282|  1,51282051282|  1,51282051282|  1,51282051282|  1,51282051282|  1,51282051282|  1,51282051282|  1,51282051282|  1,51282051282|  1,51282051282|  1,51282051282|  1,51282051282|  1,51282051282|  1,51282051282|  1,51282051282|  1,51282051282|  1,51282051282|  1,51648351648|  1,51587301587|  1,51282051282|  1,51282051282
Bor_Oran                  |  1,43711843712|  1,43711843712|  1,43711843712|  1,43711843712|  1,43711843712|  1,43711843712|  1,47008547009|  0,00000000000|  1,38949938950|  1,43711843712|  1,51282051282|  1,51282051282|  1,51282051282|  1,51282051282|  1,51282051282|  1,51282051282|  1,51282051282|  1,51282051282|  1,51282051282|  1,51282051282|  1,51282051282|  1,51282051282|  1,51282051282|  1,51282051282|  1,51282051282|  1,51282051282|  1,51282051282|  1,51648351648|  1,51587301587|  1,51282051282|  1,51282051282
Sum_Oran                  |  1,43711843712|  1,43711843712|  1,43711843712|  1,43711843712|  1,43711843712|  1,43711843712|  1,47008547009|  1,38949938950|  0,00000000000|  1,43711843712|  1,51282051282|  1,51282051282|  1,51282051282|  1,51282051282|  1,51282051282|  1,51282051282|  1,51282051282|  1,51282051282|  1,51282051282|  1,51282051282|  1,51282051282|  1,51282051282|  1,51282051282|  1,51282051282|  1,51282051282|  1,51282051282|  1,51282051282|  1,51648351648|  1,51587301587|  1,51282051282|  1,51282051282
Gorilla                   |  1,17826617827|  1,17826617827|  1,17826617827|  1,33516483516|  1,42735042735|  1,42307692308|  1,47008547009|  1,43711843712|  1,43711843712|  0,00000000000|  1,51282051282|  1,51282051282|  1,51282051282|  1,51282051282|  1,51282051282|  1,51282051282|  1,51282051282|  1,51282051282|  1,51282051282|  1,51282051282|  1,51282051282|  1,51282051282|  1,51282051282|  1,51282051282|  1,51282051282|  1,51282051282|  1,51282051282|  1,51648351648|  1,51587301587|  1,51282051282|  1,51282051282
Cat                       |  1,51282051282|  1,51282051282|  1,51282051282|  1,51282051282|  1,51282051282|  1,51282051282|  1,51282051282|  1,51282051282|  1,51282051282|  1,51282051282|  0,00000000000|  1,45970695971|  1,43467643468|  1,44688644689|  1,44688644689|  1,44688644689|  1,44688644689|  1,45970695971|  1,25763125763|  1,00671550672|  1,45177045177|  1,45177045177|  1,39560439560|  1,39560439560|  1,39560439560|  1,39560439560|  1,43956043956|  1,51648351648|  1,51587301587|  1,49450549451|  1,46764346764
Dog                       |  1,51282051282|  1,51282051282|  1,51282051282|  1,51282051282|  1,51282051282|  1,51282051282|  1,51282051282|  1,51282051282|  1,51282051282|  1,51282051282|  1,45970695971|  0,00000000000|  1,45970695971|  1,45970695971|  1,45970695971|  1,45970695971|  1,45970695971|  1,09157509158|  1,45970695971|  1,45970695971|  1,45970695971|  1,45970695971|  1,45970695971|  1,45970695971|  1,45970695971|  1,45970695971|  1,45970695971|  1,51648351648|  1,51587301587|  1,49450549451|  1,46764346764
Pig                       |  1,51282051282|  1,51282051282|  1,51282051282|  1,51282051282|  1,51282051282|  1,51282051282|  1,51282051282|  1,51282051282|  1,51282051282|  1,51282051282|  1,43467643468|  1,45970695971|  0,00000000000|  1,44688644689|  1,44688644689|  1,44688644689|  1,44688644689|  1,45970695971|  1,43467643468|  1,43467643468|  1,45177045177|  1,45177045177|  1,43467643468|  1,43467643468|  1,43467643468|  1,43467643468|  1,43956043956|  1,51648351648|  1,51587301587|  1,49450549451|  1,46764346764
Sheep                     |  1,51282051282|  1,51282051282|  1,51282051282|  1,51282051282|  1,51282051282|  1,51282051282|  1,51282051282|  1,51282051282|  1,51282051282|  1,51282051282|  1,44688644689|  1,45970695971|  1,44688644689|  0,00000000000|  1,32539682540|  1,37179487179|  1,37179487179|  1,45970695971|  1,44688644689|  1,44688644689|  1,45177045177|  1,45177045177|  1,44688644689|  1,44688644689|  1,44688644689|  1,44688644689|  1,44688644689|  1,51648351648|  1,51587301587|  1,49450549451|  1,46764346764
Goat                      |  1,51282051282|  1,51282051282|  1,51282051282|  1,51282051282|  1,51282051282|  1,51282051282|  1,51282051282|  1,51282051282|  1,51282051282|  1,51282051282|  1,44688644689|  1,45970695971|  1,44688644689|  1,32539682540|  0,00000000000|  1,37179487179|  1,37179487179|  1,45970695971|  1,44688644689|  1,44688644689|  1,45177045177|  1,45177045177|  1,44688644689|  1,44688644689|  1,44688644689|  1,44688644689|  1,44688644689|  1,51648351648|  1,51587301587|  1,49450549451|  1,46764346764
Cow                       |  1,51282051282|  1,51282051282|  1,51282051282|  1,51282051282|  1,51282051282|  1,51282051282|  1,51282051282|  1,51282051282|  1,51282051282|  1,51282051282|  1,44688644689|  1,45970695971|  1,44688644689|  1,37179487179|  1,37179487179|  0,00000000000|  1,30830280830|  1,45970695971|  1,44688644689|  1,44688644689|  1,45177045177|  1,45177045177|  1,44688644689|  1,44688644689|  1,44688644689|  1,44688644689|  1,44688644689|  1,51648351648|  1,51587301587|  1,49450549451|  1,46764346764
Buffalo                   |  1,51282051282|  1,51282051282|  1,51282051282|  1,51282051282|  1,51282051282|  1,51282051282|  1,51282051282|  1,51282051282|  1,51282051282|  1,51282051282|  1,44688644689|  1,45970695971|  1,44688644689|  1,37179487179|  1,37179487179|  1,30830280830|  0,00000000000|  1,45970695971|  1,44688644689|  1,44688644689|  1,45177045177|  1,45177045177|  1,44688644689|  1,44688644689|  1,44688644689|  1,44688644689|  1,44688644689|  1,51648351648|  1,51587301587|  1,49450549451|  1,46764346764
Wolf                      |  1,51282051282|  1,51282051282|  1,51282051282|  1,51282051282|  1,51282051282|  1,51282051282|  1,51282051282|  1,51282051282|  1,51282051282|  1,51282051282|  1,45970695971|  1,09157509158|  1,45970695971|  1,45970695971|  1,45970695971|  1,45970695971|  1,45970695971|  0,00000000000|  1,45970695971|  1,45970695971|  1,45970695971|  1,45970695971|  1,45970695971|  1,45970695971|  1,45970695971|  1,45970695971|  1,45970695971|  1,51648351648|  1,51587301587|  1,49450549451|  1,46764346764
Tiger                     |  1,51282051282|  1,51282051282|  1,51282051282|  1,51282051282|  1,51282051282|  1,51282051282|  1,51282051282|  1,51282051282|  1,51282051282|  1,51282051282|  1,25763125763|  1,45970695971|  1,43467643468|  1,44688644689|  1,44688644689|  1,44688644689|  1,44688644689|  1,45970695971|  0,00000000000|  1,25763125763|  1,45177045177|  1,45177045177|  1,39560439560|  1,39560439560|  1,39560439560|  1,39560439560|  1,43956043956|  1,51648351648|  1,51587301587|  1,49450549451|  1,46764346764
Leopard                   |  1,51282051282|  1,51282051282|  1,51282051282|  1,51282051282|  1,51282051282|  1,51282051282|  1,51282051282|  1,51282051282|  1,51282051282|  1,51282051282|  1,00671550672|  1,45970695971|  1,43467643468|  1,44688644689|  1,44688644689|  1,44688644689|  1,44688644689|  1,45970695971|  1,25763125763|  0,00000000000|  1,45177045177|  1,45177045177|  1,39560439560|  1,39560439560|  1,39560439560|  1,39560439560|  1,43956043956|  1,51648351648|  1,51587301587|  1,49450549451|  1,46764346764
Indian_Rhino              |  1,51282051282|  1,51282051282|  1,51282051282|  1,51282051282|  1,51282051282|  1,51282051282|  1,51282051282|  1,51282051282|  1,51282051282|  1,51282051282|  1,45177045177|  1,45970695971|  1,45177045177|  1,45177045177|  1,45177045177|  1,45177045177|  1,45177045177|  1,45970695971|  1,45177045177|  1,45177045177|  0,00000000000|  1,25396825397|  1,45177045177|  1,45177045177|  1,45177045177|  1,45177045177|  1,45177045177|  1,51648351648|  1,51587301587|  1,49450549451|  1,46764346764
White_Rhino               |  1,51282051282|  1,51282051282|  1,51282051282|  1,51282051282|  1,51282051282|  1,51282051282|  1,51282051282|  1,51282051282|  1,51282051282|  1,51282051282|  1,45177045177|  1,45970695971|  1,45177045177|  1,45177045177|  1,45177045177|  1,45177045177|  1,45177045177|  1,45970695971|  1,45177045177|  1,45177045177|  1,25396825397|  0,00000000000|  1,45177045177|  1,45177045177|  1,45177045177|  1,45177045177|  1,45177045177|  1,51648351648|  1,51587301587|  1,49450549451|  1,46764346764
Black_Bear                |  1,51282051282|  1,51282051282|  1,51282051282|  1,51282051282|  1,51282051282|  1,51282051282|  1,51282051282|  1,51282051282|  1,51282051282|  1,51282051282|  1,39560439560|  1,45970695971|  1,43467643468|  1,44688644689|  1,44688644689|  1,44688644689|  1,44688644689|  1,45970695971|  1,39560439560|  1,39560439560|  1,45177045177|  1,45177045177|  0,00000000000|  0,97313797314|  0,97313797314|  1,25885225885|  1,43956043956|  1,51648351648|  1,51587301587|  1,49450549451|  1,46764346764
Brown_Bear                |  1,51282051282|  1,51282051282|  1,51282051282|  1,51282051282|  1,51282051282|  1,51282051282|  1,51282051282|  1,51282051282|  1,51282051282|  1,51282051282|  1,39560439560|  1,45970695971|  1,43467643468|  1,44688644689|  1,44688644689|  1,44688644689|  1,44688644689|  1,45970695971|  1,39560439560|  1,39560439560|  1,45177045177|  1,45177045177|  0,97313797314|  0,00000000000|  0,95848595849|  1,25885225885|  1,43956043956|  1,51648351648|  1,51587301587|  1,49450549451|  1,46764346764
Polar_Bear                |  1,51282051282|  1,51282051282|  1,51282051282|  1,51282051282|  1,51282051282|  1,51282051282|  1,51282051282|  1,51282051282|  1,51282051282|  1,51282051282|  1,39560439560|  1,45970695971|  1,43467643468|  1,44688644689|  1,44688644689|  1,44688644689|  1,44688644689|  1,45970695971|  1,39560439560|  1,39560439560|  1,45177045177|  1,45177045177|  0,97313797314|  0,95848595849|  0,00000000000|  1,25885225885|  1,43956043956|  1,51648351648|  1,51587301587|  1,49450549451|  1,46764346764
Giant_Panda               |  1,51282051282|  1,51282051282|  1,51282051282|  1,51282051282|  1,51282051282|  1,51282051282|  1,51282051282|  1,51282051282|  1,51282051282|  1,51282051282|  1,39560439560|  1,45970695971|  1,43467643468|  1,44688644689|  1,44688644689|  1,44688644689|  1,44688644689|  1,45970695971|  1,39560439560|  1,39560439560|  1,45177045177|  1,45177045177|  1,25885225885|  1,25885225885|  1,25885225885|  0,00000000000|  1,43956043956|  1,51648351648|  1,51587301587|  1,49450549451|  1,46764346764
Rabbit                    |  1,51282051282|  1,51282051282|  1,51282051282|  1,51282051282|  1,51282051282|  1,51282051282|  1,51282051282|  1,51282051282|  1,51282051282|  1,51282051282|  1,43956043956|  1,45970695971|  1,43956043956|  1,44688644689|  1,44688644689|  1,44688644689|  1,44688644689|  1,45970695971|  1,43956043956|  1,43956043956|  1,45177045177|  1,45177045177|  1,43956043956|  1,43956043956|  1,43956043956|  1,43956043956|  0,00000000000|  1,51648351648|  1,51587301587|  1,49450549451|  1,46764346764
Hedgehog                  |  1,51648351648|  1,51648351648|  1,51648351648|  1,51648351648|  1,51648351648|  1,51648351648|  1,51648351648|  1,51648351648|  1,51648351648|  1,51648351648|  1,51648351648|  1,51648351648|  1,51648351648|  1,51648351648|  1,51648351648|  1,51648351648|  1,51648351648|  1,51648351648|  1,51648351648|  1,51648351648|  1,51648351648|  1,51648351648|  1,51648351648|  1,51648351648|  1,51648351648|  1,51648351648|  1,51648351648|  0,00000000000|  1,51648351648|  1,51648351648|  1,51648351648
Dormouse                  |  1,51587301587|  1,51587301587|  1,51587301587|  1,51587301587|  1,51587301587|  1,51587301587|  1,51587301587|  1,51587301587|  1,51587301587|  1,51587301587|  1,51587301587|  1,51587301587|  1,51587301587|  1,51587301587|  1,51587301587|  1,51587301587|  1,51587301587|  1,51587301587|  1,51587301587|  1,51587301587|  1,51587301587|  1,51587301587|  1,51587301587|  1,51587301587|  1,51587301587|  1,51587301587|  1,51587301587|  1,51648351648|  0,00000000000|  1,51587301587|  1,51587301587
Squirrel                  |  1,51282051282|  1,51282051282|  1,51282051282|  1,51282051282|  1,51282051282|  1,51282051282|  1,51282051282|  1,51282051282|  1,51282051282|  1,51282051282|  1,49450549451|  1,49450549451|  1,49450549451|  1,49450549451|  1,49450549451|  1,49450549451|  1,49450549451|  1,49450549451|  1,49450549451|  1,49450549451|  1,49450549451|  1,49450549451|  1,49450549451|  1,49450549451|  1,49450549451|  1,49450549451|  1,49450549451|  1,51648351648|  1,51587301587|  0,00000000000|  1,49450549451
Blue_Whale                |  1,51282051282|  1,51282051282|  1,51282051282|  1,51282051282|  1,51282051282|  1,51282051282|  1,51282051282|  1,51282051282|  1,51282051282|  1,51282051282|  1,46764346764|  1,46764346764|  1,46764346764|  1,46764346764|  1,46764346764|  1,46764346764|  1,46764346764|  1,46764346764|  1,46764346764|  1,46764346764|  1,46764346764|  1,46764346764|  1,46764346764|  1,46764346764|  1,46764346764|  1,46764346764|  1,46764346764|  1,51648351648|  1,51587301587|  1,49450549451|  0,00000000000
                           |Human          |Pig_Chim       |Com_Chim       |Gibbon         |Baboon         |Ver_Monkey     |Macaca_Thibet  |Bor_Oran       |Sum_Oran       |Gorilla        |Cat            |Dog            |Pig            |Sheep          |Goat           |Cow            |Buffalo        |Wolf           |Tiger          |Leopard        |Indian_Rhino   |White_Rhino    |Black_Bear     |Brown_Bear     |Polar_Bear     |Giant_Panda    |Rabbit         |Hedgehog       |Dormouse       |Squirrel       |Blue_Whale     
Human                     |  0,00000000000|  5,25035343603|  5,25035343603|  8,30030395629|  9,45744598785|  9,40380364202|  9,99386944619|  9,58005706404|  9,58005706404|  6,33086354497| 10,53029290453| 10,53029290453| 10,53029290453| 10,53029290453| 10,53029290453| 10,53029290453| 10,53029290453| 10,53029290453| 10,53029290453| 10,53029290453| 10,53029290453| 10,53029290453| 10,53029290453| 10,53029290453| 10,53029290453| 10,53029290453| 10,53029290453| 10,57627205810| 10,56860886584| 10,53029290453| 10,53029290453
Pig_Chim                  |  5,25035343603|  0,00000000000|  4,02424267411|  8,30030395629|  9,45744598785|  9,40380364202|  9,99386944619|  9,58005706404|  9,58005706404|  6,33086354497| 10,53029290453| 10,53029290453| 10,53029290453| 10,53029290453| 10,53029290453| 10,53029290453| 10,53029290453| 10,53029290453| 10,53029290453| 10,53029290453| 10,53029290453| 10,53029290453| 10,53029290453| 10,53029290453| 10,53029290453| 10,53029290453| 10,53029290453| 10,57627205810| 10,56860886584| 10,53029290453| 10,53029290453
Com_Chim                  |  5,25035343603|  4,02424267411|  0,00000000000|  8,30030395629|  9,45744598785|  9,40380364202|  9,99386944619|  9,58005706404|  9,58005706404|  6,33086354497| 10,53029290453| 10,53029290453| 10,53029290453| 10,53029290453| 10,53029290453| 10,53029290453| 10,53029290453| 10,53029290453| 10,53029290453| 10,53029290453| 10,53029290453| 10,53029290453| 10,53029290453| 10,53029290453| 10,53029290453| 10,53029290453| 10,53029290453| 10,57627205810| 10,56860886584| 10,53029290453| 10,53029290453
Gibbon                    |  8,30030395629|  8,30030395629|  8,30030395629|  0,00000000000|  9,45744598785|  9,40380364202|  9,99386944619|  9,58005706404|  9,58005706404|  8,30030395629| 10,53029290453| 10,53029290453| 10,53029290453| 10,53029290453| 10,53029290453| 10,53029290453| 10,53029290453| 10,53029290453| 10,53029290453| 10,53029290453| 10,53029290453| 10,53029290453| 10,53029290453| 10,53029290453| 10,53029290453| 10,53029290453| 10,53029290453| 10,57627205810| 10,56860886584| 10,53029290453| 10,53029290453
Baboon                    |  9,45744598785|  9,45744598785|  9,45744598785|  9,45744598785|  0,00000000000|  9,45744598785|  9,99386944619|  9,58005706404|  9,58005706404|  9,45744598785| 10,53029290453| 10,53029290453| 10,53029290453| 10,53029290453| 10,53029290453| 10,53029290453| 10,53029290453| 10,53029290453| 10,53029290453| 10,53029290453| 10,53029290453| 10,53029290453| 10,53029290453| 10,53029290453| 10,53029290453| 10,53029290453| 10,53029290453| 10,57627205810| 10,56860886584| 10,53029290453| 10,53029290453
Ver_Monkey                |  9,40380364202|  9,40380364202|  9,40380364202|  9,40380364202|  9,45744598785|  0,00000000000|  9,99386944619|  9,58005706404|  9,58005706404|  9,40380364202| 10,53029290453| 10,53029290453| 10,53029290453| 10,53029290453| 10,53029290453| 10,53029290453| 10,53029290453| 10,53029290453| 10,53029290453| 10,53029290453| 10,53029290453| 10,53029290453| 10,53029290453| 10,53029290453| 10,53029290453| 10,53029290453| 10,53029290453| 10,57627205810| 10,56860886584| 10,53029290453| 10,53029290453
Macaca_Thibet             |  9,99386944619|  9,99386944619|  9,99386944619|  9,99386944619|  9,99386944619|  9,99386944619|  0,00000000000|  9,99386944619|  9,99386944619|  9,99386944619| 10,53029290453| 10,53029290453| 10,53029290453| 10,53029290453| 10,53029290453| 10,53029290453| 10,53029290453| 10,53029290453| 10,53029290453| 10,53029290453| 10,53029290453| 10,53029290453| 10,53029290453| 10,53029290453| 10,53029290453| 10,53029290453| 10,53029290453| 10,57627205810| 10,56860886584| 10,53029290453| 10,53029290453
Bor_Oran                  |  9,58005706404|  9,58005706404|  9,58005706404|  9,58005706404|  9,58005706404|  9,58005706404|  9,99386944619|  0,00000000000|  8,98232806761|  9,58005706404| 10,53029290453| 10,53029290453| 10,53029290453| 10,53029290453| 10,53029290453| 10,53029290453| 10,53029290453| 10,53029290453| 10,53029290453| 10,53029290453| 10,53029290453| 10,53029290453| 10,53029290453| 10,53029290453| 10,53029290453| 10,53029290453| 10,53029290453| 10,57627205810| 10,56860886584| 10,53029290453| 10,53029290453
Sum_Oran                  |  9,58005706404|  9,58005706404|  9,58005706404|  9,58005706404|  9,58005706404|  9,58005706404|  9,99386944619|  8,98232806761|  0,00000000000|  9,58005706404| 10,53029290453| 10,53029290453| 10,53029290453| 10,53029290453| 10,53029290453| 10,53029290453| 10,53029290453| 10,53029290453| 10,53029290453| 10,53029290453| 10,53029290453| 10,53029290453| 10,53029290453| 10,53029290453| 10,53029290453| 10,53029290453| 10,53029290453| 10,57627205810| 10,56860886584| 10,53029290453| 10,53029290453
Gorilla                   |  6,33086354497|  6,33086354497|  6,33086354497|  8,30030395629|  9,45744598785|  9,40380364202|  9,99386944619|  9,58005706404|  9,58005706404|  0,00000000000| 10,53029290453| 10,53029290453| 10,53029290453| 10,53029290453| 10,53029290453| 10,53029290453| 10,53029290453| 10,53029290453| 10,53029290453| 10,53029290453| 10,53029290453| 10,53029290453| 10,53029290453| 10,53029290453| 10,53029290453| 10,53029290453| 10,53029290453| 10,57627205810| 10,56860886584| 10,53029290453| 10,53029290453
Cat                       | 10,53029290453| 10,53029290453| 10,53029290453| 10,53029290453| 10,53029290453| 10,53029290453| 10,53029290453| 10,53029290453| 10,53029290453| 10,53029290453|  0,00000000000|  9,86359517774|  9,54940429500|  9,70266814024|  9,70266814024|  9,70266814024|  9,70266814024|  9,86359517774|  7,32707853902|  4,17750651935|  9,76397367833|  9,76397367833|  9,05895999023|  9,05895999023|  9,05895999023|  9,05895999023|  9,61070983309| 10,57627205810| 10,56860886584| 10,30039713667|  9,96321667714
Dog                       | 10,53029290453| 10,53029290453| 10,53029290453| 10,53029290453| 10,53029290453| 10,53029290453| 10,53029290453| 10,53029290453| 10,53029290453| 10,53029290453|  9,86359517774|  0,00000000000|  9,86359517774|  9,86359517774|  9,86359517774|  9,86359517774|  9,86359517774|  5,24269024377|  9,86359517774|  9,86359517774|  9,86359517774|  9,86359517774|  9,86359517774|  9,86359517774|  9,86359517774|  9,86359517774|  9,86359517774| 10,57627205810| 10,56860886584| 10,30039713667|  9,96321667714
Pig                       | 10,53029290453| 10,53029290453| 10,53029290453| 10,53029290453| 10,53029290453| 10,53029290453| 10,53029290453| 10,53029290453| 10,53029290453| 10,53029290453|  9,54940429500|  9,86359517774|  0,00000000000|  9,70266814024|  9,70266814024|  9,70266814024|  9,70266814024|  9,86359517774|  9,54940429500|  9,54940429500|  9,76397367833|  9,76397367833|  9,54940429500|  9,54940429500|  9,54940429500|  9,54940429500|  9,61070983309| 10,57627205810| 10,56860886584| 10,30039713667|  9,96321667714
Sheep                     | 10,53029290453| 10,53029290453| 10,53029290453| 10,53029290453| 10,53029290453| 10,53029290453| 10,53029290453| 10,53029290453| 10,53029290453| 10,53029290453|  9,70266814024|  9,86359517774|  9,70266814024|  0,00000000000|  8,17769288010|  8,76009549201|  8,76009549201|  9,86359517774|  9,70266814024|  9,70266814024|  9,76397367833|  9,76397367833|  9,70266814024|  9,70266814024|  9,70266814024|  9,70266814024|  9,70266814024| 10,57627205810| 10,56860886584| 10,30039713667|  9,96321667714
Goat                      | 10,53029290453| 10,53029290453| 10,53029290453| 10,53029290453| 10,53029290453| 10,53029290453| 10,53029290453| 10,53029290453| 10,53029290453| 10,53029290453|  9,70266814024|  9,86359517774|  9,70266814024|  8,17769288010|  0,00000000000|  8,76009549201|  8,76009549201|  9,86359517774|  9,70266814024|  9,70266814024|  9,76397367833|  9,76397367833|  9,70266814024|  9,70266814024|  9,70266814024|  9,70266814024|  9,70266814024| 10,57627205810| 10,56860886584| 10,30039713667|  9,96321667714
Cow                       | 10,53029290453| 10,53029290453| 10,53029290453| 10,53029290453| 10,53029290453| 10,53029290453| 10,53029290453| 10,53029290453| 10,53029290453| 10,53029290453|  9,70266814024|  9,86359517774|  9,70266814024|  8,76009549201|  8,76009549201|  0,00000000000|  7,96312349677|  9,86359517774|  9,70266814024|  9,70266814024|  9,76397367833|  9,76397367833|  9,70266814024|  9,70266814024|  9,70266814024|  9,70266814024|  9,70266814024| 10,57627205810| 10,56860886584| 10,30039713667|  9,96321667714
Buffalo                   | 10,53029290453| 10,53029290453| 10,53029290453| 10,53029290453| 10,53029290453| 10,53029290453| 10,53029290453| 10,53029290453| 10,53029290453| 10,53029290453|  9,70266814024|  9,86359517774|  9,70266814024|  8,76009549201|  8,76009549201|  7,96312349677|  0,00000000000|  9,86359517774|  9,70266814024|  9,70266814024|  9,76397367833|  9,76397367833|  9,70266814024|  9,70266814024|  9,70266814024|  9,70266814024|  9,70266814024| 10,57627205810| 10,56860886584| 10,30039713667|  9,96321667714
Wolf                      | 10,53029290453| 10,53029290453| 10,53029290453| 10,53029290453| 10,53029290453| 10,53029290453| 10,53029290453| 10,53029290453| 10,53029290453| 10,53029290453|  9,86359517774|  5,24269024377|  9,86359517774|  9,86359517774|  9,86359517774|  9,86359517774|  9,86359517774|  0,00000000000|  9,86359517774|  9,86359517774|  9,86359517774|  9,86359517774|  9,86359517774|  9,86359517774|  9,86359517774|  9,86359517774|  9,86359517774| 10,57627205810| 10,56860886584| 10,30039713667|  9,96321667714
Tiger                     | 10,53029290453| 10,53029290453| 10,53029290453| 10,53029290453| 10,53029290453| 10,53029290453| 10,53029290453| 10,53029290453| 10,53029290453| 10,53029290453|  7,32707853902|  9,86359517774|  9,54940429500|  9,70266814024|  9,70266814024|  9,70266814024|  9,70266814024|  9,86359517774|  0,00000000000|  7,32707853902|  9,76397367833|  9,76397367833|  9,05895999023|  9,05895999023|  9,05895999023|  9,05895999023|  9,61070983309| 10,57627205810| 10,56860886584| 10,30039713667|  9,96321667714
Leopard                   | 10,53029290453| 10,53029290453| 10,53029290453| 10,53029290453| 10,53029290453| 10,53029290453| 10,53029290453| 10,53029290453| 10,53029290453| 10,53029290453|  4,17750651935|  9,86359517774|  9,54940429500|  9,70266814024|  9,70266814024|  9,70266814024|  9,70266814024|  9,86359517774|  7,32707853902|  0,00000000000|  9,76397367833|  9,76397367833|  9,05895999023|  9,05895999023|  9,05895999023|  9,05895999023|  9,61070983309| 10,57627205810| 10,56860886584| 10,30039713667|  9,96321667714
Indian_Rhino              | 10,53029290453| 10,53029290453| 10,53029290453| 10,53029290453| 10,53029290453| 10,53029290453| 10,53029290453| 10,53029290453| 10,53029290453| 10,53029290453|  9,76397367833|  9,86359517774|  9,76397367833|  9,76397367833|  9,76397367833|  9,76397367833|  9,76397367833|  9,86359517774|  9,76397367833|  9,76397367833|  0,00000000000|  7,28109938545|  9,76397367833|  9,76397367833|  9,76397367833|  9,76397367833|  9,76397367833| 10,57627205810| 10,56860886584| 10,30039713667|  9,96321667714
White_Rhino               | 10,53029290453| 10,53029290453| 10,53029290453| 10,53029290453| 10,53029290453| 10,53029290453| 10,53029290453| 10,53029290453| 10,53029290453| 10,53029290453|  9,76397367833|  9,86359517774|  9,76397367833|  9,76397367833|  9,76397367833|  9,76397367833|  9,76397367833|  9,86359517774|  9,76397367833|  9,76397367833|  7,28109938545|  0,00000000000|  9,76397367833|  9,76397367833|  9,76397367833|  9,76397367833|  9,76397367833| 10,57627205810| 10,56860886584| 10,30039713667|  9,96321667714
Black_Bear                | 10,53029290453| 10,53029290453| 10,53029290453| 10,53029290453| 10,53029290453| 10,53029290453| 10,53029290453| 10,53029290453| 10,53029290453| 10,53029290453|  9,05895999023|  9,86359517774|  9,54940429500|  9,70266814024|  9,70266814024|  9,70266814024|  9,70266814024|  9,86359517774|  9,05895999023|  9,05895999023|  9,76397367833|  9,76397367833|  0,00000000000|  3,75603094494|  3,75603094494|  7,34240492355|  9,61070983309| 10,57627205810| 10,56860886584| 10,30039713667|  9,96321667714
Brown_Bear                | 10,53029290453| 10,53029290453| 10,53029290453| 10,53029290453| 10,53029290453| 10,53029290453| 10,53029290453| 10,53029290453| 10,53029290453| 10,53029290453|  9,05895999023|  9,86359517774|  9,54940429500|  9,70266814024|  9,70266814024|  9,70266814024|  9,70266814024|  9,86359517774|  9,05895999023|  9,05895999023|  9,76397367833|  9,76397367833|  3,75603094494|  0,00000000000|  3,57211433066|  7,34240492355|  9,61070983309| 10,57627205810| 10,56860886584| 10,30039713667|  9,96321667714
Polar_Bear                | 10,53029290453| 10,53029290453| 10,53029290453| 10,53029290453| 10,53029290453| 10,53029290453| 10,53029290453| 10,53029290453| 10,53029290453| 10,53029290453|  9,05895999023|  9,86359517774|  9,54940429500|  9,70266814024|  9,70266814024|  9,70266814024|  9,70266814024|  9,86359517774|  9,05895999023|  9,05895999023|  9,76397367833|  9,76397367833|  3,75603094494|  3,57211433066|  0,00000000000|  7,34240492355|  9,61070983309| 10,57627205810| 10,56860886584| 10,30039713667|  9,96321667714
Giant_Panda               | 10,53029290453| 10,53029290453| 10,53029290453| 10,53029290453| 10,53029290453| 10,53029290453| 10,53029290453| 10,53029290453| 10,53029290453| 10,53029290453|  9,05895999023|  9,86359517774|  9,54940429500|  9,70266814024|  9,70266814024|  9,70266814024|  9,70266814024|  9,86359517774|  9,05895999023|  9,05895999023|  9,76397367833|  9,76397367833|  7,34240492355|  7,34240492355|  7,34240492355|  0,00000000000|  9,61070983309| 10,57627205810| 10,56860886584| 10,30039713667|  9,96321667714
Rabbit                    | 10,53029290453| 10,53029290453| 10,53029290453| 10,53029290453| 10,53029290453| 10,53029290453| 10,53029290453| 10,53029290453| 10,53029290453| 10,53029290453|  9,61070983309|  9,86359517774|  9,61070983309|  9,70266814024|  9,70266814024|  9,70266814024|  9,70266814024|  9,86359517774|  9,61070983309|  9,61070983309|  9,76397367833|  9,76397367833|  9,61070983309|  9,61070983309|  9,61070983309|  9,61070983309|  0,00000000000| 10,57627205810| 10,56860886584| 10,30039713667|  9,96321667714
Hedgehog                  | 10,57627205810| 10,57627205810| 10,57627205810| 10,57627205810| 10,57627205810| 10,57627205810| 10,57627205810| 10,57627205810| 10,57627205810| 10,57627205810| 10,57627205810| 10,57627205810| 10,57627205810| 10,57627205810| 10,57627205810| 10,57627205810| 10,57627205810| 10,57627205810| 10,57627205810| 10,57627205810| 10,57627205810| 10,57627205810| 10,57627205810| 10,57627205810| 10,57627205810| 10,57627205810| 10,57627205810|  0,00000000000| 10,57627205810| 10,57627205810| 10,57627205810
Dormouse                  | 10,56860886584| 10,56860886584| 10,56860886584| 10,56860886584| 10,56860886584| 10,56860886584| 10,56860886584| 10,56860886584| 10,56860886584| 10,56860886584| 10,56860886584| 10,56860886584| 10,56860886584| 10,56860886584| 10,56860886584| 10,56860886584| 10,56860886584| 10,56860886584| 10,56860886584| 10,56860886584| 10,56860886584| 10,56860886584| 10,56860886584| 10,56860886584| 10,56860886584| 10,56860886584| 10,56860886584| 10,57627205810|  0,00000000000| 10,56860886584| 10,56860886584
Squirrel                  | 10,53029290453| 10,53029290453| 10,53029290453| 10,53029290453| 10,53029290453| 10,53029290453| 10,53029290453| 10,53029290453| 10,53029290453| 10,53029290453| 10,30039713667| 10,30039713667| 10,30039713667| 10,30039713667| 10,30039713667| 10,30039713667| 10,30039713667| 10,30039713667| 10,30039713667| 10,30039713667| 10,30039713667| 10,30039713667| 10,30039713667| 10,30039713667| 10,30039713667| 10,30039713667| 10,30039713667| 10,57627205810| 10,56860886584|  0,00000000000| 10,30039713667
Blue_Whale                | 10,53029290453| 10,53029290453| 10,53029290453| 10,53029290453| 10,53029290453| 10,53029290453| 10,53029290453| 10,53029290453| 10,53029290453| 10,53029290453|  9,96321667714|  9,96321667714|  9,96321667714|  9,96321667714|  9,96321667714|  9,96321667714|  9,96321667714|  9,96321667714|  9,96321667714|  9,96321667714|  9,96321667714|  9,96321667714|  9,96321667714|  9,96321667714|  9,96321667714|  9,96321667714|  9,96321667714| 10,57627205810| 10,56860886584| 10,30039713667|  0,00000000000
                           |Human          |Pig_Chim       |Com_Chim       |Gibbon         |Baboon         |Ver_Monkey     |Macaca_Thibet  |Bor_Oran       |Sum_Oran       |Gorilla        |Cat            |Dog            |Pig            |Sheep          |Goat           |Cow            |Buffalo        |Wolf           |Tiger          |Leopard        |Indian_Rhino   |White_Rhino    |Black_Bear     |Brown_Bear     |Polar_Bear     |Giant_Panda    |Rabbit         |Hedgehog       |Dormouse       |Squirrel       |Blue_Whale     
Human                     |  0,00000000000|  3,00000000000|  3,00000000000|  4,00000000000|  6,00000000000|  5,00000000000|  8,00000000000|  8,00000000000|  8,00000000000|  3,00000000000| 19,00000000000| 13,00000000000| 16,00000000000| 16,00000000000| 16,00000000000| 16,00000000000| 16,00000000000| 13,00000000000| 18,00000000000| 19,00000000000| 14,00000000000| 14,00000000000| 19,00000000000| 20,00000000000| 20,00000000000| 18,00000000000| 15,00000000000| 11,00000000000| 10,00000000000| 10,00000000000| 11,00000000000
Pig_Chim                  |  3,00000000000|  0,00000000000|  2,00000000000|  5,00000000000|  7,00000000000|  6,00000000000|  9,00000000000|  9,00000000000|  9,00000000000|  4,00000000000| 20,00000000000| 14,00000000000| 17,00000000000| 17,00000000000| 17,00000000000| 17,00000000000| 17,00000000000| 14,00000000000| 19,00000000000| 20,00000000000| 15,00000000000| 15,00000000000| 20,00000000000| 21,00000000000| 21,00000000000| 19,00000000000| 16,00000000000| 12,00000000000| 11,00000000000| 11,00000000000| 12,00000000000
Com_Chim                  |  3,00000000000|  2,00000000000|  0,00000000000|  5,00000000000|  7,00000000000|  6,00000000000|  9,00000000000|  9,00000000000|  9,00000000000|  4,00000000000| 20,00000000000| 14,00000000000| 17,00000000000| 17,00000000000| 17,00000000000| 17,00000000000| 17,00000000000| 14,00000000000| 19,00000000000| 20,00000000000| 15,00000000000| 15,00000000000| 20,00000000000| 21,00000000000| 21,00000000000| 19,00000000000| 16,00000000000| 12,00000000000| 11,00000000000| 11,00000000000| 12,00000000000
Gibbon                    |  4,00000000000|  5,00000000000|  5,00000000000|  0,00000000000|  4,00000000000|  3,00000000000|  6,00000000000|  6,00000000000|  6,00000000000|  3,00000000000| 17,00000000000| 11,00000000000| 14,00000000000| 14,00000000000| 14,00000000000| 14,00000000000| 14,00000000000| 11,00000000000| 16,00000000000| 17,00000000000| 12,00000000000| 12,00000000000| 17,00000000000| 18,00000000000| 18,00000000000| 16,00000000000| 13,00000000000|  9,00000000000|  8,00000000000|  8,00000000000|  9,00000000000
Baboon                    |  6,00000000000|  7,00000000000|  7,00000000000|  4,00000000000|  0,00000000000|  3,00000000000|  4,00000000000|  4,00000000000|  4,00000000000|  5,00000000000| 15,00000000000|  9,00000000000| 12,00000000000| 12,00000000000| 12,00000000000| 12,00000000000| 12,00000000000|  9,00000000000| 14,00000000000| 15,00000000000| 10,00000000000| 10,00000000000| 15,00000000000| 16,00000000000| 16,00000000000| 14,00000000000| 11,00000000000|  7,00000000000|  6,00000000000|  6,00000000000|  7,00000000000
Ver_Monkey                |  5,00000000000|  6,00000000000|  6,00000000000|  3,00000000000|  3,00000000000|  0,00000000000|  5,00000000000|  5,00000000000|  5,00000000000|  4,00000000000| 16,00000000000| 10,00000000000| 13,00000000000| 13,00000000000| 13,00000000000| 13,00000000000| 13,00000000000| 10,00000000000| 15,00000000000| 16,00000000000| 11,00000000000| 11,00000000000| 16,00000000000| 17,00000000000| 17,00000000000| 15,00000000000| 12,00000000000|  8,00000000000|  7,00000000000|  7,00000000000|  8,00000000000
Macaca_Thibet             |  8,00000000000|  9,00000000000|  9,00000000000|  6,00000000000|  4,00000000000|  5,00000000000|  0,00000000000|  4,00000000000|  4,00000000000|  7,00000000000| 13,00000000000|  7,00000000000| 10,00000000000| 10,00000000000| 10,00000000000| 10,00000000000| 10,00000000000|  7,00000000000| 12,00000000000| 13,00000000000|  8,00000000000|  8,00000000000| 13,00000000000| 14,00000000000| 14,00000000000| 12,00000000000|  9,00000000000|  5,00000000000|  4,00000000000|  4,00000000000|  5,00000000000
Bor_Oran                  |  8,00000000000|  9,00000000000|  9,00000000000|  6,00000000000|  4,00000000000|  5,00000000000|  4,00000000000|  0,00000000000|  2,00000000000|  7,00000000000| 15,00000000000|  9,00000000000| 12,00000000000| 12,00000000000| 12,00000000000| 12,00000000000| 12,00000000000|  9,00000000000| 14,00000000000| 15,00000000000| 10,00000000000| 10,00000000000| 15,00000000000| 16,00000000000| 16,00000000000| 14,00000000000| 11,00000000000|  7,00000000000|  6,00000000000|  6,00000000000|  7,00000000000
Sum_Oran                  |  8,00000000000|  9,00000000000|  9,00000000000|  6,00000000000|  4,00000000000|  5,00000000000|  4,00000000000|  2,00000000000|  0,00000000000|  7,00000000000| 15,00000000000|  9,00000000000| 12,00000000000| 12,00000000000| 12,00000000000| 12,00000000000| 12,00000000000|  9,00000000000| 14,00000000000| 15,00000000000| 10,00000000000| 10,00000000000| 15,00000000000| 16,00000000000| 16,00000000000| 14,00000000000| 11,00000000000|  7,00000000000|  6,00000000000|  6,00000000000|  7,00000000000
Gorilla                   |  3,00000000000|  4,00000000000|  4,00000000000|  3,00000000000|  5,00000000000|  4,00000000000|  7,00000000000|  7,00000000000|  7,00000000000|  0,00000000000| 18,00000000000| 12,00000000000| 15,00000000000| 15,00000000000| 15,00000000000| 15,00000000000| 15,00000000000| 12,00000000000| 17,00000000000| 18,00000000000| 13,00000000000| 13,00000000000| 18,00000000000| 19,00000000000| 19,00000000000| 17,00000000000| 14,00000000000| 10,00000000000|  9,00000000000|  9,00000000000| 10,00000000000
Cat                       | 19,00000000000| 20,00000000000| 20,00000000000| 17,00000000000| 15,00000000000| 16,00000000000| 13,00000000000| 15,00000000000| 15,00000000000| 18,00000000000|  0,00000000000| 10,00000000000|  5,00000000000|  9,00000000000|  9,00000000000|  9,00000000000|  9,00000000000| 10,00000000000|  3,00000000000|  2,00000000000|  9,00000000000|  9,00000000000|  6,00000000000|  7,00000000000|  7,00000000000|  5,00000000000|  6,00000000000| 14,00000000000| 13,00000000000| 11,00000000000| 10,00000000000
Dog                       | 13,00000000000| 14,00000000000| 14,00000000000| 11,00000000000|  9,00000000000| 10,00000000000|  7,00000000000|  9,00000000000|  9,00000000000| 12,00000000000| 10,00000000000|  0,00000000000|  7,00000000000|  7,00000000000|  7,00000000000|  7,00000000000|  7,00000000000|  2,00000000000|  9,00000000000| 10,00000000000|  5,00000000000|  5,00000000000| 10,00000000000| 11,00000000000| 11,00000000000|  9,00000000000|  6,00000000000|  8,00000000000|  7,00000000000|  5,00000000000|  4,00000000000
Pig                       | 16,00000000000| 17,00000000000| 17,00000000000| 14,00000000000| 12,00000000000| 13,00000000000| 10,00000000000| 12,00000000000| 12,00000000000| 15,00000000000|  5,00000000000|  7,00000000000|  0,00000000000|  6,00000000000|  6,00000000000|  6,00000000000|  6,00000000000|  7,00000000000|  4,00000000000|  5,00000000000|  6,00000000000|  6,00000000000|  5,00000000000|  6,00000000000|  6,00000000000|  4,00000000000|  3,00000000000| 11,00000000000| 10,00000000000|  8,00000000000|  7,00000000000
Sheep                     | 16,00000000000| 17,00000000000| 17,00000000000| 14,00000000000| 12,00000000000| 13,00000000000| 10,00000000000| 12,00000000000| 12,00000000000| 15,00000000000|  9,00000000000|  7,00000000000|  6,00000000000|  0,00000000000|  2,00000000000|  4,00000000000|  4,00000000000|  7,00000000000|  8,00000000000|  9,00000000000|  6,00000000000|  6,00000000000|  9,00000000000| 10,00000000000| 10,00000000000|  8,00000000000|  5,00000000000| 11,00000000000| 10,00000000000|  8,00000000000|  7,00000000000
Goat                      | 16,00000000000| 17,00000000000| 17,00000000000| 14,00000000000| 12,00000000000| 13,00000000000| 10,00000000000| 12,00000000000| 12,00000000000| 15,00000000000|  9,00000000000|  7,00000000000|  6,00000000000|  2,00000000000|  0,00000000000|  4,00000000000|  4,00000000000|  7,00000000000|  8,00000000000|  9,00000000000|  6,00000000000|  6,00000000000|  9,00000000000| 10,00000000000| 10,00000000000|  8,00000000000|  5,00000000000| 11,00000000000| 10,00000000000|  8,00000000000|  7,00000000000
Cow                       | 16,00000000000| 17,00000000000| 17,00000000000| 14,00000000000| 12,00000000000| 13,00000000000| 10,00000000000| 12,00000000000| 12,00000000000| 15,00000000000|  9,00000000000|  7,00000000000|  6,00000000000|  4,00000000000|  4,00000000000|  0,00000000000|  2,00000000000|  7,00000000000|  8,00000000000|  9,00000000000|  6,00000000000|  6,00000000000|  9,00000000000| 10,00000000000| 10,00000000000|  8,00000000000|  5,00000000000| 11,00000000000| 10,00000000000|  8,00000000000|  7,00000000000
Buffalo                   | 16,00000000000| 17,00000000000| 17,00000000000| 14,00000000000| 12,00000000000| 13,00000000000| 10,00000000000| 12,00000000000| 12,00000000000| 15,00000000000|  9,00000000000|  7,00000000000|  6,00000000000|  4,00000000000|  4,00000000000|  2,00000000000|  0,00000000000|  7,00000000000|  8,00000000000|  9,00000000000|  6,00000000000|  6,00000000000|  9,00000000000| 10,00000000000| 10,00000000000|  8,00000000000|  5,00000000000| 11,00000000000| 10,00000000000|  8,00000000000|  7,00000000000
Wolf                      | 13,00000000000| 14,00000000000| 14,00000000000| 11,00000000000|  9,00000000000| 10,00000000000|  7,00000000000|  9,00000000000|  9,00000000000| 12,00000000000| 10,00000000000|  2,00000000000|  7,00000000000|  7,00000000000|  7,00000000000|  7,00000000000|  7,00000000000|  0,00000000000|  9,00000000000| 10,00000000000|  5,00000000000|  5,00000000000| 10,00000000000| 11,00000000000| 11,00000000000|  9,00000000000|  6,00000000000|  8,00000000000|  7,00000000000|  5,00000000000|  4,00000000000
Tiger                     | 18,00000000000| 19,00000000000| 19,00000000000| 16,00000000000| 14,00000000000| 15,00000000000| 12,00000000000| 14,00000000000| 14,00000000000| 17,00000000000|  3,00000000000|  9,00000000000|  4,00000000000|  8,00000000000|  8,00000000000|  8,00000000000|  8,00000000000|  9,00000000000|  0,00000000000|  3,00000000000|  8,00000000000|  8,00000000000|  5,00000000000|  6,00000000000|  6,00000000000|  4,00000000000|  5,00000000000| 13,00000000000| 12,00000000000| 10,00000000000|  9,00000000000
Leopard                   | 19,00000000000| 20,00000000000| 20,00000000000| 17,00000000000| 15,00000000000| 16,00000000000| 13,00000000000| 15,00000000000| 15,00000000000| 18,00000000000|  2,00000000000| 10,00000000000|  5,00000000000|  9,00000000000|  9,00000000000|  9,00000000000|  9,00000000000| 10,00000000000|  3,00000000000|  0,00000000000|  9,00000000000|  9,00000000000|  6,00000000000|  7,00000000000|  7,00000000000|  5,00000000000|  6,00000000000| 14,00000000000| 13,00000000000| 11,00000000000| 10,00000000000
Indian_Rhino              | 14,00000000000| 15,00000000000| 15,00000000000| 12,00000000000| 10,00000000000| 11,00000000000|  8,00000000000| 10,00000000000| 10,00000000000| 13,00000000000|  9,00000000000|  5,00000000000|  6,00000000000|  6,00000000000|  6,00000000000|  6,00000000000|  6,00000000000|  5,00000000000|  8,00000000000|  9,00000000000|  0,00000000000|  2,00000000000|  9,00000000000| 10,00000000000| 10,00000000000|  8,00000000000|  5,00000000000|  9,00000000000|  8,00000000000|  6,00000000000|  5,00000000000
White_Rhino               | 14,00000000000| 15,00000000000| 15,00000000000| 12,00000000000| 10,00000000000| 11,00000000000|  8,00000000000| 10,00000000000| 10,00000000000| 13,00000000000|  9,00000000000|  5,00000000000|  6,00000000000|  6,00000000000|  6,00000000000|  6,00000000000|  6,00000000000|  5,00000000000|  8,00000000000|  9,00000000000|  2,00000000000|  0,00000000000|  9,00000000000| 10,00000000000| 10,00000000000|  8,00000000000|  5,00000000000|  9,00000000000|  8,00000000000|  6,00000000000|  5,00000000000
Black_Bear                | 19,00000000000| 20,00000000000| 20,00000000000| 17,00000000000| 15,00000000000| 16,00000000000| 13,00000000000| 15,00000000000| 15,00000000000| 18,00000000000|  6,00000000000| 10,00000000000|  5,00000000000|  9,00000000000|  9,00000000000|  9,00000000000|  9,00000000000| 10,00000000000|  5,00000000000|  6,00000000000|  9,00000000000|  9,00000000000|  0,00000000000|  3,00000000000|  3,00000000000|  3,00000000000|  6,00000000000| 14,00000000000| 13,00000000000| 11,00000000000| 10,00000000000
Brown_Bear                | 20,00000000000| 21,00000000000| 21,00000000000| 18,00000000000| 16,00000000000| 17,00000000000| 14,00000000000| 16,00000000000| 16,00000000000| 19,00000000000|  7,00000000000| 11,00000000000|  6,00000000000| 10,00000000000| 10,00000000000| 10,00000000000| 10,00000000000| 11,00000000000|  6,00000000000|  7,00000000000| 10,00000000000| 10,00000000000|  3,00000000000|  0,00000000000|  2,00000000000|  4,00000000000|  7,00000000000| 15,00000000000| 14,00000000000| 12,00000000000| 11,00000000000
Polar_Bear                | 20,00000000000| 21,00000000000| 21,00000000000| 18,00000000000| 16,00000000000| 17,00000000000| 14,00000000000| 16,00000000000| 16,00000000000| 19,00000000000|  7,00000000000| 11,00000000000|  6,00000000000| 10,00000000000| 10,00000000000| 10,00000000000| 10,00000000000| 11,00000000000|  6,00000000000|  7,00000000000| 10,00000000000| 10,00000000000|  3,00000000000|  2,00000000000|  0,00000000000|  4,00000000000|  7,00000000000| 15,00000000000| 14,00000000000| 12,00000000000| 11,00000000000
Giant_Panda               | 18,00000000000| 19,00000000000| 19,00000000000| 16,00000000000| 14,00000000000| 15,00000000000| 12,00000000000| 14,00000000000| 14,00000000000| 17,00000000000|  5,00000000000|  9,00000000000|  4,00000000000|  8,00000000000|  8,00000000000|  8,00000000000|  8,00000000000|  9,00000000000|  4,00000000000|  5,00000000000|  8,00000000000|  8,00000000000|  3,00000000000|  4,00000000000|  4,00000000000|  0,00000000000|  5,00000000000| 13,00000000000| 12,00000000000| 10,00000000000|  9,00000000000
Rabbit                    | 15,00000000000| 16,00000000000| 16,00000000000| 13,00000000000| 11,00000000000| 12,00000000000|  9,00000000000| 11,00000000000| 11,00000000000| 14,00000000000|  6,00000000000|  6,00000000000|  3,00000000000|  5,00000000000|  5,00000000000|  5,00000000000|  5,00000000000|  6,00000000000|  5,00000000000|  6,00000000000|  5,00000000000|  5,00000000000|  6,00000000000|  7,00000000000|  7,00000000000|  5,00000000000|  0,00000000000| 10,00000000000|  9,00000000000|  7,00000000000|  6,00000000000
Hedgehog                  | 11,00000000000| 12,00000000000| 12,00000000000|  9,00000000000|  7,00000000000|  8,00000000000|  5,00000000000|  7,00000000000|  7,00000000000| 10,00000000000| 14,00000000000|  8,00000000000| 11,00000000000| 11,00000000000| 11,00000000000| 11,00000000000| 11,00000000000|  8,00000000000| 13,00000000000| 14,00000000000|  9,00000000000|  9,00000000000| 14,00000000000| 15,00000000000| 15,00000000000| 13,00000000000| 10,00000000000|  0,00000000000|  3,00000000000|  5,00000000000|  6,00000000000
Dormouse                  | 10,00000000000| 11,00000000000| 11,00000000000|  8,00000000000|  6,00000000000|  7,00000000000|  4,00000000000|  6,00000000000|  6,00000000000|  9,00000000000| 13,00000000000|  7,00000000000| 10,00000000000| 10,00000000000| 10,00000000000| 10,00000000000| 10,00000000000|  7,00000000000| 12,00000000000| 13,00000000000|  8,00000000000|  8,00000000000| 13,00000000000| 14,00000000000| 14,00000000000| 12,00000000000|  9,00000000000|  3,00000000000|  0,00000000000|  4,00000000000|  5,00000000000
Squirrel                  | 10,00000000000| 11,00000000000| 11,00000000000|  8,00000000000|  6,00000000000|  7,00000000000|  4,00000000000|  6,00000000000|  6,00000000000|  9,00000000000| 11,00000000000|  5,00000000000|  8,00000000000|  8,00000000000|  8,00000000000|  8,00000000000|  8,00000000000|  5,00000000000| 10,00000000000| 11,00000000000|  6,00000000000|  6,00000000000| 11,00000000000| 12,00000000000| 12,00000000000| 10,00000000000|  7,00000000000|  5,00000000000|  4,00000000000|  0,00000000000|  3,00000000000
Blue_Whale                | 11,00000000000| 12,00000000000| 12,00000000000|  9,00000000000|  7,00000000000|  8,00000000000|  5,00000000000|  7,00000000000|  7,00000000000| 10,00000000000| 10,00000000000|  4,00000000000|  7,00000000000|  7,00000000000|  7,00000000000|  7,00000000000|  7,00000000000|  4,00000000000|  9,00000000000| 10,00000000000|  5,00000000000|  5,00000000000| 10,00000000000| 11,00000000000| 11,00000000000|  9,00000000000|  6,00000000000|  6,00000000000|  5,00000000000|  3,00000000000|  0,00000000000
