                           |Human          |Pig_Chim       |Com_Chim       |Gibbon         |Baboon         |Ver_Monkey     |Macaca_Thibet  |Bor_Oran       |Sum_Oran       |Gorilla        |Cat            |Dog            |Pig            |Sheep          |Goat           |Cow            |Buffalo        |Wolf           |Tiger          |Leopard        |Indian_Rhino   |White_Rhino    |Black_Bear     |Brown_Bear     |Polar_Bear     |Giant_Panda    |Rabbit         |Hedgehog       |Dormouse       |Squirrel       |Blue_Whale     
Human                     |  0,00000000000|  8,02344250948|  7,38183746021|  8,81804568590|  9,43990904135|  9,02533347105| 10,21970594740|  8,90194788465|  9,46458615863|  8,35905130449| 10,57012101277| 10,25425391159| 10,65402321152| 10,30854356960| 10,45167084983| 10,53063762512| 10,63428151770| 10,19502883012| 10,32828526343| 10,30360814615| 10,62441067079| 10,52076677821| 10,68857117571| 10,31347899306| 10,63921694115| 10,66882948189| 10,61947524733| 10,64415236461| 10,76260252755| 10,35789780416| 10,47634796711
Pig_Chim                  |  8,02344250948|  0,00000000000|  3,17192125225|  8,10240928478|  9,33626514877|  8,26034283537| 10,01241816224|  8,67985382913|  9,39055480679|  4,97335081369| 10,55531474240| 10,09632036100| 10,46647712019| 10,47634796711| 10,74286083373| 10,66882948189| 10,55531474240| 10,12099747828| 10,39738119181| 10,50102508439| 10,24438306468| 10,34802695725| 10,69350659917| 10,55531474240| 10,66882948189| 10,82676303248| 10,58492728314| 10,50102508439| 10,77740879792| 10,58492728314| 10,62441067079
Com_Chim                  |  7,38183746021|  3,17192125225|  0,00000000000|  8,01357166257|  9,23262125620|  8,53179112545|  9,90877426967|  8,79336856862|  9,40536107716|  5,09673640009| 10,63921694115| 10,19996425357| 10,48128339056| 10,61453982387| 10,58492728314| 10,68857117571| 10,61453982387| 10,18515798320| 10,55037931895| 10,54050847203| 10,42205830909| 10,33322068688| 10,92053607814| 10,71818371645| 10,78234422138| 10,84156930285| 10,58492728314| 10,67376490535| 10,68857117571| 10,54544389549| 10,67870032880
Gibbon                    |  8,81804568590|  8,10240928478|  8,01357166257|  0,00000000000| 10,05683697335|  8,10240928478|  9,04507516487|  9,79525953018|  9,91864511658|  8,02344250948| 10,63428151770| 10,03215985607| 10,48621881402| 10,42699373255| 10,39738119181| 10,51583135475| 10,47634796711| 10,12593290173| 10,48621881402| 10,45167084983| 10,12593290173| 10,31347899306| 10,77740879792| 10,71324829299| 10,69350659917| 10,69844202263| 10,32334983997| 10,71818371645| 10,38257492144| 10,55037931895| 10,47141254365
Baboon                    |  9,43990904135|  9,33626514877|  9,23262125620| 10,05683697335|  0,00000000000|  9,25236295002| 10,05190154989|  9,23755667965|  9,82487207092|  9,07962312906| 10,45167084983|  9,59290716849| 10,35296238071| 10,42205830909| 10,53063762512| 10,41218746218| 10,62441067079|  9,80513037709| 10,52076677821| 10,48621881402| 10,59479813005| 10,54050847203| 10,96495488925| 11,01924454726| 11,03405081763| 10,77247337447| 10,67870032880| 10,71324829299| 10,78234422138| 10,60960440042| 10,39244576835
Ver_Monkey                |  9,02533347105|  8,26034283537|  8,53179112545|  8,10240928478|  9,25236295002|  0,00000000000|  9,27704006730|  9,57316547466|  9,80019495364|  8,41334096251| 10,78234422138| 10,27399560541| 10,45167084983| 10,51089593130| 10,57505643623| 10,59973355351| 10,70831286954| 10,26906018196| 10,71818371645| 10,70831286954| 10,29373729924| 10,44673542637| 10,84156930285| 10,80208591520| 10,84650472631| 10,83169845594| 10,62934609424| 10,64415236461| 10,57505643623| 10,60960440042| 10,67870032880
Macaca_Thibet             | 10,21970594740| 10,01241816224|  9,90877426967|  9,04507516487| 10,05190154989|  9,27704006730|  0,00000000000| 10,15061001901| 10,06670782026| 10,07657866717| 10,63428151770| 10,40725203872| 10,56518558931| 10,54544389549| 10,38257492144| 10,53063762512| 10,67870032880| 10,43192915600| 10,62934609424| 10,50102508439| 10,65895863498| 10,52570220167| 10,63428151770| 10,82182760903| 10,71324829299| 10,71324829299| 10,56518558931| 10,51089593130| 10,69844202263| 10,62934609424| 10,57505643623
Bor_Oran                  |  8,90194788465|  8,67985382913|  8,79336856862|  9,79525953018|  9,23755667965|  9,57316547466| 10,15061001901|  0,00000000000|  8,41334096251|  8,74894975751| 10,26412475850| 10,37270407453| 10,31841441651| 10,34802695725| 10,49608966093| 10,54544389549| 10,55531474240| 10,43192915600| 10,49608966093| 10,34802695725| 10,39738119181| 10,39244576835| 10,57999185968| 10,50102508439| 10,56025016586| 10,74286083373| 10,41218746218| 10,60960440042| 10,71324829299| 10,32334983997| 10,53063762512
Sum_Oran                  |  9,46458615863|  9,39055480679|  9,40536107716|  9,91864511658|  9,82487207092|  9,80019495364| 10,06670782026|  8,41334096251|  0,00000000000|  9,34120057223| 10,45167084983| 10,19009340666| 10,40725203872| 10,43192915600| 10,61453982387| 10,58986270659| 10,65895863498| 10,18515798320| 10,42205830909| 10,50596050784| 10,26906018196| 10,31347899306| 10,65402321152| 10,59479813005| 10,72805456336| 10,64908778807| 10,66882948189| 10,79715049175| 10,64415236461| 10,52076677821| 10,51583135475
Gorilla                   |  8,35905130449|  4,97335081369|  5,09673640009|  8,02344250948|  9,07962312906|  8,41334096251| 10,07657866717|  8,74894975751|  9,34120057223|  0,00000000000| 10,41712288563| 10,21477052394| 10,44180000291| 10,47141254365| 10,61947524733| 10,43686457946| 10,45660627328| 10,21970594740| 10,46154169674| 10,39244576835| 10,37270407453| 10,24931848813| 10,73298998682| 10,60960440042| 10,78234422138| 10,81689218557| 10,32828526343| 10,31347899306| 10,63428151770| 10,40231661527| 10,58492728314
Cat                       | 10,57012101277| 10,55531474240| 10,63921694115| 10,63428151770| 10,45167084983| 10,78234422138| 10,63428151770| 10,26412475850| 10,45167084983| 10,41712288563|  0,00000000000| 10,14073917210|  9,07468770561|  9,11417109326|  9,81500122400|  8,77362687479|  9,90383884621| 10,07657866717|  6,13317532584|  4,99802793097|  9,74096987217|  9,91864511658|  9,85448461165| 10,13580374864|  9,96306392768|  9,59784259194|  9,43003819444| 10,29373729924|  9,86435545856|  8,37879299831|  9,47939242900
Dog                       | 10,25425391159| 10,09632036100| 10,19996425357| 10,03215985607|  9,59290716849| 10,27399560541| 10,40725203872| 10,37270407453| 10,19009340666| 10,21477052394| 10,14073917210|  0,00000000000| 10,41218746218| 10,31347899306| 10,35789780416| 10,21477052394| 10,39244576835|  4,56371066684| 10,20489967703| 10,14567459556| 10,17035171284| 10,19009340666| 10,29867272269| 10,24438306468| 10,30360814615| 10,51583135475| 10,11112663136| 10,55531474240| 10,29373729924| 10,33322068688| 10,39244576835
Pig                       | 10,65402321152| 10,46647712019| 10,48128339056| 10,48621881402| 10,35296238071| 10,45167084983| 10,56518558931| 10,31841441651| 10,40725203872| 10,44180000291|  9,07468770561| 10,41218746218|  0,00000000000|  8,53179112545|  9,64226140305|  9,51887581665|  9,43003819444| 10,11112663136|  9,31158803149|  9,24742752657|  9,56329462775|  9,31652345495| 10,02722443261| 10,15061001901| 10,13580374864|  9,67187394378| 10,01241816224| 10,26906018196|  9,76564698945|  9,37574853642|  9,25729837348
Sheep                     | 10,30854356960| 10,47634796711| 10,61453982387| 10,42699373255| 10,42205830909| 10,51089593130| 10,54544389549| 10,34802695725| 10,43192915600| 10,47141254365|  9,11417109326| 10,31347899306|  8,53179112545|  0,00000000000|  7,89018607617|  8,33930961067|  8,52685570199| 10,11112663136|  9,37574853642|  9,27704006730|  9,64226140305|  9,45965073517|  9,82487207092| 10,04203070298|  9,77551783636|  9,72616360180|  9,86929088202| 10,22957679431|  9,65706767341|  9,47939242900|  9,41029650061
Goat                      | 10,45167084983| 10,74286083373| 10,58492728314| 10,39738119181| 10,53063762512| 10,57505643623| 10,38257492144| 10,49608966093| 10,61453982387| 10,61947524733|  9,81500122400| 10,35789780416|  9,64226140305|  7,89018607617|  0,00000000000|  8,65517671185|  8,96117296612| 10,30360814615|  9,97293477460|  9,90383884621|  9,80019495364|  9,55835920429| 10,09138493754| 10,35789780416| 10,32828526343| 10,33322068688|  9,74096987217| 10,02228900916| 10,49115423747| 10,01735358570| 10,18022255975
Cow                       | 10,53063762512| 10,66882948189| 10,68857117571| 10,51583135475| 10,41218746218| 10,59973355351| 10,53063762512| 10,54544389549| 10,58986270659| 10,43686457946|  8,77362687479| 10,21477052394|  9,51887581665|  8,33930961067|  8,65517671185|  0,00000000000|  8,36398672795| 10,27399560541|  9,02533347105|  8,95623754266|  9,33132972532|  8,97104381303| 10,21477052394| 10,40231661527| 10,27893102887| 10,26906018196|  9,15365448090| 10,44673542637| 10,37763949799|  9,56823005121| 10,06670782026
Buffalo                   | 10,63428151770| 10,55531474240| 10,61453982387| 10,47634796711| 10,62441067079| 10,70831286954| 10,67870032880| 10,55531474240| 10,65895863498| 10,45660627328|  9,90383884621| 10,39244576835|  9,43003819444|  8,52685570199|  8,96117296612|  8,36398672795|  0,00000000000| 10,38751034490| 10,23451221776| 10,08644951408| 10,08151409063|  9,61264886231| 10,02722443261| 10,40725203872| 10,15554544247| 10,32828526343|  9,80513037709| 10,38751034490| 10,41218746218| 10,26906018196|  9,82980749437
Wolf                      | 10,19502883012| 10,12099747828| 10,18515798320| 10,12593290173|  9,80513037709| 10,26906018196| 10,43192915600| 10,43192915600| 10,18515798320| 10,21970594740| 10,07657866717|  4,56371066684| 10,11112663136| 10,11112663136| 10,30360814615| 10,27399560541| 10,38751034490|  0,00000000000| 10,19009340666| 10,12099747828| 10,20489967703| 10,18515798320| 10,23451221776| 10,13086832519| 10,17528713629| 10,46647712019| 10,08644951408| 10,55531474240| 10,34802695725| 10,09138493754| 10,39244576835
Tiger                     | 10,32828526343| 10,39738119181| 10,55037931895| 10,48621881402| 10,52076677821| 10,71818371645| 10,62934609424| 10,49608966093| 10,42205830909| 10,46154169674|  6,13317532584| 10,20489967703|  9,31158803149|  9,37574853642|  9,97293477460|  9,02533347105| 10,23451221776| 10,19009340666|  0,00000000000|  5,52118281730|  9,80513037709|  9,88903257584|  9,98280562151| 10,18022255975| 10,11606205482|  9,84954918820|  9,66693852033| 10,39738119181|  9,96306392768|  8,72920806369|  9,66693852033
Leopard                   | 10,30360814615| 10,50102508439| 10,54050847203| 10,45167084983| 10,48621881402| 10,70831286954| 10,50102508439| 10,34802695725| 10,50596050784| 10,39244576835|  4,99802793097| 10,14567459556|  9,24742752657|  9,27704006730|  9,90383884621|  8,95623754266| 10,08644951408| 10,12099747828|  5,52118281730|  0,00000000000|  9,76071156599|  9,88409715239| 10,02722443261| 10,05683697335|  9,84954918820|  9,64226140305|  9,52381124010| 10,23451221776|  9,95812850423|  8,55153281927|  9,75084071908
Indian_Rhino              | 10,62441067079| 10,24438306468| 10,42205830909| 10,12593290173| 10,59479813005| 10,29373729924| 10,65895863498| 10,39738119181| 10,26906018196| 10,37270407453|  9,74096987217| 10,17035171284|  9,56329462775|  9,64226140305|  9,80019495364|  9,33132972532| 10,08151409063| 10,20489967703|  9,80513037709|  9,76071156599|  0,00000000000|  6,13811074930| 10,13580374864| 10,20489967703| 10,06670782026| 10,23944764122| 10,43192915600| 10,33322068688| 10,02228900916| 10,12593290173|  9,79032410672
White_Rhino               | 10,52076677821| 10,34802695725| 10,33322068688| 10,31347899306| 10,54050847203| 10,44673542637| 10,52570220167| 10,39244576835| 10,31347899306| 10,24931848813|  9,91864511658| 10,19009340666|  9,31652345495|  9,45965073517|  9,55835920429|  8,97104381303|  9,61264886231| 10,18515798320|  9,88903257584|  9,88409715239|  6,13811074930|  0,00000000000|  9,91864511658|  9,96306392768|  9,78045325981| 10,09138493754| 10,18515798320| 10,36283322762| 10,56518558931| 10,19502883012| 10,06670782026
Black_Bear                | 10,68857117571| 10,69350659917| 10,92053607814| 10,77740879792| 10,96495488925| 10,84156930285| 10,63428151770| 10,57999185968| 10,65402321152| 10,73298998682|  9,85448461165| 10,29867272269| 10,02722443261|  9,82487207092| 10,09138493754| 10,21477052394| 10,02722443261| 10,23451221776|  9,98280562151| 10,02722443261| 10,13580374864|  9,91864511658|  0,00000000000|  4,47980846809|  5,85679161231|  7,87044438235|  9,87916172893| 10,75273168064| 10,55531474240| 10,17528713629|  9,97293477460
Brown_Bear                | 10,31347899306| 10,55531474240| 10,71818371645| 10,71324829299| 11,01924454726| 10,80208591520| 10,82182760903| 10,50102508439| 10,59479813005| 10,60960440042| 10,13580374864| 10,24438306468| 10,15061001901| 10,04203070298| 10,35789780416| 10,40231661527| 10,40725203872| 10,13086832519| 10,18022255975| 10,05683697335| 10,20489967703|  9,96306392768|  4,47980846809|  0,00000000000|  4,07510374470|  8,05305505022|  9,86435545856| 10,71818371645| 10,58986270659| 10,33322068688|  9,96799935114
Polar_Bear                | 10,63921694115| 10,66882948189| 10,78234422138| 10,69350659917| 11,03405081763| 10,84650472631| 10,71324829299| 10,56025016586| 10,72805456336| 10,78234422138|  9,96306392768| 10,30360814615| 10,13580374864|  9,77551783636| 10,32828526343| 10,27893102887| 10,15554544247| 10,17528713629| 10,11606205482|  9,84954918820| 10,06670782026|  9,78045325981|  5,85679161231|  4,07510374470|  0,00000000000|  8,45775977361|  9,79525953018| 10,71324829299| 10,50596050784| 10,33815611034| 10,16048086592
Giant_Panda               | 10,66882948189| 10,82676303248| 10,84156930285| 10,69844202263| 10,77247337447| 10,83169845594| 10,71324829299| 10,74286083373| 10,64908778807| 10,81689218557|  9,59784259194| 10,51583135475|  9,67187394378|  9,72616360180| 10,33322068688| 10,26906018196| 10,32828526343| 10,46647712019|  9,84954918820|  9,64226140305| 10,23944764122| 10,09138493754|  7,87044438235|  8,05305505022|  8,45775977361|  0,00000000000| 10,56025016586| 10,21970594740| 10,14073917210|  9,96306392768|  9,64226140305
Rabbit                    | 10,61947524733| 10,58492728314| 10,58492728314| 10,32334983997| 10,67870032880| 10,62934609424| 10,56518558931| 10,41218746218| 10,66882948189| 10,32828526343|  9,43003819444| 10,11112663136| 10,01241816224|  9,86929088202|  9,74096987217|  9,15365448090|  9,80513037709| 10,08644951408|  9,66693852033|  9,52381124010| 10,43192915600| 10,18515798320|  9,87916172893|  9,86435545856|  9,79525953018| 10,56025016586|  0,00000000000| 10,50596050784| 10,35296238071|  9,50900496973| 10,01241816224
Hedgehog                  | 10,64415236461| 10,50102508439| 10,67376490535| 10,71818371645| 10,71324829299| 10,64415236461| 10,51089593130| 10,60960440042| 10,79715049175| 10,31347899306| 10,29373729924| 10,55531474240| 10,26906018196| 10,22957679431| 10,02228900916| 10,44673542637| 10,38751034490| 10,55531474240| 10,39738119181| 10,23451221776| 10,33322068688| 10,36283322762| 10,75273168064| 10,71818371645| 10,71324829299| 10,21970594740| 10,50596050784|  0,00000000000| 10,45660627328| 10,30854356960| 10,47141254365
Dormouse                  | 10,76260252755| 10,77740879792| 10,68857117571| 10,38257492144| 10,78234422138| 10,57505643623| 10,69844202263| 10,71324829299| 10,64415236461| 10,63428151770|  9,86435545856| 10,29373729924|  9,76564698945|  9,65706767341| 10,49115423747| 10,37763949799| 10,41218746218| 10,34802695725|  9,96306392768|  9,95812850423| 10,02228900916| 10,56518558931| 10,55531474240| 10,58986270659| 10,50596050784| 10,14073917210| 10,35296238071| 10,45660627328|  0,00000000000|  9,50406954628|  9,85448461165
Squirrel                  | 10,35789780416| 10,58492728314| 10,54544389549| 10,55037931895| 10,60960440042| 10,60960440042| 10,62934609424| 10,32334983997| 10,52076677821| 10,40231661527|  8,37879299831| 10,33322068688|  9,37574853642|  9,47939242900| 10,01735358570|  9,56823005121| 10,26906018196| 10,09138493754|  8,72920806369|  8,55153281927| 10,12593290173| 10,19502883012| 10,17528713629| 10,33322068688| 10,33815611034|  9,96306392768|  9,50900496973| 10,30854356960|  9,50406954628|  0,00000000000|  9,87916172893
Blue_Whale                | 10,47634796711| 10,62441067079| 10,67870032880| 10,47141254365| 10,39244576835| 10,67870032880| 10,57505643623| 10,53063762512| 10,51583135475| 10,58492728314|  9,47939242900| 10,39244576835|  9,25729837348|  9,41029650061| 10,18022255975| 10,06670782026|  9,82980749437| 10,39244576835|  9,66693852033|  9,75084071908|  9,79032410672| 10,06670782026|  9,97293477460|  9,96799935114| 10,16048086592|  9,64226140305| 10,01241816224| 10,47141254365|  9,85448461165|  9,87916172893|  0,00000000000
