                           |Human          |Pig_Chim       |Com_Chim       |Gibbon         |Baboon         |Ver_Monkey     |Macaca_Thibet  |Bor_Oran       |Sum_Oran       |Gorilla        |Cat            |Dog            |Pig            |Sheep          |Goat           |Cow            |Buffalo        |Wolf           |Tiger          |Leopard        |Indian_Rhino   |White_Rhino    |Black_Bear     |Brown_Bear     |Polar_Bear     |Giant_Panda    |Rabbit         |Hedgehog       |Dormouse       |Squirrel       |Blue_Whale     
Human                     |  0,00000000000|  7,97778915922|  7,29508170042|  8,99262457096|  9,50926805330|  9,25094631213| 10,32113638269|  9,12178544154|  9,45391339447|  8,36527177097| 10,42261992386| 10,20120128857| 10,59790967680| 10,34881371210| 10,33036215916| 10,40416837092| 10,70861899444| 10,34881371210| 10,28423327680| 10,25655594739| 10,54255501797| 10,55178079444| 10,58868390033| 10,40416837092| 10,66249011209| 10,75474787679| 10,67171588856| 10,76397365326| 10,69939321797| 10,44107147680| 10,66249011209
Pig_Chim                  |  7,97778915922|  0,00000000000|  2,84825744171|  8,07004692392|  9,24172053566|  8,30991711215| 10,05358886505|  8,75275438273|  9,42623606506|  5,08089534754| 10,35803948857| 10,21042706504| 10,39494259445| 10,40416837092| 10,53332924150| 10,55178079444| 10,59790967680| 10,16429818269| 10,20120128857| 10,18274973563| 10,12739507681| 10,47797458268| 10,62558700621| 10,52410346503| 10,54255501797| 10,75474787679| 10,69016744150| 10,68094166503| 10,70861899444| 10,54255501797| 10,59790967680
Com_Chim                  |  7,29508170042|  2,84825744171|  0,00000000000|  8,06082114745|  9,07565655919|  8,30069133568|  9,84139600623|  8,80810904155|  9,32475252389|  5,23773354753| 10,37649104151| 10,00745998269| 10,47797458268| 10,43184570033| 10,34881371210| 10,59790967680| 10,47797458268| 10,13662085328| 10,28423327680| 10,27500750033| 10,38571681798| 10,49642613562| 10,59790967680| 10,52410346503| 10,55178079444| 10,69939321797| 10,52410346503| 10,81932831208| 10,87468297091| 10,45952302974| 10,53332924150
Gibbon                    |  8,99262457096|  8,07004692392|  8,06082114745|  0,00000000000|  9,86907333564|  7,85785406511|  9,00185034743|  9,70300935917|  9,99823420622|  8,17153046510| 10,52410346503| 10,17352395916| 10,38571681798| 10,40416837092| 10,28423327680| 10,49642613562| 10,47797458268| 10,11816930034| 10,43184570033| 10,40416837092| 10,17352395916| 10,46874880621| 10,83777986502| 10,74552210032| 10,69016744150| 10,86545719444| 10,39494259445| 10,91158607679| 10,30268482974| 10,44107147680| 10,45952302974
Baboon                    |  9,50926805330|  9,24172053566|  9,07565655919|  9,86907333564|  0,00000000000|  9,32475252389| 10,09971774740|  9,23249475919|  9,87829911211|  9,14023699448| 10,50565191209|  9,88752488858| 10,46874880621| 10,57023234738| 10,66249011209| 10,41339414739| 10,76397365326| 10,05358886505| 10,45952302974| 10,41339414739| 10,62558700621| 10,63481278268| 10,82855408855| 11,03152117090| 11,08687582972| 10,75474787679| 10,60713545327| 11,11455315913| 10,76397365326| 10,61636122974| 10,70861899444
Ver_Monkey                |  9,25094631213|  8,30991711215|  8,30069133568|  7,85785406511|  9,32475252389|  0,00000000000|  9,09410811213|  9,73991246505|  9,80449290035|  8,66049661803| 10,65326433562| 10,21965284151| 10,54255501797| 10,53332924150| 10,34881371210| 10,57023234738| 10,65326433562| 10,21042706504| 10,48720035915| 10,46874880621| 10,28423327680| 10,46874880621| 10,78242520620| 10,81010253561| 10,90236030032| 10,71784477091| 10,65326433562| 10,63481278268| 10,72707054738| 10,35803948857| 10,63481278268
Macaca_Thibet             | 10,32113638269| 10,05358886505|  9,84139600623|  9,00185034743| 10,09971774740|  9,09410811213|  0,00000000000|  9,82294445329| 10,06281464152|  9,85984755917| 10,44107147680| 10,47797458268| 10,49642613562| 10,67171588856| 10,58868390033| 10,59790967680| 10,53332924150| 10,65326433562| 10,54255501797| 10,54255501797| 10,50565191209| 10,57023234738| 10,54255501797| 10,74552210032| 10,61636122974| 10,57023234738| 10,58868390033| 10,79165098267| 10,69939321797| 10,44107147680| 10,61636122974
Bor_Oran                  |  9,12178544154|  8,75275438273|  8,80810904155|  9,70300935917|  9,23249475919|  9,73991246505|  9,82294445329|  0,00000000000|  8,33759444156|  8,94649568861| 10,46874880621| 10,26578172386| 10,43184570033| 10,39494259445| 10,58868390033| 10,40416837092| 10,54255501797| 10,40416837092| 10,50565191209| 10,40416837092| 10,35803948857| 10,40416837092| 10,62558700621| 10,38571681798| 10,38571681798| 10,97616651208| 10,68094166503| 10,93926340620| 10,72707054738| 10,66249011209| 10,56100657091
Sum_Oran                  |  9,45391339447|  9,42623606506|  9,32475252389|  9,99823420622|  9,87829911211|  9,80449290035| 10,06281464152|  8,33759444156|  0,00000000000|  9,26939786507| 10,43184570033| 10,00745998269| 10,28423327680| 10,53332924150| 10,51487768856| 10,37649104151| 10,45952302974| 10,09049197093| 10,48720035915| 10,47797458268| 10,21965284151| 10,26578172386| 10,58868390033| 10,38571681798| 10,48720035915| 10,69016744150| 10,59790967680| 10,88390874738| 10,76397365326| 10,60713545327| 10,40416837092
Gorilla                   |  8,36527177097|  5,08089534754|  5,23773354753|  8,17153046510|  9,14023699448|  8,66049661803|  9,85984755917|  8,94649568861|  9,26939786507|  0,00000000000| 10,36726526504| 10,07204041799| 10,33958793563| 10,50565191209| 10,48720035915| 10,26578172386| 10,43184570033|  9,97055687681| 10,46874880621| 10,46874880621| 10,42261992386| 10,54255501797| 10,61636122974| 10,57023234738| 10,54255501797| 10,89313452385| 10,35803948857| 10,49642613562| 10,86545719444| 10,35803948857| 10,49642613562
Cat                       | 10,42261992386| 10,35803948857| 10,37649104151| 10,52410346503| 10,50565191209| 10,65326433562| 10,44107147680| 10,46874880621| 10,43184570033| 10,36726526504|  0,00000000000| 10,20120128857|  8,91881835919|  9,12178544154|  9,71223513564|  8,83578637096|  9,91520221799| 10,17352395916|  6,21566585339|  5,18237888871|  9,61997737094|  9,75836401800|  9,73068668858|  9,99823420622|  9,68455780623|  9,82294445329|  9,49081650036| 10,64403855915|  9,91520221799|  8,12540158275|  9,54617115918
Dog                       | 10,20120128857| 10,21042706504| 10,00745998269| 10,17352395916|  9,88752488858| 10,21965284151| 10,47797458268| 10,26578172386| 10,00745998269| 10,07204041799| 10,20120128857|  0,00000000000| 10,29345905327| 10,40416837092| 10,36726526504| 10,42261992386| 10,44107147680|  4,65650962990| 10,21042706504| 10,33958793563| 10,17352395916| 10,18274973563| 10,41339414739| 10,36726526504| 10,41339414739| 10,48720035915| 10,21965284151| 10,80087675914| 10,22887861798| 10,47797458268| 10,40416837092
Pig                       | 10,59790967680| 10,39494259445| 10,47797458268| 10,38571681798| 10,46874880621| 10,54255501797| 10,49642613562| 10,43184570033| 10,28423327680| 10,33958793563|  8,91881835919| 10,29345905327|  0,00000000000|  8,33759444156|  9,39855873565|  9,39855873565|  9,18636587683| 10,04436308858|  9,02030190037|  9,11255966507|  9,29707519448|  9,26017208860|  9,99823420622| 10,04436308858|  9,92442799446|  9,75836401800|  9,97055687681| 10,48720035915|  9,72146091211|  9,38010718271|  9,30630097095
Sheep                     | 10,34881371210| 10,40416837092| 10,43184570033| 10,40416837092| 10,57023234738| 10,53332924150| 10,67171588856| 10,39494259445| 10,53332924150| 10,50565191209|  9,12178544154| 10,40416837092|  8,33759444156|  0,00000000000|  8,04236959451|  8,36527177097|  8,46675531215| 10,28423327680|  9,41701028859|  9,26017208860|  9,54617115918|  9,16791432389|  9,97055687681| 10,18274973563| 10,33958793563|  9,63842892388| 10,08126619446| 10,48720035915|  9,70300935917|  9,46313917094|  9,31552674742
Goat                      | 10,33036215916| 10,53332924150| 10,34881371210| 10,28423327680| 10,66249011209| 10,34881371210| 10,58868390033| 10,58868390033| 10,51487768856| 10,48720035915|  9,71223513564| 10,36726526504|  9,39855873565|  8,04236959451|  0,00000000000|  8,68817394744|  8,81733481802| 10,45029725327|  9,89675066505|  9,94287954740|  9,56462271212|  9,35242985330| 10,20120128857| 10,40416837092| 10,38571681798| 10,32113638269|  9,92442799446| 10,14584662975| 10,62558700621|  9,96133110034| 10,12739507681
Cow                       | 10,40416837092| 10,55178079444| 10,59790967680| 10,49642613562| 10,41339414739| 10,57023234738| 10,59790967680| 10,40416837092| 10,37649104151| 10,26578172386|  8,83578637096| 10,42261992386|  9,39855873565|  8,36527177097|  8,68817394744|  0,00000000000|  8,16230468863| 10,33036215916|  8,80810904155|  8,95572146508|  9,58307426506|  9,26017208860|  9,73068668858| 10,14584662975| 10,07204041799| 10,30268482974|  9,36165562977| 10,52410346503| 10,50565191209|  9,32475252389|  9,95210532387
Buffalo                   | 10,70861899444| 10,59790967680| 10,47797458268| 10,47797458268| 10,76397365326| 10,65326433562| 10,53332924150| 10,54255501797| 10,45952302974| 10,43184570033|  9,91520221799| 10,44107147680|  9,18636587683|  8,46675531215|  8,81733481802|  8,16230468863|  0,00000000000| 10,37649104151| 10,08126619446| 10,09049197093|  9,89675066505|  9,61075159447| 10,08126619446| 10,27500750033| 10,33036215916| 10,45952302974|  9,64765470035| 10,69939321797| 10,17352395916| 10,11816930034|  9,82294445329
Wolf                      | 10,34881371210| 10,16429818269| 10,13662085328| 10,11816930034| 10,05358886505| 10,21042706504| 10,65326433562| 10,40416837092| 10,09049197093|  9,97055687681| 10,17352395916|  4,65650962990| 10,04436308858| 10,28423327680| 10,45029725327| 10,33036215916| 10,37649104151|  0,00000000000| 10,14584662975| 10,40416837092| 10,27500750033| 10,11816930034| 10,37649104151| 10,36726526504| 10,45952302974| 10,46874880621| 10,10894352387| 10,65326433562| 10,27500750033| 10,33958793563| 10,31191060622
Tiger                     | 10,28423327680| 10,20120128857| 10,28423327680| 10,43184570033| 10,45952302974| 10,48720035915| 10,54255501797| 10,50565191209| 10,48720035915| 10,46874880621|  6,21566585339| 10,21042706504|  9,02030190037|  9,41701028859|  9,89675066505|  8,80810904155| 10,08126619446| 10,14584662975|  0,00000000000|  5,99424721810|  9,70300935917|  9,63842892388|  9,87829911211| 10,12739507681| 10,04436308858|  9,88752488858|  9,61075159447| 10,80087675914| 10,13662085328|  8,43907798274|  9,96133110034
Leopard                   | 10,25655594739| 10,18274973563| 10,27500750033| 10,40416837092| 10,41339414739| 10,46874880621| 10,54255501797| 10,40416837092| 10,47797458268| 10,46874880621|  5,18237888871| 10,33958793563|  9,11255966507|  9,26017208860|  9,94287954740|  8,95572146508| 10,09049197093| 10,40416837092|  5,99424721810|  0,00000000000|  9,73068668858|  9,85062178270|  9,95210532387| 10,06281464152|  9,79526712388|  9,87829911211|  9,75836401800| 10,49642613562|  9,85984755917|  8,47598108862|  9,91520221799
Indian_Rhino              | 10,54255501797| 10,12739507681| 10,38571681798| 10,17352395916| 10,62558700621| 10,28423327680| 10,50565191209| 10,35803948857| 10,21965284151| 10,42261992386|  9,61997737094| 10,17352395916|  9,29707519448|  9,54617115918|  9,56462271212|  9,58307426506|  9,89675066505| 10,27500750033|  9,70300935917|  9,73068668858|  0,00000000000|  5,96656988869|  9,81371867682| 10,13662085328|  9,93365377093| 10,02591153563| 10,29345905327| 10,21042706504| 10,13662085328|  9,97055687681|  9,85062178270
White_Rhino               | 10,55178079444| 10,47797458268| 10,49642613562| 10,46874880621| 10,63481278268| 10,46874880621| 10,57023234738| 10,40416837092| 10,26578172386| 10,54255501797|  9,75836401800| 10,18274973563|  9,26017208860|  9,16791432389|  9,35242985330|  9,26017208860|  9,61075159447| 10,11816930034|  9,63842892388|  9,85062178270|  5,96656988869|  0,00000000000|  9,64765470035|  9,86907333564|  9,79526712388| 10,26578172386| 10,06281464152| 10,55178079444| 10,44107147680|  9,98900842975|  9,83217022976
Black_Bear                | 10,58868390033| 10,62558700621| 10,59790967680| 10,83777986502| 10,82855408855| 10,78242520620| 10,54255501797| 10,62558700621| 10,58868390033| 10,61636122974|  9,73068668858| 10,41339414739|  9,99823420622|  9,97055687681| 10,20120128857|  9,73068668858| 10,08126619446| 10,37649104151|  9,87829911211|  9,95210532387|  9,81371867682|  9,64765470035|  0,00000000000|  4,41663944167|  5,98502144163|  7,97778915922|  9,94287954740| 10,82855408855| 10,64403855915| 10,33958793563|  9,99823420622
Brown_Bear                | 10,40416837092| 10,52410346503| 10,52410346503| 10,74552210032| 11,03152117090| 10,81010253561| 10,74552210032| 10,38571681798| 10,38571681798| 10,57023234738|  9,99823420622| 10,36726526504| 10,04436308858| 10,18274973563| 10,40416837092| 10,14584662975| 10,27500750033| 10,36726526504| 10,12739507681| 10,06281464152| 10,13662085328|  9,86907333564|  4,41663944167|  0,00000000000|  4,28747857109|  8,33759444156|  9,82294445329| 11,01306961796| 10,60713545327| 10,62558700621| 10,01668575916
Polar_Bear                | 10,66249011209| 10,54255501797| 10,55178079444| 10,69016744150| 11,08687582972| 10,90236030032| 10,61636122974| 10,38571681798| 10,48720035915| 10,54255501797|  9,68455780623| 10,41339414739|  9,92442799446| 10,33958793563| 10,38571681798| 10,07204041799| 10,33036215916| 10,45952302974| 10,04436308858|  9,79526712388|  9,93365377093|  9,79526712388|  5,98502144163|  4,28747857109|  0,00000000000|  8,62359351214|  9,94287954740| 10,81010253561| 10,45952302974| 10,70861899444| 10,01668575916
Giant_Panda               | 10,75474787679| 10,75474787679| 10,69939321797| 10,86545719444| 10,75474787679| 10,71784477091| 10,57023234738| 10,97616651208| 10,69016744150| 10,89313452385|  9,82294445329| 10,48720035915|  9,75836401800|  9,63842892388| 10,32113638269| 10,30268482974| 10,45952302974| 10,46874880621|  9,88752488858|  9,87829911211| 10,02591153563| 10,26578172386|  7,97778915922|  8,33759444156|  8,62359351214|  0,00000000000| 10,66249011209| 10,45029725327| 10,09971774740| 10,06281464152|  9,75836401800
Rabbit                    | 10,67171588856| 10,69016744150| 10,52410346503| 10,39494259445| 10,60713545327| 10,65326433562| 10,58868390033| 10,68094166503| 10,59790967680| 10,35803948857|  9,49081650036| 10,21965284151|  9,97055687681| 10,08126619446|  9,92442799446|  9,36165562977|  9,64765470035| 10,10894352387|  9,61075159447|  9,75836401800| 10,29345905327| 10,06281464152|  9,94287954740|  9,82294445329|  9,94287954740| 10,66249011209|  0,00000000000| 10,70861899444| 10,36726526504|  9,41701028859|  9,93365377093
Hedgehog                  | 10,76397365326| 10,68094166503| 10,81932831208| 10,91158607679| 11,11455315913| 10,63481278268| 10,79165098267| 10,93926340620| 10,88390874738| 10,49642613562| 10,64403855915| 10,80087675914| 10,48720035915| 10,48720035915| 10,14584662975| 10,52410346503| 10,69939321797| 10,65326433562| 10,80087675914| 10,49642613562| 10,21042706504| 10,55178079444| 10,82855408855| 11,01306961796| 10,81010253561| 10,45029725327| 10,70861899444|  0,00000000000| 10,55178079444| 10,60713545327| 10,70861899444
Dormouse                  | 10,69939321797| 10,70861899444| 10,87468297091| 10,30268482974| 10,76397365326| 10,72707054738| 10,69939321797| 10,72707054738| 10,76397365326| 10,86545719444|  9,91520221799| 10,22887861798|  9,72146091211|  9,70300935917| 10,62558700621| 10,50565191209| 10,17352395916| 10,27500750033| 10,13662085328|  9,85984755917| 10,13662085328| 10,44107147680| 10,64403855915| 10,60713545327| 10,45952302974| 10,09971774740| 10,36726526504| 10,55178079444|  0,00000000000|  9,69378358270|  9,80449290035
Squirrel                  | 10,44107147680| 10,54255501797| 10,45952302974| 10,44107147680| 10,61636122974| 10,35803948857| 10,44107147680| 10,66249011209| 10,60713545327| 10,35803948857|  8,12540158275| 10,47797458268|  9,38010718271|  9,46313917094|  9,96133110034|  9,32475252389| 10,11816930034| 10,33958793563|  8,43907798274|  8,47598108862|  9,97055687681|  9,98900842975| 10,33958793563| 10,62558700621| 10,70861899444| 10,06281464152|  9,41701028859| 10,60713545327|  9,69378358270|  0,00000000000|  9,82294445329
Blue_Whale                | 10,66249011209| 10,59790967680| 10,53332924150| 10,45952302974| 10,70861899444| 10,63481278268| 10,61636122974| 10,56100657091| 10,40416837092| 10,49642613562|  9,54617115918| 10,40416837092|  9,30630097095|  9,31552674742| 10,12739507681|  9,95210532387|  9,82294445329| 10,31191060622|  9,96133110034|  9,91520221799|  9,85062178270|  9,83217022976|  9,99823420622| 10,01668575916| 10,01668575916|  9,75836401800|  9,93365377093| 10,70861899444|  9,80449290035|  9,82294445329|  0,00000000000
