                           |Human          |Pig_Chim       |Com_Chim       |Gibbon         |Baboon         |Ver_Monkey     |Macaca_Thibet  |Bor_Oran       |Sum_Oran       |Gorilla        |Cat            |Dog            |Pig            |Sheep          |Goat           |Cow            |Buffalo        |Wolf           |Tiger          |Leopard        |Indian_Rhino   |White_Rhino    |Black_Bear     |Brown_Bear     |Polar_Bear     |Giant_Panda    |Rabbit         |Hedgehog       |Dormouse       |Squirrel       |Blue_Whale     
Human                     |  0,00000000000|  1,43902439024|  1,43902439024|  1,46341463415|  1,53658536585|  1,48780487805|  1,51219512195|  1,46341463415|  1,53658536585|  1,43902439024|  1,48780487805|  1,48780487805|  1,43902439024|  1,43902439024|  1,43902439024|  1,53658536585|  1,43902439024|  1,48780487805|  1,48780487805|  1,48780487805|  1,43902439024|  1,46341463415|  1,46341463415|  1,46341463415|  1,46341463415|  1,46341463415|  1,43902439024|  1,48780487805|  1,53658536585|  1,43902439024|  1,56097560976
Pig_Chim                  |  1,43902439024|  0,00000000000|  1,12195121951|  1,46341463415|  1,53658536585|  1,48780487805|  1,51219512195|  1,46341463415|  1,53658536585|  1,34146341463|  1,48780487805|  1,48780487805|  1,43902439024|  1,43902439024|  1,43902439024|  1,53658536585|  1,43902439024|  1,48780487805|  1,48780487805|  1,48780487805|  1,43902439024|  1,46341463415|  1,46341463415|  1,46341463415|  1,46341463415|  1,46341463415|  1,39024390244|  1,48780487805|  1,53658536585|  1,43902439024|  1,56097560976
Com_Chim                  |  1,43902439024|  1,12195121951|  0,00000000000|  1,46341463415|  1,53658536585|  1,48780487805|  1,51219512195|  1,46341463415|  1,53658536585|  1,34146341463|  1,48780487805|  1,48780487805|  1,43902439024|  1,43902439024|  1,43902439024|  1,53658536585|  1,43902439024|  1,48780487805|  1,48780487805|  1,48780487805|  1,43902439024|  1,46341463415|  1,46341463415|  1,46341463415|  1,46341463415|  1,46341463415|  1,39024390244|  1,48780487805|  1,53658536585|  1,43902439024|  1,56097560976
Gibbon                    |  1,46341463415|  1,46341463415|  1,46341463415|  0,00000000000|  1,53658536585|  1,48780487805|  1,51219512195|  1,46341463415|  1,53658536585|  1,46341463415|  1,48780487805|  1,48780487805|  1,46341463415|  1,46341463415|  1,46341463415|  1,53658536585|  1,46341463415|  1,48780487805|  1,48780487805|  1,48780487805|  1,46341463415|  1,46341463415|  1,46341463415|  1,46341463415|  1,46341463415|  1,46341463415|  1,46341463415|  1,48780487805|  1,53658536585|  1,46341463415|  1,56097560976
Baboon                    |  1,53658536585|  1,53658536585|  1,53658536585|  1,53658536585|  0,00000000000|  1,53658536585|  1,53658536585|  1,53658536585|  1,53658536585|  1,53658536585|  1,53658536585|  1,53658536585|  1,53658536585|  1,53658536585|  1,53658536585|  1,53658536585|  1,53658536585|  1,53658536585|  1,53658536585|  1,53658536585|  1,53658536585|  1,53658536585|  1,53658536585|  1,53658536585|  1,53658536585|  1,53658536585|  1,53658536585|  1,53658536585|  1,53658536585|  1,53658536585|  1,56097560976
Ver_Monkey                |  1,48780487805|  1,48780487805|  1,48780487805|  1,48780487805|  1,53658536585|  0,00000000000|  1,51219512195|  1,48780487805|  1,53658536585|  1,48780487805|  1,48780487805|  1,48780487805|  1,48780487805|  1,48780487805|  1,48780487805|  1,53658536585|  1,48780487805|  1,48780487805|  1,48780487805|  1,48780487805|  1,48780487805|  1,48780487805|  1,48780487805|  1,48780487805|  1,48780487805|  1,48780487805|  1,48780487805|  1,48780487805|  1,53658536585|  1,48780487805|  1,56097560976
Macaca_Thibet             |  1,51219512195|  1,51219512195|  1,51219512195|  1,51219512195|  1,53658536585|  1,51219512195|  0,00000000000|  1,51219512195|  1,53658536585|  1,51219512195|  1,51219512195|  1,51219512195|  1,51219512195|  1,51219512195|  1,51219512195|  1,53658536585|  1,51219512195|  1,51219512195|  1,51219512195|  1,51219512195|  1,51219512195|  1,51219512195|  1,51219512195|  1,51219512195|  1,51219512195|  1,51219512195|  1,51219512195|  1,51219512195|  1,53658536585|  1,51219512195|  1,56097560976
Bor_Oran                  |  1,46341463415|  1,46341463415|  1,46341463415|  1,46341463415|  1,53658536585|  1,48780487805|  1,51219512195|  0,00000000000|  1,53658536585|  1,46341463415|  1,48780487805|  1,48780487805|  1,46341463415|  1,46341463415|  1,46341463415|  1,53658536585|  1,46341463415|  1,48780487805|  1,48780487805|  1,48780487805|  1,46341463415|  1,46341463415|  1,46341463415|  1,46341463415|  1,46341463415|  1,46341463415|  1,46341463415|  1,48780487805|  1,53658536585|  1,46341463415|  1,56097560976
Sum_Oran                  |  1,53658536585|  1,53658536585|  1,53658536585|  1,53658536585|  1,53658536585|  1,53658536585|  1,53658536585|  1,53658536585|  0,00000000000|  1,53658536585|  1,53658536585|  1,53658536585|  1,53658536585|  1,53658536585|  1,53658536585|  1,53658536585|  1,53658536585|  1,53658536585|  1,53658536585|  1,53658536585|  1,53658536585|  1,53658536585|  1,53658536585|  1,53658536585|  1,53658536585|  1,53658536585|  1,53658536585|  1,53658536585|  1,53658536585|  1,53658536585|  1,56097560976
Gorilla                   |  1,43902439024|  1,34146341463|  1,34146341463|  1,46341463415|  1,53658536585|  1,48780487805|  1,51219512195|  1,46341463415|  1,53658536585|  0,00000000000|  1,48780487805|  1,48780487805|  1,43902439024|  1,43902439024|  1,43902439024|  1,53658536585|  1,43902439024|  1,48780487805|  1,48780487805|  1,48780487805|  1,43902439024|  1,46341463415|  1,46341463415|  1,46341463415|  1,46341463415|  1,46341463415|  1,39024390244|  1,48780487805|  1,53658536585|  1,43902439024|  1,56097560976
Cat                       |  1,48780487805|  1,48780487805|  1,48780487805|  1,48780487805|  1,53658536585|  1,48780487805|  1,51219512195|  1,48780487805|  1,53658536585|  1,48780487805|  0,00000000000|  1,48780487805|  1,48780487805|  1,48780487805|  1,48780487805|  1,53658536585|  1,48780487805|  1,48780487805|  1,43558282209|  1,01840490798|  1,48780487805|  1,48780487805|  1,48780487805|  1,48780487805|  1,48780487805|  1,48780487805|  1,48780487805|  1,48780487805|  1,53658536585|  1,48780487805|  1,56097560976
Dog                       |  1,48780487805|  1,48780487805|  1,48780487805|  1,48780487805|  1,53658536585|  1,48780487805|  1,51219512195|  1,48780487805|  1,53658536585|  1,48780487805|  1,48780487805|  0,00000000000|  1,48780487805|  1,48780487805|  1,48780487805|  1,53658536585|  1,48780487805|  1,39024390244|  1,48780487805|  1,48780487805|  1,48780487805|  1,48780487805|  1,48780487805|  1,48780487805|  1,48780487805|  1,48780487805|  1,48780487805|  1,48780487805|  1,53658536585|  1,48780487805|  1,56097560976
Pig                       |  1,43902439024|  1,43902439024|  1,43902439024|  1,46341463415|  1,53658536585|  1,48780487805|  1,51219512195|  1,46341463415|  1,53658536585|  1,43902439024|  1,48780487805|  1,48780487805|  0,00000000000|  1,43902439024|  1,43902439024|  1,53658536585|  1,43902439024|  1,48780487805|  1,48780487805|  1,48780487805|  1,43902439024|  1,46341463415|  1,46341463415|  1,46341463415|  1,46341463415|  1,46341463415|  1,43902439024|  1,48780487805|  1,53658536585|  1,43902439024|  1,56097560976
Sheep                     |  1,43902439024|  1,43902439024|  1,43902439024|  1,46341463415|  1,53658536585|  1,48780487805|  1,51219512195|  1,46341463415|  1,53658536585|  1,43902439024|  1,48780487805|  1,48780487805|  1,43902439024|  0,00000000000|  1,31707317073|  1,53658536585|  1,41463414634|  1,48780487805|  1,48780487805|  1,48780487805|  1,43902439024|  1,46341463415|  1,46341463415|  1,46341463415|  1,46341463415|  1,46341463415|  1,43902439024|  1,48780487805|  1,53658536585|  1,43902439024|  1,56097560976
Goat                      |  1,43902439024|  1,43902439024|  1,43902439024|  1,46341463415|  1,53658536585|  1,48780487805|  1,51219512195|  1,46341463415|  1,53658536585|  1,43902439024|  1,48780487805|  1,48780487805|  1,43902439024|  1,31707317073|  0,00000000000|  1,53658536585|  1,41463414634|  1,48780487805|  1,48780487805|  1,48780487805|  1,43902439024|  1,46341463415|  1,46341463415|  1,46341463415|  1,46341463415|  1,46341463415|  1,43902439024|  1,48780487805|  1,53658536585|  1,43902439024|  1,56097560976
Cow                       |  1,53658536585|  1,53658536585|  1,53658536585|  1,53658536585|  1,53658536585|  1,53658536585|  1,53658536585|  1,53658536585|  1,53658536585|  1,53658536585|  1,53658536585|  1,53658536585|  1,53658536585|  1,53658536585|  1,53658536585|  0,00000000000|  1,53658536585|  1,53658536585|  1,53658536585|  1,53658536585|  1,53658536585|  1,53658536585|  1,53658536585|  1,53658536585|  1,53658536585|  1,53658536585|  1,53658536585|  1,53658536585|  1,53658536585|  1,53658536585|  1,56097560976
Buffalo                   |  1,43902439024|  1,43902439024|  1,43902439024|  1,46341463415|  1,53658536585|  1,48780487805|  1,51219512195|  1,46341463415|  1,53658536585|  1,43902439024|  1,48780487805|  1,48780487805|  1,43902439024|  1,41463414634|  1,41463414634|  1,53658536585|  0,00000000000|  1,48780487805|  1,48780487805|  1,48780487805|  1,43902439024|  1,46341463415|  1,46341463415|  1,46341463415|  1,46341463415|  1,46341463415|  1,43902439024|  1,48780487805|  1,53658536585|  1,43902439024|  1,56097560976
Wolf                      |  1,48780487805|  1,48780487805|  1,48780487805|  1,48780487805|  1,53658536585|  1,48780487805|  1,51219512195|  1,48780487805|  1,53658536585|  1,48780487805|  1,48780487805|  1,39024390244|  1,48780487805|  1,48780487805|  1,48780487805|  1,53658536585|  1,48780487805|  0,00000000000|  1,48780487805|  1,48780487805|  1,48780487805|  1,48780487805|  1,48780487805|  1,48780487805|  1,48780487805|  1,48780487805|  1,48780487805|  1,48780487805|  1,53658536585|  1,48780487805|  1,56097560976
Tiger                     |  1,48780487805|  1,48780487805|  1,48780487805|  1,48780487805|  1,53658536585|  1,48780487805|  1,51219512195|  1,48780487805|  1,53658536585|  1,48780487805|  1,43558282209|  1,48780487805|  1,48780487805|  1,48780487805|  1,48780487805|  1,53658536585|  1,48780487805|  1,48780487805|  0,00000000000|  1,43558282209|  1,48780487805|  1,48780487805|  1,48780487805|  1,48780487805|  1,48780487805|  1,48780487805|  1,48780487805|  1,48780487805|  1,53658536585|  1,48780487805|  1,56097560976
Leopard                   |  1,48780487805|  1,48780487805|  1,48780487805|  1,48780487805|  1,53658536585|  1,48780487805|  1,51219512195|  1,48780487805|  1,53658536585|  1,48780487805|  1,01840490798|  1,48780487805|  1,48780487805|  1,48780487805|  1,48780487805|  1,53658536585|  1,48780487805|  1,48780487805|  1,43558282209|  0,00000000000|  1,48780487805|  1,48780487805|  1,48780487805|  1,48780487805|  1,48780487805|  1,48780487805|  1,48780487805|  1,48780487805|  1,53658536585|  1,48780487805|  1,56097560976
Indian_Rhino              |  1,43902439024|  1,43902439024|  1,43902439024|  1,46341463415|  1,53658536585|  1,48780487805|  1,51219512195|  1,46341463415|  1,53658536585|  1,43902439024|  1,48780487805|  1,48780487805|  1,43902439024|  1,43902439024|  1,43902439024|  1,53658536585|  1,43902439024|  1,48780487805|  1,48780487805|  1,48780487805|  0,00000000000|  1,46341463415|  1,46341463415|  1,46341463415|  1,46341463415|  1,46341463415|  1,43902439024|  1,48780487805|  1,53658536585|  1,43902439024|  1,56097560976
White_Rhino               |  1,46341463415|  1,46341463415|  1,46341463415|  1,46341463415|  1,53658536585|  1,48780487805|  1,51219512195|  1,46341463415|  1,53658536585|  1,46341463415|  1,48780487805|  1,48780487805|  1,46341463415|  1,46341463415|  1,46341463415|  1,53658536585|  1,46341463415|  1,48780487805|  1,48780487805|  1,48780487805|  1,46341463415|  0,00000000000|  1,46341463415|  1,46341463415|  1,46341463415|  1,46341463415|  1,46341463415|  1,48780487805|  1,53658536585|  1,46341463415|  1,56097560976
Black_Bear                |  1,46341463415|  1,46341463415|  1,46341463415|  1,46341463415|  1,53658536585|  1,48780487805|  1,51219512195|  1,46341463415|  1,53658536585|  1,46341463415|  1,48780487805|  1,48780487805|  1,46341463415|  1,46341463415|  1,46341463415|  1,53658536585|  1,46341463415|  1,48780487805|  1,48780487805|  1,48780487805|  1,46341463415|  1,46341463415|  0,00000000000|  1,36196319018|  1,36196319018|  1,36196319018|  1,46341463415|  1,48780487805|  1,53658536585|  1,46341463415|  1,56097560976
Brown_Bear                |  1,46341463415|  1,46341463415|  1,46341463415|  1,46341463415|  1,53658536585|  1,48780487805|  1,51219512195|  1,46341463415|  1,53658536585|  1,46341463415|  1,48780487805|  1,48780487805|  1,46341463415|  1,46341463415|  1,46341463415|  1,53658536585|  1,46341463415|  1,48780487805|  1,48780487805|  1,48780487805|  1,46341463415|  1,46341463415|  1,36196319018|  0,00000000000|  1,21951219512|  1,34146341463|  1,46341463415|  1,48780487805|  1,53658536585|  1,46341463415|  1,56097560976
Polar_Bear                |  1,46341463415|  1,46341463415|  1,46341463415|  1,46341463415|  1,53658536585|  1,48780487805|  1,51219512195|  1,46341463415|  1,53658536585|  1,46341463415|  1,48780487805|  1,48780487805|  1,46341463415|  1,46341463415|  1,46341463415|  1,53658536585|  1,46341463415|  1,48780487805|  1,48780487805|  1,48780487805|  1,46341463415|  1,46341463415|  1,36196319018|  1,21951219512|  0,00000000000|  1,34146341463|  1,46341463415|  1,48780487805|  1,53658536585|  1,46341463415|  1,56097560976
Giant_Panda               |  1,46341463415|  1,46341463415|  1,46341463415|  1,46341463415|  1,53658536585|  1,48780487805|  1,51219512195|  1,46341463415|  1,53658536585|  1,46341463415|  1,48780487805|  1,48780487805|  1,46341463415|  1,46341463415|  1,46341463415|  1,53658536585|  1,46341463415|  1,48780487805|  1,48780487805|  1,48780487805|  1,46341463415|  1,46341463415|  1,36196319018|  1,34146341463|  1,34146341463|  0,00000000000|  1,46341463415|  1,48780487805|  1,53658536585|  1,46341463415|  1,56097560976
Rabbit                    |  1,43902439024|  1,39024390244|  1,39024390244|  1,46341463415|  1,53658536585|  1,48780487805|  1,51219512195|  1,46341463415|  1,53658536585|  1,39024390244|  1,48780487805|  1,48780487805|  1,43902439024|  1,43902439024|  1,43902439024|  1,53658536585|  1,43902439024|  1,48780487805|  1,48780487805|  1,48780487805|  1,43902439024|  1,46341463415|  1,46341463415|  1,46341463415|  1,46341463415|  1,46341463415|  0,00000000000|  1,48780487805|  1,53658536585|  1,43902439024|  1,56097560976
Hedgehog                  |  1,48780487805|  1,48780487805|  1,48780487805|  1,48780487805|  1,53658536585|  1,48780487805|  1,51219512195|  1,48780487805|  1,53658536585|  1,48780487805|  1,48780487805|  1,48780487805|  1,48780487805|  1,48780487805|  1,48780487805|  1,53658536585|  1,48780487805|  1,48780487805|  1,48780487805|  1,48780487805|  1,48780487805|  1,48780487805|  1,48780487805|  1,48780487805|  1,48780487805|  1,48780487805|  1,48780487805|  0,00000000000|  1,53658536585|  1,48780487805|  1,56097560976
Dormouse                  |  1,53658536585|  1,53658536585|  1,53658536585|  1,53658536585|  1,53658536585|  1,53658536585|  1,53658536585|  1,53658536585|  1,53658536585|  1,53658536585|  1,53658536585|  1,53658536585|  1,53658536585|  1,53658536585|  1,53658536585|  1,53658536585|  1,53658536585|  1,53658536585|  1,53658536585|  1,53658536585|  1,53658536585|  1,53658536585|  1,53658536585|  1,53658536585|  1,53658536585|  1,53658536585|  1,53658536585|  1,53658536585|  0,00000000000|  1,53658536585|  1,56097560976
Squirrel                  |  1,43902439024|  1,43902439024|  1,43902439024|  1,46341463415|  1,53658536585|  1,48780487805|  1,51219512195|  1,46341463415|  1,53658536585|  1,43902439024|  1,48780487805|  1,48780487805|  1,43902439024|  1,43902439024|  1,43902439024|  1,53658536585|  1,43902439024|  1,48780487805|  1,48780487805|  1,48780487805|  1,43902439024|  1,46341463415|  1,46341463415|  1,46341463415|  1,46341463415|  1,46341463415|  1,43902439024|  1,48780487805|  1,53658536585|  0,00000000000|  1,56097560976
Blue_Whale                |  1,56097560976|  1,56097560976|  1,56097560976|  1,56097560976|  1,56097560976|  1,56097560976|  1,56097560976|  1,56097560976|  1,56097560976|  1,56097560976|  1,56097560976|  1,56097560976|  1,56097560976|  1,56097560976|  1,56097560976|  1,56097560976|  1,56097560976|  1,56097560976|  1,56097560976|  1,56097560976|  1,56097560976|  1,56097560976|  1,56097560976|  1,56097560976|  1,56097560976|  1,56097560976|  1,56097560976|  1,56097560976|  1,56097560976|  1,56097560976|  0,00000000000
                           |Human          |Pig_Chim       |Com_Chim       |Gibbon         |Baboon         |Ver_Monkey     |Macaca_Thibet  |Bor_Oran       |Sum_Oran       |Gorilla        |Cat            |Dog            |Pig            |Sheep          |Goat           |Cow            |Buffalo        |Wolf           |Tiger          |Leopard        |Indian_Rhino   |White_Rhino    |Black_Bear     |Brown_Bear     |Polar_Bear     |Giant_Panda    |Rabbit         |Hedgehog       |Dormouse       |Squirrel       |Blue_Whale     
Human                     |  0,00000000000|  9,02294261272|  9,02294261272|  9,49473345333| 10,91010597516|  9,96652429394| 10,43831513455|  9,49473345333| 10,91010597516|  9,02294261272|  9,96652429394|  9,96652429394|  9,02294261272|  9,02294261272|  9,02294261272| 10,91010597516|  9,02294261272|  9,96652429394|  9,96652429394|  9,96652429394|  9,02294261272|  9,49473345333|  9,49473345333|  9,49473345333|  9,49473345333|  9,49473345333|  9,02294261272|  9,96652429394| 10,91010597516|  9,02294261272| 11,38189681577
Pig_Chim                  |  9,02294261272|  0,00000000000|  2,88966168479|  9,49473345333| 10,91010597516|  9,96652429394| 10,43831513455|  9,49473345333| 10,91010597516|  7,13577925028|  9,96652429394|  9,96652429394|  9,02294261272|  9,02294261272|  9,02294261272| 10,91010597516|  9,02294261272|  9,96652429394|  9,96652429394|  9,96652429394|  9,02294261272|  9,49473345333|  9,49473345333|  9,49473345333|  9,49473345333|  9,49473345333|  8,07936093150|  9,96652429394| 10,91010597516|  9,02294261272| 11,38189681577
Com_Chim                  |  9,02294261272|  2,88966168479|  0,00000000000|  9,49473345333| 10,91010597516|  9,96652429394| 10,43831513455|  9,49473345333| 10,91010597516|  7,13577925028|  9,96652429394|  9,96652429394|  9,02294261272|  9,02294261272|  9,02294261272| 10,91010597516|  9,02294261272|  9,96652429394|  9,96652429394|  9,96652429394|  9,02294261272|  9,49473345333|  9,49473345333|  9,49473345333|  9,49473345333|  9,49473345333|  8,07936093150|  9,96652429394| 10,91010597516|  9,02294261272| 11,38189681577
Gibbon                    |  9,49473345333|  9,49473345333|  9,49473345333|  0,00000000000| 10,91010597516|  9,96652429394| 10,43831513455|  9,49473345333| 10,91010597516|  9,49473345333|  9,96652429394|  9,96652429394|  9,49473345333|  9,49473345333|  9,49473345333| 10,91010597516|  9,49473345333|  9,96652429394|  9,96652429394|  9,96652429394|  9,49473345333|  9,49473345333|  9,49473345333|  9,49473345333|  9,49473345333|  9,49473345333|  9,49473345333|  9,96652429394| 10,91010597516|  9,49473345333| 11,38189681577
Baboon                    | 10,91010597516| 10,91010597516| 10,91010597516| 10,91010597516|  0,00000000000| 10,91010597516| 10,91010597516| 10,91010597516| 10,91010597516| 10,91010597516| 10,91010597516| 10,91010597516| 10,91010597516| 10,91010597516| 10,91010597516| 10,91010597516| 10,91010597516| 10,91010597516| 10,91010597516| 10,91010597516| 10,91010597516| 10,91010597516| 10,91010597516| 10,91010597516| 10,91010597516| 10,91010597516| 10,91010597516| 10,91010597516| 10,91010597516| 10,91010597516| 11,38189681577
Ver_Monkey                |  9,96652429394|  9,96652429394|  9,96652429394|  9,96652429394| 10,91010597516|  0,00000000000| 10,43831513455|  9,96652429394| 10,91010597516|  9,96652429394|  9,96652429394|  9,96652429394|  9,96652429394|  9,96652429394|  9,96652429394| 10,91010597516|  9,96652429394|  9,96652429394|  9,96652429394|  9,96652429394|  9,96652429394|  9,96652429394|  9,96652429394|  9,96652429394|  9,96652429394|  9,96652429394|  9,96652429394|  9,96652429394| 10,91010597516|  9,96652429394| 11,38189681577
Macaca_Thibet             | 10,43831513455| 10,43831513455| 10,43831513455| 10,43831513455| 10,91010597516| 10,43831513455|  0,00000000000| 10,43831513455| 10,91010597516| 10,43831513455| 10,43831513455| 10,43831513455| 10,43831513455| 10,43831513455| 10,43831513455| 10,91010597516| 10,43831513455| 10,43831513455| 10,43831513455| 10,43831513455| 10,43831513455| 10,43831513455| 10,43831513455| 10,43831513455| 10,43831513455| 10,43831513455| 10,43831513455| 10,43831513455| 10,91010597516| 10,43831513455| 11,38189681577
Bor_Oran                  |  9,49473345333|  9,49473345333|  9,49473345333|  9,49473345333| 10,91010597516|  9,96652429394| 10,43831513455|  0,00000000000| 10,91010597516|  9,49473345333|  9,96652429394|  9,96652429394|  9,49473345333|  9,49473345333|  9,49473345333| 10,91010597516|  9,49473345333|  9,96652429394|  9,96652429394|  9,96652429394|  9,49473345333|  9,49473345333|  9,49473345333|  9,49473345333|  9,49473345333|  9,49473345333|  9,49473345333|  9,96652429394| 10,91010597516|  9,49473345333| 11,38189681577
Sum_Oran                  | 10,91010597516| 10,91010597516| 10,91010597516| 10,91010597516| 10,91010597516| 10,91010597516| 10,91010597516| 10,91010597516|  0,00000000000| 10,91010597516| 10,91010597516| 10,91010597516| 10,91010597516| 10,91010597516| 10,91010597516| 10,91010597516| 10,91010597516| 10,91010597516| 10,91010597516| 10,91010597516| 10,91010597516| 10,91010597516| 10,91010597516| 10,91010597516| 10,91010597516| 10,91010597516| 10,91010597516| 10,91010597516| 10,91010597516| 10,91010597516| 11,38189681577
Gorilla                   |  9,02294261272|  7,13577925028|  7,13577925028|  9,49473345333| 10,91010597516|  9,96652429394| 10,43831513455|  9,49473345333| 10,91010597516|  0,00000000000|  9,96652429394|  9,96652429394|  9,02294261272|  9,02294261272|  9,02294261272| 10,91010597516|  9,02294261272|  9,96652429394|  9,96652429394|  9,96652429394|  9,02294261272|  9,49473345333|  9,49473345333|  9,49473345333|  9,49473345333|  9,49473345333|  8,07936093150|  9,96652429394| 10,91010597516|  9,02294261272| 11,38189681577
Cat                       |  9,96652429394|  9,96652429394|  9,96652429394|  9,96652429394| 10,91010597516|  9,96652429394| 10,43831513455|  9,96652429394| 10,91010597516|  9,96652429394|  0,00000000000|  9,96652429394|  9,96652429394|  9,96652429394|  9,96652429394| 10,91010597516|  9,96652429394|  9,96652429394|  8,95637089902|  0,88672142895|  9,96652429394|  9,96652429394|  9,96652429394|  9,96652429394|  9,96652429394|  9,96652429394|  9,96652429394|  9,96652429394| 10,91010597516|  9,96652429394| 11,38189681577
Dog                       |  9,96652429394|  9,96652429394|  9,96652429394|  9,96652429394| 10,91010597516|  9,96652429394| 10,43831513455|  9,96652429394| 10,91010597516|  9,96652429394|  9,96652429394|  0,00000000000|  9,96652429394|  9,96652429394|  9,96652429394| 10,91010597516|  9,96652429394|  8,07936093150|  9,96652429394|  9,96652429394|  9,96652429394|  9,96652429394|  9,96652429394|  9,96652429394|  9,96652429394|  9,96652429394|  9,96652429394|  9,96652429394| 10,91010597516|  9,96652429394| 11,38189681577
Pig                       |  9,02294261272|  9,02294261272|  9,02294261272|  9,49473345333| 10,91010597516|  9,96652429394| 10,43831513455|  9,49473345333| 10,91010597516|  9,02294261272|  9,96652429394|  9,96652429394|  0,00000000000|  9,02294261272|  9,02294261272| 10,91010597516|  9,02294261272|  9,96652429394|  9,96652429394|  9,96652429394|  9,02294261272|  9,49473345333|  9,49473345333|  9,49473345333|  9,49473345333|  9,49473345333|  9,02294261272|  9,96652429394| 10,91010597516|  9,02294261272| 11,38189681577
Sheep                     |  9,02294261272|  9,02294261272|  9,02294261272|  9,49473345333| 10,91010597516|  9,96652429394| 10,43831513455|  9,49473345333| 10,91010597516|  9,02294261272|  9,96652429394|  9,96652429394|  9,02294261272|  0,00000000000|  6,66398840967| 10,91010597516|  8,55115177211|  9,96652429394|  9,96652429394|  9,96652429394|  9,02294261272|  9,49473345333|  9,49473345333|  9,49473345333|  9,49473345333|  9,49473345333|  9,02294261272|  9,96652429394| 10,91010597516|  9,02294261272| 11,38189681577
Goat                      |  9,02294261272|  9,02294261272|  9,02294261272|  9,49473345333| 10,91010597516|  9,96652429394| 10,43831513455|  9,49473345333| 10,91010597516|  9,02294261272|  9,96652429394|  9,96652429394|  9,02294261272|  6,66398840967|  0,00000000000| 10,91010597516|  8,55115177211|  9,96652429394|  9,96652429394|  9,96652429394|  9,02294261272|  9,49473345333|  9,49473345333|  9,49473345333|  9,49473345333|  9,49473345333|  9,02294261272|  9,96652429394| 10,91010597516|  9,02294261272| 11,38189681577
Cow                       | 10,91010597516| 10,91010597516| 10,91010597516| 10,91010597516| 10,91010597516| 10,91010597516| 10,91010597516| 10,91010597516| 10,91010597516| 10,91010597516| 10,91010597516| 10,91010597516| 10,91010597516| 10,91010597516| 10,91010597516|  0,00000000000| 10,91010597516| 10,91010597516| 10,91010597516| 10,91010597516| 10,91010597516| 10,91010597516| 10,91010597516| 10,91010597516| 10,91010597516| 10,91010597516| 10,91010597516| 10,91010597516| 10,91010597516| 10,91010597516| 11,38189681577
Buffalo                   |  9,02294261272|  9,02294261272|  9,02294261272|  9,49473345333| 10,91010597516|  9,96652429394| 10,43831513455|  9,49473345333| 10,91010597516|  9,02294261272|  9,96652429394|  9,96652429394|  9,02294261272|  8,55115177211|  8,55115177211| 10,91010597516|  0,00000000000|  9,96652429394|  9,96652429394|  9,96652429394|  9,02294261272|  9,49473345333|  9,49473345333|  9,49473345333|  9,49473345333|  9,49473345333|  9,02294261272|  9,96652429394| 10,91010597516|  9,02294261272| 11,38189681577
Wolf                      |  9,96652429394|  9,96652429394|  9,96652429394|  9,96652429394| 10,91010597516|  9,96652429394| 10,43831513455|  9,96652429394| 10,91010597516|  9,96652429394|  9,96652429394|  8,07936093150|  9,96652429394|  9,96652429394|  9,96652429394| 10,91010597516|  9,96652429394|  0,00000000000|  9,96652429394|  9,96652429394|  9,96652429394|  9,96652429394|  9,96652429394|  9,96652429394|  9,96652429394|  9,96652429394|  9,96652429394|  9,96652429394| 10,91010597516|  9,96652429394| 11,38189681577
Tiger                     |  9,96652429394|  9,96652429394|  9,96652429394|  9,96652429394| 10,91010597516|  9,96652429394| 10,43831513455|  9,96652429394| 10,91010597516|  9,96652429394|  8,95637089902|  9,96652429394|  9,96652429394|  9,96652429394|  9,96652429394| 10,91010597516|  9,96652429394|  9,96652429394|  0,00000000000|  8,95637089902|  9,96652429394|  9,96652429394|  9,96652429394|  9,96652429394|  9,96652429394|  9,96652429394|  9,96652429394|  9,96652429394| 10,91010597516|  9,96652429394| 11,38189681577
Leopard                   |  9,96652429394|  9,96652429394|  9,96652429394|  9,96652429394| 10,91010597516|  9,96652429394| 10,43831513455|  9,96652429394| 10,91010597516|  9,96652429394|  0,88672142895|  9,96652429394|  9,96652429394|  9,96652429394|  9,96652429394| 10,91010597516|  9,96652429394|  9,96652429394|  8,95637089902|  0,00000000000|  9,96652429394|  9,96652429394|  9,96652429394|  9,96652429394|  9,96652429394|  9,96652429394|  9,96652429394|  9,96652429394| 10,91010597516|  9,96652429394| 11,38189681577
Indian_Rhino              |  9,02294261272|  9,02294261272|  9,02294261272|  9,49473345333| 10,91010597516|  9,96652429394| 10,43831513455|  9,49473345333| 10,91010597516|  9,02294261272|  9,96652429394|  9,96652429394|  9,02294261272|  9,02294261272|  9,02294261272| 10,91010597516|  9,02294261272|  9,96652429394|  9,96652429394|  9,96652429394|  0,00000000000|  9,49473345333|  9,49473345333|  9,49473345333|  9,49473345333|  9,49473345333|  9,02294261272|  9,96652429394| 10,91010597516|  9,02294261272| 11,38189681577
White_Rhino               |  9,49473345333|  9,49473345333|  9,49473345333|  9,49473345333| 10,91010597516|  9,96652429394| 10,43831513455|  9,49473345333| 10,91010597516|  9,49473345333|  9,96652429394|  9,96652429394|  9,49473345333|  9,49473345333|  9,49473345333| 10,91010597516|  9,49473345333|  9,96652429394|  9,96652429394|  9,96652429394|  9,49473345333|  0,00000000000|  9,49473345333|  9,49473345333|  9,49473345333|  9,49473345333|  9,49473345333|  9,96652429394| 10,91010597516|  9,49473345333| 11,38189681577
Black_Bear                |  9,49473345333|  9,49473345333|  9,49473345333|  9,49473345333| 10,91010597516|  9,96652429394| 10,43831513455|  9,49473345333| 10,91010597516|  9,49473345333|  9,96652429394|  9,96652429394|  9,49473345333|  9,49473345333|  9,49473345333| 10,91010597516|  9,49473345333|  9,96652429394|  9,96652429394|  9,96652429394|  9,49473345333|  9,49473345333|  0,00000000000|  7,53231511018|  7,53231511018|  7,53231511018|  9,49473345333|  9,96652429394| 10,91010597516|  9,49473345333| 11,38189681577
Brown_Bear                |  9,49473345333|  9,49473345333|  9,49473345333|  9,49473345333| 10,91010597516|  9,96652429394| 10,43831513455|  9,49473345333| 10,91010597516|  9,49473345333|  9,96652429394|  9,96652429394|  9,49473345333|  9,49473345333|  9,49473345333| 10,91010597516|  9,49473345333|  9,96652429394|  9,96652429394|  9,96652429394|  9,49473345333|  9,49473345333|  7,53231511018|  0,00000000000|  4,77682504723|  7,13577925028|  9,49473345333|  9,96652429394| 10,91010597516|  9,49473345333| 11,38189681577
Polar_Bear                |  9,49473345333|  9,49473345333|  9,49473345333|  9,49473345333| 10,91010597516|  9,96652429394| 10,43831513455|  9,49473345333| 10,91010597516|  9,49473345333|  9,96652429394|  9,96652429394|  9,49473345333|  9,49473345333|  9,49473345333| 10,91010597516|  9,49473345333|  9,96652429394|  9,96652429394|  9,96652429394|  9,49473345333|  9,49473345333|  7,53231511018|  4,77682504723|  0,00000000000|  7,13577925028|  9,49473345333|  9,96652429394| 10,91010597516|  9,49473345333| 11,38189681577
Giant_Panda               |  9,49473345333|  9,49473345333|  9,49473345333|  9,49473345333| 10,91010597516|  9,96652429394| 10,43831513455|  9,49473345333| 10,91010597516|  9,49473345333|  9,96652429394|  9,96652429394|  9,49473345333|  9,49473345333|  9,49473345333| 10,91010597516|  9,49473345333|  9,96652429394|  9,96652429394|  9,96652429394|  9,49473345333|  9,49473345333|  7,53231511018|  7,13577925028|  7,13577925028|  0,00000000000|  9,49473345333|  9,96652429394| 10,91010597516|  9,49473345333| 11,38189681577
Rabbit                    |  9,02294261272|  8,07936093150|  8,07936093150|  9,49473345333| 10,91010597516|  9,96652429394| 10,43831513455|  9,49473345333| 10,91010597516|  8,07936093150|  9,96652429394|  9,96652429394|  9,02294261272|  9,02294261272|  9,02294261272| 10,91010597516|  9,02294261272|  9,96652429394|  9,96652429394|  9,96652429394|  9,02294261272|  9,49473345333|  9,49473345333|  9,49473345333|  9,49473345333|  9,49473345333|  0,00000000000|  9,96652429394| 10,91010597516|  9,02294261272| 11,38189681577
Hedgehog                  |  9,96652429394|  9,96652429394|  9,96652429394|  9,96652429394| 10,91010597516|  9,96652429394| 10,43831513455|  9,96652429394| 10,91010597516|  9,96652429394|  9,96652429394|  9,96652429394|  9,96652429394|  9,96652429394|  9,96652429394| 10,91010597516|  9,96652429394|  9,96652429394|  9,96652429394|  9,96652429394|  9,96652429394|  9,96652429394|  9,96652429394|  9,96652429394|  9,96652429394|  9,96652429394|  9,96652429394|  0,00000000000| 10,91010597516|  9,96652429394| 11,38189681577
Dormouse                  | 10,91010597516| 10,91010597516| 10,91010597516| 10,91010597516| 10,91010597516| 10,91010597516| 10,91010597516| 10,91010597516| 10,91010597516| 10,91010597516| 10,91010597516| 10,91010597516| 10,91010597516| 10,91010597516| 10,91010597516| 10,91010597516| 10,91010597516| 10,91010597516| 10,91010597516| 10,91010597516| 10,91010597516| 10,91010597516| 10,91010597516| 10,91010597516| 10,91010597516| 10,91010597516| 10,91010597516| 10,91010597516|  0,00000000000| 10,91010597516| 11,38189681577
Squirrel                  |  9,02294261272|  9,02294261272|  9,02294261272|  9,49473345333| 10,91010597516|  9,96652429394| 10,43831513455|  9,49473345333| 10,91010597516|  9,02294261272|  9,96652429394|  9,96652429394|  9,02294261272|  9,02294261272|  9,02294261272| 10,91010597516|  9,02294261272|  9,96652429394|  9,96652429394|  9,96652429394|  9,02294261272|  9,49473345333|  9,49473345333|  9,49473345333|  9,49473345333|  9,49473345333|  9,02294261272|  9,96652429394| 10,91010597516|  0,00000000000| 11,38189681577
Blue_Whale                | 11,38189681577| 11,38189681577| 11,38189681577| 11,38189681577| 11,38189681577| 11,38189681577| 11,38189681577| 11,38189681577| 11,38189681577| 11,38189681577| 11,38189681577| 11,38189681577| 11,38189681577| 11,38189681577| 11,38189681577| 11,38189681577| 11,38189681577| 11,38189681577| 11,38189681577| 11,38189681577| 11,38189681577| 11,38189681577| 11,38189681577| 11,38189681577| 11,38189681577| 11,38189681577| 11,38189681577| 11,38189681577| 11,38189681577| 11,38189681577|  0,00000000000
                           |Human          |Pig_Chim       |Com_Chim       |Gibbon         |Baboon         |Ver_Monkey     |Macaca_Thibet  |Bor_Oran       |Sum_Oran       |Gorilla        |Cat            |Dog            |Pig            |Sheep          |Goat           |Cow            |Buffalo        |Wolf           |Tiger          |Leopard        |Indian_Rhino   |White_Rhino    |Black_Bear     |Brown_Bear     |Polar_Bear     |Giant_Panda    |Rabbit         |Hedgehog       |Dormouse       |Squirrel       |Blue_Whale     
Human                     |  0,00000000000|  9,00000000000|  9,00000000000|  6,00000000000| 15,00000000000| 10,00000000000| 11,00000000000|  5,00000000000| 14,00000000000|  8,00000000000| 10,00000000000| 10,00000000000|  3,00000000000|  6,00000000000|  6,00000000000| 13,00000000000|  5,00000000000| 10,00000000000|  9,00000000000| 10,00000000000|  5,00000000000|  4,00000000000|  4,00000000000|  6,00000000000|  6,00000000000|  5,00000000000|  7,00000000000|  7,00000000000| 12,00000000000|  6,00000000000| 16,00000000000
Pig_Chim                  |  9,00000000000|  0,00000000000|  2,00000000000| 13,00000000000| 22,00000000000| 17,00000000000| 18,00000000000| 12,00000000000| 21,00000000000|  3,00000000000| 17,00000000000| 17,00000000000|  8,00000000000|  9,00000000000|  9,00000000000| 20,00000000000|  8,00000000000| 17,00000000000| 16,00000000000| 17,00000000000|  6,00000000000| 11,00000000000| 11,00000000000| 13,00000000000| 13,00000000000| 12,00000000000|  4,00000000000| 14,00000000000| 19,00000000000|  5,00000000000| 23,00000000000
Com_Chim                  |  9,00000000000|  2,00000000000|  0,00000000000| 13,00000000000| 22,00000000000| 17,00000000000| 18,00000000000| 12,00000000000| 21,00000000000|  3,00000000000| 17,00000000000| 17,00000000000|  8,00000000000|  9,00000000000|  9,00000000000| 20,00000000000|  8,00000000000| 17,00000000000| 16,00000000000| 17,00000000000|  6,00000000000| 11,00000000000| 11,00000000000| 13,00000000000| 13,00000000000| 12,00000000000|  4,00000000000| 14,00000000000| 19,00000000000|  5,00000000000| 23,00000000000
Gibbon                    |  6,00000000000| 13,00000000000| 13,00000000000|  0,00000000000| 11,00000000000|  6,00000000000|  7,00000000000|  3,00000000000| 10,00000000000| 12,00000000000|  6,00000000000|  6,00000000000|  7,00000000000| 10,00000000000| 10,00000000000|  9,00000000000|  9,00000000000|  6,00000000000|  5,00000000000|  6,00000000000|  9,00000000000|  4,00000000000|  6,00000000000|  8,00000000000|  8,00000000000|  7,00000000000| 11,00000000000|  3,00000000000|  8,00000000000| 10,00000000000| 12,00000000000
Baboon                    | 15,00000000000| 22,00000000000| 22,00000000000| 11,00000000000|  0,00000000000|  7,00000000000|  6,00000000000| 12,00000000000|  3,00000000000| 21,00000000000| 11,00000000000|  9,00000000000| 16,00000000000| 19,00000000000| 19,00000000000|  4,00000000000| 18,00000000000|  9,00000000000| 10,00000000000| 11,00000000000| 18,00000000000| 13,00000000000| 15,00000000000| 17,00000000000| 17,00000000000| 16,00000000000| 20,00000000000| 10,00000000000|  5,00000000000| 19,00000000000|  3,00000000000
Ver_Monkey                | 10,00000000000| 17,00000000000| 17,00000000000|  6,00000000000|  7,00000000000|  0,00000000000|  3,00000000000|  7,00000000000|  6,00000000000| 16,00000000000|  6,00000000000|  4,00000000000| 11,00000000000| 14,00000000000| 14,00000000000|  5,00000000000| 13,00000000000|  4,00000000000|  5,00000000000|  6,00000000000| 13,00000000000|  8,00000000000| 10,00000000000| 12,00000000000| 12,00000000000| 11,00000000000| 15,00000000000|  5,00000000000|  4,00000000000| 14,00000000000|  8,00000000000
Macaca_Thibet             | 11,00000000000| 18,00000000000| 18,00000000000|  7,00000000000|  6,00000000000|  3,00000000000|  0,00000000000|  8,00000000000|  5,00000000000| 17,00000000000|  7,00000000000|  5,00000000000| 12,00000000000| 15,00000000000| 15,00000000000|  4,00000000000| 14,00000000000|  5,00000000000|  6,00000000000|  7,00000000000| 14,00000000000|  9,00000000000| 11,00000000000| 13,00000000000| 13,00000000000| 12,00000000000| 16,00000000000|  6,00000000000|  3,00000000000| 15,00000000000|  7,00000000000
Bor_Oran                  |  5,00000000000| 12,00000000000| 12,00000000000|  3,00000000000| 12,00000000000|  7,00000000000|  8,00000000000|  0,00000000000| 11,00000000000| 11,00000000000|  7,00000000000|  7,00000000000|  6,00000000000|  9,00000000000|  9,00000000000| 10,00000000000|  8,00000000000|  7,00000000000|  6,00000000000|  7,00000000000|  8,00000000000|  3,00000000000|  5,00000000000|  7,00000000000|  7,00000000000|  6,00000000000| 10,00000000000|  4,00000000000|  9,00000000000|  9,00000000000| 13,00000000000
Sum_Oran                  | 14,00000000000| 21,00000000000| 21,00000000000| 10,00000000000|  3,00000000000|  6,00000000000|  5,00000000000| 11,00000000000|  0,00000000000| 20,00000000000| 10,00000000000|  8,00000000000| 15,00000000000| 18,00000000000| 18,00000000000|  3,00000000000| 17,00000000000|  8,00000000000|  9,00000000000| 10,00000000000| 17,00000000000| 12,00000000000| 14,00000000000| 16,00000000000| 16,00000000000| 15,00000000000| 19,00000000000|  9,00000000000|  4,00000000000| 18,00000000000|  4,00000000000
Gorilla                   |  8,00000000000|  3,00000000000|  3,00000000000| 12,00000000000| 21,00000000000| 16,00000000000| 17,00000000000| 11,00000000000| 20,00000000000|  0,00000000000| 16,00000000000| 16,00000000000|  7,00000000000|  8,00000000000|  8,00000000000| 19,00000000000|  7,00000000000| 16,00000000000| 15,00000000000| 16,00000000000|  5,00000000000| 10,00000000000| 10,00000000000| 12,00000000000| 12,00000000000| 11,00000000000|  3,00000000000| 13,00000000000| 18,00000000000|  4,00000000000| 22,00000000000
Cat                       | 10,00000000000| 17,00000000000| 17,00000000000|  6,00000000000| 11,00000000000|  6,00000000000|  7,00000000000|  7,00000000000| 10,00000000000| 16,00000000000|  0,00000000000|  6,00000000000| 11,00000000000| 14,00000000000| 14,00000000000|  9,00000000000| 13,00000000000|  6,00000000000|  3,00000000000|  2,00000000000| 13,00000000000|  8,00000000000| 10,00000000000| 12,00000000000| 12,00000000000| 11,00000000000| 15,00000000000|  5,00000000000|  8,00000000000| 14,00000000000| 12,00000000000
Dog                       | 10,00000000000| 17,00000000000| 17,00000000000|  6,00000000000|  9,00000000000|  4,00000000000|  5,00000000000|  7,00000000000|  8,00000000000| 16,00000000000|  6,00000000000|  0,00000000000| 11,00000000000| 14,00000000000| 14,00000000000|  7,00000000000| 13,00000000000|  2,00000000000|  5,00000000000|  6,00000000000| 13,00000000000|  8,00000000000| 10,00000000000| 12,00000000000| 12,00000000000| 11,00000000000| 15,00000000000|  5,00000000000|  6,00000000000| 14,00000000000| 10,00000000000
Pig                       |  3,00000000000|  8,00000000000|  8,00000000000|  7,00000000000| 16,00000000000| 11,00000000000| 12,00000000000|  6,00000000000| 15,00000000000|  7,00000000000| 11,00000000000| 11,00000000000|  0,00000000000|  5,00000000000|  5,00000000000| 14,00000000000|  4,00000000000| 11,00000000000| 10,00000000000| 11,00000000000|  4,00000000000|  5,00000000000|  5,00000000000|  7,00000000000|  7,00000000000|  6,00000000000|  6,00000000000|  8,00000000000| 13,00000000000|  5,00000000000| 17,00000000000
Sheep                     |  6,00000000000|  9,00000000000|  9,00000000000| 10,00000000000| 19,00000000000| 14,00000000000| 15,00000000000|  9,00000000000| 18,00000000000|  8,00000000000| 14,00000000000| 14,00000000000|  5,00000000000|  0,00000000000|  2,00000000000| 17,00000000000|  3,00000000000| 14,00000000000| 13,00000000000| 14,00000000000|  5,00000000000|  8,00000000000|  8,00000000000| 10,00000000000| 10,00000000000|  9,00000000000|  7,00000000000| 11,00000000000| 16,00000000000|  6,00000000000| 20,00000000000
Goat                      |  6,00000000000|  9,00000000000|  9,00000000000| 10,00000000000| 19,00000000000| 14,00000000000| 15,00000000000|  9,00000000000| 18,00000000000|  8,00000000000| 14,00000000000| 14,00000000000|  5,00000000000|  2,00000000000|  0,00000000000| 17,00000000000|  3,00000000000| 14,00000000000| 13,00000000000| 14,00000000000|  5,00000000000|  8,00000000000|  8,00000000000| 10,00000000000| 10,00000000000|  9,00000000000|  7,00000000000| 11,00000000000| 16,00000000000|  6,00000000000| 20,00000000000
Cow                       | 13,00000000000| 20,00000000000| 20,00000000000|  9,00000000000|  4,00000000000|  5,00000000000|  4,00000000000| 10,00000000000|  3,00000000000| 19,00000000000|  9,00000000000|  7,00000000000| 14,00000000000| 17,00000000000| 17,00000000000|  0,00000000000| 16,00000000000|  7,00000000000|  8,00000000000|  9,00000000000| 16,00000000000| 11,00000000000| 13,00000000000| 15,00000000000| 15,00000000000| 14,00000000000| 18,00000000000|  8,00000000000|  3,00000000000| 17,00000000000|  5,00000000000
Buffalo                   |  5,00000000000|  8,00000000000|  8,00000000000|  9,00000000000| 18,00000000000| 13,00000000000| 14,00000000000|  8,00000000000| 17,00000000000|  7,00000000000| 13,00000000000| 13,00000000000|  4,00000000000|  3,00000000000|  3,00000000000| 16,00000000000|  0,00000000000| 13,00000000000| 12,00000000000| 13,00000000000|  4,00000000000|  7,00000000000|  7,00000000000|  9,00000000000|  9,00000000000|  8,00000000000|  6,00000000000| 10,00000000000| 15,00000000000|  5,00000000000| 19,00000000000
Wolf                      | 10,00000000000| 17,00000000000| 17,00000000000|  6,00000000000|  9,00000000000|  4,00000000000|  5,00000000000|  7,00000000000|  8,00000000000| 16,00000000000|  6,00000000000|  2,00000000000| 11,00000000000| 14,00000000000| 14,00000000000|  7,00000000000| 13,00000000000|  0,00000000000|  5,00000000000|  6,00000000000| 13,00000000000|  8,00000000000| 10,00000000000| 12,00000000000| 12,00000000000| 11,00000000000| 15,00000000000|  5,00000000000|  6,00000000000| 14,00000000000| 10,00000000000
Tiger                     |  9,00000000000| 16,00000000000| 16,00000000000|  5,00000000000| 10,00000000000|  5,00000000000|  6,00000000000|  6,00000000000|  9,00000000000| 15,00000000000|  3,00000000000|  5,00000000000| 10,00000000000| 13,00000000000| 13,00000000000|  8,00000000000| 12,00000000000|  5,00000000000|  0,00000000000|  3,00000000000| 12,00000000000|  7,00000000000|  9,00000000000| 11,00000000000| 11,00000000000| 10,00000000000| 14,00000000000|  4,00000000000|  7,00000000000| 13,00000000000| 11,00000000000
Leopard                   | 10,00000000000| 17,00000000000| 17,00000000000|  6,00000000000| 11,00000000000|  6,00000000000|  7,00000000000|  7,00000000000| 10,00000000000| 16,00000000000|  2,00000000000|  6,00000000000| 11,00000000000| 14,00000000000| 14,00000000000|  9,00000000000| 13,00000000000|  6,00000000000|  3,00000000000|  0,00000000000| 13,00000000000|  8,00000000000| 10,00000000000| 12,00000000000| 12,00000000000| 11,00000000000| 15,00000000000|  5,00000000000|  8,00000000000| 14,00000000000| 12,00000000000
Indian_Rhino              |  5,00000000000|  6,00000000000|  6,00000000000|  9,00000000000| 18,00000000000| 13,00000000000| 14,00000000000|  8,00000000000| 17,00000000000|  5,00000000000| 13,00000000000| 13,00000000000|  4,00000000000|  5,00000000000|  5,00000000000| 16,00000000000|  4,00000000000| 13,00000000000| 12,00000000000| 13,00000000000|  0,00000000000|  7,00000000000|  7,00000000000|  9,00000000000|  9,00000000000|  8,00000000000|  4,00000000000| 10,00000000000| 15,00000000000|  3,00000000000| 19,00000000000
White_Rhino               |  4,00000000000| 11,00000000000| 11,00000000000|  4,00000000000| 13,00000000000|  8,00000000000|  9,00000000000|  3,00000000000| 12,00000000000| 10,00000000000|  8,00000000000|  8,00000000000|  5,00000000000|  8,00000000000|  8,00000000000| 11,00000000000|  7,00000000000|  8,00000000000|  7,00000000000|  8,00000000000|  7,00000000000|  0,00000000000|  4,00000000000|  6,00000000000|  6,00000000000|  5,00000000000|  9,00000000000|  5,00000000000| 10,00000000000|  8,00000000000| 14,00000000000
Black_Bear                |  4,00000000000| 11,00000000000| 11,00000000000|  6,00000000000| 15,00000000000| 10,00000000000| 11,00000000000|  5,00000000000| 14,00000000000| 10,00000000000| 10,00000000000| 10,00000000000|  5,00000000000|  8,00000000000|  8,00000000000| 13,00000000000|  7,00000000000| 10,00000000000|  9,00000000000| 10,00000000000|  7,00000000000|  4,00000000000|  0,00000000000|  4,00000000000|  4,00000000000|  3,00000000000|  9,00000000000|  7,00000000000| 12,00000000000|  8,00000000000| 16,00000000000
Brown_Bear                |  6,00000000000| 13,00000000000| 13,00000000000|  8,00000000000| 17,00000000000| 12,00000000000| 13,00000000000|  7,00000000000| 16,00000000000| 12,00000000000| 12,00000000000| 12,00000000000|  7,00000000000| 10,00000000000| 10,00000000000| 15,00000000000|  9,00000000000| 12,00000000000| 11,00000000000| 12,00000000000|  9,00000000000|  6,00000000000|  4,00000000000|  0,00000000000|  2,00000000000|  3,00000000000| 11,00000000000|  9,00000000000| 14,00000000000| 10,00000000000| 18,00000000000
Polar_Bear                |  6,00000000000| 13,00000000000| 13,00000000000|  8,00000000000| 17,00000000000| 12,00000000000| 13,00000000000|  7,00000000000| 16,00000000000| 12,00000000000| 12,00000000000| 12,00000000000|  7,00000000000| 10,00000000000| 10,00000000000| 15,00000000000|  9,00000000000| 12,00000000000| 11,00000000000| 12,00000000000|  9,00000000000|  6,00000000000|  4,00000000000|  2,00000000000|  0,00000000000|  3,00000000000| 11,00000000000|  9,00000000000| 14,00000000000| 10,00000000000| 18,00000000000
Giant_Panda               |  5,00000000000| 12,00000000000| 12,00000000000|  7,00000000000| 16,00000000000| 11,00000000000| 12,00000000000|  6,00000000000| 15,00000000000| 11,00000000000| 11,00000000000| 11,00000000000|  6,00000000000|  9,00000000000|  9,00000000000| 14,00000000000|  8,00000000000| 11,00000000000| 10,00000000000| 11,00000000000|  8,00000000000|  5,00000000000|  3,00000000000|  3,00000000000|  3,00000000000|  0,00000000000| 10,00000000000|  8,00000000000| 13,00000000000|  9,00000000000| 17,00000000000
Rabbit                    |  7,00000000000|  4,00000000000|  4,00000000000| 11,00000000000| 20,00000000000| 15,00000000000| 16,00000000000| 10,00000000000| 19,00000000000|  3,00000000000| 15,00000000000| 15,00000000000|  6,00000000000|  7,00000000000|  7,00000000000| 18,00000000000|  6,00000000000| 15,00000000000| 14,00000000000| 15,00000000000|  4,00000000000|  9,00000000000|  9,00000000000| 11,00000000000| 11,00000000000| 10,00000000000|  0,00000000000| 12,00000000000| 17,00000000000|  3,00000000000| 21,00000000000
Hedgehog                  |  7,00000000000| 14,00000000000| 14,00000000000|  3,00000000000| 10,00000000000|  5,00000000000|  6,00000000000|  4,00000000000|  9,00000000000| 13,00000000000|  5,00000000000|  5,00000000000|  8,00000000000| 11,00000000000| 11,00000000000|  8,00000000000| 10,00000000000|  5,00000000000|  4,00000000000|  5,00000000000| 10,00000000000|  5,00000000000|  7,00000000000|  9,00000000000|  9,00000000000|  8,00000000000| 12,00000000000|  0,00000000000|  7,00000000000| 11,00000000000| 11,00000000000
Dormouse                  | 12,00000000000| 19,00000000000| 19,00000000000|  8,00000000000|  5,00000000000|  4,00000000000|  3,00000000000|  9,00000000000|  4,00000000000| 18,00000000000|  8,00000000000|  6,00000000000| 13,00000000000| 16,00000000000| 16,00000000000|  3,00000000000| 15,00000000000|  6,00000000000|  7,00000000000|  8,00000000000| 15,00000000000| 10,00000000000| 12,00000000000| 14,00000000000| 14,00000000000| 13,00000000000| 17,00000000000|  7,00000000000|  0,00000000000| 16,00000000000|  6,00000000000
Squirrel                  |  6,00000000000|  5,00000000000|  5,00000000000| 10,00000000000| 19,00000000000| 14,00000000000| 15,00000000000|  9,00000000000| 18,00000000000|  4,00000000000| 14,00000000000| 14,00000000000|  5,00000000000|  6,00000000000|  6,00000000000| 17,00000000000|  5,00000000000| 14,00000000000| 13,00000000000| 14,00000000000|  3,00000000000|  8,00000000000|  8,00000000000| 10,00000000000| 10,00000000000|  9,00000000000|  3,00000000000| 11,00000000000| 16,00000000000|  0,00000000000| 20,00000000000
Blue_Whale                | 16,00000000000| 23,00000000000| 23,00000000000| 12,00000000000|  3,00000000000|  8,00000000000|  7,00000000000| 13,00000000000|  4,00000000000| 22,00000000000| 12,00000000000| 10,00000000000| 17,00000000000| 20,00000000000| 20,00000000000|  5,00000000000| 19,00000000000| 10,00000000000| 11,00000000000| 12,00000000000| 19,00000000000| 14,00000000000| 16,00000000000| 18,00000000000| 18,00000000000| 17,00000000000| 21,00000000000| 11,00000000000|  6,00000000000| 20,00000000000|  0,00000000000
