                           |Human          |Hum_shortened  |Pig_Chim       |Com_Chim       |Gibbon         |Baboon         |Ver_Monkey     |Macaca_Thibet  |Bor_Oran       |Sum_Oran       |Gorilla        |Cat            |Dog            |Pig            |Sheep          |Goat           |Cow            |Buffalo        |Wolf           |Tiger          |Leopard        |Indian_Rhino   |White_Rhino    |Black_Bear     |Brown_Bear     |Polar_Bear     |Giant_Panda    |Rabbit         |Hedgehog       |Dormouse       |Squirrel       |Blue_Whale     
Human                     |  0,00000000000|1439,09655600177|2094,87500225761|2094,87500225761|2708,73873236931|3081,70484766737|3081,70484766737|3081,70484766737|2573,39409212932|2573,39409212932|2094,87500225761|3630,03460775255|3628,35769867286|3757,05338967198|3757,05338967198|3757,05338967198|3757,05338967198|3757,05338967198|3628,35769867286|3630,03460775255|3630,03460775255|3757,05338967198|3757,05338967198|3630,03460775255|3630,03460775255|3630,03460775255|3630,03460775255|3594,21028231847|3684,02845916563|3717,10774818591|3594,21028231847|3757,05338967198
Hum_shortened             |1439,09655600177|  0,00000000000|2094,87500225761|2094,87500225761|2708,73873236931|3081,70484766737|3081,70484766737|3081,70484766737|2573,39409212932|2573,39409212932|2094,87500225761|3630,03460775255|3628,35769867286|3757,05338967198|3757,05338967198|3757,05338967198|3757,05338967198|3757,05338967198|3628,35769867286|3630,03460775255|3630,03460775255|3757,05338967198|3757,05338967198|3630,03460775255|3630,03460775255|3630,03460775255|3630,03460775255|3594,21028231847|3684,02845916563|3717,10774818591|3594,21028231847|3757,05338967198
Pig_Chim                  |2094,87500225761|2094,87500225761|  0,00000000000|1584,77393339381|2708,73873236931|3081,70484766737|3081,70484766737|3081,70484766737|2573,39409212932|2573,39409212932|1967,25059984431|3630,03460775255|3628,35769867286|3757,05338967198|3757,05338967198|3757,05338967198|3757,05338967198|3757,05338967198|3628,35769867286|3630,03460775255|3630,03460775255|3757,05338967198|3757,05338967198|3630,03460775255|3630,03460775255|3630,03460775255|3630,03460775255|3594,21028231847|3684,02845916563|3717,10774818591|3594,21028231847|3757,05338967198
Com_Chim                  |2094,87500225761|2094,87500225761|1584,77393339381|  0,00000000000|2708,73873236931|3081,70484766737|3081,70484766737|3081,70484766737|2573,39409212932|2573,39409212932|1967,25059984431|3630,03460775255|3628,35769867286|3757,05338967198|3757,05338967198|3757,05338967198|3757,05338967198|3757,05338967198|3628,35769867286|3630,03460775255|3630,03460775255|3757,05338967198|3757,05338967198|3630,03460775255|3630,03460775255|3630,03460775255|3630,03460775255|3594,21028231847|3684,02845916563|3717,10774818591|3594,21028231847|3757,05338967198
Gibbon                    |2708,73873236931|2708,73873236931|2708,73873236931|2708,73873236931|  0,00000000000|3081,70484766737|3081,70484766737|3081,70484766737|2708,73873236931|2708,73873236931|2708,73873236931|3630,03460775255|3628,35769867286|3757,05338967198|3757,05338967198|3757,05338967198|3757,05338967198|3757,05338967198|3628,35769867286|3630,03460775255|3630,03460775255|3757,05338967198|3757,05338967198|3630,03460775255|3630,03460775255|3630,03460775255|3630,03460775255|3594,21028231847|3684,02845916563|3717,10774818591|3594,21028231847|3757,05338967198
Baboon                    |3081,70484766737|3081,70484766737|3081,70484766737|3081,70484766737|3081,70484766737|  0,00000000000|2722,23259912182|2790,98158774505|3081,70484766737|3081,70484766737|3081,70484766737|3630,03460775255|3628,35769867286|3757,05338967198|3757,05338967198|3757,05338967198|3757,05338967198|3757,05338967198|3628,35769867286|3630,03460775255|3630,03460775255|3757,05338967198|3757,05338967198|3630,03460775255|3630,03460775255|3630,03460775255|3630,03460775255|3594,21028231847|3684,02845916563|3717,10774818591|3594,21028231847|3757,05338967198
Ver_Monkey                |3081,70484766737|3081,70484766737|3081,70484766737|3081,70484766737|3081,70484766737|2722,23259912182|  0,00000000000|2790,98158774505|3081,70484766737|3081,70484766737|3081,70484766737|3630,03460775255|3628,35769867286|3757,05338967198|3757,05338967198|3757,05338967198|3757,05338967198|3757,05338967198|3628,35769867286|3630,03460775255|3630,03460775255|3757,05338967198|3757,05338967198|3630,03460775255|3630,03460775255|3630,03460775255|3630,03460775255|3594,21028231847|3684,02845916563|3717,10774818591|3594,21028231847|3757,05338967198
Macaca_Thibet             |3081,70484766737|3081,70484766737|3081,70484766737|3081,70484766737|3081,70484766737|2790,98158774505|2790,98158774505|  0,00000000000|3081,70484766737|3081,70484766737|3081,70484766737|3630,03460775255|3628,35769867286|3757,05338967198|3757,05338967198|3757,05338967198|3757,05338967198|3757,05338967198|3628,35769867286|3630,03460775255|3630,03460775255|3757,05338967198|3757,05338967198|3630,03460775255|3630,03460775255|3630,03460775255|3630,03460775255|3594,21028231847|3684,02845916563|3717,10774818591|3594,21028231847|3757,05338967198
Bor_Oran                  |2573,39409212932|2573,39409212932|2573,39409212932|2573,39409212932|2708,73873236931|3081,70484766737|3081,70484766737|3081,70484766737|  0,00000000000|2183,56497140367|2573,39409212932|3630,03460775255|3628,35769867286|3757,05338967198|3757,05338967198|3757,05338967198|3757,05338967198|3757,05338967198|3628,35769867286|3630,03460775255|3630,03460775255|3757,05338967198|3757,05338967198|3630,03460775255|3630,03460775255|3630,03460775255|3630,03460775255|3594,21028231847|3684,02845916563|3717,10774818591|3594,21028231847|3757,05338967198
Sum_Oran                  |2573,39409212932|2573,39409212932|2573,39409212932|2573,39409212932|2708,73873236931|3081,70484766737|3081,70484766737|3081,70484766737|2183,56497140367|  0,00000000000|2573,39409212932|3630,03460775255|3628,35769867286|3757,05338967198|3757,05338967198|3757,05338967198|3757,05338967198|3757,05338967198|3628,35769867286|3630,03460775255|3630,03460775255|3757,05338967198|3757,05338967198|3630,03460775255|3630,03460775255|3630,03460775255|3630,03460775255|3594,21028231847|3684,02845916563|3717,10774818591|3594,21028231847|3757,05338967198
Gorilla                   |2094,87500225761|2094,87500225761|1967,25059984431|1967,25059984431|2708,73873236931|3081,70484766737|3081,70484766737|3081,70484766737|2573,39409212932|2573,39409212932|  0,00000000000|3630,03460775255|3628,35769867286|3757,05338967198|3757,05338967198|3757,05338967198|3757,05338967198|3757,05338967198|3628,35769867286|3630,03460775255|3630,03460775255|3757,05338967198|3757,05338967198|3630,03460775255|3630,03460775255|3630,03460775255|3630,03460775255|3594,21028231847|3684,02845916563|3717,10774818591|3594,21028231847|3757,05338967198
Cat                       |3630,03460775255|3630,03460775255|3630,03460775255|3630,03460775255|3630,03460775255|3630,03460775255|3630,03460775255|3630,03460775255|3630,03460775255|3630,03460775255|3630,03460775255|  0,00000000000|3630,03460775255|3757,05338967198|3757,05338967198|3757,05338967198|3757,05338967198|3757,05338967198|3630,03460775255|2886,54415767345|2886,54415767345|3757,05338967198|3757,05338967198|3476,00503607376|3476,00503607376|3476,00503607376|3476,00503607376|3630,03460775255|3684,02845916563|3717,10774818591|3630,03460775255|3757,05338967198
Dog                       |3628,35769867286|3628,35769867286|3628,35769867286|3628,35769867286|3628,35769867286|3628,35769867286|3628,35769867286|3628,35769867286|3628,35769867286|3628,35769867286|3628,35769867286|3630,03460775255|  0,00000000000|3757,05338967198|3757,05338967198|3757,05338967198|3757,05338967198|3757,05338967198|1479,41278564831|3630,03460775255|3630,03460775255|3757,05338967198|3757,05338967198|3630,03460775255|3630,03460775255|3630,03460775255|3630,03460775255|3628,35769867286|3684,02845916563|3717,10774818591|3628,35769867286|3757,05338967198
Pig                       |3757,05338967198|3757,05338967198|3757,05338967198|3757,05338967198|3757,05338967198|3757,05338967198|3757,05338967198|3757,05338967198|3757,05338967198|3757,05338967198|3757,05338967198|3757,05338967198|3757,05338967198|  0,00000000000|3683,18317266719|3683,18317266719|3683,18317266719|3683,18317266719|3757,05338967198|3757,05338967198|3757,05338967198|3683,18317266719|3683,18317266719|3757,05338967198|3757,05338967198|3757,05338967198|3757,05338967198|3757,05338967198|3757,05338967198|3757,05338967198|3757,05338967198|3683,18317266719
Sheep                     |3757,05338967198|3757,05338967198|3757,05338967198|3757,05338967198|3757,05338967198|3757,05338967198|3757,05338967198|3757,05338967198|3757,05338967198|3757,05338967198|3757,05338967198|3757,05338967198|3757,05338967198|3683,18317266719|  0,00000000000|2239,84382967879|2821,93140890816|2821,93140890816|3757,05338967198|3757,05338967198|3757,05338967198|3272,95691775725|3272,95691775725|3757,05338967198|3757,05338967198|3757,05338967198|3757,05338967198|3757,05338967198|3757,05338967198|3757,05338967198|3757,05338967198|3194,44521097572
Goat                      |3757,05338967198|3757,05338967198|3757,05338967198|3757,05338967198|3757,05338967198|3757,05338967198|3757,05338967198|3757,05338967198|3757,05338967198|3757,05338967198|3757,05338967198|3757,05338967198|3757,05338967198|3683,18317266719|2239,84382967879|  0,00000000000|2821,93140890816|2821,93140890816|3757,05338967198|3757,05338967198|3757,05338967198|3272,95691775725|3272,95691775725|3757,05338967198|3757,05338967198|3757,05338967198|3757,05338967198|3757,05338967198|3757,05338967198|3757,05338967198|3757,05338967198|3194,44521097572
Cow                       |3757,05338967198|3757,05338967198|3757,05338967198|3757,05338967198|3757,05338967198|3757,05338967198|3757,05338967198|3757,05338967198|3757,05338967198|3757,05338967198|3757,05338967198|3757,05338967198|3757,05338967198|3683,18317266719|2821,93140890816|2821,93140890816|  0,00000000000|2758,62290594470|3757,05338967198|3757,05338967198|3757,05338967198|3272,95691775725|3272,95691775725|3757,05338967198|3757,05338967198|3757,05338967198|3757,05338967198|3757,05338967198|3757,05338967198|3757,05338967198|3757,05338967198|3194,44521097572
Buffalo                   |3757,05338967198|3757,05338967198|3757,05338967198|3757,05338967198|3757,05338967198|3757,05338967198|3757,05338967198|3757,05338967198|3757,05338967198|3757,05338967198|3757,05338967198|3757,05338967198|3757,05338967198|3683,18317266719|2821,93140890816|2821,93140890816|2758,62290594470|  0,00000000000|3757,05338967198|3757,05338967198|3757,05338967198|3272,95691775725|3272,95691775725|3757,05338967198|3757,05338967198|3757,05338967198|3757,05338967198|3757,05338967198|3757,05338967198|3757,05338967198|3757,05338967198|3194,44521097572
Wolf                      |3628,35769867286|3628,35769867286|3628,35769867286|3628,35769867286|3628,35769867286|3628,35769867286|3628,35769867286|3628,35769867286|3628,35769867286|3628,35769867286|3628,35769867286|3630,03460775255|1479,41278564831|3757,05338967198|3757,05338967198|3757,05338967198|3757,05338967198|3757,05338967198|  0,00000000000|3630,03460775255|3630,03460775255|3757,05338967198|3757,05338967198|3630,03460775255|3630,03460775255|3630,03460775255|3630,03460775255|3628,35769867286|3684,02845916563|3717,10774818591|3628,35769867286|3757,05338967198
Tiger                     |3630,03460775255|3630,03460775255|3630,03460775255|3630,03460775255|3630,03460775255|3630,03460775255|3630,03460775255|3630,03460775255|3630,03460775255|3630,03460775255|3630,03460775255|2886,54415767345|3630,03460775255|3757,05338967198|3757,05338967198|3757,05338967198|3757,05338967198|3757,05338967198|3630,03460775255|  0,00000000000|2478,89440734545|3757,05338967198|3757,05338967198|3476,00503607376|3476,00503607376|3476,00503607376|3476,00503607376|3630,03460775255|3684,02845916563|3717,10774818591|3630,03460775255|3757,05338967198
Leopard                   |3630,03460775255|3630,03460775255|3630,03460775255|3630,03460775255|3630,03460775255|3630,03460775255|3630,03460775255|3630,03460775255|3630,03460775255|3630,03460775255|3630,03460775255|2886,54415767345|3630,03460775255|3757,05338967198|3757,05338967198|3757,05338967198|3757,05338967198|3757,05338967198|3630,03460775255|2478,89440734545|  0,00000000000|3757,05338967198|3757,05338967198|3476,00503607376|3476,00503607376|3476,00503607376|3476,00503607376|3630,03460775255|3684,02845916563|3717,10774818591|3630,03460775255|3757,05338967198
Indian_Rhino              |3757,05338967198|3757,05338967198|3757,05338967198|3757,05338967198|3757,05338967198|3757,05338967198|3757,05338967198|3757,05338967198|3757,05338967198|3757,05338967198|3757,05338967198|3757,05338967198|3757,05338967198|3683,18317266719|3272,95691775725|3272,95691775725|3272,95691775725|3272,95691775725|3757,05338967198|3757,05338967198|3757,05338967198|  0,00000000000|2271,51385955394|3757,05338967198|3757,05338967198|3757,05338967198|3757,05338967198|3757,05338967198|3757,05338967198|3757,05338967198|3757,05338967198|3272,95691775725
White_Rhino               |3757,05338967198|3757,05338967198|3757,05338967198|3757,05338967198|3757,05338967198|3757,05338967198|3757,05338967198|3757,05338967198|3757,05338967198|3757,05338967198|3757,05338967198|3757,05338967198|3757,05338967198|3683,18317266719|3272,95691775725|3272,95691775725|3272,95691775725|3272,95691775725|3757,05338967198|3757,05338967198|3757,05338967198|2271,51385955394|  0,00000000000|3757,05338967198|3757,05338967198|3757,05338967198|3757,05338967198|3757,05338967198|3757,05338967198|3757,05338967198|3757,05338967198|3272,95691775725
Black_Bear                |3630,03460775255|3630,03460775255|3630,03460775255|3630,03460775255|3630,03460775255|3630,03460775255|3630,03460775255|3630,03460775255|3630,03460775255|3630,03460775255|3630,03460775255|3476,00503607376|3630,03460775255|3757,05338967198|3757,05338967198|3757,05338967198|3757,05338967198|3757,05338967198|3630,03460775255|3476,00503607376|3476,00503607376|3757,05338967198|3757,05338967198|  0,00000000000|2666,64374850153|2666,64374850153|3148,41731197002|3630,03460775255|3684,02845916563|3717,10774818591|3630,03460775255|3757,05338967198
Brown_Bear                |3630,03460775255|3630,03460775255|3630,03460775255|3630,03460775255|3630,03460775255|3630,03460775255|3630,03460775255|3630,03460775255|3630,03460775255|3630,03460775255|3630,03460775255|3476,00503607376|3630,03460775255|3757,05338967198|3757,05338967198|3757,05338967198|3757,05338967198|3757,05338967198|3630,03460775255|3476,00503607376|3476,00503607376|3757,05338967198|3757,05338967198|2666,64374850153|  0,00000000000|1970,07991789718|3148,41731197002|3630,03460775255|3684,02845916563|3717,10774818591|3630,03460775255|3757,05338967198
Polar_Bear                |3630,03460775255|3630,03460775255|3630,03460775255|3630,03460775255|3630,03460775255|3630,03460775255|3630,03460775255|3630,03460775255|3630,03460775255|3630,03460775255|3630,03460775255|3476,00503607376|3630,03460775255|3757,05338967198|3757,05338967198|3757,05338967198|3757,05338967198|3757,05338967198|3630,03460775255|3476,00503607376|3476,00503607376|3757,05338967198|3757,05338967198|2666,64374850153|1970,07991789718|  0,00000000000|3148,41731197002|3630,03460775255|3684,02845916563|3717,10774818591|3630,03460775255|3757,05338967198
Giant_Panda               |3630,03460775255|3630,03460775255|3630,03460775255|3630,03460775255|3630,03460775255|3630,03460775255|3630,03460775255|3630,03460775255|3630,03460775255|3630,03460775255|3630,03460775255|3476,00503607376|3630,03460775255|3757,05338967198|3757,05338967198|3757,05338967198|3757,05338967198|3757,05338967198|3630,03460775255|3476,00503607376|3476,00503607376|3757,05338967198|3757,05338967198|3148,41731197002|3148,41731197002|3148,41731197002|  0,00000000000|3630,03460775255|3684,02845916563|3717,10774818591|3630,03460775255|3757,05338967198
Rabbit                    |3594,21028231847|3594,21028231847|3594,21028231847|3594,21028231847|3594,21028231847|3594,21028231847|3594,21028231847|3594,21028231847|3594,21028231847|3594,21028231847|3594,21028231847|3630,03460775255|3628,35769867286|3757,05338967198|3757,05338967198|3757,05338967198|3757,05338967198|3757,05338967198|3628,35769867286|3630,03460775255|3630,03460775255|3757,05338967198|3757,05338967198|3630,03460775255|3630,03460775255|3630,03460775255|3630,03460775255|  0,00000000000|3684,02845916563|3717,10774818591|3558,98056642105|3757,05338967198
Hedgehog                  |3684,02845916563|3684,02845916563|3684,02845916563|3684,02845916563|3684,02845916563|3684,02845916563|3684,02845916563|3684,02845916563|3684,02845916563|3684,02845916563|3684,02845916563|3684,02845916563|3684,02845916563|3757,05338967198|3757,05338967198|3757,05338967198|3757,05338967198|3757,05338967198|3684,02845916563|3684,02845916563|3684,02845916563|3757,05338967198|3757,05338967198|3684,02845916563|3684,02845916563|3684,02845916563|3684,02845916563|3684,02845916563|  0,00000000000|3717,10774818591|3684,02845916563|3757,05338967198
Dormouse                  |3717,10774818591|3717,10774818591|3717,10774818591|3717,10774818591|3717,10774818591|3717,10774818591|3717,10774818591|3717,10774818591|3717,10774818591|3717,10774818591|3717,10774818591|3717,10774818591|3717,10774818591|3757,05338967198|3757,05338967198|3757,05338967198|3757,05338967198|3757,05338967198|3717,10774818591|3717,10774818591|3717,10774818591|3757,05338967198|3757,05338967198|3717,10774818591|3717,10774818591|3717,10774818591|3717,10774818591|3717,10774818591|3717,10774818591|  0,00000000000|3717,10774818591|3757,05338967198
Squirrel                  |3594,21028231847|3594,21028231847|3594,21028231847|3594,21028231847|3594,21028231847|3594,21028231847|3594,21028231847|3594,21028231847|3594,21028231847|3594,21028231847|3594,21028231847|3630,03460775255|3628,35769867286|3757,05338967198|3757,05338967198|3757,05338967198|3757,05338967198|3757,05338967198|3628,35769867286|3630,03460775255|3630,03460775255|3757,05338967198|3757,05338967198|3630,03460775255|3630,03460775255|3630,03460775255|3630,03460775255|3558,98056642105|3684,02845916563|3717,10774818591|  0,00000000000|3757,05338967198
Blue_Whale                |3757,05338967198|3757,05338967198|3757,05338967198|3757,05338967198|3757,05338967198|3757,05338967198|3757,05338967198|3757,05338967198|3757,05338967198|3757,05338967198|3757,05338967198|3757,05338967198|3757,05338967198|3683,18317266719|3194,44521097572|3194,44521097572|3194,44521097572|3194,44521097572|3757,05338967198|3757,05338967198|3757,05338967198|3272,95691775725|3272,95691775725|3757,05338967198|3757,05338967198|3757,05338967198|3757,05338967198|3757,05338967198|3757,05338967198|3757,05338967198|3757,05338967198|  0,00000000000
                           |Human          |Hum_shortened  |Pig_Chim       |Com_Chim       |Gibbon         |Baboon         |Ver_Monkey     |Macaca_Thibet  |Bor_Oran       |Sum_Oran       |Gorilla        |Cat            |Dog            |Pig            |Sheep          |Goat           |Cow            |Buffalo        |Wolf           |Tiger          |Leopard        |Indian_Rhino   |White_Rhino    |Black_Bear     |Brown_Bear     |Polar_Bear     |Giant_Panda    |Rabbit         |Hedgehog       |Dormouse       |Squirrel       |Blue_Whale     
Human                     |  0,00000000000|  4,71528399668|  6,36979975874|  6,36979975874|  7,91856553935|  8,85955150801|  8,85955150801|  8,85955150801|  7,57709374828|  7,57709374828|  6,36979975874| 10,24297640714| 10,23874559943| 10,56344222599| 10,56344222599| 10,56344222599| 10,56344222599| 10,56344222599| 10,23874559943| 10,24297640714| 10,24297640714| 10,56344222599| 10,56344222599| 10,24297640714| 10,24297640714| 10,24297640714| 10,24297640714| 10,15259235833| 10,37920180266| 10,46266018010| 10,15259235833| 10,56344222599
Hum_shortened             |  4,71528399668|  0,00000000000|  6,36979975874|  6,36979975874|  7,91856553935|  8,85955150801|  8,85955150801|  8,85955150801|  7,57709374828|  7,57709374828|  6,36979975874| 10,24297640714| 10,23874559943| 10,56344222599| 10,56344222599| 10,56344222599| 10,56344222599| 10,56344222599| 10,23874559943| 10,24297640714| 10,24297640714| 10,56344222599| 10,56344222599| 10,24297640714| 10,24297640714| 10,24297640714| 10,24297640714| 10,15259235833| 10,37920180266| 10,46266018010| 10,15259235833| 10,56344222599
Pig_Chim                  |  6,36979975874|  6,36979975874|  0,00000000000|  5,08282507469|  7,91856553935|  8,85955150801|  8,85955150801|  8,85955150801|  7,57709374828|  7,57709374828|  6,04780597163| 10,24297640714| 10,23874559943| 10,56344222599| 10,56344222599| 10,56344222599| 10,56344222599| 10,56344222599| 10,23874559943| 10,24297640714| 10,24297640714| 10,56344222599| 10,56344222599| 10,24297640714| 10,24297640714| 10,24297640714| 10,24297640714| 10,15259235833| 10,37920180266| 10,46266018010| 10,15259235833| 10,56344222599
Com_Chim                  |  6,36979975874|  6,36979975874|  5,08282507469|  0,00000000000|  7,91856553935|  8,85955150801|  8,85955150801|  8,85955150801|  7,57709374828|  7,57709374828|  6,04780597163| 10,24297640714| 10,23874559943| 10,56344222599| 10,56344222599| 10,56344222599| 10,56344222599| 10,56344222599| 10,23874559943| 10,24297640714| 10,24297640714| 10,56344222599| 10,56344222599| 10,24297640714| 10,24297640714| 10,24297640714| 10,24297640714| 10,15259235833| 10,37920180266| 10,46266018010| 10,15259235833| 10,56344222599
Gibbon                    |  7,91856553935|  7,91856553935|  7,91856553935|  7,91856553935|  0,00000000000|  8,85955150801|  8,85955150801|  8,85955150801|  7,91856553935|  7,91856553935|  7,91856553935| 10,24297640714| 10,23874559943| 10,56344222599| 10,56344222599| 10,56344222599| 10,56344222599| 10,56344222599| 10,23874559943| 10,24297640714| 10,24297640714| 10,56344222599| 10,56344222599| 10,24297640714| 10,24297640714| 10,24297640714| 10,24297640714| 10,15259235833| 10,37920180266| 10,46266018010| 10,15259235833| 10,56344222599
Baboon                    |  8,85955150801|  8,85955150801|  8,85955150801|  8,85955150801|  8,85955150801|  0,00000000000|  7,95261029236|  8,12606260076|  8,85955150801|  8,85955150801|  8,85955150801| 10,24297640714| 10,23874559943| 10,56344222599| 10,56344222599| 10,56344222599| 10,56344222599| 10,56344222599| 10,23874559943| 10,24297640714| 10,24297640714| 10,56344222599| 10,56344222599| 10,24297640714| 10,24297640714| 10,24297640714| 10,24297640714| 10,15259235833| 10,37920180266| 10,46266018010| 10,15259235833| 10,56344222599
Ver_Monkey                |  8,85955150801|  8,85955150801|  8,85955150801|  8,85955150801|  8,85955150801|  7,95261029236|  0,00000000000|  8,12606260076|  8,85955150801|  8,85955150801|  8,85955150801| 10,24297640714| 10,23874559943| 10,56344222599| 10,56344222599| 10,56344222599| 10,56344222599| 10,56344222599| 10,23874559943| 10,24297640714| 10,24297640714| 10,56344222599| 10,56344222599| 10,24297640714| 10,24297640714| 10,24297640714| 10,24297640714| 10,15259235833| 10,37920180266| 10,46266018010| 10,15259235833| 10,56344222599
Macaca_Thibet             |  8,85955150801|  8,85955150801|  8,85955150801|  8,85955150801|  8,85955150801|  8,12606260076|  8,12606260076|  0,00000000000|  8,85955150801|  8,85955150801|  8,85955150801| 10,24297640714| 10,23874559943| 10,56344222599| 10,56344222599| 10,56344222599| 10,56344222599| 10,56344222599| 10,23874559943| 10,24297640714| 10,24297640714| 10,56344222599| 10,56344222599| 10,24297640714| 10,24297640714| 10,24297640714| 10,24297640714| 10,15259235833| 10,37920180266| 10,46266018010| 10,15259235833| 10,56344222599
Bor_Oran                  |  7,57709374828|  7,57709374828|  7,57709374828|  7,57709374828|  7,91856553935|  8,85955150801|  8,85955150801|  8,85955150801|  0,00000000000|  6,59356275785|  7,57709374828| 10,24297640714| 10,23874559943| 10,56344222599| 10,56344222599| 10,56344222599| 10,56344222599| 10,56344222599| 10,23874559943| 10,24297640714| 10,24297640714| 10,56344222599| 10,56344222599| 10,24297640714| 10,24297640714| 10,24297640714| 10,24297640714| 10,15259235833| 10,37920180266| 10,46266018010| 10,15259235833| 10,56344222599
Sum_Oran                  |  7,57709374828|  7,57709374828|  7,57709374828|  7,57709374828|  7,91856553935|  8,85955150801|  8,85955150801|  8,85955150801|  6,59356275785|  0,00000000000|  7,57709374828| 10,24297640714| 10,23874559943| 10,56344222599| 10,56344222599| 10,56344222599| 10,56344222599| 10,56344222599| 10,23874559943| 10,24297640714| 10,24297640714| 10,56344222599| 10,56344222599| 10,24297640714| 10,24297640714| 10,24297640714| 10,24297640714| 10,15259235833| 10,37920180266| 10,46266018010| 10,15259235833| 10,56344222599
Gorilla                   |  6,36979975874|  6,36979975874|  6,04780597163|  6,04780597163|  7,91856553935|  8,85955150801|  8,85955150801|  8,85955150801|  7,57709374828|  7,57709374828|  0,00000000000| 10,24297640714| 10,23874559943| 10,56344222599| 10,56344222599| 10,56344222599| 10,56344222599| 10,56344222599| 10,23874559943| 10,24297640714| 10,24297640714| 10,56344222599| 10,56344222599| 10,24297640714| 10,24297640714| 10,24297640714| 10,24297640714| 10,15259235833| 10,37920180266| 10,46266018010| 10,15259235833| 10,56344222599
Cat                       | 10,24297640714| 10,24297640714| 10,24297640714| 10,24297640714| 10,24297640714| 10,24297640714| 10,24297640714| 10,24297640714| 10,24297640714| 10,24297640714| 10,24297640714|  0,00000000000| 10,24297640714| 10,56344222599| 10,56344222599| 10,56344222599| 10,56344222599| 10,56344222599| 10,24297640714|  8,36716503271|  8,36716503271| 10,56344222599| 10,56344222599|  9,85436291180|  9,85436291180|  9,85436291180|  9,85436291180| 10,24297640714| 10,37920180266| 10,46266018010| 10,24297640714| 10,56344222599
Dog                       | 10,23874559943| 10,23874559943| 10,23874559943| 10,23874559943| 10,23874559943| 10,23874559943| 10,23874559943| 10,23874559943| 10,23874559943| 10,23874559943| 10,23874559943| 10,24297640714|  0,00000000000| 10,56344222599| 10,56344222599| 10,56344222599| 10,56344222599| 10,56344222599|  4,81700102901| 10,24297640714| 10,24297640714| 10,56344222599| 10,56344222599| 10,24297640714| 10,24297640714| 10,24297640714| 10,24297640714| 10,23874559943| 10,37920180266| 10,46266018010| 10,23874559943| 10,56344222599
Pig                       | 10,56344222599| 10,56344222599| 10,56344222599| 10,56344222599| 10,56344222599| 10,56344222599| 10,56344222599| 10,56344222599| 10,56344222599| 10,56344222599| 10,56344222599| 10,56344222599| 10,56344222599|  0,00000000000| 10,37706916192| 10,37706916192| 10,37706916192| 10,37706916192| 10,56344222599| 10,56344222599| 10,56344222599| 10,37706916192| 10,37706916192| 10,56344222599| 10,56344222599| 10,56344222599| 10,56344222599| 10,56344222599| 10,56344222599| 10,56344222599| 10,56344222599| 10,37706916192
Sheep                     | 10,56344222599| 10,56344222599| 10,56344222599| 10,56344222599| 10,56344222599| 10,56344222599| 10,56344222599| 10,56344222599| 10,56344222599| 10,56344222599| 10,56344222599| 10,56344222599| 10,56344222599| 10,37706916192|  0,00000000000|  6,73555317949|  8,20414837385|  8,20414837385| 10,56344222599| 10,56344222599| 10,56344222599|  9,34207661431|  9,34207661431| 10,56344222599| 10,56344222599| 10,56344222599| 10,56344222599| 10,56344222599| 10,56344222599| 10,56344222599| 10,56344222599|  9,14399316537
Goat                      | 10,56344222599| 10,56344222599| 10,56344222599| 10,56344222599| 10,56344222599| 10,56344222599| 10,56344222599| 10,56344222599| 10,56344222599| 10,56344222599| 10,56344222599| 10,56344222599| 10,56344222599| 10,37706916192|  6,73555317949|  0,00000000000|  8,20414837385|  8,20414837385| 10,56344222599| 10,56344222599| 10,56344222599|  9,34207661431|  9,34207661431| 10,56344222599| 10,56344222599| 10,56344222599| 10,56344222599| 10,56344222599| 10,56344222599| 10,56344222599| 10,56344222599|  9,14399316537
Cow                       | 10,56344222599| 10,56344222599| 10,56344222599| 10,56344222599| 10,56344222599| 10,56344222599| 10,56344222599| 10,56344222599| 10,56344222599| 10,56344222599| 10,56344222599| 10,56344222599| 10,56344222599| 10,37706916192|  8,20414837385|  8,20414837385|  0,00000000000|  8,04442230078| 10,56344222599| 10,56344222599| 10,56344222599|  9,34207661431|  9,34207661431| 10,56344222599| 10,56344222599| 10,56344222599| 10,56344222599| 10,56344222599| 10,56344222599| 10,56344222599| 10,56344222599|  9,14399316537
Buffalo                   | 10,56344222599| 10,56344222599| 10,56344222599| 10,56344222599| 10,56344222599| 10,56344222599| 10,56344222599| 10,56344222599| 10,56344222599| 10,56344222599| 10,56344222599| 10,56344222599| 10,56344222599| 10,37706916192|  8,20414837385|  8,20414837385|  8,04442230078|  0,00000000000| 10,56344222599| 10,56344222599| 10,56344222599|  9,34207661431|  9,34207661431| 10,56344222599| 10,56344222599| 10,56344222599| 10,56344222599| 10,56344222599| 10,56344222599| 10,56344222599| 10,56344222599|  9,14399316537
Wolf                      | 10,23874559943| 10,23874559943| 10,23874559943| 10,23874559943| 10,23874559943| 10,23874559943| 10,23874559943| 10,23874559943| 10,23874559943| 10,23874559943| 10,23874559943| 10,24297640714|  4,81700102901| 10,56344222599| 10,56344222599| 10,56344222599| 10,56344222599| 10,56344222599|  0,00000000000| 10,24297640714| 10,24297640714| 10,56344222599| 10,56344222599| 10,24297640714| 10,24297640714| 10,24297640714| 10,24297640714| 10,23874559943| 10,37920180266| 10,46266018010| 10,23874559943| 10,56344222599
Tiger                     | 10,24297640714| 10,24297640714| 10,24297640714| 10,24297640714| 10,24297640714| 10,24297640714| 10,24297640714| 10,24297640714| 10,24297640714| 10,24297640714| 10,24297640714|  8,36716503271| 10,24297640714| 10,56344222599| 10,56344222599| 10,56344222599| 10,56344222599| 10,56344222599| 10,24297640714|  0,00000000000|  7,33867295407| 10,56344222599| 10,56344222599|  9,85436291180|  9,85436291180|  9,85436291180|  9,85436291180| 10,24297640714| 10,37920180266| 10,46266018010| 10,24297640714| 10,56344222599
Leopard                   | 10,24297640714| 10,24297640714| 10,24297640714| 10,24297640714| 10,24297640714| 10,24297640714| 10,24297640714| 10,24297640714| 10,24297640714| 10,24297640714| 10,24297640714|  8,36716503271| 10,24297640714| 10,56344222599| 10,56344222599| 10,56344222599| 10,56344222599| 10,56344222599| 10,24297640714|  7,33867295407|  0,00000000000| 10,56344222599| 10,56344222599|  9,85436291180|  9,85436291180|  9,85436291180|  9,85436291180| 10,24297640714| 10,37920180266| 10,46266018010| 10,24297640714| 10,56344222599
Indian_Rhino              | 10,56344222599| 10,56344222599| 10,56344222599| 10,56344222599| 10,56344222599| 10,56344222599| 10,56344222599| 10,56344222599| 10,56344222599| 10,56344222599| 10,56344222599| 10,56344222599| 10,56344222599| 10,37706916192|  9,34207661431|  9,34207661431|  9,34207661431|  9,34207661431| 10,56344222599| 10,56344222599| 10,56344222599|  0,00000000000|  6,81545602460| 10,56344222599| 10,56344222599| 10,56344222599| 10,56344222599| 10,56344222599| 10,56344222599| 10,56344222599| 10,56344222599|  9,34207661431
White_Rhino               | 10,56344222599| 10,56344222599| 10,56344222599| 10,56344222599| 10,56344222599| 10,56344222599| 10,56344222599| 10,56344222599| 10,56344222599| 10,56344222599| 10,56344222599| 10,56344222599| 10,56344222599| 10,37706916192|  9,34207661431|  9,34207661431|  9,34207661431|  9,34207661431| 10,56344222599| 10,56344222599| 10,56344222599|  6,81545602460|  0,00000000000| 10,56344222599| 10,56344222599| 10,56344222599| 10,56344222599| 10,56344222599| 10,56344222599| 10,56344222599| 10,56344222599|  9,34207661431
Black_Bear                | 10,24297640714| 10,24297640714| 10,24297640714| 10,24297640714| 10,24297640714| 10,24297640714| 10,24297640714| 10,24297640714| 10,24297640714| 10,24297640714| 10,24297640714|  9,85436291180| 10,24297640714| 10,56344222599| 10,56344222599| 10,56344222599| 10,56344222599| 10,56344222599| 10,24297640714|  9,85436291180|  9,85436291180| 10,56344222599| 10,56344222599|  0,00000000000|  7,81236074609|  7,81236074609|  9,02786570672| 10,24297640714| 10,37920180266| 10,46266018010| 10,24297640714| 10,56344222599
Brown_Bear                | 10,24297640714| 10,24297640714| 10,24297640714| 10,24297640714| 10,24297640714| 10,24297640714| 10,24297640714| 10,24297640714| 10,24297640714| 10,24297640714| 10,24297640714|  9,85436291180| 10,24297640714| 10,56344222599| 10,56344222599| 10,56344222599| 10,56344222599| 10,56344222599| 10,24297640714|  9,85436291180|  9,85436291180| 10,56344222599| 10,56344222599|  7,81236074609|  0,00000000000|  6,05494428388|  9,02786570672| 10,24297640714| 10,37920180266| 10,46266018010| 10,24297640714| 10,56344222599
Polar_Bear                | 10,24297640714| 10,24297640714| 10,24297640714| 10,24297640714| 10,24297640714| 10,24297640714| 10,24297640714| 10,24297640714| 10,24297640714| 10,24297640714| 10,24297640714|  9,85436291180| 10,24297640714| 10,56344222599| 10,56344222599| 10,56344222599| 10,56344222599| 10,56344222599| 10,24297640714|  9,85436291180|  9,85436291180| 10,56344222599| 10,56344222599|  7,81236074609|  6,05494428388|  0,00000000000|  9,02786570672| 10,24297640714| 10,37920180266| 10,46266018010| 10,24297640714| 10,56344222599
Giant_Panda               | 10,24297640714| 10,24297640714| 10,24297640714| 10,24297640714| 10,24297640714| 10,24297640714| 10,24297640714| 10,24297640714| 10,24297640714| 10,24297640714| 10,24297640714|  9,85436291180| 10,24297640714| 10,56344222599| 10,56344222599| 10,56344222599| 10,56344222599| 10,56344222599| 10,24297640714|  9,85436291180|  9,85436291180| 10,56344222599| 10,56344222599|  9,02786570672|  9,02786570672|  9,02786570672|  0,00000000000| 10,24297640714| 10,37920180266| 10,46266018010| 10,24297640714| 10,56344222599
Rabbit                    | 10,15259235833| 10,15259235833| 10,15259235833| 10,15259235833| 10,15259235833| 10,15259235833| 10,15259235833| 10,15259235833| 10,15259235833| 10,15259235833| 10,15259235833| 10,24297640714| 10,23874559943| 10,56344222599| 10,56344222599| 10,56344222599| 10,56344222599| 10,56344222599| 10,23874559943| 10,24297640714| 10,24297640714| 10,56344222599| 10,56344222599| 10,24297640714| 10,24297640714| 10,24297640714| 10,24297640714|  0,00000000000| 10,37920180266| 10,46266018010| 10,06370849736| 10,56344222599
Hedgehog                  | 10,37920180266| 10,37920180266| 10,37920180266| 10,37920180266| 10,37920180266| 10,37920180266| 10,37920180266| 10,37920180266| 10,37920180266| 10,37920180266| 10,37920180266| 10,37920180266| 10,37920180266| 10,56344222599| 10,56344222599| 10,56344222599| 10,56344222599| 10,56344222599| 10,37920180266| 10,37920180266| 10,37920180266| 10,56344222599| 10,56344222599| 10,37920180266| 10,37920180266| 10,37920180266| 10,37920180266| 10,37920180266|  0,00000000000| 10,46266018010| 10,37920180266| 10,56344222599
Dormouse                  | 10,46266018010| 10,46266018010| 10,46266018010| 10,46266018010| 10,46266018010| 10,46266018010| 10,46266018010| 10,46266018010| 10,46266018010| 10,46266018010| 10,46266018010| 10,46266018010| 10,46266018010| 10,56344222599| 10,56344222599| 10,56344222599| 10,56344222599| 10,56344222599| 10,46266018010| 10,46266018010| 10,46266018010| 10,56344222599| 10,56344222599| 10,46266018010| 10,46266018010| 10,46266018010| 10,46266018010| 10,46266018010| 10,46266018010|  0,00000000000| 10,46266018010| 10,56344222599
Squirrel                  | 10,15259235833| 10,15259235833| 10,15259235833| 10,15259235833| 10,15259235833| 10,15259235833| 10,15259235833| 10,15259235833| 10,15259235833| 10,15259235833| 10,15259235833| 10,24297640714| 10,23874559943| 10,56344222599| 10,56344222599| 10,56344222599| 10,56344222599| 10,56344222599| 10,23874559943| 10,24297640714| 10,24297640714| 10,56344222599| 10,56344222599| 10,24297640714| 10,24297640714| 10,24297640714| 10,24297640714| 10,06370849736| 10,37920180266| 10,46266018010|  0,00000000000| 10,56344222599
Blue_Whale                | 10,56344222599| 10,56344222599| 10,56344222599| 10,56344222599| 10,56344222599| 10,56344222599| 10,56344222599| 10,56344222599| 10,56344222599| 10,56344222599| 10,56344222599| 10,56344222599| 10,56344222599| 10,37706916192|  9,14399316537|  9,14399316537|  9,14399316537|  9,14399316537| 10,56344222599| 10,56344222599| 10,56344222599|  9,34207661431|  9,34207661431| 10,56344222599| 10,56344222599| 10,56344222599| 10,56344222599| 10,56344222599| 10,56344222599| 10,56344222599| 10,56344222599|  0,00000000000
                           |Human          |Hum_shortened  |Pig_Chim       |Com_Chim       |Gibbon         |Baboon         |Ver_Monkey     |Macaca_Thibet  |Bor_Oran       |Sum_Oran       |Gorilla        |Cat            |Dog            |Pig            |Sheep          |Goat           |Cow            |Buffalo        |Wolf           |Tiger          |Leopard        |Indian_Rhino   |White_Rhino    |Black_Bear     |Brown_Bear     |Polar_Bear     |Giant_Panda    |Rabbit         |Hedgehog       |Dormouse       |Squirrel       |Blue_Whale     
Human                     |  0,00000000000|  2,00000000000|  5,00000000000|  5,00000000000|  5,00000000000|  8,00000000000|  8,00000000000|  7,00000000000|  5,00000000000|  5,00000000000|  4,00000000000| 11,00000000000|  9,00000000000| 13,00000000000| 17,00000000000| 17,00000000000| 17,00000000000| 17,00000000000|  9,00000000000| 12,00000000000| 12,00000000000| 15,00000000000| 15,00000000000| 12,00000000000| 13,00000000000| 13,00000000000| 11,00000000000|  8,00000000000| 10,00000000000| 11,00000000000|  8,00000000000| 15,00000000000
Hum_shortened             |  2,00000000000|  0,00000000000|  5,00000000000|  5,00000000000|  5,00000000000|  8,00000000000|  8,00000000000|  7,00000000000|  5,00000000000|  5,00000000000|  4,00000000000| 11,00000000000|  9,00000000000| 13,00000000000| 17,00000000000| 17,00000000000| 17,00000000000| 17,00000000000|  9,00000000000| 12,00000000000| 12,00000000000| 15,00000000000| 15,00000000000| 12,00000000000| 13,00000000000| 13,00000000000| 11,00000000000|  8,00000000000| 10,00000000000| 11,00000000000|  8,00000000000| 15,00000000000
Pig_Chim                  |  5,00000000000|  5,00000000000|  0,00000000000|  2,00000000000|  6,00000000000|  9,00000000000|  9,00000000000|  8,00000000000|  6,00000000000|  6,00000000000|  3,00000000000| 12,00000000000| 10,00000000000| 14,00000000000| 18,00000000000| 18,00000000000| 18,00000000000| 18,00000000000| 10,00000000000| 13,00000000000| 13,00000000000| 16,00000000000| 16,00000000000| 13,00000000000| 14,00000000000| 14,00000000000| 12,00000000000|  9,00000000000| 11,00000000000| 12,00000000000|  9,00000000000| 16,00000000000
Com_Chim                  |  5,00000000000|  5,00000000000|  2,00000000000|  0,00000000000|  6,00000000000|  9,00000000000|  9,00000000000|  8,00000000000|  6,00000000000|  6,00000000000|  3,00000000000| 12,00000000000| 10,00000000000| 14,00000000000| 18,00000000000| 18,00000000000| 18,00000000000| 18,00000000000| 10,00000000000| 13,00000000000| 13,00000000000| 16,00000000000| 16,00000000000| 13,00000000000| 14,00000000000| 14,00000000000| 12,00000000000|  9,00000000000| 11,00000000000| 12,00000000000|  9,00000000000| 16,00000000000
Gibbon                    |  5,00000000000|  5,00000000000|  6,00000000000|  6,00000000000|  0,00000000000|  5,00000000000|  5,00000000000|  4,00000000000|  4,00000000000|  4,00000000000|  5,00000000000|  8,00000000000|  6,00000000000| 10,00000000000| 14,00000000000| 14,00000000000| 14,00000000000| 14,00000000000|  6,00000000000|  9,00000000000|  9,00000000000| 12,00000000000| 12,00000000000|  9,00000000000| 10,00000000000| 10,00000000000|  8,00000000000|  5,00000000000|  7,00000000000|  8,00000000000|  5,00000000000| 12,00000000000
Baboon                    |  8,00000000000|  8,00000000000|  9,00000000000|  9,00000000000|  5,00000000000|  0,00000000000|  2,00000000000|  3,00000000000|  7,00000000000|  7,00000000000|  8,00000000000|  9,00000000000|  7,00000000000| 11,00000000000| 15,00000000000| 15,00000000000| 15,00000000000| 15,00000000000|  7,00000000000| 10,00000000000| 10,00000000000| 13,00000000000| 13,00000000000| 10,00000000000| 11,00000000000| 11,00000000000|  9,00000000000|  6,00000000000|  8,00000000000|  9,00000000000|  6,00000000000| 13,00000000000
Ver_Monkey                |  8,00000000000|  8,00000000000|  9,00000000000|  9,00000000000|  5,00000000000|  2,00000000000|  0,00000000000|  3,00000000000|  7,00000000000|  7,00000000000|  8,00000000000|  9,00000000000|  7,00000000000| 11,00000000000| 15,00000000000| 15,00000000000| 15,00000000000| 15,00000000000|  7,00000000000| 10,00000000000| 10,00000000000| 13,00000000000| 13,00000000000| 10,00000000000| 11,00000000000| 11,00000000000|  9,00000000000|  6,00000000000|  8,00000000000|  9,00000000000|  6,00000000000| 13,00000000000
Macaca_Thibet             |  7,00000000000|  7,00000000000|  8,00000000000|  8,00000000000|  4,00000000000|  3,00000000000|  3,00000000000|  0,00000000000|  6,00000000000|  6,00000000000|  7,00000000000|  8,00000000000|  6,00000000000| 10,00000000000| 14,00000000000| 14,00000000000| 14,00000000000| 14,00000000000|  6,00000000000|  9,00000000000|  9,00000000000| 12,00000000000| 12,00000000000|  9,00000000000| 10,00000000000| 10,00000000000|  8,00000000000|  5,00000000000|  7,00000000000|  8,00000000000|  5,00000000000| 12,00000000000
Bor_Oran                  |  5,00000000000|  5,00000000000|  6,00000000000|  6,00000000000|  4,00000000000|  7,00000000000|  7,00000000000|  6,00000000000|  0,00000000000|  2,00000000000|  5,00000000000| 10,00000000000|  8,00000000000| 12,00000000000| 16,00000000000| 16,00000000000| 16,00000000000| 16,00000000000|  8,00000000000| 11,00000000000| 11,00000000000| 14,00000000000| 14,00000000000| 11,00000000000| 12,00000000000| 12,00000000000| 10,00000000000|  7,00000000000|  9,00000000000| 10,00000000000|  7,00000000000| 14,00000000000
Sum_Oran                  |  5,00000000000|  5,00000000000|  6,00000000000|  6,00000000000|  4,00000000000|  7,00000000000|  7,00000000000|  6,00000000000|  2,00000000000|  0,00000000000|  5,00000000000| 10,00000000000|  8,00000000000| 12,00000000000| 16,00000000000| 16,00000000000| 16,00000000000| 16,00000000000|  8,00000000000| 11,00000000000| 11,00000000000| 14,00000000000| 14,00000000000| 11,00000000000| 12,00000000000| 12,00000000000| 10,00000000000|  7,00000000000|  9,00000000000| 10,00000000000|  7,00000000000| 14,00000000000
Gorilla                   |  4,00000000000|  4,00000000000|  3,00000000000|  3,00000000000|  5,00000000000|  8,00000000000|  8,00000000000|  7,00000000000|  5,00000000000|  5,00000000000|  0,00000000000| 11,00000000000|  9,00000000000| 13,00000000000| 17,00000000000| 17,00000000000| 17,00000000000| 17,00000000000|  9,00000000000| 12,00000000000| 12,00000000000| 15,00000000000| 15,00000000000| 12,00000000000| 13,00000000000| 13,00000000000| 11,00000000000|  8,00000000000| 10,00000000000| 11,00000000000|  8,00000000000| 15,00000000000
Cat                       | 11,00000000000| 11,00000000000| 12,00000000000| 12,00000000000|  8,00000000000|  9,00000000000|  9,00000000000|  8,00000000000| 10,00000000000| 10,00000000000| 11,00000000000|  0,00000000000|  6,00000000000|  8,00000000000| 12,00000000000| 12,00000000000| 12,00000000000| 12,00000000000|  6,00000000000|  3,00000000000|  3,00000000000| 10,00000000000| 10,00000000000|  5,00000000000|  6,00000000000|  6,00000000000|  4,00000000000|  7,00000000000|  5,00000000000|  6,00000000000|  7,00000000000| 10,00000000000
Dog                       |  9,00000000000|  9,00000000000| 10,00000000000| 10,00000000000|  6,00000000000|  7,00000000000|  7,00000000000|  6,00000000000|  8,00000000000|  8,00000000000|  9,00000000000|  6,00000000000|  0,00000000000|  8,00000000000| 12,00000000000| 12,00000000000| 12,00000000000| 12,00000000000|  2,00000000000|  7,00000000000|  7,00000000000| 10,00000000000| 10,00000000000|  7,00000000000|  8,00000000000|  8,00000000000|  6,00000000000|  5,00000000000|  5,00000000000|  6,00000000000|  5,00000000000| 10,00000000000
Pig                       | 13,00000000000| 13,00000000000| 14,00000000000| 14,00000000000| 10,00000000000| 11,00000000000| 11,00000000000| 10,00000000000| 12,00000000000| 12,00000000000| 13,00000000000|  8,00000000000|  8,00000000000|  0,00000000000|  6,00000000000|  6,00000000000|  6,00000000000|  6,00000000000|  8,00000000000|  9,00000000000|  9,00000000000|  4,00000000000|  4,00000000000|  9,00000000000| 10,00000000000| 10,00000000000|  8,00000000000|  9,00000000000|  5,00000000000|  4,00000000000|  9,00000000000|  4,00000000000
Sheep                     | 17,00000000000| 17,00000000000| 18,00000000000| 18,00000000000| 14,00000000000| 15,00000000000| 15,00000000000| 14,00000000000| 16,00000000000| 16,00000000000| 17,00000000000| 12,00000000000| 12,00000000000|  6,00000000000|  0,00000000000|  2,00000000000|  4,00000000000|  4,00000000000| 12,00000000000| 13,00000000000| 13,00000000000|  6,00000000000|  6,00000000000| 13,00000000000| 14,00000000000| 14,00000000000| 12,00000000000| 13,00000000000|  9,00000000000|  8,00000000000| 13,00000000000|  4,00000000000
Goat                      | 17,00000000000| 17,00000000000| 18,00000000000| 18,00000000000| 14,00000000000| 15,00000000000| 15,00000000000| 14,00000000000| 16,00000000000| 16,00000000000| 17,00000000000| 12,00000000000| 12,00000000000|  6,00000000000|  2,00000000000|  0,00000000000|  4,00000000000|  4,00000000000| 12,00000000000| 13,00000000000| 13,00000000000|  6,00000000000|  6,00000000000| 13,00000000000| 14,00000000000| 14,00000000000| 12,00000000000| 13,00000000000|  9,00000000000|  8,00000000000| 13,00000000000|  4,00000000000
Cow                       | 17,00000000000| 17,00000000000| 18,00000000000| 18,00000000000| 14,00000000000| 15,00000000000| 15,00000000000| 14,00000000000| 16,00000000000| 16,00000000000| 17,00000000000| 12,00000000000| 12,00000000000|  6,00000000000|  4,00000000000|  4,00000000000|  0,00000000000|  2,00000000000| 12,00000000000| 13,00000000000| 13,00000000000|  6,00000000000|  6,00000000000| 13,00000000000| 14,00000000000| 14,00000000000| 12,00000000000| 13,00000000000|  9,00000000000|  8,00000000000| 13,00000000000|  4,00000000000
Buffalo                   | 17,00000000000| 17,00000000000| 18,00000000000| 18,00000000000| 14,00000000000| 15,00000000000| 15,00000000000| 14,00000000000| 16,00000000000| 16,00000000000| 17,00000000000| 12,00000000000| 12,00000000000|  6,00000000000|  4,00000000000|  4,00000000000|  2,00000000000|  0,00000000000| 12,00000000000| 13,00000000000| 13,00000000000|  6,00000000000|  6,00000000000| 13,00000000000| 14,00000000000| 14,00000000000| 12,00000000000| 13,00000000000|  9,00000000000|  8,00000000000| 13,00000000000|  4,00000000000
Wolf                      |  9,00000000000|  9,00000000000| 10,00000000000| 10,00000000000|  6,00000000000|  7,00000000000|  7,00000000000|  6,00000000000|  8,00000000000|  8,00000000000|  9,00000000000|  6,00000000000|  2,00000000000|  8,00000000000| 12,00000000000| 12,00000000000| 12,00000000000| 12,00000000000|  0,00000000000|  7,00000000000|  7,00000000000| 10,00000000000| 10,00000000000|  7,00000000000|  8,00000000000|  8,00000000000|  6,00000000000|  5,00000000000|  5,00000000000|  6,00000000000|  5,00000000000| 10,00000000000
Tiger                     | 12,00000000000| 12,00000000000| 13,00000000000| 13,00000000000|  9,00000000000| 10,00000000000| 10,00000000000|  9,00000000000| 11,00000000000| 11,00000000000| 12,00000000000|  3,00000000000|  7,00000000000|  9,00000000000| 13,00000000000| 13,00000000000| 13,00000000000| 13,00000000000|  7,00000000000|  0,00000000000|  2,00000000000| 11,00000000000| 11,00000000000|  6,00000000000|  7,00000000000|  7,00000000000|  5,00000000000|  8,00000000000|  6,00000000000|  7,00000000000|  8,00000000000| 11,00000000000
Leopard                   | 12,00000000000| 12,00000000000| 13,00000000000| 13,00000000000|  9,00000000000| 10,00000000000| 10,00000000000|  9,00000000000| 11,00000000000| 11,00000000000| 12,00000000000|  3,00000000000|  7,00000000000|  9,00000000000| 13,00000000000| 13,00000000000| 13,00000000000| 13,00000000000|  7,00000000000|  2,00000000000|  0,00000000000| 11,00000000000| 11,00000000000|  6,00000000000|  7,00000000000|  7,00000000000|  5,00000000000|  8,00000000000|  6,00000000000|  7,00000000000|  8,00000000000| 11,00000000000
Indian_Rhino              | 15,00000000000| 15,00000000000| 16,00000000000| 16,00000000000| 12,00000000000| 13,00000000000| 13,00000000000| 12,00000000000| 14,00000000000| 14,00000000000| 15,00000000000| 10,00000000000| 10,00000000000|  4,00000000000|  6,00000000000|  6,00000000000|  6,00000000000|  6,00000000000| 10,00000000000| 11,00000000000| 11,00000000000|  0,00000000000|  2,00000000000| 11,00000000000| 12,00000000000| 12,00000000000| 10,00000000000| 11,00000000000|  7,00000000000|  6,00000000000| 11,00000000000|  4,00000000000
White_Rhino               | 15,00000000000| 15,00000000000| 16,00000000000| 16,00000000000| 12,00000000000| 13,00000000000| 13,00000000000| 12,00000000000| 14,00000000000| 14,00000000000| 15,00000000000| 10,00000000000| 10,00000000000|  4,00000000000|  6,00000000000|  6,00000000000|  6,00000000000|  6,00000000000| 10,00000000000| 11,00000000000| 11,00000000000|  2,00000000000|  0,00000000000| 11,00000000000| 12,00000000000| 12,00000000000| 10,00000000000| 11,00000000000|  7,00000000000|  6,00000000000| 11,00000000000|  4,00000000000
Black_Bear                | 12,00000000000| 12,00000000000| 13,00000000000| 13,00000000000|  9,00000000000| 10,00000000000| 10,00000000000|  9,00000000000| 11,00000000000| 11,00000000000| 12,00000000000|  5,00000000000|  7,00000000000|  9,00000000000| 13,00000000000| 13,00000000000| 13,00000000000| 13,00000000000|  7,00000000000|  6,00000000000|  6,00000000000| 11,00000000000| 11,00000000000|  0,00000000000|  3,00000000000|  3,00000000000|  3,00000000000|  8,00000000000|  6,00000000000|  7,00000000000|  8,00000000000| 11,00000000000
Brown_Bear                | 13,00000000000| 13,00000000000| 14,00000000000| 14,00000000000| 10,00000000000| 11,00000000000| 11,00000000000| 10,00000000000| 12,00000000000| 12,00000000000| 13,00000000000|  6,00000000000|  8,00000000000| 10,00000000000| 14,00000000000| 14,00000000000| 14,00000000000| 14,00000000000|  8,00000000000|  7,00000000000|  7,00000000000| 12,00000000000| 12,00000000000|  3,00000000000|  0,00000000000|  2,00000000000|  4,00000000000|  9,00000000000|  7,00000000000|  8,00000000000|  9,00000000000| 12,00000000000
Polar_Bear                | 13,00000000000| 13,00000000000| 14,00000000000| 14,00000000000| 10,00000000000| 11,00000000000| 11,00000000000| 10,00000000000| 12,00000000000| 12,00000000000| 13,00000000000|  6,00000000000|  8,00000000000| 10,00000000000| 14,00000000000| 14,00000000000| 14,00000000000| 14,00000000000|  8,00000000000|  7,00000000000|  7,00000000000| 12,00000000000| 12,00000000000|  3,00000000000|  2,00000000000|  0,00000000000|  4,00000000000|  9,00000000000|  7,00000000000|  8,00000000000|  9,00000000000| 12,00000000000
Giant_Panda               | 11,00000000000| 11,00000000000| 12,00000000000| 12,00000000000|  8,00000000000|  9,00000000000|  9,00000000000|  8,00000000000| 10,00000000000| 10,00000000000| 11,00000000000|  4,00000000000|  6,00000000000|  8,00000000000| 12,00000000000| 12,00000000000| 12,00000000000| 12,00000000000|  6,00000000000|  5,00000000000|  5,00000000000| 10,00000000000| 10,00000000000|  3,00000000000|  4,00000000000|  4,00000000000|  0,00000000000|  7,00000000000|  5,00000000000|  6,00000000000|  7,00000000000| 10,00000000000
Rabbit                    |  8,00000000000|  8,00000000000|  9,00000000000|  9,00000000000|  5,00000000000|  6,00000000000|  6,00000000000|  5,00000000000|  7,00000000000|  7,00000000000|  8,00000000000|  7,00000000000|  5,00000000000|  9,00000000000| 13,00000000000| 13,00000000000| 13,00000000000| 13,00000000000|  5,00000000000|  8,00000000000|  8,00000000000| 11,00000000000| 11,00000000000|  8,00000000000|  9,00000000000|  9,00000000000|  7,00000000000|  0,00000000000|  6,00000000000|  7,00000000000|  2,00000000000| 11,00000000000
Hedgehog                  | 10,00000000000| 10,00000000000| 11,00000000000| 11,00000000000|  7,00000000000|  8,00000000000|  8,00000000000|  7,00000000000|  9,00000000000|  9,00000000000| 10,00000000000|  5,00000000000|  5,00000000000|  5,00000000000|  9,00000000000|  9,00000000000|  9,00000000000|  9,00000000000|  5,00000000000|  6,00000000000|  6,00000000000|  7,00000000000|  7,00000000000|  6,00000000000|  7,00000000000|  7,00000000000|  5,00000000000|  6,00000000000|  0,00000000000|  3,00000000000|  6,00000000000|  7,00000000000
Dormouse                  | 11,00000000000| 11,00000000000| 12,00000000000| 12,00000000000|  8,00000000000|  9,00000000000|  9,00000000000|  8,00000000000| 10,00000000000| 10,00000000000| 11,00000000000|  6,00000000000|  6,00000000000|  4,00000000000|  8,00000000000|  8,00000000000|  8,00000000000|  8,00000000000|  6,00000000000|  7,00000000000|  7,00000000000|  6,00000000000|  6,00000000000|  7,00000000000|  8,00000000000|  8,00000000000|  6,00000000000|  7,00000000000|  3,00000000000|  0,00000000000|  7,00000000000|  6,00000000000
Squirrel                  |  8,00000000000|  8,00000000000|  9,00000000000|  9,00000000000|  5,00000000000|  6,00000000000|  6,00000000000|  5,00000000000|  7,00000000000|  7,00000000000|  8,00000000000|  7,00000000000|  5,00000000000|  9,00000000000| 13,00000000000| 13,00000000000| 13,00000000000| 13,00000000000|  5,00000000000|  8,00000000000|  8,00000000000| 11,00000000000| 11,00000000000|  8,00000000000|  9,00000000000|  9,00000000000|  7,00000000000|  2,00000000000|  6,00000000000|  7,00000000000|  0,00000000000| 11,00000000000
Blue_Whale                | 15,00000000000| 15,00000000000| 16,00000000000| 16,00000000000| 12,00000000000| 13,00000000000| 13,00000000000| 12,00000000000| 14,00000000000| 14,00000000000| 15,00000000000| 10,00000000000| 10,00000000000|  4,00000000000|  4,00000000000|  4,00000000000|  4,00000000000|  4,00000000000| 10,00000000000| 11,00000000000| 11,00000000000|  4,00000000000|  4,00000000000| 11,00000000000| 12,00000000000| 12,00000000000| 10,00000000000| 11,00000000000|  7,00000000000|  6,00000000000| 11,00000000000|  0,00000000000
