                           |Human          |Hum_shortened  |Pig_Chim       |Com_Chim       |Gibbon         |Baboon         |Ver_Monkey     |Macaca_Thibet  |Bor_Oran       |Sum_Oran       |Gorilla        |Cat            |Dog            |Pig            |Sheep          |Goat           |Cow            |Buffalo        |Wolf           |Tiger          |Leopard        |Indian_Rhino   |White_Rhino    |Black_Bear     |Brown_Bear     |Polar_Bear     |Giant_Panda    |Rabbit         |Hedgehog       |Dormouse       |Squirrel       |Blue_Whale     
Human                     |  0,00000000000|18041,44187330801|42025,41910550161|42025,41910550161|55063,12790942205|59887,44404251991|58715,71482621456|58021,53838318467|55208,74234506363|55208,74234506363|42025,41910550161|66048,45560301741|66048,45560301741|66590,33034819152|66048,45560301741|66048,45560301741|66048,45560301741|66048,45560301741|66048,45560301741|66048,45560301741|66048,45560301741|67026,99219194376|67026,99219194376|66048,45560301741|66048,45560301741|66048,45560301741|66048,45560301741|66048,45560301741|67586,81385101620|67586,81385101620|66048,45560301741|68405,17547747620
Hum_shortened             |18041,44187330801|  0,00000000000|42025,41910550161|42025,41910550161|55063,12790942205|59887,44404251991|58715,71482621456|58021,53838318467|55208,74234506363|55208,74234506363|42025,41910550161|66048,45560301741|66048,45560301741|66590,33034819152|66048,45560301741|66048,45560301741|66048,45560301741|66048,45560301741|66048,45560301741|66048,45560301741|66048,45560301741|67026,99219194376|67026,99219194376|66048,45560301741|66048,45560301741|66048,45560301741|66048,45560301741|66048,45560301741|67586,81385101620|67586,81385101620|66048,45560301741|68405,17547747620
Pig_Chim                  |42025,41910550161|42025,41910550161|  0,00000000000|31913,59856359324|55063,12790942205|59887,44404251991|58715,71482621456|58021,53838318467|55208,74234506363|55208,74234506363|36206,48712435786|66048,45560301741|66048,45560301741|66590,33034819152|66048,45560301741|66048,45560301741|66048,45560301741|66048,45560301741|66048,45560301741|66048,45560301741|66048,45560301741|67026,99219194376|67026,99219194376|66048,45560301741|66048,45560301741|66048,45560301741|66048,45560301741|66048,45560301741|67586,81385101620|67586,81385101620|66048,45560301741|68405,17547747620
Com_Chim                  |42025,41910550161|42025,41910550161|31913,59856359324|  0,00000000000|55063,12790942205|59887,44404251991|58715,71482621456|58021,53838318467|55208,74234506363|55208,74234506363|36206,48712435786|66048,45560301741|66048,45560301741|66590,33034819152|66048,45560301741|66048,45560301741|66048,45560301741|66048,45560301741|66048,45560301741|66048,45560301741|66048,45560301741|67026,99219194376|67026,99219194376|66048,45560301741|66048,45560301741|66048,45560301741|66048,45560301741|66048,45560301741|67586,81385101620|67586,81385101620|66048,45560301741|68405,17547747620
Gibbon                    |55063,12790942205|55063,12790942205|55063,12790942205|55063,12790942205|  0,00000000000|59887,44404251991|58715,71482621456|58021,53838318467|55208,74234506363|55208,74234506363|55063,12790942205|66048,45560301741|66048,45560301741|66590,33034819152|66048,45560301741|66048,45560301741|66048,45560301741|66048,45560301741|66048,45560301741|66048,45560301741|66048,45560301741|67026,99219194376|67026,99219194376|66048,45560301741|66048,45560301741|66048,45560301741|66048,45560301741|66048,45560301741|67586,81385101620|67586,81385101620|66048,45560301741|68405,17547747620
Baboon                    |59887,44404251991|59887,44404251991|59887,44404251991|59887,44404251991|59887,44404251991|  0,00000000000|59887,44404251991|59887,44404251991|59887,44404251991|59887,44404251991|59887,44404251991|66048,45560301741|66048,45560301741|66590,33034819152|66048,45560301741|66048,45560301741|66048,45560301741|66048,45560301741|66048,45560301741|66048,45560301741|66048,45560301741|67026,99219194376|67026,99219194376|66048,45560301741|66048,45560301741|66048,45560301741|66048,45560301741|66048,45560301741|67586,81385101620|67586,81385101620|66048,45560301741|68405,17547747620
Ver_Monkey                |58715,71482621456|58715,71482621456|58715,71482621456|58715,71482621456|58715,71482621456|59887,44404251991|  0,00000000000|58715,71482621456|58715,71482621456|58715,71482621456|58715,71482621456|66048,45560301741|66048,45560301741|66590,33034819152|66048,45560301741|66048,45560301741|66048,45560301741|66048,45560301741|66048,45560301741|66048,45560301741|66048,45560301741|67026,99219194376|67026,99219194376|66048,45560301741|66048,45560301741|66048,45560301741|66048,45560301741|66048,45560301741|67586,81385101620|67586,81385101620|66048,45560301741|68405,17547747620
Macaca_Thibet             |58021,53838318467|58021,53838318467|58021,53838318467|58021,53838318467|58021,53838318467|59887,44404251991|58715,71482621456|  0,00000000000|58021,53838318467|58021,53838318467|58021,53838318467|66048,45560301741|66048,45560301741|66590,33034819152|66048,45560301741|66048,45560301741|66048,45560301741|66048,45560301741|66048,45560301741|66048,45560301741|66048,45560301741|67026,99219194376|67026,99219194376|66048,45560301741|66048,45560301741|66048,45560301741|66048,45560301741|66048,45560301741|67586,81385101620|67586,81385101620|66048,45560301741|68405,17547747620
Bor_Oran                  |55208,74234506363|55208,74234506363|55208,74234506363|55208,74234506363|55208,74234506363|59887,44404251991|58715,71482621456|58021,53838318467|  0,00000000000|49092,01145310636|55208,74234506363|66048,45560301741|66048,45560301741|66590,33034819152|66048,45560301741|66048,45560301741|66048,45560301741|66048,45560301741|66048,45560301741|66048,45560301741|66048,45560301741|67026,99219194376|67026,99219194376|66048,45560301741|66048,45560301741|66048,45560301741|66048,45560301741|66048,45560301741|67586,81385101620|67586,81385101620|66048,45560301741|68405,17547747620
Sum_Oran                  |55208,74234506363|55208,74234506363|55208,74234506363|55208,74234506363|55208,74234506363|59887,44404251991|58715,71482621456|58021,53838318467|49092,01145310636|  0,00000000000|55208,74234506363|66048,45560301741|66048,45560301741|66590,33034819152|66048,45560301741|66048,45560301741|66048,45560301741|66048,45560301741|66048,45560301741|66048,45560301741|66048,45560301741|67026,99219194376|67026,99219194376|66048,45560301741|66048,45560301741|66048,45560301741|66048,45560301741|66048,45560301741|67586,81385101620|67586,81385101620|66048,45560301741|68405,17547747620
Gorilla                   |42025,41910550161|42025,41910550161|36206,48712435786|36206,48712435786|55063,12790942205|59887,44404251991|58715,71482621456|58021,53838318467|55208,74234506363|55208,74234506363|  0,00000000000|66048,45560301741|66048,45560301741|66590,33034819152|66048,45560301741|66048,45560301741|66048,45560301741|66048,45560301741|66048,45560301741|66048,45560301741|66048,45560301741|67026,99219194376|67026,99219194376|66048,45560301741|66048,45560301741|66048,45560301741|66048,45560301741|66048,45560301741|67586,81385101620|67586,81385101620|66048,45560301741|68405,17547747620
Cat                       |66048,45560301741|66048,45560301741|66048,45560301741|66048,45560301741|66048,45560301741|66048,45560301741|66048,45560301741|66048,45560301741|66048,45560301741|66048,45560301741|66048,45560301741|  0,00000000000|63188,82199846726|66590,33034819152|64597,76283173938|64597,76283173938|64597,76283173938|64597,76283173938|63188,82199846726|54146,09186590884|45103,64505359785|67026,99219194376|67026,99219194376|62628,96915972873|62628,96915972873|62628,96915972873|62628,96915972873|64968,74513771023|67586,81385101620|67586,81385101620|62630,71845329424|68405,17547747620
Dog                       |66048,45560301741|66048,45560301741|66048,45560301741|66048,45560301741|66048,45560301741|66048,45560301741|66048,45560301741|66048,45560301741|66048,45560301741|66048,45560301741|66048,45560301741|63188,82199846726|  0,00000000000|66590,33034819152|64597,76283173938|64597,76283173938|64597,76283173938|64597,76283173938|34228,83394671091|63188,82199846726|63188,82199846726|67026,99219194376|67026,99219194376|63188,82199846726|63188,82199846726|63188,82199846726|63188,82199846726|64968,74513771022|67586,81385101620|67586,81385101620|63188,82199846726|68405,17547747620
Pig                       |66590,33034819152|66590,33034819152|66590,33034819152|66590,33034819152|66590,33034819152|66590,33034819152|66590,33034819152|66590,33034819152|66590,33034819152|66590,33034819152|66590,33034819152|66590,33034819152|66590,33034819152|  0,00000000000|66590,33034819152|66590,33034819152|66590,33034819152|66590,33034819152|66590,33034819152|66590,33034819152|66590,33034819152|67026,99219194376|67026,99219194376|66590,33034819152|66590,33034819152|66590,33034819152|66590,33034819152|66590,33034819152|67586,81385101620|67586,81385101620|66590,33034819152|68405,17547747620
Sheep                     |66048,45560301741|66048,45560301741|66048,45560301741|66048,45560301741|66048,45560301741|66048,45560301741|66048,45560301741|66048,45560301741|66048,45560301741|66048,45560301741|66048,45560301741|64597,76283173938|64597,76283173938|66590,33034819152|  0,00000000000|41745,82463440586|62949,58129940362|62949,58129940362|64597,76283173938|64597,76283173938|64597,76283173938|67026,99219194376|67026,99219194376|64597,76283173938|64597,76283173938|64597,76283173938|64597,76283173938|64968,74513771022|67586,81385101620|67586,81385101620|64597,76283173938|68405,17547747620
Goat                      |66048,45560301741|66048,45560301741|66048,45560301741|66048,45560301741|66048,45560301741|66048,45560301741|66048,45560301741|66048,45560301741|66048,45560301741|66048,45560301741|66048,45560301741|64597,76283173938|64597,76283173938|66590,33034819152|41745,82463440586|  0,00000000000|62949,58129940362|62949,58129940362|64597,76283173938|64597,76283173938|64597,76283173938|67026,99219194376|67026,99219194376|64597,76283173938|64597,76283173938|64597,76283173938|64597,76283173938|64968,74513771022|67586,81385101620|67586,81385101620|64597,76283173938|68405,17547747620
Cow                       |66048,45560301741|66048,45560301741|66048,45560301741|66048,45560301741|66048,45560301741|66048,45560301741|66048,45560301741|66048,45560301741|66048,45560301741|66048,45560301741|66048,45560301741|64597,76283173938|64597,76283173938|66590,33034819152|62949,58129940362|62949,58129940362|  0,00000000000|48200,93963546350|64597,76283173938|64597,76283173938|64597,76283173938|67026,99219194376|67026,99219194376|64597,76283173938|64597,76283173938|64597,76283173938|64597,76283173938|64968,74513771022|67586,81385101620|67586,81385101620|64597,76283173938|68405,17547747620
Buffalo                   |66048,45560301741|66048,45560301741|66048,45560301741|66048,45560301741|66048,45560301741|66048,45560301741|66048,45560301741|66048,45560301741|66048,45560301741|66048,45560301741|66048,45560301741|64597,76283173938|64597,76283173938|66590,33034819152|62949,58129940362|62949,58129940362|48200,93963546350|  0,00000000000|64597,76283173938|64597,76283173938|64597,76283173938|67026,99219194376|67026,99219194376|64597,76283173938|64597,76283173938|64597,76283173938|64597,76283173938|64968,74513771022|67586,81385101620|67586,81385101620|64597,76283173938|68405,17547747620
Wolf                      |66048,45560301741|66048,45560301741|66048,45560301741|66048,45560301741|66048,45560301741|66048,45560301741|66048,45560301741|66048,45560301741|66048,45560301741|66048,45560301741|66048,45560301741|63188,82199846726|34228,83394671091|66590,33034819152|64597,76283173938|64597,76283173938|64597,76283173938|64597,76283173938|  0,00000000000|63188,82199846726|63188,82199846726|67026,99219194376|67026,99219194376|63188,82199846726|63188,82199846726|63188,82199846726|63188,82199846726|64968,74513771022|67586,81385101620|67586,81385101620|63188,82199846726|68405,17547747620
Tiger                     |66048,45560301741|66048,45560301741|66048,45560301741|66048,45560301741|66048,45560301741|66048,45560301741|66048,45560301741|66048,45560301741|66048,45560301741|66048,45560301741|66048,45560301741|54146,09186590884|63188,82199846726|66590,33034819152|64597,76283173938|64597,76283173938|64597,76283173938|64597,76283173938|63188,82199846726|  0,00000000000|54146,09186590884|67026,99219194376|67026,99219194376|62628,96915972873|62628,96915972873|62628,96915972873|62628,96915972873|64968,74513771023|67586,81385101620|67586,81385101620|62630,71845329424|68405,17547747620
Leopard                   |66048,45560301741|66048,45560301741|66048,45560301741|66048,45560301741|66048,45560301741|66048,45560301741|66048,45560301741|66048,45560301741|66048,45560301741|66048,45560301741|66048,45560301741|45103,64505359785|63188,82199846726|66590,33034819152|64597,76283173938|64597,76283173938|64597,76283173938|64597,76283173938|63188,82199846726|54146,09186590884|  0,00000000000|67026,99219194376|67026,99219194376|62628,96915972873|62628,96915972873|62628,96915972873|62628,96915972873|64968,74513771023|67586,81385101620|67586,81385101620|62630,71845329424|68405,17547747620
Indian_Rhino              |67026,99219194376|67026,99219194376|67026,99219194376|67026,99219194376|67026,99219194376|67026,99219194376|67026,99219194376|67026,99219194376|67026,99219194376|67026,99219194376|67026,99219194376|67026,99219194376|67026,99219194376|67026,99219194376|67026,99219194376|67026,99219194376|67026,99219194376|67026,99219194376|67026,99219194376|67026,99219194376|67026,99219194376|  0,00000000000|45799,80014429503|67026,99219194376|67026,99219194376|67026,99219194376|67026,99219194376|67026,99219194376|67586,81385101620|67586,81385101620|67026,99219194376|68405,17547747620
White_Rhino               |67026,99219194376|67026,99219194376|67026,99219194376|67026,99219194376|67026,99219194376|67026,99219194376|67026,99219194376|67026,99219194376|67026,99219194376|67026,99219194376|67026,99219194376|67026,99219194376|67026,99219194376|67026,99219194376|67026,99219194376|67026,99219194376|67026,99219194376|67026,99219194376|67026,99219194376|67026,99219194376|67026,99219194376|45799,80014429503|  0,00000000000|67026,99219194376|67026,99219194376|67026,99219194376|67026,99219194376|67026,99219194376|67586,81385101620|67586,81385101620|67026,99219194376|68405,17547747620
Black_Bear                |66048,45560301741|66048,45560301741|66048,45560301741|66048,45560301741|66048,45560301741|66048,45560301741|66048,45560301741|66048,45560301741|66048,45560301741|66048,45560301741|66048,45560301741|62628,96915972873|63188,82199846726|66590,33034819152|64597,76283173938|64597,76283173938|64597,76283173938|64597,76283173938|63188,82199846726|62628,96915972873|62628,96915972873|67026,99219194376|67026,99219194376|  0,00000000000|38646,72599708018|38646,72599708018|54795,28597397055|64968,74513771023|67586,81385101620|67586,81385101620|62630,71845329424|68405,17547747620
Brown_Bear                |66048,45560301741|66048,45560301741|66048,45560301741|66048,45560301741|66048,45560301741|66048,45560301741|66048,45560301741|66048,45560301741|66048,45560301741|66048,45560301741|66048,45560301741|62628,96915972873|63188,82199846726|66590,33034819152|64597,76283173938|64597,76283173938|64597,76283173938|64597,76283173938|63188,82199846726|62628,96915972873|62628,96915972873|67026,99219194376|67026,99219194376|38646,72599708018|  0,00000000000|28867,82201256252|54795,28597397055|64968,74513771023|67586,81385101620|67586,81385101620|62630,71845329424|68405,17547747620
Polar_Bear                |66048,45560301741|66048,45560301741|66048,45560301741|66048,45560301741|66048,45560301741|66048,45560301741|66048,45560301741|66048,45560301741|66048,45560301741|66048,45560301741|66048,45560301741|62628,96915972873|63188,82199846726|66590,33034819152|64597,76283173938|64597,76283173938|64597,76283173938|64597,76283173938|63188,82199846726|62628,96915972873|62628,96915972873|67026,99219194376|67026,99219194376|38646,72599708018|28867,82201256252|  0,00000000000|54795,28597397055|64968,74513771023|67586,81385101620|67586,81385101620|62630,71845329424|68405,17547747620
Giant_Panda               |66048,45560301741|66048,45560301741|66048,45560301741|66048,45560301741|66048,45560301741|66048,45560301741|66048,45560301741|66048,45560301741|66048,45560301741|66048,45560301741|66048,45560301741|62628,96915972873|63188,82199846726|66590,33034819152|64597,76283173938|64597,76283173938|64597,76283173938|64597,76283173938|63188,82199846726|62628,96915972873|62628,96915972873|67026,99219194376|67026,99219194376|54795,28597397055|54795,28597397055|54795,28597397055|  0,00000000000|64968,74513771023|67586,81385101620|67586,81385101620|62630,71845329424|68405,17547747620
Rabbit                    |66048,45560301741|66048,45560301741|66048,45560301741|66048,45560301741|66048,45560301741|66048,45560301741|66048,45560301741|66048,45560301741|66048,45560301741|66048,45560301741|66048,45560301741|64968,74513771023|64968,74513771022|66590,33034819152|64968,74513771022|64968,74513771022|64968,74513771022|64968,74513771022|64968,74513771022|64968,74513771023|64968,74513771023|67026,99219194376|67026,99219194376|64968,74513771023|64968,74513771023|64968,74513771023|64968,74513771023|  0,00000000000|67586,81385101620|67586,81385101620|64968,74513771023|68405,17547747620
Hedgehog                  |67586,81385101620|67586,81385101620|67586,81385101620|67586,81385101620|67586,81385101620|67586,81385101620|67586,81385101620|67586,81385101620|67586,81385101620|67586,81385101620|67586,81385101620|67586,81385101620|67586,81385101620|67586,81385101620|67586,81385101620|67586,81385101620|67586,81385101620|67586,81385101620|67586,81385101620|67586,81385101620|67586,81385101620|67586,81385101620|67586,81385101620|67586,81385101620|67586,81385101620|67586,81385101620|67586,81385101620|67586,81385101620|  0,00000000000|67367,63179268460|67586,81385101620|68405,17547747620
Dormouse                  |67586,81385101620|67586,81385101620|67586,81385101620|67586,81385101620|67586,81385101620|67586,81385101620|67586,81385101620|67586,81385101620|67586,81385101620|67586,81385101620|67586,81385101620|67586,81385101620|67586,81385101620|67586,81385101620|67586,81385101620|67586,81385101620|67586,81385101620|67586,81385101620|67586,81385101620|67586,81385101620|67586,81385101620|67586,81385101620|67586,81385101620|67586,81385101620|67586,81385101620|67586,81385101620|67586,81385101620|67586,81385101620|67367,63179268460|  0,00000000000|67586,81385101620|68405,17547747620
Squirrel                  |66048,45560301741|66048,45560301741|66048,45560301741|66048,45560301741|66048,45560301741|66048,45560301741|66048,45560301741|66048,45560301741|66048,45560301741|66048,45560301741|66048,45560301741|62630,71845329424|63188,82199846726|66590,33034819152|64597,76283173938|64597,76283173938|64597,76283173938|64597,76283173938|63188,82199846726|62630,71845329424|62630,71845329424|67026,99219194376|67026,99219194376|62630,71845329424|62630,71845329424|62630,71845329424|62630,71845329424|64968,74513771023|67586,81385101620|67586,81385101620|  0,00000000000|68405,17547747620
Blue_Whale                |68405,17547747620|68405,17547747620|68405,17547747620|68405,17547747620|68405,17547747620|68405,17547747620|68405,17547747620|68405,17547747620|68405,17547747620|68405,17547747620|68405,17547747620|68405,17547747620|68405,17547747620|68405,17547747620|68405,17547747620|68405,17547747620|68405,17547747620|68405,17547747620|68405,17547747620|68405,17547747620|68405,17547747620|68405,17547747620|68405,17547747620|68405,17547747620|68405,17547747620|68405,17547747620|68405,17547747620|68405,17547747620|68405,17547747620|68405,17547747620|68405,17547747620|  0,00000000000
                           |Human          |Hum_shortened  |Pig_Chim       |Com_Chim       |Gibbon         |Baboon         |Ver_Monkey     |Macaca_Thibet  |Bor_Oran       |Sum_Oran       |Gorilla        |Cat            |Dog            |Pig            |Sheep          |Goat           |Cow            |Buffalo        |Wolf           |Tiger          |Leopard        |Indian_Rhino   |White_Rhino    |Black_Bear     |Brown_Bear     |Polar_Bear     |Giant_Panda    |Rabbit         |Hedgehog       |Dormouse       |Squirrel       |Blue_Whale     
Human                     |  0,00000000000|  2,31483553920|  6,30688423912|  6,30688423912|  8,47696503834|  9,27995549988|  9,08492529078|  8,96938206206|  8,50120204928|  8,50120204928|  6,30688423912| 10,30543421645| 10,30543421645| 10,39562736294| 10,30543421645| 10,30543421645| 10,30543421645| 10,30543421645| 10,30543421645| 10,30543421645| 10,30543421645| 10,46830819185| 10,46830819185| 10,30543421645| 10,30543421645| 10,30543421645| 10,30543421645| 10,30543421645| 10,56148853907| 10,56148853907| 10,30543421645| 10,69770195502
Hum_shortened             |  2,31483553920|  0,00000000000|  6,30688423912|  6,30688423912|  8,47696503834|  9,27995549988|  9,08492529078|  8,96938206206|  8,50120204928|  8,50120204928|  6,30688423912| 10,30543421645| 10,30543421645| 10,39562736294| 10,30543421645| 10,30543421645| 10,30543421645| 10,30543421645| 10,30543421645| 10,30543421645| 10,30543421645| 10,46830819185| 10,46830819185| 10,30543421645| 10,30543421645| 10,30543421645| 10,30543421645| 10,30543421645| 10,56148853907| 10,56148853907| 10,30543421645| 10,69770195502
Pig_Chim                  |  6,30688423912|  6,30688423912|  0,00000000000|  4,62380725579|  8,47696503834|  9,27995549988|  9,08492529078|  8,96938206206|  8,50120204928|  8,50120204928|  5,33834346603| 10,30543421645| 10,30543421645| 10,39562736294| 10,30543421645| 10,30543421645| 10,30543421645| 10,30543421645| 10,30543421645| 10,30543421645| 10,30543421645| 10,46830819185| 10,46830819185| 10,30543421645| 10,30543421645| 10,30543421645| 10,30543421645| 10,30543421645| 10,56148853907| 10,56148853907| 10,30543421645| 10,69770195502
Com_Chim                  |  6,30688423912|  6,30688423912|  4,62380725579|  0,00000000000|  8,47696503834|  9,27995549988|  9,08492529078|  8,96938206206|  8,50120204928|  8,50120204928|  5,33834346603| 10,30543421645| 10,30543421645| 10,39562736294| 10,30543421645| 10,30543421645| 10,30543421645| 10,30543421645| 10,30543421645| 10,30543421645| 10,30543421645| 10,46830819185| 10,46830819185| 10,30543421645| 10,30543421645| 10,30543421645| 10,30543421645| 10,30543421645| 10,56148853907| 10,56148853907| 10,30543421645| 10,69770195502
Gibbon                    |  8,47696503834|  8,47696503834|  8,47696503834|  8,47696503834|  0,00000000000|  9,27995549988|  9,08492529078|  8,96938206206|  8,50120204928|  8,50120204928|  8,47696503834| 10,30543421645| 10,30543421645| 10,39562736294| 10,30543421645| 10,30543421645| 10,30543421645| 10,30543421645| 10,30543421645| 10,30543421645| 10,30543421645| 10,46830819185| 10,46830819185| 10,30543421645| 10,30543421645| 10,30543421645| 10,30543421645| 10,30543421645| 10,56148853907| 10,56148853907| 10,30543421645| 10,69770195502
Baboon                    |  9,27995549988|  9,27995549988|  9,27995549988|  9,27995549988|  9,27995549988|  0,00000000000|  9,27995549988|  9,27995549988|  9,27995549988|  9,27995549988|  9,27995549988| 10,30543421645| 10,30543421645| 10,39562736294| 10,30543421645| 10,30543421645| 10,30543421645| 10,30543421645| 10,30543421645| 10,30543421645| 10,30543421645| 10,46830819185| 10,46830819185| 10,30543421645| 10,30543421645| 10,30543421645| 10,30543421645| 10,30543421645| 10,56148853907| 10,56148853907| 10,30543421645| 10,69770195502
Ver_Monkey                |  9,08492529078|  9,08492529078|  9,08492529078|  9,08492529078|  9,08492529078|  9,27995549988|  0,00000000000|  9,08492529078|  9,08492529078|  9,08492529078|  9,08492529078| 10,30543421645| 10,30543421645| 10,39562736294| 10,30543421645| 10,30543421645| 10,30543421645| 10,30543421645| 10,30543421645| 10,30543421645| 10,30543421645| 10,46830819185| 10,46830819185| 10,30543421645| 10,30543421645| 10,30543421645| 10,30543421645| 10,30543421645| 10,56148853907| 10,56148853907| 10,30543421645| 10,69770195502
Macaca_Thibet             |  8,96938206206|  8,96938206206|  8,96938206206|  8,96938206206|  8,96938206206|  9,27995549988|  9,08492529078|  0,00000000000|  8,96938206206|  8,96938206206|  8,96938206206| 10,30543421645| 10,30543421645| 10,39562736294| 10,30543421645| 10,30543421645| 10,30543421645| 10,30543421645| 10,30543421645| 10,30543421645| 10,30543421645| 10,46830819185| 10,46830819185| 10,30543421645| 10,30543421645| 10,30543421645| 10,30543421645| 10,30543421645| 10,56148853907| 10,56148853907| 10,30543421645| 10,69770195502
Bor_Oran                  |  8,50120204928|  8,50120204928|  8,50120204928|  8,50120204928|  8,50120204928|  9,27995549988|  9,08492529078|  8,96938206206|  0,00000000000|  7,48309369433|  8,50120204928| 10,30543421645| 10,30543421645| 10,39562736294| 10,30543421645| 10,30543421645| 10,30543421645| 10,30543421645| 10,30543421645| 10,30543421645| 10,30543421645| 10,46830819185| 10,46830819185| 10,30543421645| 10,30543421645| 10,30543421645| 10,30543421645| 10,30543421645| 10,56148853907| 10,56148853907| 10,30543421645| 10,69770195502
Sum_Oran                  |  8,50120204928|  8,50120204928|  8,50120204928|  8,50120204928|  8,50120204928|  9,27995549988|  9,08492529078|  8,96938206206|  7,48309369433|  0,00000000000|  8,50120204928| 10,30543421645| 10,30543421645| 10,39562736294| 10,30543421645| 10,30543421645| 10,30543421645| 10,30543421645| 10,30543421645| 10,30543421645| 10,30543421645| 10,46830819185| 10,46830819185| 10,30543421645| 10,30543421645| 10,30543421645| 10,30543421645| 10,30543421645| 10,56148853907| 10,56148853907| 10,30543421645| 10,69770195502
Gorilla                   |  6,30688423912|  6,30688423912|  5,33834346603|  5,33834346603|  8,47696503834|  9,27995549988|  9,08492529078|  8,96938206206|  8,50120204928|  8,50120204928|  0,00000000000| 10,30543421645| 10,30543421645| 10,39562736294| 10,30543421645| 10,30543421645| 10,30543421645| 10,30543421645| 10,30543421645| 10,30543421645| 10,30543421645| 10,46830819185| 10,46830819185| 10,30543421645| 10,30543421645| 10,30543421645| 10,30543421645| 10,30543421645| 10,56148853907| 10,56148853907| 10,30543421645| 10,69770195502
Cat                       | 10,30543421645| 10,30543421645| 10,30543421645| 10,30543421645| 10,30543421645| 10,30543421645| 10,30543421645| 10,30543421645| 10,30543421645| 10,30543421645| 10,30543421645|  0,00000000000|  9,82945825538| 10,39562736294| 10,06397150426| 10,06397150426| 10,06397150426| 10,06397150426|  9,82945825538|  8,32432761254|  6,81924412736| 10,46830819185| 10,46830819185|  9,73627271841|  9,73627271841|  9,73627271841|  9,73627271841| 10,12572020498| 10,56148853907| 10,56148853907|  9,73656388218| 10,69770195502
Dog                       | 10,30543421645| 10,30543421645| 10,30543421645| 10,30543421645| 10,30543421645| 10,30543421645| 10,30543421645| 10,30543421645| 10,30543421645| 10,30543421645| 10,30543421645|  9,82945825538|  0,00000000000| 10,39562736294| 10,06397150426| 10,06397150426| 10,06397150426| 10,06397150426|  5,00917004662|  9,82945825538|  9,82945825538| 10,46830819185| 10,46830819185|  9,82945825538|  9,82945825538|  9,82945825538|  9,82945825538| 10,12572020498| 10,56148853907| 10,56148853907|  9,82945825538| 10,69770195502
Pig                       | 10,39562736294| 10,39562736294| 10,39562736294| 10,39562736294| 10,39562736294| 10,39562736294| 10,39562736294| 10,39562736294| 10,39562736294| 10,39562736294| 10,39562736294| 10,39562736294| 10,39562736294|  0,00000000000| 10,39562736294| 10,39562736294| 10,39562736294| 10,39562736294| 10,39562736294| 10,39562736294| 10,39562736294| 10,46830819185| 10,46830819185| 10,39562736294| 10,39562736294| 10,39562736294| 10,39562736294| 10,39562736294| 10,56148853907| 10,56148853907| 10,39562736294| 10,69770195502
Sheep                     | 10,30543421645| 10,30543421645| 10,30543421645| 10,30543421645| 10,30543421645| 10,30543421645| 10,30543421645| 10,30543421645| 10,30543421645| 10,30543421645| 10,30543421645| 10,06397150426| 10,06397150426| 10,39562736294|  0,00000000000|  6,26034672226|  9,78963748202|  9,78963748202| 10,06397150426| 10,06397150426| 10,06397150426| 10,46830819185| 10,46830819185| 10,06397150426| 10,06397150426| 10,06397150426| 10,06397150426| 10,12572020498| 10,56148853907| 10,56148853907| 10,06397150426| 10,69770195502
Goat                      | 10,30543421645| 10,30543421645| 10,30543421645| 10,30543421645| 10,30543421645| 10,30543421645| 10,30543421645| 10,30543421645| 10,30543421645| 10,30543421645| 10,30543421645| 10,06397150426| 10,06397150426| 10,39562736294|  6,26034672226|  0,00000000000|  9,78963748202|  9,78963748202| 10,06397150426| 10,06397150426| 10,06397150426| 10,46830819185| 10,46830819185| 10,06397150426| 10,06397150426| 10,06397150426| 10,06397150426| 10,12572020498| 10,56148853907| 10,56148853907| 10,06397150426| 10,69770195502
Cow                       | 10,30543421645| 10,30543421645| 10,30543421645| 10,30543421645| 10,30543421645| 10,30543421645| 10,30543421645| 10,30543421645| 10,30543421645| 10,30543421645| 10,30543421645| 10,06397150426| 10,06397150426| 10,39562736294|  9,78963748202|  9,78963748202|  0,00000000000|  7,33477792265| 10,06397150426| 10,06397150426| 10,06397150426| 10,46830819185| 10,46830819185| 10,06397150426| 10,06397150426| 10,06397150426| 10,06397150426| 10,12572020498| 10,56148853907| 10,56148853907| 10,06397150426| 10,69770195502
Buffalo                   | 10,30543421645| 10,30543421645| 10,30543421645| 10,30543421645| 10,30543421645| 10,30543421645| 10,30543421645| 10,30543421645| 10,30543421645| 10,30543421645| 10,30543421645| 10,06397150426| 10,06397150426| 10,39562736294|  9,78963748202|  9,78963748202|  7,33477792265|  0,00000000000| 10,06397150426| 10,06397150426| 10,06397150426| 10,46830819185| 10,46830819185| 10,06397150426| 10,06397150426| 10,06397150426| 10,06397150426| 10,12572020498| 10,56148853907| 10,56148853907| 10,06397150426| 10,69770195502
Wolf                      | 10,30543421645| 10,30543421645| 10,30543421645| 10,30543421645| 10,30543421645| 10,30543421645| 10,30543421645| 10,30543421645| 10,30543421645| 10,30543421645| 10,30543421645|  9,82945825538|  5,00917004662| 10,39562736294| 10,06397150426| 10,06397150426| 10,06397150426| 10,06397150426|  0,00000000000|  9,82945825538|  9,82945825538| 10,46830819185| 10,46830819185|  9,82945825538|  9,82945825538|  9,82945825538|  9,82945825538| 10,12572020498| 10,56148853907| 10,56148853907|  9,82945825538| 10,69770195502
Tiger                     | 10,30543421645| 10,30543421645| 10,30543421645| 10,30543421645| 10,30543421645| 10,30543421645| 10,30543421645| 10,30543421645| 10,30543421645| 10,30543421645| 10,30543421645|  8,32432761254|  9,82945825538| 10,39562736294| 10,06397150426| 10,06397150426| 10,06397150426| 10,06397150426|  9,82945825538|  0,00000000000|  8,32432761254| 10,46830819185| 10,46830819185|  9,73627271841|  9,73627271841|  9,73627271841|  9,73627271841| 10,12572020498| 10,56148853907| 10,56148853907|  9,73656388218| 10,69770195502
Leopard                   | 10,30543421645| 10,30543421645| 10,30543421645| 10,30543421645| 10,30543421645| 10,30543421645| 10,30543421645| 10,30543421645| 10,30543421645| 10,30543421645| 10,30543421645|  6,81924412736|  9,82945825538| 10,39562736294| 10,06397150426| 10,06397150426| 10,06397150426| 10,06397150426|  9,82945825538|  8,32432761254|  0,00000000000| 10,46830819185| 10,46830819185|  9,73627271841|  9,73627271841|  9,73627271841|  9,73627271841| 10,12572020498| 10,56148853907| 10,56148853907|  9,73656388218| 10,69770195502
Indian_Rhino              | 10,46830819185| 10,46830819185| 10,46830819185| 10,46830819185| 10,46830819185| 10,46830819185| 10,46830819185| 10,46830819185| 10,46830819185| 10,46830819185| 10,46830819185| 10,46830819185| 10,46830819185| 10,46830819185| 10,46830819185| 10,46830819185| 10,46830819185| 10,46830819185| 10,46830819185| 10,46830819185| 10,46830819185|  0,00000000000|  6,93511669502| 10,46830819185| 10,46830819185| 10,46830819185| 10,46830819185| 10,46830819185| 10,56148853907| 10,56148853907| 10,46830819185| 10,69770195502
White_Rhino               | 10,46830819185| 10,46830819185| 10,46830819185| 10,46830819185| 10,46830819185| 10,46830819185| 10,46830819185| 10,46830819185| 10,46830819185| 10,46830819185| 10,46830819185| 10,46830819185| 10,46830819185| 10,46830819185| 10,46830819185| 10,46830819185| 10,46830819185| 10,46830819185| 10,46830819185| 10,46830819185| 10,46830819185|  6,93511669502|  0,00000000000| 10,46830819185| 10,46830819185| 10,46830819185| 10,46830819185| 10,46830819185| 10,56148853907| 10,56148853907| 10,46830819185| 10,69770195502
Black_Bear                | 10,30543421645| 10,30543421645| 10,30543421645| 10,30543421645| 10,30543421645| 10,30543421645| 10,30543421645| 10,30543421645| 10,30543421645| 10,30543421645| 10,30543421645|  9,73627271841|  9,82945825538| 10,39562736294| 10,06397150426| 10,06397150426| 10,06397150426| 10,06397150426|  9,82945825538|  9,73627271841|  9,73627271841| 10,46830819185| 10,46830819185|  0,00000000000|  5,74451264827|  5,74451264827|  8,43238368973| 10,12572020498| 10,56148853907| 10,56148853907|  9,73656388218| 10,69770195502
Brown_Bear                | 10,30543421645| 10,30543421645| 10,30543421645| 10,30543421645| 10,30543421645| 10,30543421645| 10,30543421645| 10,30543421645| 10,30543421645| 10,30543421645| 10,30543421645|  9,73627271841|  9,82945825538| 10,39562736294| 10,06397150426| 10,06397150426| 10,06397150426| 10,06397150426|  9,82945825538|  9,73627271841|  9,73627271841| 10,46830819185| 10,46830819185|  5,74451264827|  0,00000000000|  4,11684845563|  8,43238368973| 10,12572020498| 10,56148853907| 10,56148853907|  9,73656388218| 10,69770195502
Polar_Bear                | 10,30543421645| 10,30543421645| 10,30543421645| 10,30543421645| 10,30543421645| 10,30543421645| 10,30543421645| 10,30543421645| 10,30543421645| 10,30543421645| 10,30543421645|  9,73627271841|  9,82945825538| 10,39562736294| 10,06397150426| 10,06397150426| 10,06397150426| 10,06397150426|  9,82945825538|  9,73627271841|  9,73627271841| 10,46830819185| 10,46830819185|  5,74451264827|  4,11684845563|  0,00000000000|  8,43238368973| 10,12572020498| 10,56148853907| 10,56148853907|  9,73656388218| 10,69770195502
Giant_Panda               | 10,30543421645| 10,30543421645| 10,30543421645| 10,30543421645| 10,30543421645| 10,30543421645| 10,30543421645| 10,30543421645| 10,30543421645| 10,30543421645| 10,30543421645|  9,73627271841|  9,82945825538| 10,39562736294| 10,06397150426| 10,06397150426| 10,06397150426| 10,06397150426|  9,82945825538|  9,73627271841|  9,73627271841| 10,46830819185| 10,46830819185|  8,43238368973|  8,43238368973|  8,43238368973|  0,00000000000| 10,12572020498| 10,56148853907| 10,56148853907|  9,73656388218| 10,69770195502
Rabbit                    | 10,30543421645| 10,30543421645| 10,30543421645| 10,30543421645| 10,30543421645| 10,30543421645| 10,30543421645| 10,30543421645| 10,30543421645| 10,30543421645| 10,30543421645| 10,12572020498| 10,12572020498| 10,39562736294| 10,12572020498| 10,12572020498| 10,12572020498| 10,12572020498| 10,12572020498| 10,12572020498| 10,12572020498| 10,46830819185| 10,46830819185| 10,12572020498| 10,12572020498| 10,12572020498| 10,12572020498|  0,00000000000| 10,56148853907| 10,56148853907| 10,12572020498| 10,69770195502
Hedgehog                  | 10,56148853907| 10,56148853907| 10,56148853907| 10,56148853907| 10,56148853907| 10,56148853907| 10,56148853907| 10,56148853907| 10,56148853907| 10,56148853907| 10,56148853907| 10,56148853907| 10,56148853907| 10,56148853907| 10,56148853907| 10,56148853907| 10,56148853907| 10,56148853907| 10,56148853907| 10,56148853907| 10,56148853907| 10,56148853907| 10,56148853907| 10,56148853907| 10,56148853907| 10,56148853907| 10,56148853907| 10,56148853907|  0,00000000000| 10,52500645595| 10,56148853907| 10,69770195502
Dormouse                  | 10,56148853907| 10,56148853907| 10,56148853907| 10,56148853907| 10,56148853907| 10,56148853907| 10,56148853907| 10,56148853907| 10,56148853907| 10,56148853907| 10,56148853907| 10,56148853907| 10,56148853907| 10,56148853907| 10,56148853907| 10,56148853907| 10,56148853907| 10,56148853907| 10,56148853907| 10,56148853907| 10,56148853907| 10,56148853907| 10,56148853907| 10,56148853907| 10,56148853907| 10,56148853907| 10,56148853907| 10,56148853907| 10,52500645595|  0,00000000000| 10,56148853907| 10,69770195502
Squirrel                  | 10,30543421645| 10,30543421645| 10,30543421645| 10,30543421645| 10,30543421645| 10,30543421645| 10,30543421645| 10,30543421645| 10,30543421645| 10,30543421645| 10,30543421645|  9,73656388218|  9,82945825538| 10,39562736294| 10,06397150426| 10,06397150426| 10,06397150426| 10,06397150426|  9,82945825538|  9,73656388218|  9,73656388218| 10,46830819185| 10,46830819185|  9,73656388218|  9,73656388218|  9,73656388218|  9,73656388218| 10,12572020498| 10,56148853907| 10,56148853907|  0,00000000000| 10,69770195502
Blue_Whale                | 10,69770195502| 10,69770195502| 10,69770195502| 10,69770195502| 10,69770195502| 10,69770195502| 10,69770195502| 10,69770195502| 10,69770195502| 10,69770195502| 10,69770195502| 10,69770195502| 10,69770195502| 10,69770195502| 10,69770195502| 10,69770195502| 10,69770195502| 10,69770195502| 10,69770195502| 10,69770195502| 10,69770195502| 10,69770195502| 10,69770195502| 10,69770195502| 10,69770195502| 10,69770195502| 10,69770195502| 10,69770195502| 10,69770195502| 10,69770195502| 10,69770195502|  0,00000000000
                           |Human          |Hum_shortened  |Pig_Chim       |Com_Chim       |Gibbon         |Baboon         |Ver_Monkey     |Macaca_Thibet  |Bor_Oran       |Sum_Oran       |Gorilla        |Cat            |Dog            |Pig            |Sheep          |Goat           |Cow            |Buffalo        |Wolf           |Tiger          |Leopard        |Indian_Rhino   |White_Rhino    |Black_Bear     |Brown_Bear     |Polar_Bear     |Giant_Panda    |Rabbit         |Hedgehog       |Dormouse       |Squirrel       |Blue_Whale     
Human                     |  0,00000000000|  2,00000000000|  5,00000000000|  5,00000000000|  4,00000000000|  8,00000000000|  7,00000000000|  6,00000000000|  6,00000000000|  6,00000000000|  4,00000000000| 16,00000000000| 13,00000000000| 10,00000000000| 13,00000000000| 13,00000000000| 13,00000000000| 13,00000000000| 13,00000000000| 15,00000000000| 16,00000000000| 12,00000000000| 12,00000000000| 16,00000000000| 17,00000000000| 17,00000000000| 15,00000000000| 10,00000000000| 13,00000000000| 13,00000000000| 13,00000000000| 13,00000000000
Hum_shortened             |  2,00000000000|  0,00000000000|  5,00000000000|  5,00000000000|  4,00000000000|  8,00000000000|  7,00000000000|  6,00000000000|  6,00000000000|  6,00000000000|  4,00000000000| 16,00000000000| 13,00000000000| 10,00000000000| 13,00000000000| 13,00000000000| 13,00000000000| 13,00000000000| 13,00000000000| 15,00000000000| 16,00000000000| 12,00000000000| 12,00000000000| 16,00000000000| 17,00000000000| 17,00000000000| 15,00000000000| 10,00000000000| 13,00000000000| 13,00000000000| 13,00000000000| 13,00000000000
Pig_Chim                  |  5,00000000000|  5,00000000000|  0,00000000000|  2,00000000000|  5,00000000000|  9,00000000000|  8,00000000000|  7,00000000000|  7,00000000000|  7,00000000000|  3,00000000000| 17,00000000000| 14,00000000000| 11,00000000000| 14,00000000000| 14,00000000000| 14,00000000000| 14,00000000000| 14,00000000000| 16,00000000000| 17,00000000000| 13,00000000000| 13,00000000000| 17,00000000000| 18,00000000000| 18,00000000000| 16,00000000000| 11,00000000000| 14,00000000000| 14,00000000000| 14,00000000000| 14,00000000000
Com_Chim                  |  5,00000000000|  5,00000000000|  2,00000000000|  0,00000000000|  5,00000000000|  9,00000000000|  8,00000000000|  7,00000000000|  7,00000000000|  7,00000000000|  3,00000000000| 17,00000000000| 14,00000000000| 11,00000000000| 14,00000000000| 14,00000000000| 14,00000000000| 14,00000000000| 14,00000000000| 16,00000000000| 17,00000000000| 13,00000000000| 13,00000000000| 17,00000000000| 18,00000000000| 18,00000000000| 16,00000000000| 11,00000000000| 14,00000000000| 14,00000000000| 14,00000000000| 14,00000000000
Gibbon                    |  4,00000000000|  4,00000000000|  5,00000000000|  5,00000000000|  0,00000000000|  6,00000000000|  5,00000000000|  4,00000000000|  4,00000000000|  4,00000000000|  4,00000000000| 14,00000000000| 11,00000000000|  8,00000000000| 11,00000000000| 11,00000000000| 11,00000000000| 11,00000000000| 11,00000000000| 13,00000000000| 14,00000000000| 10,00000000000| 10,00000000000| 14,00000000000| 15,00000000000| 15,00000000000| 13,00000000000|  8,00000000000| 11,00000000000| 11,00000000000| 11,00000000000| 11,00000000000
Baboon                    |  8,00000000000|  8,00000000000|  9,00000000000|  9,00000000000|  6,00000000000|  0,00000000000|  3,00000000000|  4,00000000000|  6,00000000000|  6,00000000000|  8,00000000000| 10,00000000000|  7,00000000000|  4,00000000000|  7,00000000000|  7,00000000000|  7,00000000000|  7,00000000000|  7,00000000000|  9,00000000000| 10,00000000000|  6,00000000000|  6,00000000000| 10,00000000000| 11,00000000000| 11,00000000000|  9,00000000000|  4,00000000000|  7,00000000000|  7,00000000000|  7,00000000000|  7,00000000000
Ver_Monkey                |  7,00000000000|  7,00000000000|  8,00000000000|  8,00000000000|  5,00000000000|  3,00000000000|  0,00000000000|  3,00000000000|  5,00000000000|  5,00000000000|  7,00000000000| 11,00000000000|  8,00000000000|  5,00000000000|  8,00000000000|  8,00000000000|  8,00000000000|  8,00000000000|  8,00000000000| 10,00000000000| 11,00000000000|  7,00000000000|  7,00000000000| 11,00000000000| 12,00000000000| 12,00000000000| 10,00000000000|  5,00000000000|  8,00000000000|  8,00000000000|  8,00000000000|  8,00000000000
Macaca_Thibet             |  6,00000000000|  6,00000000000|  7,00000000000|  7,00000000000|  4,00000000000|  4,00000000000|  3,00000000000|  0,00000000000|  4,00000000000|  4,00000000000|  6,00000000000| 12,00000000000|  9,00000000000|  6,00000000000|  9,00000000000|  9,00000000000|  9,00000000000|  9,00000000000|  9,00000000000| 11,00000000000| 12,00000000000|  8,00000000000|  8,00000000000| 12,00000000000| 13,00000000000| 13,00000000000| 11,00000000000|  6,00000000000|  9,00000000000|  9,00000000000|  9,00000000000|  9,00000000000
Bor_Oran                  |  6,00000000000|  6,00000000000|  7,00000000000|  7,00000000000|  4,00000000000|  6,00000000000|  5,00000000000|  4,00000000000|  0,00000000000|  2,00000000000|  6,00000000000| 14,00000000000| 11,00000000000|  8,00000000000| 11,00000000000| 11,00000000000| 11,00000000000| 11,00000000000| 11,00000000000| 13,00000000000| 14,00000000000| 10,00000000000| 10,00000000000| 14,00000000000| 15,00000000000| 15,00000000000| 13,00000000000|  8,00000000000| 11,00000000000| 11,00000000000| 11,00000000000| 11,00000000000
Sum_Oran                  |  6,00000000000|  6,00000000000|  7,00000000000|  7,00000000000|  4,00000000000|  6,00000000000|  5,00000000000|  4,00000000000|  2,00000000000|  0,00000000000|  6,00000000000| 14,00000000000| 11,00000000000|  8,00000000000| 11,00000000000| 11,00000000000| 11,00000000000| 11,00000000000| 11,00000000000| 13,00000000000| 14,00000000000| 10,00000000000| 10,00000000000| 14,00000000000| 15,00000000000| 15,00000000000| 13,00000000000|  8,00000000000| 11,00000000000| 11,00000000000| 11,00000000000| 11,00000000000
Gorilla                   |  4,00000000000|  4,00000000000|  3,00000000000|  3,00000000000|  4,00000000000|  8,00000000000|  7,00000000000|  6,00000000000|  6,00000000000|  6,00000000000|  0,00000000000| 16,00000000000| 13,00000000000| 10,00000000000| 13,00000000000| 13,00000000000| 13,00000000000| 13,00000000000| 13,00000000000| 15,00000000000| 16,00000000000| 12,00000000000| 12,00000000000| 16,00000000000| 17,00000000000| 17,00000000000| 15,00000000000| 10,00000000000| 13,00000000000| 13,00000000000| 13,00000000000| 13,00000000000
Cat                       | 16,00000000000| 16,00000000000| 17,00000000000| 17,00000000000| 14,00000000000| 10,00000000000| 11,00000000000| 12,00000000000| 14,00000000000| 14,00000000000| 16,00000000000|  0,00000000000|  7,00000000000| 10,00000000000|  9,00000000000|  9,00000000000|  9,00000000000|  9,00000000000|  7,00000000000|  3,00000000000|  2,00000000000| 12,00000000000| 12,00000000000|  6,00000000000|  7,00000000000|  7,00000000000|  5,00000000000|  8,00000000000| 13,00000000000| 13,00000000000|  5,00000000000| 13,00000000000
Dog                       | 13,00000000000| 13,00000000000| 14,00000000000| 14,00000000000| 11,00000000000|  7,00000000000|  8,00000000000|  9,00000000000| 11,00000000000| 11,00000000000| 13,00000000000|  7,00000000000|  0,00000000000|  7,00000000000|  6,00000000000|  6,00000000000|  6,00000000000|  6,00000000000|  2,00000000000|  6,00000000000|  7,00000000000|  9,00000000000|  9,00000000000|  7,00000000000|  8,00000000000|  8,00000000000|  6,00000000000|  5,00000000000| 10,00000000000| 10,00000000000|  4,00000000000| 10,00000000000
Pig                       | 10,00000000000| 10,00000000000| 11,00000000000| 11,00000000000|  8,00000000000|  4,00000000000|  5,00000000000|  6,00000000000|  8,00000000000|  8,00000000000| 10,00000000000| 10,00000000000|  7,00000000000|  0,00000000000|  7,00000000000|  7,00000000000|  7,00000000000|  7,00000000000|  7,00000000000|  9,00000000000| 10,00000000000|  4,00000000000|  4,00000000000| 10,00000000000| 11,00000000000| 11,00000000000|  9,00000000000|  4,00000000000|  5,00000000000|  5,00000000000|  7,00000000000|  5,00000000000
Sheep                     | 13,00000000000| 13,00000000000| 14,00000000000| 14,00000000000| 11,00000000000|  7,00000000000|  8,00000000000|  9,00000000000| 11,00000000000| 11,00000000000| 13,00000000000|  9,00000000000|  6,00000000000|  7,00000000000|  0,00000000000|  2,00000000000|  4,00000000000|  4,00000000000|  6,00000000000|  8,00000000000|  9,00000000000|  9,00000000000|  9,00000000000|  9,00000000000| 10,00000000000| 10,00000000000|  8,00000000000|  5,00000000000| 10,00000000000| 10,00000000000|  6,00000000000| 10,00000000000
Goat                      | 13,00000000000| 13,00000000000| 14,00000000000| 14,00000000000| 11,00000000000|  7,00000000000|  8,00000000000|  9,00000000000| 11,00000000000| 11,00000000000| 13,00000000000|  9,00000000000|  6,00000000000|  7,00000000000|  2,00000000000|  0,00000000000|  4,00000000000|  4,00000000000|  6,00000000000|  8,00000000000|  9,00000000000|  9,00000000000|  9,00000000000|  9,00000000000| 10,00000000000| 10,00000000000|  8,00000000000|  5,00000000000| 10,00000000000| 10,00000000000|  6,00000000000| 10,00000000000
Cow                       | 13,00000000000| 13,00000000000| 14,00000000000| 14,00000000000| 11,00000000000|  7,00000000000|  8,00000000000|  9,00000000000| 11,00000000000| 11,00000000000| 13,00000000000|  9,00000000000|  6,00000000000|  7,00000000000|  4,00000000000|  4,00000000000|  0,00000000000|  2,00000000000|  6,00000000000|  8,00000000000|  9,00000000000|  9,00000000000|  9,00000000000|  9,00000000000| 10,00000000000| 10,00000000000|  8,00000000000|  5,00000000000| 10,00000000000| 10,00000000000|  6,00000000000| 10,00000000000
Buffalo                   | 13,00000000000| 13,00000000000| 14,00000000000| 14,00000000000| 11,00000000000|  7,00000000000|  8,00000000000|  9,00000000000| 11,00000000000| 11,00000000000| 13,00000000000|  9,00000000000|  6,00000000000|  7,00000000000|  4,00000000000|  4,00000000000|  2,00000000000|  0,00000000000|  6,00000000000|  8,00000000000|  9,00000000000|  9,00000000000|  9,00000000000|  9,00000000000| 10,00000000000| 10,00000000000|  8,00000000000|  5,00000000000| 10,00000000000| 10,00000000000|  6,00000000000| 10,00000000000
Wolf                      | 13,00000000000| 13,00000000000| 14,00000000000| 14,00000000000| 11,00000000000|  7,00000000000|  8,00000000000|  9,00000000000| 11,00000000000| 11,00000000000| 13,00000000000|  7,00000000000|  2,00000000000|  7,00000000000|  6,00000000000|  6,00000000000|  6,00000000000|  6,00000000000|  0,00000000000|  6,00000000000|  7,00000000000|  9,00000000000|  9,00000000000|  7,00000000000|  8,00000000000|  8,00000000000|  6,00000000000|  5,00000000000| 10,00000000000| 10,00000000000|  4,00000000000| 10,00000000000
Tiger                     | 15,00000000000| 15,00000000000| 16,00000000000| 16,00000000000| 13,00000000000|  9,00000000000| 10,00000000000| 11,00000000000| 13,00000000000| 13,00000000000| 15,00000000000|  3,00000000000|  6,00000000000|  9,00000000000|  8,00000000000|  8,00000000000|  8,00000000000|  8,00000000000|  6,00000000000|  0,00000000000|  3,00000000000| 11,00000000000| 11,00000000000|  5,00000000000|  6,00000000000|  6,00000000000|  4,00000000000|  7,00000000000| 12,00000000000| 12,00000000000|  4,00000000000| 12,00000000000
Leopard                   | 16,00000000000| 16,00000000000| 17,00000000000| 17,00000000000| 14,00000000000| 10,00000000000| 11,00000000000| 12,00000000000| 14,00000000000| 14,00000000000| 16,00000000000|  2,00000000000|  7,00000000000| 10,00000000000|  9,00000000000|  9,00000000000|  9,00000000000|  9,00000000000|  7,00000000000|  3,00000000000|  0,00000000000| 12,00000000000| 12,00000000000|  6,00000000000|  7,00000000000|  7,00000000000|  5,00000000000|  8,00000000000| 13,00000000000| 13,00000000000|  5,00000000000| 13,00000000000
Indian_Rhino              | 12,00000000000| 12,00000000000| 13,00000000000| 13,00000000000| 10,00000000000|  6,00000000000|  7,00000000000|  8,00000000000| 10,00000000000| 10,00000000000| 12,00000000000| 12,00000000000|  9,00000000000|  4,00000000000|  9,00000000000|  9,00000000000|  9,00000000000|  9,00000000000|  9,00000000000| 11,00000000000| 12,00000000000|  0,00000000000|  2,00000000000| 12,00000000000| 13,00000000000| 13,00000000000| 11,00000000000|  6,00000000000|  5,00000000000|  5,00000000000|  9,00000000000|  5,00000000000
White_Rhino               | 12,00000000000| 12,00000000000| 13,00000000000| 13,00000000000| 10,00000000000|  6,00000000000|  7,00000000000|  8,00000000000| 10,00000000000| 10,00000000000| 12,00000000000| 12,00000000000|  9,00000000000|  4,00000000000|  9,00000000000|  9,00000000000|  9,00000000000|  9,00000000000|  9,00000000000| 11,00000000000| 12,00000000000|  2,00000000000|  0,00000000000| 12,00000000000| 13,00000000000| 13,00000000000| 11,00000000000|  6,00000000000|  5,00000000000|  5,00000000000|  9,00000000000|  5,00000000000
Black_Bear                | 16,00000000000| 16,00000000000| 17,00000000000| 17,00000000000| 14,00000000000| 10,00000000000| 11,00000000000| 12,00000000000| 14,00000000000| 14,00000000000| 16,00000000000|  6,00000000000|  7,00000000000| 10,00000000000|  9,00000000000|  9,00000000000|  9,00000000000|  9,00000000000|  7,00000000000|  5,00000000000|  6,00000000000| 12,00000000000| 12,00000000000|  0,00000000000|  3,00000000000|  3,00000000000|  3,00000000000|  8,00000000000| 13,00000000000| 13,00000000000|  5,00000000000| 13,00000000000
Brown_Bear                | 17,00000000000| 17,00000000000| 18,00000000000| 18,00000000000| 15,00000000000| 11,00000000000| 12,00000000000| 13,00000000000| 15,00000000000| 15,00000000000| 17,00000000000|  7,00000000000|  8,00000000000| 11,00000000000| 10,00000000000| 10,00000000000| 10,00000000000| 10,00000000000|  8,00000000000|  6,00000000000|  7,00000000000| 13,00000000000| 13,00000000000|  3,00000000000|  0,00000000000|  2,00000000000|  4,00000000000|  9,00000000000| 14,00000000000| 14,00000000000|  6,00000000000| 14,00000000000
Polar_Bear                | 17,00000000000| 17,00000000000| 18,00000000000| 18,00000000000| 15,00000000000| 11,00000000000| 12,00000000000| 13,00000000000| 15,00000000000| 15,00000000000| 17,00000000000|  7,00000000000|  8,00000000000| 11,00000000000| 10,00000000000| 10,00000000000| 10,00000000000| 10,00000000000|  8,00000000000|  6,00000000000|  7,00000000000| 13,00000000000| 13,00000000000|  3,00000000000|  2,00000000000|  0,00000000000|  4,00000000000|  9,00000000000| 14,00000000000| 14,00000000000|  6,00000000000| 14,00000000000
Giant_Panda               | 15,00000000000| 15,00000000000| 16,00000000000| 16,00000000000| 13,00000000000|  9,00000000000| 10,00000000000| 11,00000000000| 13,00000000000| 13,00000000000| 15,00000000000|  5,00000000000|  6,00000000000|  9,00000000000|  8,00000000000|  8,00000000000|  8,00000000000|  8,00000000000|  6,00000000000|  4,00000000000|  5,00000000000| 11,00000000000| 11,00000000000|  3,00000000000|  4,00000000000|  4,00000000000|  0,00000000000|  7,00000000000| 12,00000000000| 12,00000000000|  4,00000000000| 12,00000000000
Rabbit                    | 10,00000000000| 10,00000000000| 11,00000000000| 11,00000000000|  8,00000000000|  4,00000000000|  5,00000000000|  6,00000000000|  8,00000000000|  8,00000000000| 10,00000000000|  8,00000000000|  5,00000000000|  4,00000000000|  5,00000000000|  5,00000000000|  5,00000000000|  5,00000000000|  5,00000000000|  7,00000000000|  8,00000000000|  6,00000000000|  6,00000000000|  8,00000000000|  9,00000000000|  9,00000000000|  7,00000000000|  0,00000000000|  7,00000000000|  7,00000000000|  5,00000000000|  7,00000000000
Hedgehog                  | 13,00000000000| 13,00000000000| 14,00000000000| 14,00000000000| 11,00000000000|  7,00000000000|  8,00000000000|  9,00000000000| 11,00000000000| 11,00000000000| 13,00000000000| 13,00000000000| 10,00000000000|  5,00000000000| 10,00000000000| 10,00000000000| 10,00000000000| 10,00000000000| 10,00000000000| 12,00000000000| 13,00000000000|  5,00000000000|  5,00000000000| 13,00000000000| 14,00000000000| 14,00000000000| 12,00000000000|  7,00000000000|  0,00000000000|  2,00000000000| 10,00000000000|  4,00000000000
Dormouse                  | 13,00000000000| 13,00000000000| 14,00000000000| 14,00000000000| 11,00000000000|  7,00000000000|  8,00000000000|  9,00000000000| 11,00000000000| 11,00000000000| 13,00000000000| 13,00000000000| 10,00000000000|  5,00000000000| 10,00000000000| 10,00000000000| 10,00000000000| 10,00000000000| 10,00000000000| 12,00000000000| 13,00000000000|  5,00000000000|  5,00000000000| 13,00000000000| 14,00000000000| 14,00000000000| 12,00000000000|  7,00000000000|  2,00000000000|  0,00000000000| 10,00000000000|  4,00000000000
Squirrel                  | 13,00000000000| 13,00000000000| 14,00000000000| 14,00000000000| 11,00000000000|  7,00000000000|  8,00000000000|  9,00000000000| 11,00000000000| 11,00000000000| 13,00000000000|  5,00000000000|  4,00000000000|  7,00000000000|  6,00000000000|  6,00000000000|  6,00000000000|  6,00000000000|  4,00000000000|  4,00000000000|  5,00000000000|  9,00000000000|  9,00000000000|  5,00000000000|  6,00000000000|  6,00000000000|  4,00000000000|  5,00000000000| 10,00000000000| 10,00000000000|  0,00000000000| 10,00000000000
Blue_Whale                | 13,00000000000| 13,00000000000| 14,00000000000| 14,00000000000| 11,00000000000|  7,00000000000|  8,00000000000|  9,00000000000| 11,00000000000| 11,00000000000| 13,00000000000| 13,00000000000| 10,00000000000|  5,00000000000| 10,00000000000| 10,00000000000| 10,00000000000| 10,00000000000| 10,00000000000| 12,00000000000| 13,00000000000|  5,00000000000|  5,00000000000| 13,00000000000| 14,00000000000| 14,00000000000| 12,00000000000|  7,00000000000|  4,00000000000|  4,00000000000| 10,00000000000|  0,00000000000
