                           |Human          |Hum_shortened  |Pig_Chim       |Com_Chim       |Gibbon         |Baboon         |Ver_Monkey     |Macaca_Thibet  |Bor_Oran       |Sum_Oran       |Gorilla        |Cat            |Dog            |Pig            |Sheep          |Goat           |Cow            |Buffalo        |Wolf           |Tiger          |Leopard        |Indian_Rhino   |White_Rhino    |Black_Bear     |Brown_Bear     |Polar_Bear     |Giant_Panda    |Rabbit         |Hedgehog       |Dormouse       |Squirrel       |Blue_Whale     
Human                     |  0,00000000000|  7,41196123169|  7,80027017600|  7,81287005343|  8,64191481748|  8,81594629433|  8,95013725652|  9,09016165108|  8,84703949857|  8,96996493769|  7,93473169748|  9,75209208429|  9,84361555937|  9,56851554328|  9,11064460763|  9,11855492456|  9,38205000113|  9,22081447460|  9,85047505252| 10,12123081815|  9,96008327303|  9,22107946208|  9,25312763076| 10,23837332567| 11,40300856348| 11,32030550503| 11,31186853508|  9,57910330016| 11,46283433921| 10,46968167995| 10,14632038347|  9,40213221566
Hum_shortened             |  7,41196123169|  0,00000000000|  8,03673606772|  8,23732409760|  8,73712560091|  9,20071749107|  9,37901727890|  9,51052719215|  8,67290073279|  8,80362246260|  8,42572507807| 10,25097963377| 10,49817570592|  9,37157892808|  9,43111192694|  9,38384461268|  9,55638918495|  9,43985667093| 10,52397140635| 10,71524733994| 10,55657489581|  9,28804992102|  9,33024798862| 10,97127390654| 12,12151768470| 12,01877753807| 12,08193317073| 10,24902560355| 12,25725726117| 11,23892740492| 10,89708030749|  9,35081413467
Pig_Chim                  |  7,80027017600|  8,03673606772|  0,00000000000|  7,35727405450|  8,61144534823|  8,85994396197|  9,00598597326|  9,23472359885|  8,75029195603|  8,87142387864|  7,88219297511|  9,83021014811|  9,98056278573|  9,48422882922|  9,15352924065|  9,20020797032|  9,47042456139|  9,24582194036|  9,98395747722| 10,24290561943| 10,13741570465|  9,15802428760|  9,26630189904| 10,39182077622| 11,60743482701| 11,50402053493| 11,51088424633|  9,78819161221| 11,62986535674| 10,67819896414| 10,30434237062|  9,31684991523
Com_Chim                  |  7,81287005343|  8,23732409760|  7,35727405450|  0,00000000000|  8,63765805363|  8,75164050237|  8,90845156889|  9,14284795189|  8,97830679346|  9,13427108462|  7,75230072409|  9,68277438396|  9,67593902456|  9,70527466223|  9,13332777658|  9,22068060075|  9,55494911153|  9,27370145326|  9,67420249433| 10,01648287388|  9,88920688002|  9,23856558529|  9,32206295106| 10,08389262671| 11,23743153665| 11,15663003739| 11,17168202939|  9,45012205452| 11,27616645655| 10,37241372110|  9,93371785960|  9,51337735670
Gibbon                    |  8,64191481748|  8,73712560091|  8,61144534823|  8,63765805363|  0,00000000000|  8,90287849943|  8,87618577644|  8,93813210189|  8,73654732101|  8,81284481880|  8,59793414463| 10,24610419733| 10,21740249052|  9,41404074157|  9,32931368784|  9,37741799296|  9,72875141770|  9,50900098007| 10,35214051951| 10,68329617390| 10,54642193228|  9,39613077423|  9,44033204256| 10,71678804695| 11,85862995859| 11,70087867698| 11,89021082429|  9,98510326682| 11,98304730686| 10,88338221428| 10,55568300206|  9,71740952536
Baboon                    |  8,81594629433|  9,20071749107|  8,85994396197|  8,75164050237|  8,90287849943|  0,00000000000|  8,53176043240|  8,64186016894|  9,44635921208|  9,41176929771|  8,72804240735|  9,78757205248|  9,69963454118|  9,79333985111|  9,34792620916|  9,34377445245|  9,81401355704|  9,51494079324|  9,76008195466| 10,19985497716| 10,08554430512|  9,48185761359|  9,55973713398| 10,11267726135| 11,28412467818| 11,17138484033| 11,13617769224|  9,57086658570| 11,18967413138| 10,24124335083|  9,93992093270|  9,83754826671
Ver_Monkey                |  8,95013725652|  9,37901727890|  9,00598597326|  8,90845156889|  8,87618577644|  8,53176043240|  0,00000000000|  8,54675341292|  9,45994222484|  9,43610913117|  8,84944951213|  9,95852554100|  9,68118953030|  9,91986598010|  9,50424658073|  9,55788125794| 10,03281180423|  9,69425317130|  9,77383987084| 10,29509317595| 10,13252219353|  9,63993295641|  9,70677544442| 10,19439228342| 11,34467244344| 11,24503221778| 11,20618172379|  9,50657569825| 11,20242592118| 10,28836131652|  9,91546815418| 10,07779655103
Macaca_Thibet             |  9,09016165108|  9,51052719215|  9,23472359885|  9,14284795189|  8,93813210189|  8,64186016894|  8,54675341292|  0,00000000000|  9,52901965402|  9,48813912708|  8,94436418808| 10,14952534524|  9,82995828422| 10,05628097995|  9,64246517124|  9,62058226007| 10,11849325169|  9,85445057685|  9,96982233803| 10,53176166086| 10,39078265949|  9,79863224446|  9,86619599929| 10,36097497282| 11,49957225688| 11,37905500097| 11,44837040156|  9,75377013159| 11,43002326348| 10,45150247121| 10,18054325915| 10,22506407103
Bor_Oran                  |  8,84703949857|  8,67290073279|  8,75029195603|  8,97830679346|  8,73654732101|  9,44635921208|  9,45994222484|  9,52901965402|  0,00000000000|  7,84015148602|  8,92644523019| 10,81239274131| 10,86683168769|  9,29493710595|  9,70243738554|  9,67140084678| 10,10600360019|  9,91821953950| 10,98093254125| 11,32246326577| 11,11995004994|  9,59114808995|  9,70944617663| 11,56755531839| 12,61971610191| 12,44161358862| 12,68608041151| 10,69362343793| 12,84708544287| 11,72591666188| 11,36345162989|  9,87389000827
Sum_Oran                  |  8,96996493769|  8,80362246260|  8,87142387864|  9,13427108462|  8,81284481880|  9,41176929771|  9,43610913117|  9,48813912708|  7,84015148602|  0,00000000000|  9,05538741425| 10,80421367194| 10,80563243087|  9,26031661948|  9,76391616182|  9,66793678198| 10,14092910753|  9,96189152590| 10,92781870408| 11,32398842517| 11,12004751506|  9,62087294571|  9,68190036822| 11,52908924926| 12,61532161087| 12,45629904871| 12,67849063087| 10,70512254754| 12,87710845924| 11,73627421681| 11,34049337316|  9,90470483139
Gorilla                   |  7,93473169748|  8,42572507807|  7,88219297511|  7,75230072409|  8,59793414463|  8,72804240735|  8,84944951213|  8,94436418808|  8,92644523019|  9,05538741425|  0,00000000000|  9,77193078296|  9,65654093326|  9,72841957873|  9,22398346813|  9,32895624662|  9,66665938910|  9,43730870237|  9,69452921180| 10,12633126462|  9,97233414033|  9,43394713634|  9,48267189830| 10,14149635860| 11,28499881918| 11,22401435080| 11,25322572630|  9,43495862591| 11,24427322650| 10,33348992694|  9,95922451726|  9,73043725218
Cat                       |  9,75209208429| 10,25097963377|  9,83021014811|  9,68277438396| 10,24610419733|  9,78757205248|  9,95852554100| 10,14952534524| 10,81239274131| 10,80421367194|  9,77193078296|  0,00000000000|  9,51389258622| 10,26500606635|  9,44652856848|  9,43500909552|  9,55152689851|  9,33969201709|  9,34250234517|  8,39390354418|  8,29804719212|  9,60892163330|  9,56953945139|  9,28828406750| 10,02678848534| 10,07281214518|  9,73461126473|  9,56831798374| 10,56999311406| 10,09359584613|  9,72764766448|  9,83287651031
Dog                       |  9,84361555937| 10,49817570592|  9,98056278573|  9,67593902456| 10,21740249052|  9,69963454118|  9,68118953030|  9,82995828422| 10,86683168769| 10,80563243087|  9,65654093326|  9,51389258622|  0,00000000000| 10,67190301116|  9,60412230393|  9,71655383059| 10,14221215572|  9,76634802638|  7,18929153480|  9,48727052882|  9,57644294330|  9,99755622744| 10,03288206486|  9,19935387878| 10,49462210637| 10,50723956830| 10,19011931118|  9,10764165027|  9,97717765589|  9,45757218314|  9,27605399784| 10,40336219318
Pig                       |  9,56851554328|  9,37157892808|  9,48422882922|  9,70527466223|  9,41404074157|  9,79333985111|  9,91986598010| 10,05628097995|  9,29493710595|  9,26031661948|  9,72841957873| 10,26500606635| 10,67190301116|  0,00000000000|  9,17998708484|  9,16288742880|  9,45773137914|  9,28224373373| 10,73283667217| 10,96272604406| 10,74993153547|  8,91082725559|  8,86283966229| 11,23809746778| 12,32417229772| 12,16392214273| 12,33955139139| 10,69442197068| 12,68295647498| 11,60618352702| 11,24390695595|  9,18372327231
Sheep                     |  9,11064460763|  9,43111192694|  9,15352924065|  9,13332777658|  9,32931368784|  9,34792620916|  9,50424658073|  9,64246517124|  9,70243738554|  9,76391616182|  9,22398346813|  9,44652856848|  9,60412230393|  9,17998708484|  0,00000000000|  8,03711989868|  8,52626917333|  8,39901822068|  9,61967735965|  9,83067179304|  9,76429844472|  8,83326357007|  8,85652576651| 10,00596668357| 11,20152475743| 11,11834716087| 11,05654232872|  9,69075050108| 11,33575003876| 10,47118196434| 10,15621090925|  9,02556949304
Goat                      |  9,11855492456|  9,38384461268|  9,20020797032|  9,22068060075|  9,37741799296|  9,34377445245|  9,55788125794|  9,62058226007|  9,67140084678|  9,66793678198|  9,32895624662|  9,43500909552|  9,71655383059|  9,16288742880|  8,03711989868|  0,00000000000|  8,52027286774|  8,36040211960|  9,72012172005|  9,87729384599|  9,80713184628|  8,82017046946|  8,83376531263| 10,10170002736| 11,33863033988| 11,24402364487| 11,18080008176|  9,81954011459| 11,43515804237| 10,52825427731| 10,21676967423|  8,95345773133
Cow                       |  9,38205000113|  9,55638918495|  9,47042456139|  9,55494911153|  9,72875141770|  9,81401355704| 10,03281180423| 10,11849325169| 10,10600360019| 10,14092910753|  9,66665938910|  9,55152689851| 10,14221215572|  9,45773137914|  8,52626917333|  8,52027286774|  0,00000000000|  8,32627081796| 10,08869912034| 10,02830758306|  9,94101052795|  8,95291918425|  8,95965195698| 10,27924447750| 11,47618123246| 11,40368669134| 11,25021145400| 10,19721131634| 11,65347151914| 10,88457289719| 10,52677191006|  8,75481278607
Buffalo                   |  9,22081447460|  9,43985667093|  9,24582194036|  9,27370145326|  9,50900098007|  9,51494079324|  9,69425317130|  9,85445057685|  9,91821953950|  9,96189152590|  9,43730870237|  9,33969201709|  9,76634802638|  9,28224373373|  8,39901822068|  8,36040211960|  8,32627081796|  0,00000000000|  9,75339548640|  9,86147266034|  9,71247937807|  8,89736096612|  8,89018219938| 10,08155766641| 11,33449602362| 11,24677880399| 11,09796647783|  9,77075538928| 11,38134391547| 10,52431621915| 10,24385536610|  8,89730266206
Wolf                      |  9,85047505252| 10,52397140635|  9,98395747722|  9,67420249433| 10,35214051951|  9,76008195466|  9,77383987084|  9,96982233803| 10,98093254125| 10,92781870408|  9,69452921180|  9,34250234517|  7,18929153480| 10,73283667217|  9,61967735965|  9,72012172005| 10,08869912034|  9,75339548640|  0,00000000000|  9,29498513598|  9,43110292239|  9,98163262648| 10,00745264787|  9,12728398249| 10,44231705833| 10,46424475050| 10,05014101679|  9,14141230789|  9,88551182716|  9,41893555548|  9,21446623521| 10,33547019489
Tiger                     | 10,12123081815| 10,71524733994| 10,24290561943| 10,01648287388| 10,68329617390| 10,19985497716| 10,29509317595| 10,53176166086| 11,32246326577| 11,32398842517| 10,12633126462|  8,39390354418|  9,48727052882| 10,96272604406|  9,83067179304|  9,87729384599| 10,02830758306|  9,86147266034|  9,29498513598|  0,00000000000|  8,15450732057| 10,16678246040| 10,13971724114|  9,16956660947|  9,58558506857|  9,69427987363|  9,40439318934|  9,57515785392| 10,28379489077|  9,88594959151|  9,69745772487| 10,33107800715
Leopard                   |  9,96008327303| 10,55657489581| 10,13741570465|  9,88920688002| 10,54642193228| 10,08554430512| 10,13252219353| 10,39078265949| 11,11995004994| 11,12004751506|  9,97233414033|  8,29804719212|  9,57644294330| 10,74993153547|  9,76429844472|  9,80713184628|  9,94101052795|  9,71247937807|  9,43110292239|  8,15450732057|  0,00000000000| 10,01317624073|  9,97935427890|  9,12502912386|  9,59881211270|  9,62779297528|  9,45185046567|  9,61614060332| 10,42647987836|  9,97149126456|  9,74557142553| 10,22999614145
Indian_Rhino              |  9,22107946208|  9,28804992102|  9,15802428760|  9,23856558529|  9,39613077423|  9,48185761359|  9,63993295641|  9,79863224446|  9,59114808995|  9,62087294571|  9,43394713634|  9,60892163330|  9,99755622744|  8,91082725559|  8,83326357007|  8,82017046946|  8,95291918425|  8,89736096612|  9,98163262648| 10,16678246040| 10,01317624073|  0,00000000000|  8,06250212993| 10,37837854570| 11,54207343820| 11,47395163774| 11,44247667339| 10,07469018954| 11,83793070939| 10,87627370204| 10,48688630130|  8,79834384806
White_Rhino               |  9,25312763076|  9,33024798862|  9,26630189904|  9,32206295106|  9,44033204256|  9,55973713398|  9,70677544442|  9,86619599929|  9,70944617663|  9,68190036822|  9,48267189830|  9,56953945139| 10,03288206486|  8,86283966229|  8,85652576651|  8,83376531263|  8,95965195698|  8,89018219938| 10,00745264787| 10,13971724114|  9,97935427890|  8,06250212993|  0,00000000000| 10,41864576631| 11,59507417435| 11,53110391385| 11,47743854721| 10,08073091502| 11,85067014712| 11,03511087281| 10,55750441032|  8,87483917520
Black_Bear                | 10,23837332567| 10,97127390654| 10,39182077622| 10,08389262671| 10,71678804695| 10,11267726135| 10,19439228342| 10,36097497282| 11,56755531839| 11,52908924926| 10,14149635860|  9,28828406750|  9,19935387878| 11,23809746778| 10,00596668357| 10,10170002736| 10,27924447750| 10,08155766641|  9,12728398249|  9,16956660947|  9,12502912386| 10,37837854570| 10,41864576631|  0,00000000000|  9,13816629223|  9,20480243227|  9,09548799232|  9,44684006294|  9,90849986994|  9,46145486582|  9,37146725314| 10,66713002797
Brown_Bear                | 11,40300856348| 12,12151768470| 11,60743482701| 11,23743153665| 11,85862995859| 11,28412467818| 11,34467244344| 11,49957225688| 12,61971610191| 12,61532161087| 11,28499881918| 10,02678848534| 10,49462210637| 12,32417229772| 11,20152475743| 11,33863033988| 11,47618123246| 11,33449602362| 10,44231705833|  9,58558506857|  9,59881211270| 11,54207343820| 11,59507417435|  9,13816629223|  0,00000000000|  7,31277130249|  8,81993525649| 10,67049457294| 10,66134213564| 10,52670844515| 10,51124815473| 11,84248598520
Polar_Bear                | 11,32030550503| 12,01877753807| 11,50402053493| 11,15663003739| 11,70087867698| 11,17138484033| 11,24503221778| 11,37905500097| 12,44161358862| 12,45629904871| 11,22401435080| 10,07281214518| 10,50723956830| 12,16392214273| 11,11834716087| 11,24402364487| 11,40368669134| 11,24677880399| 10,46424475050|  9,69427987363|  9,62779297528| 11,47395163774| 11,53110391385|  9,20480243227|  7,31277130249|  0,00000000000|  8,97736055063| 10,64641481795| 10,84797248802| 10,58011503140| 10,53173540889| 11,77225313547
Giant_Panda               | 11,31186853508| 12,08193317073| 11,51088424633| 11,17168202939| 11,89021082429| 11,13617769224| 11,20618172379| 11,44837040156| 12,68608041151| 12,67849063087| 11,25322572630|  9,73461126473| 10,19011931118| 12,33955139139| 11,05654232872| 11,18080008176| 11,25021145400| 11,09796647783| 10,05014101679|  9,40439318934|  9,45185046567| 11,44247667339| 11,47743854721|  9,09548799232|  8,81993525649|  8,97736055063|  0,00000000000| 10,38336085262|  9,96734255527| 10,08749283147| 10,07393470756| 11,66786137438
Rabbit                    |  9,57910330016| 10,24902560355|  9,78819161221|  9,45012205452|  9,98510326682|  9,57086658570|  9,50657569825|  9,75377013159| 10,69362343793| 10,70512254754|  9,43495862591|  9,56831798374|  9,10764165027| 10,69442197068|  9,69075050108|  9,81954011459| 10,19721131634|  9,77075538928|  9,14141230789|  9,57515785392|  9,61614060332| 10,07469018954| 10,08073091502|  9,44684006294| 10,67049457294| 10,64641481795| 10,38336085262|  0,00000000000| 10,17294885527|  9,48071795423|  9,11198105378| 10,43452804069
Hedgehog                  | 11,46283433921| 12,25725726117| 11,62986535674| 11,27616645655| 11,98304730686| 11,18967413138| 11,20242592118| 11,43002326348| 12,84708544287| 12,87710845924| 11,24427322650| 10,56999311406|  9,97717765589| 12,68295647498| 11,33575003876| 11,43515804237| 11,65347151914| 11,38134391547|  9,88551182716| 10,28379489077| 10,42647987836| 11,83793070939| 11,85067014712|  9,90849986994| 10,66134213564| 10,84797248802|  9,96734255527| 10,17294885527|  0,00000000000|  9,79219206664|  9,67887041603| 12,05433700436
Dormouse                  | 10,46968167995| 11,23892740492| 10,67819896414| 10,37241372110| 10,88338221428| 10,24124335083| 10,28836131652| 10,45150247121| 11,72591666188| 11,73627421681| 10,33348992694| 10,09359584613|  9,45757218314| 11,60618352702| 10,47118196434| 10,52825427731| 10,88457289719| 10,52431621915|  9,41893555548|  9,88594959151|  9,97149126456| 10,87627370204| 11,03511087281|  9,46145486582| 10,52670844515| 10,58011503140| 10,08749283147|  9,48071795423|  9,79219206664|  0,00000000000|  9,28676565477| 11,18862106339
Squirrel                  | 10,14632038347| 10,89708030749| 10,30434237062|  9,93371785960| 10,55568300206|  9,93992093270|  9,91546815418| 10,18054325915| 11,36345162989| 11,34049337316|  9,95922451726|  9,72764766448|  9,27605399784| 11,24390695595| 10,15621090925| 10,21676967423| 10,52677191006| 10,24385536610|  9,21446623521|  9,69745772487|  9,74557142553| 10,48688630130| 10,55750441032|  9,37146725314| 10,51124815473| 10,53173540889| 10,07393470756|  9,11198105378|  9,67887041603|  9,28676565477|  0,00000000000| 10,80205753533
Blue_Whale                |  9,40213221566|  9,35081413467|  9,31684991523|  9,51337735670|  9,71740952536|  9,83754826671| 10,07779655103| 10,22506407103|  9,87389000827|  9,90470483139|  9,73043725218|  9,83287651031| 10,40336219318|  9,18372327231|  9,02556949304|  8,95345773133|  8,75481278607|  8,89730266206| 10,33547019489| 10,33107800715| 10,22999614145|  8,79834384806|  8,87483917520| 10,66713002797| 11,84248598520| 11,77225313547| 11,66786137438| 10,43452804069| 12,05433700436| 11,18862106339| 10,80205753533|  0,00000000000
