                           |Human          |Pig_Chim       |Com_Chim       |Gibbon         |Baboon         |Ver_Monkey     |Macaca_Thibet  |Bor_Oran       |Sum_Oran       |Gorilla        |Cat            |Dog            |Pig            |Sheep          |Goat           |Cow            |Buffalo        |Wolf           |Tiger          |Leopard        |Indian_Rhino   |White_Rhino    |Black_Bear     |Brown_Bear     |Polar_Bear     |Giant_Panda    |Rabbit         |Hedgehog       |Dormouse       |Squirrel       |Blue_Whale     
Human                     |  0,00000000000|5818,76870411350|5818,76870411350|8042,71599775138|9700,58454787355|9700,58454787355|9700,58454787355|8042,71599775138|8042,71599775138|5901,01578752097|15120,27628047616|14177,75889084297|14307,25090537410|14307,25090537410|14307,25090537410|14307,25090537410|14307,25090537410|14177,75889084297|15120,27628047616|15120,27628047616|13389,32459211371|13389,32459211371|15120,27628047616|15120,27628047616|15120,27628047616|15120,27628047616|13936,23527054339|14307,25090537410|14307,25090537410|14307,25090537410|14307,25090537410
Pig_Chim                  |5818,76870411350|  0,00000000000|3714,37503700286|8042,71599775138|9700,58454787355|9700,58454787355|9700,58454787355|8042,71599775138|8042,71599775138|5901,01578752097|15120,27628047616|14177,75889084297|14307,25090537410|14307,25090537410|14307,25090537410|14307,25090537410|14307,25090537410|14177,75889084297|15120,27628047616|15120,27628047616|13389,32459211371|13389,32459211371|15120,27628047616|15120,27628047616|15120,27628047616|15120,27628047616|13936,23527054339|14307,25090537410|14307,25090537410|14307,25090537410|14307,25090537410
Com_Chim                  |5818,76870411350|3714,37503700286|  0,00000000000|8042,71599775138|9700,58454787355|9700,58454787355|9700,58454787355|8042,71599775138|8042,71599775138|5901,01578752097|15120,27628047616|14177,75889084297|14307,25090537410|14307,25090537410|14307,25090537410|14307,25090537410|14307,25090537410|14177,75889084297|15120,27628047616|15120,27628047616|13389,32459211371|13389,32459211371|15120,27628047616|15120,27628047616|15120,27628047616|15120,27628047616|13936,23527054339|14307,25090537410|14307,25090537410|14307,25090537410|14307,25090537410
Gibbon                    |8042,71599775138|8042,71599775138|8042,71599775138|  0,00000000000|9700,58454787354|9700,58454787354|9700,58454787354|7181,45127885187|7181,45127885187|8042,71599775138|15120,27628047616|14177,75889084297|14307,25090537410|14307,25090537410|14307,25090537410|14307,25090537410|14307,25090537410|14177,75889084297|15120,27628047616|15120,27628047616|13389,32459211371|13389,32459211371|15120,27628047616|15120,27628047616|15120,27628047616|15120,27628047616|13936,23527054339|14307,25090537410|14307,25090537410|14307,25090537410|14307,25090537410
Baboon                    |9700,58454787355|9700,58454787355|9700,58454787355|9700,58454787354|  0,00000000000|7495,41777491725|6682,64257095842|9700,58454787354|9700,58454787354|9700,58454787355|15120,27628047616|14177,75889084297|14307,25090537410|14307,25090537410|14307,25090537410|14307,25090537410|14307,25090537410|14177,75889084297|15120,27628047616|15120,27628047616|13389,32459211371|13389,32459211371|15120,27628047616|15120,27628047616|15120,27628047616|15120,27628047616|13936,23527054339|14307,25090537410|14307,25090537410|14307,25090537410|14307,25090537410
Ver_Monkey                |9700,58454787355|9700,58454787355|9700,58454787355|9700,58454787354|7495,41777491725|  0,00000000000|7495,41777491725|9700,58454787354|9700,58454787354|9700,58454787355|15120,27628047616|14177,75889084297|14307,25090537410|14307,25090537410|14307,25090537410|14307,25090537410|14307,25090537410|14177,75889084297|15120,27628047616|15120,27628047616|13389,32459211371|13389,32459211371|15120,27628047616|15120,27628047616|15120,27628047616|15120,27628047616|13936,23527054339|14307,25090537410|14307,25090537410|14307,25090537410|14307,25090537410
Macaca_Thibet             |9700,58454787355|9700,58454787355|9700,58454787355|9700,58454787354|6682,64257095842|7495,41777491725|  0,00000000000|9700,58454787354|9700,58454787354|9700,58454787355|15120,27628047616|14177,75889084297|14307,25090537410|14307,25090537410|14307,25090537410|14307,25090537410|14307,25090537410|14177,75889084297|15120,27628047616|15120,27628047616|13389,32459211371|13389,32459211371|15120,27628047616|15120,27628047616|15120,27628047616|15120,27628047616|13936,23527054339|14307,25090537410|14307,25090537410|14307,25090537410|14307,25090537410
Bor_Oran                  |8042,71599775138|8042,71599775138|8042,71599775138|7181,45127885187|9700,58454787354|9700,58454787354|9700,58454787354|  0,00000000000|5159,56010496641|8042,71599775138|15120,27628047616|14177,75889084297|14307,25090537410|14307,25090537410|14307,25090537410|14307,25090537410|14307,25090537410|14177,75889084297|15120,27628047616|15120,27628047616|13389,32459211371|13389,32459211371|15120,27628047616|15120,27628047616|15120,27628047616|15120,27628047616|13936,23527054339|14307,25090537410|14307,25090537410|14307,25090537410|14307,25090537410
Sum_Oran                  |8042,71599775138|8042,71599775138|8042,71599775138|7181,45127885187|9700,58454787354|9700,58454787354|9700,58454787354|5159,56010496641|  0,00000000000|8042,71599775138|15120,27628047616|14177,75889084297|14307,25090537410|14307,25090537410|14307,25090537410|14307,25090537410|14307,25090537410|14177,75889084297|15120,27628047616|15120,27628047616|13389,32459211371|13389,32459211371|15120,27628047616|15120,27628047616|15120,27628047616|15120,27628047616|13936,23527054339|14307,25090537410|14307,25090537410|14307,25090537410|14307,25090537410
Gorilla                   |5901,01578752097|5901,01578752097|5901,01578752097|8042,71599775138|9700,58454787355|9700,58454787355|9700,58454787355|8042,71599775138|8042,71599775138|  0,00000000000|15120,27628047616|14177,75889084297|14307,25090537410|14307,25090537410|14307,25090537410|14307,25090537410|14307,25090537410|14177,75889084297|15120,27628047616|15120,27628047616|13389,32459211371|13389,32459211371|15120,27628047616|15120,27628047616|15120,27628047616|15120,27628047616|13936,23527054339|14307,25090537410|14307,25090537410|14307,25090537410|14307,25090537410
Cat                       |15120,27628047616|15120,27628047616|15120,27628047616|15120,27628047616|15120,27628047616|15120,27628047616|15120,27628047616|15120,27628047616|15120,27628047616|15120,27628047616|  0,00000000000|15120,27628047616|15120,27628047616|15120,27628047616|15120,27628047616|15120,27628047616|15120,27628047616|15120,27628047616|6829,07562232094|6829,07562232094|15120,27628047616|15120,27628047616|11442,85014358431|11442,85014358431|11442,85014358431|11442,85014358431|15120,27628047616|15120,27628047616|15120,27628047616|15120,27628047616|15120,27628047616
Dog                       |14177,75889084297|14177,75889084297|14177,75889084297|14177,75889084297|14177,75889084297|14177,75889084297|14177,75889084297|14177,75889084297|14177,75889084297|14177,75889084297|15120,27628047616|  0,00000000000|14307,25090537410|14307,25090537410|14307,25090537410|14307,25090537410|14307,25090537410|3553,84359913856|15120,27628047616|15120,27628047616|14177,75889084297|14177,75889084297|15120,27628047616|15120,27628047616|15120,27628047616|15120,27628047616|14177,75889084297|14307,25090537410|14307,25090537410|14307,25090537410|14307,25090537410
Pig                       |14307,25090537410|14307,25090537410|14307,25090537410|14307,25090537410|14307,25090537410|14307,25090537410|14307,25090537410|14307,25090537410|14307,25090537410|14307,25090537410|15120,27628047616|14307,25090537410|  0,00000000000|11403,81359348604|11403,81359348604|11403,81359348604|11403,81359348604|14307,25090537410|15120,27628047616|15120,27628047616|14307,25090537410|14307,25090537410|15120,27628047616|15120,27628047616|15120,27628047616|15120,27628047616|14307,25090537410|10955,17301003288|10955,17301003288|10955,17301003288|11403,81359348604
Sheep                     |14307,25090537410|14307,25090537410|14307,25090537410|14307,25090537410|14307,25090537410|14307,25090537410|14307,25090537410|14307,25090537410|14307,25090537410|14307,25090537410|15120,27628047616|14307,25090537410|11403,81359348604|  0,00000000000|5459,04581398825|6495,02459049133|6495,02459049133|14307,25090537410|15120,27628047616|15120,27628047616|14307,25090537410|14307,25090537410|15120,27628047616|15120,27628047616|15120,27628047616|15120,27628047616|14307,25090537410|11403,81359348604|11403,81359348604|11403,81359348604|7416,34955306812
Goat                      |14307,25090537410|14307,25090537410|14307,25090537410|14307,25090537410|14307,25090537410|14307,25090537410|14307,25090537410|14307,25090537410|14307,25090537410|14307,25090537410|15120,27628047616|14307,25090537410|11403,81359348604|5459,04581398825|  0,00000000000|6495,02459049133|6495,02459049133|14307,25090537410|15120,27628047616|15120,27628047616|14307,25090537410|14307,25090537410|15120,27628047616|15120,27628047616|15120,27628047616|15120,27628047616|14307,25090537410|11403,81359348604|11403,81359348604|11403,81359348604|7416,34955306812
Cow                       |14307,25090537410|14307,25090537410|14307,25090537410|14307,25090537410|14307,25090537410|14307,25090537410|14307,25090537410|14307,25090537410|14307,25090537410|14307,25090537410|15120,27628047616|14307,25090537410|11403,81359348604|6495,02459049133|6495,02459049133|  0,00000000000|6213,31325047746|14307,25090537410|15120,27628047616|15120,27628047616|14307,25090537410|14307,25090537410|15120,27628047616|15120,27628047616|15120,27628047616|15120,27628047616|14307,25090537410|11403,81359348604|11403,81359348604|11403,81359348604|7416,34955306812
Buffalo                   |14307,25090537410|14307,25090537410|14307,25090537410|14307,25090537410|14307,25090537410|14307,25090537410|14307,25090537410|14307,25090537410|14307,25090537410|14307,25090537410|15120,27628047616|14307,25090537410|11403,81359348604|6495,02459049133|6495,02459049133|6213,31325047746|  0,00000000000|14307,25090537410|15120,27628047616|15120,27628047616|14307,25090537410|14307,25090537410|15120,27628047616|15120,27628047616|15120,27628047616|15120,27628047616|14307,25090537410|11403,81359348604|11403,81359348604|11403,81359348604|7416,34955306812
Wolf                      |14177,75889084297|14177,75889084297|14177,75889084297|14177,75889084297|14177,75889084297|14177,75889084297|14177,75889084297|14177,75889084297|14177,75889084297|14177,75889084297|15120,27628047616|3553,84359913856|14307,25090537410|14307,25090537410|14307,25090537410|14307,25090537410|14307,25090537410|  0,00000000000|15120,27628047616|15120,27628047616|14177,75889084297|14177,75889084297|15120,27628047616|15120,27628047616|15120,27628047616|15120,27628047616|14177,75889084297|14307,25090537410|14307,25090537410|14307,25090537410|14307,25090537410
Tiger                     |15120,27628047616|15120,27628047616|15120,27628047616|15120,27628047616|15120,27628047616|15120,27628047616|15120,27628047616|15120,27628047616|15120,27628047616|15120,27628047616|6829,07562232094|15120,27628047616|15120,27628047616|15120,27628047616|15120,27628047616|15120,27628047616|15120,27628047616|15120,27628047616|  0,00000000000|5869,41498036132|15120,27628047616|15120,27628047616|11442,85014358431|11442,85014358431|11442,85014358431|11442,85014358431|15120,27628047616|15120,27628047616|15120,27628047616|15120,27628047616|15120,27628047616
Leopard                   |15120,27628047616|15120,27628047616|15120,27628047616|15120,27628047616|15120,27628047616|15120,27628047616|15120,27628047616|15120,27628047616|15120,27628047616|15120,27628047616|6829,07562232094|15120,27628047616|15120,27628047616|15120,27628047616|15120,27628047616|15120,27628047616|15120,27628047616|15120,27628047616|5869,41498036132|  0,00000000000|15120,27628047616|15120,27628047616|11442,85014358431|11442,85014358431|11442,85014358431|11442,85014358431|15120,27628047616|15120,27628047616|15120,27628047616|15120,27628047616|15120,27628047616
Indian_Rhino              |13389,32459211371|13389,32459211371|13389,32459211371|13389,32459211371|13389,32459211371|13389,32459211371|13389,32459211371|13389,32459211371|13389,32459211371|13389,32459211371|15120,27628047616|14177,75889084297|14307,25090537410|14307,25090537410|14307,25090537410|14307,25090537410|14307,25090537410|14177,75889084297|15120,27628047616|15120,27628047616|  0,00000000000|5668,62595780505|15120,27628047616|15120,27628047616|15120,27628047616|15120,27628047616|13936,23527054339|14307,25090537410|14307,25090537410|14307,25090537410|14307,25090537410
White_Rhino               |13389,32459211371|13389,32459211371|13389,32459211371|13389,32459211371|13389,32459211371|13389,32459211371|13389,32459211371|13389,32459211371|13389,32459211371|13389,32459211371|15120,27628047616|14177,75889084297|14307,25090537410|14307,25090537410|14307,25090537410|14307,25090537410|14307,25090537410|14177,75889084297|15120,27628047616|15120,27628047616|5668,62595780505|  0,00000000000|15120,27628047616|15120,27628047616|15120,27628047616|15120,27628047616|13936,23527054339|14307,25090537410|14307,25090537410|14307,25090537410|14307,25090537410
Black_Bear                |15120,27628047616|15120,27628047616|15120,27628047616|15120,27628047616|15120,27628047616|15120,27628047616|15120,27628047616|15120,27628047616|15120,27628047616|15120,27628047616|11442,85014358431|15120,27628047616|15120,27628047616|15120,27628047616|15120,27628047616|15120,27628047616|15120,27628047616|15120,27628047616|11442,85014358431|11442,85014358431|15120,27628047616|15120,27628047616|  0,00000000000|10561,22439441955|10561,22439441955|10561,22439441955|15120,27628047616|15120,27628047616|15120,27628047616|15120,27628047616|15120,27628047616
Brown_Bear                |15120,27628047616|15120,27628047616|15120,27628047616|15120,27628047616|15120,27628047616|15120,27628047616|15120,27628047616|15120,27628047616|15120,27628047616|15120,27628047616|11442,85014358431|15120,27628047616|15120,27628047616|15120,27628047616|15120,27628047616|15120,27628047616|15120,27628047616|15120,27628047616|11442,85014358431|11442,85014358431|15120,27628047616|15120,27628047616|10561,22439441955|  0,00000000000|3703,48352583344|8410,47737154771|15120,27628047616|15120,27628047616|15120,27628047616|15120,27628047616|15120,27628047616
Polar_Bear                |15120,27628047616|15120,27628047616|15120,27628047616|15120,27628047616|15120,27628047616|15120,27628047616|15120,27628047616|15120,27628047616|15120,27628047616|15120,27628047616|11442,85014358431|15120,27628047616|15120,27628047616|15120,27628047616|15120,27628047616|15120,27628047616|15120,27628047616|15120,27628047616|11442,85014358431|11442,85014358431|15120,27628047616|15120,27628047616|10561,22439441955|3703,48352583344|  0,00000000000|8410,47737154771|15120,27628047616|15120,27628047616|15120,27628047616|15120,27628047616|15120,27628047616
Giant_Panda               |15120,27628047616|15120,27628047616|15120,27628047616|15120,27628047616|15120,27628047616|15120,27628047616|15120,27628047616|15120,27628047616|15120,27628047616|15120,27628047616|11442,85014358431|15120,27628047616|15120,27628047616|15120,27628047616|15120,27628047616|15120,27628047616|15120,27628047616|15120,27628047616|11442,85014358431|11442,85014358431|15120,27628047616|15120,27628047616|10561,22439441955|8410,47737154771|8410,47737154771|  0,00000000000|15120,27628047616|15120,27628047616|15120,27628047616|15120,27628047616|15120,27628047616
Rabbit                    |13936,23527054339|13936,23527054339|13936,23527054339|13936,23527054339|13936,23527054339|13936,23527054339|13936,23527054339|13936,23527054339|13936,23527054339|13936,23527054339|15120,27628047616|14177,75889084297|14307,25090537410|14307,25090537410|14307,25090537410|14307,25090537410|14307,25090537410|14177,75889084297|15120,27628047616|15120,27628047616|13936,23527054339|13936,23527054339|15120,27628047616|15120,27628047616|15120,27628047616|15120,27628047616|  0,00000000000|14307,25090537410|14307,25090537410|14307,25090537410|14307,25090537410
Hedgehog                  |14307,25090537410|14307,25090537410|14307,25090537410|14307,25090537410|14307,25090537410|14307,25090537410|14307,25090537410|14307,25090537410|14307,25090537410|14307,25090537410|15120,27628047616|14307,25090537410|10955,17301003288|11403,81359348604|11403,81359348604|11403,81359348604|11403,81359348604|14307,25090537410|15120,27628047616|15120,27628047616|14307,25090537410|14307,25090537410|15120,27628047616|15120,27628047616|15120,27628047616|15120,27628047616|14307,25090537410|  0,00000000000|9024,83008571632|9551,06589662854|11403,81359348604
Dormouse                  |14307,25090537410|14307,25090537410|14307,25090537410|14307,25090537410|14307,25090537410|14307,25090537410|14307,25090537410|14307,25090537410|14307,25090537410|14307,25090537410|15120,27628047616|14307,25090537410|10955,17301003288|11403,81359348604|11403,81359348604|11403,81359348604|11403,81359348604|14307,25090537410|15120,27628047616|15120,27628047616|14307,25090537410|14307,25090537410|15120,27628047616|15120,27628047616|15120,27628047616|15120,27628047616|14307,25090537410|9024,83008571632|  0,00000000000|9551,06589662854|11403,81359348604
Squirrel                  |14307,25090537410|14307,25090537410|14307,25090537410|14307,25090537410|14307,25090537410|14307,25090537410|14307,25090537410|14307,25090537410|14307,25090537410|14307,25090537410|15120,27628047616|14307,25090537410|10955,17301003288|11403,81359348604|11403,81359348604|11403,81359348604|11403,81359348604|14307,25090537410|15120,27628047616|15120,27628047616|14307,25090537410|14307,25090537410|15120,27628047616|15120,27628047616|15120,27628047616|15120,27628047616|14307,25090537410|9551,06589662854|9551,06589662854|  0,00000000000|11403,81359348604
Blue_Whale                |14307,25090537410|14307,25090537410|14307,25090537410|14307,25090537410|14307,25090537410|14307,25090537410|14307,25090537410|14307,25090537410|14307,25090537410|14307,25090537410|15120,27628047616|14307,25090537410|11403,81359348604|7416,34955306812|7416,34955306812|7416,34955306812|7416,34955306812|14307,25090537410|15120,27628047616|15120,27628047616|14307,25090537410|14307,25090537410|15120,27628047616|15120,27628047616|15120,27628047616|15120,27628047616|14307,25090537410|11403,81359348604|11403,81359348604|11403,81359348604|  0,00000000000
                           |Human          |Pig_Chim       |Com_Chim       |Gibbon         |Baboon         |Ver_Monkey     |Macaca_Thibet  |Bor_Oran       |Sum_Oran       |Gorilla        |Cat            |Dog            |Pig            |Sheep          |Goat           |Cow            |Buffalo        |Wolf           |Tiger          |Leopard        |Indian_Rhino   |White_Rhino    |Black_Bear     |Brown_Bear     |Polar_Bear     |Giant_Panda    |Rabbit         |Hedgehog       |Dormouse       |Squirrel       |Blue_Whale     
Human                     |  0,00000000000|  7,02353830331|  7,02353830331|  7,89830271288|  8,55040647791|  8,55040647791|  8,55040647791|  7,89830271288|  7,89830271288|  7,05588925945| 10,68218066704| 10,31145215643| 10,36238636964| 10,36238636964| 10,36238636964| 10,36238636964| 10,36238636964| 10,31145215643| 10,68218066704| 10,68218066704| 10,00133047963| 10,00133047963| 10,68218066704| 10,68218066704| 10,68218066704| 10,68218066704| 10,21645158347| 10,36238636964| 10,36238636964| 10,36238636964| 10,36238636964
Pig_Chim                  |  7,02353830331|  0,00000000000|  6,19579895490|  7,89830271288|  8,55040647791|  8,55040647791|  8,55040647791|  7,89830271288|  7,89830271288|  7,05588925945| 10,68218066704| 10,31145215643| 10,36238636964| 10,36238636964| 10,36238636964| 10,36238636964| 10,36238636964| 10,31145215643| 10,68218066704| 10,68218066704| 10,00133047963| 10,00133047963| 10,68218066704| 10,68218066704| 10,68218066704| 10,68218066704| 10,21645158347| 10,36238636964| 10,36238636964| 10,36238636964| 10,36238636964
Com_Chim                  |  7,02353830331|  6,19579895490|  0,00000000000|  7,89830271288|  8,55040647791|  8,55040647791|  8,55040647791|  7,89830271288|  7,89830271288|  7,05588925945| 10,68218066704| 10,31145215643| 10,36238636964| 10,36238636964| 10,36238636964| 10,36238636964| 10,36238636964| 10,31145215643| 10,68218066704| 10,68218066704| 10,00133047963| 10,00133047963| 10,68218066704| 10,68218066704| 10,68218066704| 10,68218066704| 10,21645158347| 10,36238636964| 10,36238636964| 10,36238636964| 10,36238636964
Gibbon                    |  7,89830271288|  7,89830271288|  7,89830271288|  0,00000000000|  8,55040647791|  8,55040647791|  8,55040647791|  7,55953401748|  7,55953401748|  7,89830271288| 10,68218066704| 10,31145215643| 10,36238636964| 10,36238636964| 10,36238636964| 10,36238636964| 10,36238636964| 10,31145215643| 10,68218066704| 10,68218066704| 10,00133047963| 10,00133047963| 10,68218066704| 10,68218066704| 10,68218066704| 10,68218066704| 10,21645158347| 10,36238636964| 10,36238636964| 10,36238636964| 10,36238636964
Baboon                    |  8,55040647791|  8,55040647791|  8,55040647791|  8,55040647791|  0,00000000000|  7,68302917285|  7,36333327742|  8,55040647791|  8,55040647791|  8,55040647791| 10,68218066704| 10,31145215643| 10,36238636964| 10,36238636964| 10,36238636964| 10,36238636964| 10,36238636964| 10,31145215643| 10,68218066704| 10,68218066704| 10,00133047963| 10,00133047963| 10,68218066704| 10,68218066704| 10,68218066704| 10,68218066704| 10,21645158347| 10,36238636964| 10,36238636964| 10,36238636964| 10,36238636964
Ver_Monkey                |  8,55040647791|  8,55040647791|  8,55040647791|  8,55040647791|  7,68302917285|  0,00000000000|  7,68302917285|  8,55040647791|  8,55040647791|  8,55040647791| 10,68218066704| 10,31145215643| 10,36238636964| 10,36238636964| 10,36238636964| 10,36238636964| 10,36238636964| 10,31145215643| 10,68218066704| 10,68218066704| 10,00133047963| 10,00133047963| 10,68218066704| 10,68218066704| 10,68218066704| 10,68218066704| 10,21645158347| 10,36238636964| 10,36238636964| 10,36238636964| 10,36238636964
Macaca_Thibet             |  8,55040647791|  8,55040647791|  8,55040647791|  8,55040647791|  7,36333327742|  7,68302917285|  0,00000000000|  8,55040647791|  8,55040647791|  8,55040647791| 10,68218066704| 10,31145215643| 10,36238636964| 10,36238636964| 10,36238636964| 10,36238636964| 10,36238636964| 10,31145215643| 10,68218066704| 10,68218066704| 10,00133047963| 10,00133047963| 10,68218066704| 10,68218066704| 10,68218066704| 10,68218066704| 10,21645158347| 10,36238636964| 10,36238636964| 10,36238636964| 10,36238636964
Bor_Oran                  |  7,89830271288|  7,89830271288|  7,89830271288|  7,55953401748|  8,55040647791|  8,55040647791|  8,55040647791|  0,00000000000|  6,76424608776|  7,89830271288| 10,68218066704| 10,31145215643| 10,36238636964| 10,36238636964| 10,36238636964| 10,36238636964| 10,36238636964| 10,31145215643| 10,68218066704| 10,68218066704| 10,00133047963| 10,00133047963| 10,68218066704| 10,68218066704| 10,68218066704| 10,68218066704| 10,21645158347| 10,36238636964| 10,36238636964| 10,36238636964| 10,36238636964
Sum_Oran                  |  7,89830271288|  7,89830271288|  7,89830271288|  7,55953401748|  8,55040647791|  8,55040647791|  8,55040647791|  6,76424608776|  0,00000000000|  7,89830271288| 10,68218066704| 10,31145215643| 10,36238636964| 10,36238636964| 10,36238636964| 10,36238636964| 10,36238636964| 10,31145215643| 10,68218066704| 10,68218066704| 10,00133047963| 10,00133047963| 10,68218066704| 10,68218066704| 10,68218066704| 10,68218066704| 10,21645158347| 10,36238636964| 10,36238636964| 10,36238636964| 10,36238636964
Gorilla                   |  7,05588925945|  7,05588925945|  7,05588925945|  7,89830271288|  8,55040647791|  8,55040647791|  8,55040647791|  7,89830271288|  7,89830271288|  0,00000000000| 10,68218066704| 10,31145215643| 10,36238636964| 10,36238636964| 10,36238636964| 10,36238636964| 10,36238636964| 10,31145215643| 10,68218066704| 10,68218066704| 10,00133047963| 10,00133047963| 10,68218066704| 10,68218066704| 10,68218066704| 10,68218066704| 10,21645158347| 10,36238636964| 10,36238636964| 10,36238636964| 10,36238636964
Cat                       | 10,68218066704| 10,68218066704| 10,68218066704| 10,68218066704| 10,68218066704| 10,68218066704| 10,68218066704| 10,68218066704| 10,68218066704| 10,68218066704|  0,00000000000| 10,68218066704| 10,68218066704| 10,68218066704| 10,68218066704| 10,68218066704| 10,68218066704| 10,68218066704|  7,42093105507|  7,42093105507| 10,68218066704| 10,68218066704|  9,23570686229|  9,23570686229|  9,23570686229|  9,23570686229| 10,68218066704| 10,68218066704| 10,68218066704| 10,68218066704| 10,68218066704
Dog                       | 10,31145215643| 10,31145215643| 10,31145215643| 10,31145215643| 10,31145215643| 10,31145215643| 10,31145215643| 10,31145215643| 10,31145215643| 10,31145215643| 10,68218066704|  0,00000000000| 10,36238636964| 10,36238636964| 10,36238636964| 10,36238636964| 10,36238636964|  6,13265573704| 10,68218066704| 10,68218066704| 10,31145215643| 10,31145215643| 10,68218066704| 10,68218066704| 10,68218066704| 10,68218066704| 10,31145215643| 10,36238636964| 10,36238636964| 10,36238636964| 10,36238636964
Pig                       | 10,36238636964| 10,36238636964| 10,36238636964| 10,36238636964| 10,36238636964| 10,36238636964| 10,36238636964| 10,36238636964| 10,36238636964| 10,36238636964| 10,68218066704| 10,36238636964|  0,00000000000|  9,22035227866|  9,22035227866|  9,22035227866|  9,22035227866| 10,36238636964| 10,68218066704| 10,68218066704| 10,36238636964| 10,36238636964| 10,68218066704| 10,68218066704| 10,68218066704| 10,68218066704| 10,36238636964|  9,04388460057|  9,04388460057|  9,04388460057|  9,22035227866
Sheep                     | 10,36238636964| 10,36238636964| 10,36238636964| 10,36238636964| 10,36238636964| 10,36238636964| 10,36238636964| 10,36238636964| 10,36238636964| 10,36238636964| 10,68218066704| 10,36238636964|  9,22035227866|  0,00000000000|  6,88204539001|  7,28953587567|  7,28953587567| 10,36238636964| 10,68218066704| 10,68218066704| 10,36238636964| 10,36238636964| 10,68218066704| 10,68218066704| 10,68218066704| 10,68218066704| 10,36238636964|  9,22035227866|  9,22035227866|  9,22035227866|  7,65192858580
Goat                      | 10,36238636964| 10,36238636964| 10,36238636964| 10,36238636964| 10,36238636964| 10,36238636964| 10,36238636964| 10,36238636964| 10,36238636964| 10,36238636964| 10,68218066704| 10,36238636964|  9,22035227866|  6,88204539001|  0,00000000000|  7,28953587567|  7,28953587567| 10,36238636964| 10,68218066704| 10,68218066704| 10,36238636964| 10,36238636964| 10,68218066704| 10,68218066704| 10,68218066704| 10,68218066704| 10,36238636964|  9,22035227866|  9,22035227866|  9,22035227866|  7,65192858580
Cow                       | 10,36238636964| 10,36238636964| 10,36238636964| 10,36238636964| 10,36238636964| 10,36238636964| 10,36238636964| 10,36238636964| 10,36238636964| 10,36238636964| 10,68218066704| 10,36238636964|  9,22035227866|  7,28953587567|  7,28953587567|  0,00000000000|  7,17872791960| 10,36238636964| 10,68218066704| 10,68218066704| 10,36238636964| 10,36238636964| 10,68218066704| 10,68218066704| 10,68218066704| 10,68218066704| 10,36238636964|  9,22035227866|  9,22035227866|  9,22035227866|  7,65192858580
Buffalo                   | 10,36238636964| 10,36238636964| 10,36238636964| 10,36238636964| 10,36238636964| 10,36238636964| 10,36238636964| 10,36238636964| 10,36238636964| 10,36238636964| 10,68218066704| 10,36238636964|  9,22035227866|  7,28953587567|  7,28953587567|  7,17872791960|  0,00000000000| 10,36238636964| 10,68218066704| 10,68218066704| 10,36238636964| 10,36238636964| 10,68218066704| 10,68218066704| 10,68218066704| 10,68218066704| 10,36238636964|  9,22035227866|  9,22035227866|  9,22035227866|  7,65192858580
Wolf                      | 10,31145215643| 10,31145215643| 10,31145215643| 10,31145215643| 10,31145215643| 10,31145215643| 10,31145215643| 10,31145215643| 10,31145215643| 10,31145215643| 10,68218066704|  6,13265573704| 10,36238636964| 10,36238636964| 10,36238636964| 10,36238636964| 10,36238636964|  0,00000000000| 10,68218066704| 10,68218066704| 10,31145215643| 10,31145215643| 10,68218066704| 10,68218066704| 10,68218066704| 10,68218066704| 10,31145215643| 10,36238636964| 10,36238636964| 10,36238636964| 10,36238636964
Tiger                     | 10,68218066704| 10,68218066704| 10,68218066704| 10,68218066704| 10,68218066704| 10,68218066704| 10,68218066704| 10,68218066704| 10,68218066704| 10,68218066704|  7,42093105507| 10,68218066704| 10,68218066704| 10,68218066704| 10,68218066704| 10,68218066704| 10,68218066704| 10,68218066704|  0,00000000000|  7,04345944086| 10,68218066704| 10,68218066704|  9,23570686229|  9,23570686229|  9,23570686229|  9,23570686229| 10,68218066704| 10,68218066704| 10,68218066704| 10,68218066704| 10,68218066704
Leopard                   | 10,68218066704| 10,68218066704| 10,68218066704| 10,68218066704| 10,68218066704| 10,68218066704| 10,68218066704| 10,68218066704| 10,68218066704| 10,68218066704|  7,42093105507| 10,68218066704| 10,68218066704| 10,68218066704| 10,68218066704| 10,68218066704| 10,68218066704| 10,68218066704|  7,04345944086|  0,00000000000| 10,68218066704| 10,68218066704|  9,23570686229|  9,23570686229|  9,23570686229|  9,23570686229| 10,68218066704| 10,68218066704| 10,68218066704| 10,68218066704| 10,68218066704
Indian_Rhino              | 10,00133047963| 10,00133047963| 10,00133047963| 10,00133047963| 10,00133047963| 10,00133047963| 10,00133047963| 10,00133047963| 10,00133047963| 10,00133047963| 10,68218066704| 10,31145215643| 10,36238636964| 10,36238636964| 10,36238636964| 10,36238636964| 10,36238636964| 10,31145215643| 10,68218066704| 10,68218066704|  0,00000000000|  6,96448135929| 10,68218066704| 10,68218066704| 10,68218066704| 10,68218066704| 10,21645158347| 10,36238636964| 10,36238636964| 10,36238636964| 10,36238636964
White_Rhino               | 10,00133047963| 10,00133047963| 10,00133047963| 10,00133047963| 10,00133047963| 10,00133047963| 10,00133047963| 10,00133047963| 10,00133047963| 10,00133047963| 10,68218066704| 10,31145215643| 10,36238636964| 10,36238636964| 10,36238636964| 10,36238636964| 10,36238636964| 10,31145215643| 10,68218066704| 10,68218066704|  6,96448135929|  0,00000000000| 10,68218066704| 10,68218066704| 10,68218066704| 10,68218066704| 10,21645158347| 10,36238636964| 10,36238636964| 10,36238636964| 10,36238636964
Black_Bear                | 10,68218066704| 10,68218066704| 10,68218066704| 10,68218066704| 10,68218066704| 10,68218066704| 10,68218066704| 10,68218066704| 10,68218066704| 10,68218066704|  9,23570686229| 10,68218066704| 10,68218066704| 10,68218066704| 10,68218066704| 10,68218066704| 10,68218066704| 10,68218066704|  9,23570686229|  9,23570686229| 10,68218066704| 10,68218066704|  0,00000000000|  8,88892938688|  8,88892938688|  8,88892938688| 10,68218066704| 10,68218066704| 10,68218066704| 10,68218066704| 10,68218066704
Brown_Bear                | 10,68218066704| 10,68218066704| 10,68218066704| 10,68218066704| 10,68218066704| 10,68218066704| 10,68218066704| 10,68218066704| 10,68218066704| 10,68218066704|  9,23570686229| 10,68218066704| 10,68218066704| 10,68218066704| 10,68218066704| 10,68218066704| 10,68218066704| 10,68218066704|  9,23570686229|  9,23570686229| 10,68218066704| 10,68218066704|  8,88892938688|  0,00000000000|  6,19151490268|  8,04295747244| 10,68218066704| 10,68218066704| 10,68218066704| 10,68218066704| 10,68218066704
Polar_Bear                | 10,68218066704| 10,68218066704| 10,68218066704| 10,68218066704| 10,68218066704| 10,68218066704| 10,68218066704| 10,68218066704| 10,68218066704| 10,68218066704|  9,23570686229| 10,68218066704| 10,68218066704| 10,68218066704| 10,68218066704| 10,68218066704| 10,68218066704| 10,68218066704|  9,23570686229|  9,23570686229| 10,68218066704| 10,68218066704|  8,88892938688|  6,19151490268|  0,00000000000|  8,04295747244| 10,68218066704| 10,68218066704| 10,68218066704| 10,68218066704| 10,68218066704
Giant_Panda               | 10,68218066704| 10,68218066704| 10,68218066704| 10,68218066704| 10,68218066704| 10,68218066704| 10,68218066704| 10,68218066704| 10,68218066704| 10,68218066704|  9,23570686229| 10,68218066704| 10,68218066704| 10,68218066704| 10,68218066704| 10,68218066704| 10,68218066704| 10,68218066704|  9,23570686229|  9,23570686229| 10,68218066704| 10,68218066704|  8,88892938688|  8,04295747244|  8,04295747244|  0,00000000000| 10,68218066704| 10,68218066704| 10,68218066704| 10,68218066704| 10,68218066704
Rabbit                    | 10,21645158347| 10,21645158347| 10,21645158347| 10,21645158347| 10,21645158347| 10,21645158347| 10,21645158347| 10,21645158347| 10,21645158347| 10,21645158347| 10,68218066704| 10,31145215643| 10,36238636964| 10,36238636964| 10,36238636964| 10,36238636964| 10,36238636964| 10,31145215643| 10,68218066704| 10,68218066704| 10,21645158347| 10,21645158347| 10,68218066704| 10,68218066704| 10,68218066704| 10,68218066704|  0,00000000000| 10,36238636964| 10,36238636964| 10,36238636964| 10,36238636964
Hedgehog                  | 10,36238636964| 10,36238636964| 10,36238636964| 10,36238636964| 10,36238636964| 10,36238636964| 10,36238636964| 10,36238636964| 10,36238636964| 10,36238636964| 10,68218066704| 10,36238636964|  9,04388460057|  9,22035227866|  9,22035227866|  9,22035227866|  9,22035227866| 10,36238636964| 10,68218066704| 10,68218066704| 10,36238636964| 10,36238636964| 10,68218066704| 10,68218066704| 10,68218066704| 10,68218066704| 10,36238636964|  0,00000000000|  8,28460613507|  8,49159501460|  9,22035227866
Dormouse                  | 10,36238636964| 10,36238636964| 10,36238636964| 10,36238636964| 10,36238636964| 10,36238636964| 10,36238636964| 10,36238636964| 10,36238636964| 10,36238636964| 10,68218066704| 10,36238636964|  9,04388460057|  9,22035227866|  9,22035227866|  9,22035227866|  9,22035227866| 10,36238636964| 10,68218066704| 10,68218066704| 10,36238636964| 10,36238636964| 10,68218066704| 10,68218066704| 10,68218066704| 10,68218066704| 10,36238636964|  8,28460613507|  0,00000000000|  8,49159501460|  9,22035227866
Squirrel                  | 10,36238636964| 10,36238636964| 10,36238636964| 10,36238636964| 10,36238636964| 10,36238636964| 10,36238636964| 10,36238636964| 10,36238636964| 10,36238636964| 10,68218066704| 10,36238636964|  9,04388460057|  9,22035227866|  9,22035227866|  9,22035227866|  9,22035227866| 10,36238636964| 10,68218066704| 10,68218066704| 10,36238636964| 10,36238636964| 10,68218066704| 10,68218066704| 10,68218066704| 10,68218066704| 10,36238636964|  8,49159501460|  8,49159501460|  0,00000000000|  9,22035227866
Blue_Whale                | 10,36238636964| 10,36238636964| 10,36238636964| 10,36238636964| 10,36238636964| 10,36238636964| 10,36238636964| 10,36238636964| 10,36238636964| 10,36238636964| 10,68218066704| 10,36238636964|  9,22035227866|  7,65192858580|  7,65192858580|  7,65192858580|  7,65192858580| 10,36238636964| 10,68218066704| 10,68218066704| 10,36238636964| 10,36238636964| 10,68218066704| 10,68218066704| 10,68218066704| 10,68218066704| 10,36238636964|  9,22035227866|  9,22035227866|  9,22035227866|  0,00000000000
                           |Human          |Pig_Chim       |Com_Chim       |Gibbon         |Baboon         |Ver_Monkey     |Macaca_Thibet  |Bor_Oran       |Sum_Oran       |Gorilla        |Cat            |Dog            |Pig            |Sheep          |Goat           |Cow            |Buffalo        |Wolf           |Tiger          |Leopard        |Indian_Rhino   |White_Rhino    |Black_Bear     |Brown_Bear     |Polar_Bear     |Giant_Panda    |Rabbit         |Hedgehog       |Dormouse       |Squirrel       |Blue_Whale     
Human                     |  0,00000000000|  3,00000000000|  3,00000000000|  5,00000000000|  7,00000000000|  6,00000000000|  7,00000000000|  6,00000000000|  6,00000000000|  3,00000000000| 12,00000000000|  9,00000000000| 11,00000000000| 13,00000000000| 13,00000000000| 13,00000000000| 13,00000000000|  9,00000000000| 13,00000000000| 13,00000000000|  7,00000000000|  7,00000000000| 12,00000000000| 14,00000000000| 14,00000000000| 13,00000000000|  7,00000000000| 13,00000000000| 13,00000000000| 12,00000000000| 11,00000000000
Pig_Chim                  |  3,00000000000|  0,00000000000|  2,00000000000|  6,00000000000|  8,00000000000|  7,00000000000|  8,00000000000|  7,00000000000|  7,00000000000|  4,00000000000| 13,00000000000| 10,00000000000| 12,00000000000| 14,00000000000| 14,00000000000| 14,00000000000| 14,00000000000| 10,00000000000| 14,00000000000| 14,00000000000|  8,00000000000|  8,00000000000| 13,00000000000| 15,00000000000| 15,00000000000| 14,00000000000|  8,00000000000| 14,00000000000| 14,00000000000| 13,00000000000| 12,00000000000
Com_Chim                  |  3,00000000000|  2,00000000000|  0,00000000000|  6,00000000000|  8,00000000000|  7,00000000000|  8,00000000000|  7,00000000000|  7,00000000000|  4,00000000000| 13,00000000000| 10,00000000000| 12,00000000000| 14,00000000000| 14,00000000000| 14,00000000000| 14,00000000000| 10,00000000000| 14,00000000000| 14,00000000000|  8,00000000000|  8,00000000000| 13,00000000000| 15,00000000000| 15,00000000000| 14,00000000000|  8,00000000000| 14,00000000000| 14,00000000000| 13,00000000000| 12,00000000000
Gibbon                    |  5,00000000000|  6,00000000000|  6,00000000000|  0,00000000000|  6,00000000000|  5,00000000000|  6,00000000000|  3,00000000000|  3,00000000000|  4,00000000000| 11,00000000000|  8,00000000000| 10,00000000000| 12,00000000000| 12,00000000000| 12,00000000000| 12,00000000000|  8,00000000000| 12,00000000000| 12,00000000000|  6,00000000000|  6,00000000000| 11,00000000000| 13,00000000000| 13,00000000000| 12,00000000000|  6,00000000000| 12,00000000000| 12,00000000000| 11,00000000000| 10,00000000000
Baboon                    |  7,00000000000|  8,00000000000|  8,00000000000|  6,00000000000|  0,00000000000|  3,00000000000|  2,00000000000|  7,00000000000|  7,00000000000|  6,00000000000| 11,00000000000|  8,00000000000| 10,00000000000| 12,00000000000| 12,00000000000| 12,00000000000| 12,00000000000|  8,00000000000| 12,00000000000| 12,00000000000|  6,00000000000|  6,00000000000| 11,00000000000| 13,00000000000| 13,00000000000| 12,00000000000|  6,00000000000| 12,00000000000| 12,00000000000| 11,00000000000| 10,00000000000
Ver_Monkey                |  6,00000000000|  7,00000000000|  7,00000000000|  5,00000000000|  3,00000000000|  0,00000000000|  3,00000000000|  6,00000000000|  6,00000000000|  5,00000000000| 10,00000000000|  7,00000000000|  9,00000000000| 11,00000000000| 11,00000000000| 11,00000000000| 11,00000000000|  7,00000000000| 11,00000000000| 11,00000000000|  5,00000000000|  5,00000000000| 10,00000000000| 12,00000000000| 12,00000000000| 11,00000000000|  5,00000000000| 11,00000000000| 11,00000000000| 10,00000000000|  9,00000000000
Macaca_Thibet             |  7,00000000000|  8,00000000000|  8,00000000000|  6,00000000000|  2,00000000000|  3,00000000000|  0,00000000000|  7,00000000000|  7,00000000000|  6,00000000000| 11,00000000000|  8,00000000000| 10,00000000000| 12,00000000000| 12,00000000000| 12,00000000000| 12,00000000000|  8,00000000000| 12,00000000000| 12,00000000000|  6,00000000000|  6,00000000000| 11,00000000000| 13,00000000000| 13,00000000000| 12,00000000000|  6,00000000000| 12,00000000000| 12,00000000000| 11,00000000000| 10,00000000000
Bor_Oran                  |  6,00000000000|  7,00000000000|  7,00000000000|  3,00000000000|  7,00000000000|  6,00000000000|  7,00000000000|  0,00000000000|  2,00000000000|  5,00000000000| 12,00000000000|  9,00000000000| 11,00000000000| 13,00000000000| 13,00000000000| 13,00000000000| 13,00000000000|  9,00000000000| 13,00000000000| 13,00000000000|  7,00000000000|  7,00000000000| 12,00000000000| 14,00000000000| 14,00000000000| 13,00000000000|  7,00000000000| 13,00000000000| 13,00000000000| 12,00000000000| 11,00000000000
Sum_Oran                  |  6,00000000000|  7,00000000000|  7,00000000000|  3,00000000000|  7,00000000000|  6,00000000000|  7,00000000000|  2,00000000000|  0,00000000000|  5,00000000000| 12,00000000000|  9,00000000000| 11,00000000000| 13,00000000000| 13,00000000000| 13,00000000000| 13,00000000000|  9,00000000000| 13,00000000000| 13,00000000000|  7,00000000000|  7,00000000000| 12,00000000000| 14,00000000000| 14,00000000000| 13,00000000000|  7,00000000000| 13,00000000000| 13,00000000000| 12,00000000000| 11,00000000000
Gorilla                   |  3,00000000000|  4,00000000000|  4,00000000000|  4,00000000000|  6,00000000000|  5,00000000000|  6,00000000000|  5,00000000000|  5,00000000000|  0,00000000000| 11,00000000000|  8,00000000000| 10,00000000000| 12,00000000000| 12,00000000000| 12,00000000000| 12,00000000000|  8,00000000000| 12,00000000000| 12,00000000000|  6,00000000000|  6,00000000000| 11,00000000000| 13,00000000000| 13,00000000000| 12,00000000000|  6,00000000000| 12,00000000000| 12,00000000000| 11,00000000000| 10,00000000000
Cat                       | 12,00000000000| 13,00000000000| 13,00000000000| 11,00000000000| 11,00000000000| 10,00000000000| 11,00000000000| 12,00000000000| 12,00000000000| 11,00000000000|  0,00000000000|  7,00000000000|  7,00000000000|  9,00000000000|  9,00000000000|  9,00000000000|  9,00000000000|  7,00000000000|  3,00000000000|  3,00000000000|  9,00000000000|  9,00000000000|  4,00000000000|  6,00000000000|  6,00000000000|  5,00000000000|  7,00000000000|  9,00000000000|  9,00000000000|  8,00000000000|  7,00000000000
Dog                       |  9,00000000000| 10,00000000000| 10,00000000000|  8,00000000000|  8,00000000000|  7,00000000000|  8,00000000000|  9,00000000000|  9,00000000000|  8,00000000000|  7,00000000000|  0,00000000000|  6,00000000000|  8,00000000000|  8,00000000000|  8,00000000000|  8,00000000000|  2,00000000000|  8,00000000000|  8,00000000000|  6,00000000000|  6,00000000000|  7,00000000000|  9,00000000000|  9,00000000000|  8,00000000000|  4,00000000000|  8,00000000000|  8,00000000000|  7,00000000000|  6,00000000000
Pig                       | 11,00000000000| 12,00000000000| 12,00000000000| 10,00000000000| 10,00000000000|  9,00000000000| 10,00000000000| 11,00000000000| 11,00000000000| 10,00000000000|  7,00000000000|  6,00000000000|  0,00000000000|  6,00000000000|  6,00000000000|  6,00000000000|  6,00000000000|  6,00000000000|  8,00000000000|  8,00000000000|  8,00000000000|  8,00000000000|  7,00000000000|  9,00000000000|  9,00000000000|  8,00000000000|  6,00000000000|  4,00000000000|  4,00000000000|  3,00000000000|  4,00000000000
Sheep                     | 13,00000000000| 14,00000000000| 14,00000000000| 12,00000000000| 12,00000000000| 11,00000000000| 12,00000000000| 13,00000000000| 13,00000000000| 12,00000000000|  9,00000000000|  8,00000000000|  6,00000000000|  0,00000000000|  2,00000000000|  4,00000000000|  4,00000000000|  8,00000000000| 10,00000000000| 10,00000000000| 10,00000000000| 10,00000000000|  9,00000000000| 11,00000000000| 11,00000000000| 10,00000000000|  8,00000000000|  8,00000000000|  8,00000000000|  7,00000000000|  4,00000000000
Goat                      | 13,00000000000| 14,00000000000| 14,00000000000| 12,00000000000| 12,00000000000| 11,00000000000| 12,00000000000| 13,00000000000| 13,00000000000| 12,00000000000|  9,00000000000|  8,00000000000|  6,00000000000|  2,00000000000|  0,00000000000|  4,00000000000|  4,00000000000|  8,00000000000| 10,00000000000| 10,00000000000| 10,00000000000| 10,00000000000|  9,00000000000| 11,00000000000| 11,00000000000| 10,00000000000|  8,00000000000|  8,00000000000|  8,00000000000|  7,00000000000|  4,00000000000
Cow                       | 13,00000000000| 14,00000000000| 14,00000000000| 12,00000000000| 12,00000000000| 11,00000000000| 12,00000000000| 13,00000000000| 13,00000000000| 12,00000000000|  9,00000000000|  8,00000000000|  6,00000000000|  4,00000000000|  4,00000000000|  0,00000000000|  2,00000000000|  8,00000000000| 10,00000000000| 10,00000000000| 10,00000000000| 10,00000000000|  9,00000000000| 11,00000000000| 11,00000000000| 10,00000000000|  8,00000000000|  8,00000000000|  8,00000000000|  7,00000000000|  4,00000000000
Buffalo                   | 13,00000000000| 14,00000000000| 14,00000000000| 12,00000000000| 12,00000000000| 11,00000000000| 12,00000000000| 13,00000000000| 13,00000000000| 12,00000000000|  9,00000000000|  8,00000000000|  6,00000000000|  4,00000000000|  4,00000000000|  2,00000000000|  0,00000000000|  8,00000000000| 10,00000000000| 10,00000000000| 10,00000000000| 10,00000000000|  9,00000000000| 11,00000000000| 11,00000000000| 10,00000000000|  8,00000000000|  8,00000000000|  8,00000000000|  7,00000000000|  4,00000000000
Wolf                      |  9,00000000000| 10,00000000000| 10,00000000000|  8,00000000000|  8,00000000000|  7,00000000000|  8,00000000000|  9,00000000000|  9,00000000000|  8,00000000000|  7,00000000000|  2,00000000000|  6,00000000000|  8,00000000000|  8,00000000000|  8,00000000000|  8,00000000000|  0,00000000000|  8,00000000000|  8,00000000000|  6,00000000000|  6,00000000000|  7,00000000000|  9,00000000000|  9,00000000000|  8,00000000000|  4,00000000000|  8,00000000000|  8,00000000000|  7,00000000000|  6,00000000000
Tiger                     | 13,00000000000| 14,00000000000| 14,00000000000| 12,00000000000| 12,00000000000| 11,00000000000| 12,00000000000| 13,00000000000| 13,00000000000| 12,00000000000|  3,00000000000|  8,00000000000|  8,00000000000| 10,00000000000| 10,00000000000| 10,00000000000| 10,00000000000|  8,00000000000|  0,00000000000|  2,00000000000| 10,00000000000| 10,00000000000|  5,00000000000|  7,00000000000|  7,00000000000|  6,00000000000|  8,00000000000| 10,00000000000| 10,00000000000|  9,00000000000|  8,00000000000
Leopard                   | 13,00000000000| 14,00000000000| 14,00000000000| 12,00000000000| 12,00000000000| 11,00000000000| 12,00000000000| 13,00000000000| 13,00000000000| 12,00000000000|  3,00000000000|  8,00000000000|  8,00000000000| 10,00000000000| 10,00000000000| 10,00000000000| 10,00000000000|  8,00000000000|  2,00000000000|  0,00000000000| 10,00000000000| 10,00000000000|  5,00000000000|  7,00000000000|  7,00000000000|  6,00000000000|  8,00000000000| 10,00000000000| 10,00000000000|  9,00000000000|  8,00000000000
Indian_Rhino              |  7,00000000000|  8,00000000000|  8,00000000000|  6,00000000000|  6,00000000000|  5,00000000000|  6,00000000000|  7,00000000000|  7,00000000000|  6,00000000000|  9,00000000000|  6,00000000000|  8,00000000000| 10,00000000000| 10,00000000000| 10,00000000000| 10,00000000000|  6,00000000000| 10,00000000000| 10,00000000000|  0,00000000000|  2,00000000000|  9,00000000000| 11,00000000000| 11,00000000000| 10,00000000000|  4,00000000000| 10,00000000000| 10,00000000000|  9,00000000000|  8,00000000000
White_Rhino               |  7,00000000000|  8,00000000000|  8,00000000000|  6,00000000000|  6,00000000000|  5,00000000000|  6,00000000000|  7,00000000000|  7,00000000000|  6,00000000000|  9,00000000000|  6,00000000000|  8,00000000000| 10,00000000000| 10,00000000000| 10,00000000000| 10,00000000000|  6,00000000000| 10,00000000000| 10,00000000000|  2,00000000000|  0,00000000000|  9,00000000000| 11,00000000000| 11,00000000000| 10,00000000000|  4,00000000000| 10,00000000000| 10,00000000000|  9,00000000000|  8,00000000000
Black_Bear                | 12,00000000000| 13,00000000000| 13,00000000000| 11,00000000000| 11,00000000000| 10,00000000000| 11,00000000000| 12,00000000000| 12,00000000000| 11,00000000000|  4,00000000000|  7,00000000000|  7,00000000000|  9,00000000000|  9,00000000000|  9,00000000000|  9,00000000000|  7,00000000000|  5,00000000000|  5,00000000000|  9,00000000000|  9,00000000000|  0,00000000000|  4,00000000000|  4,00000000000|  3,00000000000|  7,00000000000|  9,00000000000|  9,00000000000|  8,00000000000|  7,00000000000
Brown_Bear                | 14,00000000000| 15,00000000000| 15,00000000000| 13,00000000000| 13,00000000000| 12,00000000000| 13,00000000000| 14,00000000000| 14,00000000000| 13,00000000000|  6,00000000000|  9,00000000000|  9,00000000000| 11,00000000000| 11,00000000000| 11,00000000000| 11,00000000000|  9,00000000000|  7,00000000000|  7,00000000000| 11,00000000000| 11,00000000000|  4,00000000000|  0,00000000000|  2,00000000000|  3,00000000000|  9,00000000000| 11,00000000000| 11,00000000000| 10,00000000000|  9,00000000000
Polar_Bear                | 14,00000000000| 15,00000000000| 15,00000000000| 13,00000000000| 13,00000000000| 12,00000000000| 13,00000000000| 14,00000000000| 14,00000000000| 13,00000000000|  6,00000000000|  9,00000000000|  9,00000000000| 11,00000000000| 11,00000000000| 11,00000000000| 11,00000000000|  9,00000000000|  7,00000000000|  7,00000000000| 11,00000000000| 11,00000000000|  4,00000000000|  2,00000000000|  0,00000000000|  3,00000000000|  9,00000000000| 11,00000000000| 11,00000000000| 10,00000000000|  9,00000000000
Giant_Panda               | 13,00000000000| 14,00000000000| 14,00000000000| 12,00000000000| 12,00000000000| 11,00000000000| 12,00000000000| 13,00000000000| 13,00000000000| 12,00000000000|  5,00000000000|  8,00000000000|  8,00000000000| 10,00000000000| 10,00000000000| 10,00000000000| 10,00000000000|  8,00000000000|  6,00000000000|  6,00000000000| 10,00000000000| 10,00000000000|  3,00000000000|  3,00000000000|  3,00000000000|  0,00000000000|  8,00000000000| 10,00000000000| 10,00000000000|  9,00000000000|  8,00000000000
Rabbit                    |  7,00000000000|  8,00000000000|  8,00000000000|  6,00000000000|  6,00000000000|  5,00000000000|  6,00000000000|  7,00000000000|  7,00000000000|  6,00000000000|  7,00000000000|  4,00000000000|  6,00000000000|  8,00000000000|  8,00000000000|  8,00000000000|  8,00000000000|  4,00000000000|  8,00000000000|  8,00000000000|  4,00000000000|  4,00000000000|  7,00000000000|  9,00000000000|  9,00000000000|  8,00000000000|  0,00000000000|  8,00000000000|  8,00000000000|  7,00000000000|  6,00000000000
Hedgehog                  | 13,00000000000| 14,00000000000| 14,00000000000| 12,00000000000| 12,00000000000| 11,00000000000| 12,00000000000| 13,00000000000| 13,00000000000| 12,00000000000|  9,00000000000|  8,00000000000|  4,00000000000|  8,00000000000|  8,00000000000|  8,00000000000|  8,00000000000|  8,00000000000| 10,00000000000| 10,00000000000| 10,00000000000| 10,00000000000|  9,00000000000| 11,00000000000| 11,00000000000| 10,00000000000|  8,00000000000|  0,00000000000|  2,00000000000|  3,00000000000|  6,00000000000
Dormouse                  | 13,00000000000| 14,00000000000| 14,00000000000| 12,00000000000| 12,00000000000| 11,00000000000| 12,00000000000| 13,00000000000| 13,00000000000| 12,00000000000|  9,00000000000|  8,00000000000|  4,00000000000|  8,00000000000|  8,00000000000|  8,00000000000|  8,00000000000|  8,00000000000| 10,00000000000| 10,00000000000| 10,00000000000| 10,00000000000|  9,00000000000| 11,00000000000| 11,00000000000| 10,00000000000|  8,00000000000|  2,00000000000|  0,00000000000|  3,00000000000|  6,00000000000
Squirrel                  | 12,00000000000| 13,00000000000| 13,00000000000| 11,00000000000| 11,00000000000| 10,00000000000| 11,00000000000| 12,00000000000| 12,00000000000| 11,00000000000|  8,00000000000|  7,00000000000|  3,00000000000|  7,00000000000|  7,00000000000|  7,00000000000|  7,00000000000|  7,00000000000|  9,00000000000|  9,00000000000|  9,00000000000|  9,00000000000|  8,00000000000| 10,00000000000| 10,00000000000|  9,00000000000|  7,00000000000|  3,00000000000|  3,00000000000|  0,00000000000|  5,00000000000
Blue_Whale                | 11,00000000000| 12,00000000000| 12,00000000000| 10,00000000000| 10,00000000000|  9,00000000000| 10,00000000000| 11,00000000000| 11,00000000000| 10,00000000000|  7,00000000000|  6,00000000000|  4,00000000000|  4,00000000000|  4,00000000000|  4,00000000000|  4,00000000000|  6,00000000000|  8,00000000000|  8,00000000000|  8,00000000000|  8,00000000000|  7,00000000000|  9,00000000000|  9,00000000000|  8,00000000000|  6,00000000000|  6,00000000000|  6,00000000000|  5,00000000000|  0,00000000000
