                           |Human          |Hum_shortened  |Pig_Chim       |Com_Chim       |Gibbon         |Baboon         |Ver_Monkey     |Macaca_Thibet  |Bor_Oran       |Sum_Oran       |Gorilla        |Cat            |Dog            |Pig            |Sheep          |Goat           |Cow            |Buffalo        |Wolf           |Tiger          |Leopard        |Indian_Rhino   |White_Rhino    |Black_Bear     |Brown_Bear     |Polar_Bear     |Giant_Panda    |Rabbit         |Hedgehog       |Dormouse       |Squirrel       |Blue_Whale     
Human                     |  0,00000000000|  8,95519518539|  8,75387017515|  8,75604497489|  9,00479186272|  9,22948619207|  9,16284412982|  9,14321022689|  9,09290006463|  9,31976580823|  8,83678785246| 10,29048105634|  9,94597944788|  9,52222167395|  9,35282440206|  9,36122286954|  9,58755511320|  9,35942609591|  9,92090415846| 10,33510069841| 10,59875084521|  9,35678373540|  9,54830018109| 10,31084082114| 12,27774198584| 12,28433795854| 10,82192930925|  9,69250416712| 10,98637632826| 10,14220125664|  9,96044104721|  9,53214819545
Hum_shortened             |  8,95519518539|  0,00000000000|  8,30469645724|  8,41289132011|  9,15304366724|  9,31975835198|  9,43555374656|  9,48174054465|  9,16877654436|  9,68743059563|  8,55313501824| 10,09807288687| 10,28283205312|  9,76101005952|  9,55466258116|  9,43210925324|  9,55843760189|  9,43422356578| 10,19907009043| 10,43636624199| 10,57700673114|  9,42665961790|  9,43113271747| 10,47161838071| 12,63409023146| 12,62432342595| 11,06914191371| 10,30503157148| 11,27333483109| 10,57839343226| 10,33597618937|  9,41482294121
Pig_Chim                  |  8,75387017515|  8,30469645724|  0,00000000000|  7,28138738297|  8,59039110910|  8,73042631983|  8,87987353279|  9,02086599653|  8,65038939051|  9,05383518857|  7,70770078272| 10,05937565967|  9,65634031245|  9,42650482919|  9,11464641137|  9,13264061660|  9,59140982943|  9,08228272599|  9,61872130369| 10,24069157313| 10,46738644075|  9,11401334295|  9,24608512946| 10,03429360993| 12,23573099753| 12,20974574691| 10,74942005923|  9,74443936302| 10,77971582811| 10,09546978547|  9,78194224714|  9,45329226593
Com_Chim                  |  8,75604497489|  8,41289132011|  7,28138738297|  0,00000000000|  8,45965484694|  8,66664206635|  8,82201834828|  8,96761201409|  8,68117678462|  9,02716516058|  7,51915856139| 10,12091310023|  9,49481373072|  9,50794718312|  9,12700544848|  9,21519873204|  9,79222313515|  9,13566122456|  9,48815128655| 10,18428095577| 10,43582364816|  9,21216090505|  9,37500707830|  9,97433702118| 12,03952968244| 12,02460582007| 10,66258131867|  9,53012829172| 10,69666352553|  9,97338365769|  9,62375420926|  9,72763165716
Gibbon                    |  9,00479186272|  9,15304366724|  8,59039110910|  8,45965484694|  0,00000000000|  8,89300154278|  8,85221184800|  8,79387295366|  8,66161390711|  8,82251626411|  8,64900563914| 10,56769985059|  9,91204584708|  9,23338443578|  9,09035106361|  9,11695873137|  9,90702989193|  9,13364716825|  9,99800370384| 10,55946268990| 10,91229441817|  9,15888037508|  9,43142146385| 10,43396204303| 12,44501247428| 12,36756793944| 11,18019855274|  9,76273509005| 11,18048912068| 10,29323258894| 10,05780883827|  9,77713662258
Baboon                    |  9,22948619207|  9,31975835198|  8,73042631983|  8,66664206635|  8,89300154278|  0,00000000000|  8,43845664959|  8,46603967707|  9,19672920613|  9,30908738845|  8,66592258559| 10,14861783327|  9,38593668399|  9,57536572465|  9,08049686127|  9,17279137276|  9,91832657981|  9,06077212176|  9,37445588822| 10,21130677511| 10,46599357376|  9,26862689060|  9,42287191764|  9,86700308289| 11,98977986513| 11,97644090720| 10,49325222689|  9,41400353887| 10,39076655986|  9,70655970925|  9,52929095618|  9,88794627866
Ver_Monkey                |  9,16284412982|  9,43555374656|  8,87987353279|  8,82201834828|  8,85221184800|  8,43845664959|  0,00000000000|  8,58471564462|  9,18449268983|  9,29174379915|  8,94620626961| 10,22308822363|  9,42294525320|  9,49350772504|  9,21519452611|  9,28818449946| 10,02287702669|  9,16510120915|  9,44865283772| 10,21648988954| 10,46318195192|  9,29380380496|  9,42534035656| 10,01028802310| 12,05201674492| 12,02564811496| 10,58803895734|  9,35160670089| 10,49966537248|  9,73662357623|  9,51474350410|  9,95151439829
Macaca_Thibet             |  9,14321022689|  9,48174054465|  9,02086599653|  8,96761201409|  8,79387295366|  8,46603967707|  8,58471564462|  0,00000000000|  9,23230728104|  9,37870505384|  8,95411696440| 10,38486850578|  9,49104163587|  9,59551521537|  9,19846662383|  9,25994324525|  9,92809772634|  9,23209417922|  9,54242697947| 10,34938728853| 10,59577281391|  9,26907237975|  9,40843361579| 10,05303966636| 12,10374930681| 12,10197084198| 10,74515856115|  9,55007156113| 10,61951580556|  9,87402150105|  9,71457334979|  9,93674370079
Bor_Oran                  |  9,09290006463|  9,16877654436|  8,65038939051|  8,68117678462|  8,66161390711|  9,19672920613|  9,18449268983|  9,23230728104|  0,00000000000|  8,00864027227|  8,82978550894| 10,79891732839| 10,21957670573|  9,22786129694|  9,28903848201|  9,25571144133| 10,04553706015|  9,45943030940| 10,36892764438| 10,89018679437| 11,13920276438|  9,36871344012|  9,65092304430| 10,89445613596| 12,88230438149| 12,79761863259| 11,63008920709| 10,13328889380| 11,69093555857| 10,79147258253| 10,52976386393|  9,87744676615
Sum_Oran                  |  9,31976580823|  9,68743059563|  9,05383518857|  9,02716516058|  8,82251626411|  9,30908738845|  9,29174379915|  9,37870505384|  8,00864027227|  0,00000000000|  9,21659840890| 11,15703756428| 10,30081473026|  9,26184359167|  9,53456466951|  9,47396658539| 10,42135518065|  9,67185336425| 10,45210448952| 11,17657423903| 11,44702671173|  9,54436227867|  9,89260380042| 11,10260997457| 13,04167508585| 12,96993505612| 11,95464767431| 10,24422430511| 11,92428986392| 11,00004819702| 10,68290750560| 10,23026631541
Gorilla                   |  8,83678785246|  8,55313501824|  7,70770078272|  7,51915856139|  8,64900563914|  8,66592258559|  8,94620626961|  8,95411696440|  8,82978550894|  9,21659840890|  0,00000000000|  9,97029670189|  9,49068405023|  9,50729484306|  9,07592571161|  9,21408943413|  9,72185798448|  9,17160954736|  9,40630553683| 10,07614677762| 10,27830967905|  9,22826712358|  9,29640233788|  9,86176326644| 11,90010134161| 11,92452210016| 10,50101850082|  9,45071759860| 10,46524139081|  9,84739566188|  9,55614516024|  9,71831637904
Cat                       | 10,29048105634| 10,09807288687| 10,05937565967| 10,12091310023| 10,56769985059| 10,14861783327| 10,22308822363| 10,38486850578| 10,79891732839| 11,15703756428|  9,97029670189|  0,00000000000| 10,15236421117| 10,58931218094| 10,00572484237|  9,99373915516| 10,13026442217|  9,82259711210|  9,85610390529|  8,51594496350|  8,45733077443|  9,96351543833|  9,73896877617|  9,49978652446| 10,80545773537| 10,94456445689|  9,59989645127| 10,28646831400| 10,42715092221| 10,25958224681| 10,06434183421| 10,12731055649
Dog                       |  9,94597944788| 10,28283205312|  9,65634031245|  9,49481373072|  9,91204584708|  9,38593668399|  9,42294525320|  9,49104163587| 10,21957670573| 10,30081473026|  9,49068405023| 10,15236421117|  0,00000000000|  9,97360359026|  9,40797114600|  9,55135444929| 10,36024261897|  9,38506978082|  7,18374236515|  9,93063058607| 10,23655231528|  9,62938290350|  9,66247720701|  9,41407247174| 11,53808308691| 11,60770427311| 10,13944280207|  9,11139850671|  9,68803351491|  9,38142007600|  9,25047192494| 10,53139748281
Pig                       |  9,52222167395|  9,76101005952|  9,42650482919|  9,50794718312|  9,23338443578|  9,57536572465|  9,49350772504|  9,59551521537|  9,22786129694|  9,26184359167|  9,50729484306| 10,58931218094|  9,97360359026|  0,00000000000|  8,85152570971|  8,83740448109|  9,95177841724|  9,03559278820| 10,07331838338| 10,64486699524| 10,90137848748|  8,83275065648|  9,00705195391| 10,59019514340| 12,66451277938| 12,61045951638| 11,53875560427| 10,03932431839| 11,52517148423| 10,63962690929| 10,35283213081|  9,74265021396
Sheep                     |  9,35282440206|  9,55466258116|  9,11464641137|  9,12700544848|  9,09035106361|  9,08049686127|  9,21519452611|  9,19846662383|  9,28903848201|  9,53456466951|  9,07592571161| 10,00572484237|  9,40797114600|  8,85152570971|  0,00000000000|  8,02689245543|  9,36671243246|  8,29772053870|  9,41010350983| 10,00763068157| 10,27234378082|  8,82808316686|  8,91552175115|  9,81383051230| 11,98459706098| 11,96201100982| 10,70398633243|  9,47668797431| 10,61998732363|  9,87625898805|  9,60289312094|  9,53542042733
Goat                      |  9,36122286954|  9,43210925324|  9,13264061660|  9,21519873204|  9,11695873137|  9,17279137276|  9,28818449946|  9,25994324525|  9,25571144133|  9,47396658539|  9,21408943413|  9,99373915516|  9,55135444929|  8,83740448109|  8,02689245543|  0,00000000000|  9,27235393096|  8,29146384277|  9,57254631453| 10,09775884626| 10,32695638171|  8,79434521102|  8,83309834959|  9,91687885475| 12,17761115933| 12,14665761731| 10,81308698805|  9,73358643354| 10,81197439014| 10,00945524750|  9,74436645241|  9,33823454450
Cow                       |  9,58755511320|  9,55843760189|  9,59140982943|  9,79222313515|  9,90702989193|  9,91832657981| 10,02287702669|  9,92809772634| 10,04553706015| 10,42135518065|  9,72185798448| 10,13026442217| 10,36024261897|  9,95177841724|  9,36671243246|  9,27235393096|  0,00000000000|  9,26327752235| 10,23040715382| 10,49282620645| 10,52707164243|  9,30828397891|  9,37068297700| 10,44749504242| 12,47660470913| 12,46866127009| 10,55250421059| 10,58029747349| 11,06591468749| 10,54007368400| 10,30803647612|  8,84000126473
Buffalo                   |  9,35942609591|  9,43422356578|  9,08228272599|  9,13566122456|  9,13364716825|  9,06077212176|  9,16510120915|  9,23209417922|  9,45943030940|  9,67185336425|  9,17160954736|  9,82259711210|  9,38506978082|  9,03559278820|  8,29772053870|  8,29146384277|  9,26327752235|  0,00000000000|  9,37361450831|  9,96724171631| 10,13932664044|  8,85642493060|  8,84626974547|  9,76451562705| 11,98334866948| 11,95892433844| 10,59013996507|  9,51434658077| 10,52331844527|  9,82310321937|  9,59124583686|  9,41669142114
Wolf                      |  9,92090415846| 10,19907009043|  9,61872130369|  9,48815128655|  9,99800370384|  9,37445588822|  9,44865283772|  9,54242697947| 10,36892764438| 10,45210448952|  9,40630553683|  9,85610390529|  7,18374236515| 10,07331838338|  9,41010350983|  9,57254631453| 10,23040715382|  9,37361450831|  0,00000000000|  9,76641200470| 10,00731600748|  9,58772554620|  9,52018977855|  9,34239117165| 11,46323115716| 11,54651862720|  9,94382877812|  9,19905218673|  9,54417366871|  9,32285918390|  9,15035808062| 10,42185279652
Tiger                     | 10,33510069841| 10,43636624199| 10,24069157313| 10,18428095577| 10,55946268990| 10,21130677511| 10,21648988954| 10,34938728853| 10,89018679437| 11,17657423903| 10,07614677762|  8,51594496350|  9,93063058607| 10,64486699524| 10,00763068157| 10,09775884626| 10,49282620645|  9,96724171631|  9,76641200470|  0,00000000000|  8,26254462553| 10,13545217483| 10,02153590947|  9,34253863291| 10,09883788644| 10,19656302166|  9,47949554335| 10,11160258847| 10,26837701703| 10,14627207668| 10,00464246175| 10,54623690304
Leopard                   | 10,59875084521| 10,57700673114| 10,46738644075| 10,43582364816| 10,91229441817| 10,46599357376| 10,46318195192| 10,59577281391| 11,13920276438| 11,44702671173| 10,27830967905|  8,45733077443| 10,23655231528| 10,90137848748| 10,27234378082| 10,32695638171| 10,52707164243| 10,13932664044| 10,00731600748|  8,26254462553|  0,00000000000| 10,29049000901| 10,08838839760|  9,44140050628| 10,08771196362| 10,23079019473|  9,54234914707| 10,39252249789| 10,40400161986| 10,33171505003| 10,15081271178| 10,64532461743
Indian_Rhino              |  9,35678373540|  9,42665961790|  9,11401334295|  9,21216090505|  9,15888037508|  9,26862689060|  9,29380380496|  9,26907237975|  9,36871344012|  9,54436227867|  9,22826712358|  9,96351543833|  9,62938290350|  8,83275065648|  8,82808316686|  8,79434521102|  9,30828397891|  8,85642493060|  9,58772554620| 10,13545217483| 10,29049000901|  0,00000000000|  8,07328715674| 10,11081827678| 12,14715406444| 12,11287965057| 10,78699309526|  9,85512725923| 10,91485793191| 10,14437149204|  9,90094275867|  9,20715553205
White_Rhino               |  9,54830018109|  9,43113271747|  9,24608512946|  9,37500707830|  9,43142146385|  9,42287191764|  9,42534035656|  9,40843361579|  9,65092304430|  9,89260380042|  9,29640233788|  9,73896877617|  9,66247720701|  9,00705195391|  8,91552175115|  8,83309834959|  9,37068297700|  8,84626974547|  9,52018977855| 10,02153590947| 10,08838839760|  8,07328715674|  0,00000000000| 10,02415731051| 12,11565166599| 12,11654091066| 10,69856711601|  9,85697606303| 10,80621895977| 10,25883830973|  9,91572901495|  9,28270499372
Black_Bear                | 10,31084082114| 10,47161838071| 10,03429360993|  9,97433702118| 10,43396204303|  9,86700308289| 10,01028802310| 10,05303966636| 10,89445613596| 11,10260997457|  9,86176326644|  9,49978652446|  9,41407247174| 10,59019514340|  9,81383051230|  9,91687885475| 10,44749504242|  9,76451562705|  9,34239117165|  9,34253863291|  9,44140050628| 10,11081827678| 10,02415731051|  0,00000000000| 10,39368857625| 10,48342550806|  9,29586553570|  9,59154709962|  9,71710986798|  9,52123765811|  9,47595669821| 10,67965173223
Brown_Bear                | 12,27774198584| 12,63409023146| 12,23573099753| 12,03952968244| 12,44501247428| 11,98977986513| 12,05201674492| 12,10374930681| 12,88230438149| 13,04167508585| 11,90010134161| 10,80545773537| 11,53808308691| 12,66451277938| 11,98459706098| 12,17761115933| 12,47660470913| 11,98334866948| 11,46323115716| 10,09883788644| 10,08771196362| 12,14715406444| 12,11565166599| 10,39368857625|  0,00000000000|  7,32744777407| 10,14233407920| 11,65255232295| 11,37204178652| 11,57040096743| 11,51007993739| 12,70283013525
Polar_Bear                | 12,28433795854| 12,62432342595| 12,20974574691| 12,02460582007| 12,36756793944| 11,97644090720| 12,02564811496| 12,10197084198| 12,79761863259| 12,96993505612| 11,92452210016| 10,94456445689| 11,60770427311| 12,61045951638| 11,96201100982| 12,14665761731| 12,46866127009| 11,95892433844| 11,54651862720| 10,19656302166| 10,23079019473| 12,11287965057| 12,11654091066| 10,48342550806|  7,32744777407|  0,00000000000| 10,20760398585| 11,70098793760| 11,52638618531| 11,63536206282| 11,59974022927| 12,67124245168
Giant_Panda               | 10,82192930925| 11,06914191371| 10,74942005923| 10,66258131867| 11,18019855274| 10,49325222689| 10,58803895734| 10,74515856115| 11,63008920709| 11,95464767431| 10,50101850082|  9,59989645127| 10,13944280207| 11,53875560427| 10,70398633243| 10,81308698805| 10,55250421059| 10,59013996507|  9,94382877812|  9,47949554335|  9,54234914707| 10,78699309526| 10,69856711601|  9,29586553570| 10,14233407920| 10,20760398585|  0,00000000000| 10,25437281010|  9,72986042082|  9,95573200719|  9,88540619782| 10,93053006894
Rabbit                    |  9,69250416712| 10,30503157148|  9,74443936302|  9,53012829172|  9,76273509005|  9,41400353887|  9,35160670089|  9,55007156113| 10,13328889380| 10,24422430511|  9,45071759860| 10,28646831400|  9,11139850671| 10,03932431839|  9,47668797431|  9,73358643354| 10,58029747349|  9,51434658077|  9,19905218673| 10,11160258847| 10,39252249789|  9,85512725923|  9,85697606303|  9,59154709962| 11,65255232295| 11,70098793760| 10,25437281010|  0,00000000000|  9,84245073753|  9,32932483603|  9,07215289816| 10,66513907494
Hedgehog                  | 10,98637632826| 11,27333483109| 10,77971582811| 10,69666352553| 11,18048912068| 10,39076655986| 10,49966537248| 10,61951580556| 11,69093555857| 11,92428986392| 10,46524139081| 10,42715092221|  9,68803351491| 11,52517148423| 10,61998732363| 10,81197439014| 11,06591468749| 10,52331844527|  9,54417366871| 10,26837701703| 10,40400161986| 10,91485793191| 10,80621895977|  9,71710986798| 11,37204178652| 11,52638618531|  9,72986042082|  9,84245073753|  0,00000000000|  9,60648554209|  9,52269311173| 11,36039996563
Dormouse                  | 10,14220125664| 10,57839343226| 10,09546978547|  9,97338365769| 10,29323258894|  9,70655970925|  9,73662357623|  9,87402150105| 10,79147258253| 11,00004819702|  9,84739566188| 10,25958224681|  9,38142007600| 10,63962690929|  9,87625898805| 10,00945524750| 10,54007368400|  9,82310321937|  9,32285918390| 10,14627207668| 10,33171505003| 10,14437149204| 10,25883830973|  9,52123765811| 11,57040096743| 11,63536206282|  9,95573200719|  9,32932483603|  9,60648554209|  0,00000000000|  9,23070799416| 10,73695128992
Squirrel                  |  9,96044104721| 10,33597618937|  9,78194224714|  9,62375420926| 10,05780883827|  9,52929095618|  9,51474350410|  9,71457334979| 10,52976386393| 10,68290750560|  9,55614516024| 10,06434183421|  9,25047192494| 10,35283213081|  9,60289312094|  9,74436645241| 10,30803647612|  9,59124583686|  9,15035808062| 10,00464246175| 10,15081271178|  9,90094275867|  9,91572901495|  9,47595669821| 11,51007993739| 11,59974022927|  9,88540619782|  9,07215289816|  9,52269311173|  9,23070799416|  0,00000000000| 10,49217972134
Blue_Whale                |  9,53214819545|  9,41482294121|  9,45329226593|  9,72763165716|  9,77713662258|  9,88794627866|  9,95151439829|  9,93674370079|  9,87744676615| 10,23026631541|  9,71831637904| 10,12731055649| 10,53139748281|  9,74265021396|  9,53542042733|  9,33823454450|  8,84000126473|  9,41669142114| 10,42185279652| 10,54623690304| 10,64532461743|  9,20715553205|  9,28270499372| 10,67965173223| 12,70283013525| 12,67124245168| 10,93053006894| 10,66513907494| 11,36039996563| 10,73695128992| 10,49217972134|  0,00000000000
