                           |Human          |Hum_shortened  |Pig_Chim       |Com_Chim       |Gibbon         |Baboon         |Ver_Monkey     |Macaca_Thibet  |Bor_Oran       |Sum_Oran       |Gorilla        |Cat            |Dog            |Pig            |Sheep          |Goat           |Cow            |Buffalo        |Wolf           |Tiger          |Leopard        |Indian_Rhino   |White_Rhino    |Black_Bear     |Brown_Bear     |Polar_Bear     |Giant_Panda    |Rabbit         |Hedgehog       |Dormouse       |Squirrel       |Blue_Whale     
Human                     |  0,00000000000|93855,19183915647|212453,66030210748|212453,66030210748|265981,02561972017|294725,19198184484|291564,51294694750|291564,51294694750|302265,03739432653|302265,03739432653|212453,66030210748|298403,74187879030|298403,74187879030|297898,62886076870|298403,74187879030|298403,74187879030|297898,62886076870|297898,62886076870|298403,74187879030|298403,74187879030|298403,74187879030|297898,62886076870|297898,62886076870|298403,74187879030|298403,74187879030|298403,74187879030|298403,74187879030|298403,74187879030|316301,81675910274|302434,17198956510|298403,74187879030|322558,20912011113
Hum_shortened             |93855,19183915647|  0,00000000000|212453,66030210748|212453,66030210748|265981,02561972017|294725,19198184484|291564,51294694750|291564,51294694750|302265,03739432653|302265,03739432653|212453,66030210748|298403,74187879030|298403,74187879030|297898,62886076870|298403,74187879030|298403,74187879030|297898,62886076870|297898,62886076870|298403,74187879030|298403,74187879030|298403,74187879030|297898,62886076870|297898,62886076870|298403,74187879030|298403,74187879030|298403,74187879030|298403,74187879030|298403,74187879030|316301,81675910274|302434,17198956510|298403,74187879030|322558,20912011113
Pig_Chim                  |212453,66030210748|212453,66030210748|  0,00000000000|203060,48021580670|265981,02561972020|294725,19198184484|291564,51294694750|291564,51294694750|302265,03739432653|302265,03739432653|203060,48021580670|298403,74187879030|298403,74187879030|297898,62886076870|298403,74187879030|298403,74187879030|297898,62886076870|297898,62886076870|298403,74187879030|298403,74187879030|298403,74187879030|297898,62886076870|297898,62886076870|298403,74187879030|298403,74187879030|298403,74187879030|298403,74187879030|298403,74187879030|316301,81675910274|302434,17198956510|298403,74187879030|322558,20912011113
Com_Chim                  |212453,66030210748|212453,66030210748|203060,48021580670|  0,00000000000|265981,02561972020|294725,19198184490|291564,51294694754|291564,51294694754|302265,03739432653|302265,03739432653|193171,26422965652|298403,74187879030|298403,74187879030|297898,62886076870|298403,74187879030|298403,74187879030|297898,62886076870|297898,62886076870|298403,74187879030|298403,74187879030|298403,74187879030|297898,62886076870|297898,62886076870|298403,74187879030|298403,74187879030|298403,74187879030|298403,74187879030|298403,74187879030|316301,81675910274|302434,17198956510|298403,74187879030|322558,20912011113
Gibbon                    |265981,02561972017|265981,02561972017|265981,02561972020|265981,02561972020|  0,00000000000|294725,19198184484|291564,51294694750|291564,51294694750|302265,03739432653|302265,03739432653|265981,02561972020|298403,74187879030|298403,74187879030|297898,62886076870|298403,74187879030|298403,74187879030|297898,62886076870|297898,62886076870|298403,74187879030|298403,74187879030|298403,74187879030|297898,62886076870|297898,62886076870|298403,74187879030|298403,74187879030|298403,74187879030|298403,74187879030|298403,74187879030|316301,81675910274|302434,17198956510|298403,74187879030|322558,20912011113
Baboon                    |294725,19198184484|294725,19198184484|294725,19198184484|294725,19198184490|294725,19198184484|  0,00000000000|294725,19198184484|294725,19198184484|302265,03739432653|302265,03739432653|294725,19198184490|298403,74187879030|298403,74187879030|297898,62886076870|298403,74187879030|298403,74187879030|297898,62886076870|297898,62886076870|298403,74187879030|298403,74187879030|298403,74187879030|297898,62886076870|297898,62886076870|298403,74187879030|298403,74187879030|298403,74187879030|298403,74187879030|298403,74187879030|316301,81675910274|302434,17198956510|298403,74187879030|322558,20912011113
Ver_Monkey                |291564,51294694750|291564,51294694750|291564,51294694750|291564,51294694754|291564,51294694750|294725,19198184484|  0,00000000000|264575,95953726900|302265,03739432653|302265,03739432653|291564,51294694754|298403,74187879030|298403,74187879030|297898,62886076870|298403,74187879030|298403,74187879030|297898,62886076870|297898,62886076870|298403,74187879030|298403,74187879030|298403,74187879030|297898,62886076870|297898,62886076870|298403,74187879030|298403,74187879030|298403,74187879030|298403,74187879030|298403,74187879030|316301,81675910274|302434,17198956510|298403,74187879030|322558,20912011113
Macaca_Thibet             |291564,51294694750|291564,51294694750|291564,51294694750|291564,51294694754|291564,51294694750|294725,19198184484|264575,95953726900|  0,00000000000|302265,03739432653|302265,03739432653|291564,51294694754|298403,74187879030|298403,74187879030|297898,62886076870|298403,74187879030|298403,74187879030|297898,62886076870|297898,62886076870|298403,74187879030|298403,74187879030|298403,74187879030|297898,62886076870|297898,62886076870|298403,74187879030|298403,74187879030|298403,74187879030|298403,74187879030|298403,74187879030|316301,81675910274|302434,17198956510|298403,74187879030|322558,20912011113
Bor_Oran                  |302265,03739432653|302265,03739432653|302265,03739432653|302265,03739432653|302265,03739432653|302265,03739432653|302265,03739432653|302265,03739432653|  0,00000000000|245767,82101368898|302265,03739432653|302265,03739432653|302265,03739432653|302265,03739432653|302265,03739432653|302265,03739432653|302265,03739432653|302265,03739432653|302265,03739432653|302265,03739432653|302265,03739432653|302265,03739432653|302265,03739432653|302265,03739432653|302265,03739432653|302265,03739432653|302265,03739432653|302265,03739432653|316301,81675910274|302434,17198956510|302265,03739432653|322558,20912011113
Sum_Oran                  |302265,03739432653|302265,03739432653|302265,03739432653|302265,03739432653|302265,03739432653|302265,03739432653|302265,03739432653|302265,03739432653|245767,82101368898|  0,00000000000|302265,03739432653|302265,03739432653|302265,03739432653|302265,03739432653|302265,03739432653|302265,03739432653|302265,03739432653|302265,03739432653|302265,03739432653|302265,03739432653|302265,03739432653|302265,03739432653|302265,03739432653|302265,03739432653|302265,03739432653|302265,03739432653|302265,03739432653|302265,03739432653|316301,81675910274|302434,17198956510|302265,03739432653|322558,20912011113
Gorilla                   |212453,66030210748|212453,66030210748|203060,48021580670|193171,26422965652|265981,02561972020|294725,19198184490|291564,51294694754|291564,51294694754|302265,03739432653|302265,03739432653|  0,00000000000|298403,74187879030|298403,74187879030|297898,62886076870|298403,74187879030|298403,74187879030|297898,62886076870|297898,62886076870|298403,74187879030|298403,74187879030|298403,74187879030|297898,62886076870|297898,62886076870|298403,74187879030|298403,74187879030|298403,74187879030|298403,74187879030|298403,74187879030|316301,81675910274|302434,17198956510|298403,74187879030|322558,20912011113
Cat                       |298403,74187879030|298403,74187879030|298403,74187879030|298403,74187879030|298403,74187879030|298403,74187879030|298403,74187879030|298403,74187879030|302265,03739432653|302265,03739432653|298403,74187879030|  0,00000000000|279235,81844472146|298403,74187879030|298116,66681189206|298116,66681189206|298403,74187879030|298403,74187879030|279235,81844472146|269813,64941408170|204614,48955287418|298403,74187879030|298403,74187879030|292637,75332586020|292637,75332586020|292637,75332586020|292637,75332586020|297490,57151868740|316301,81675910274|302434,17198956510|297490,57151868740|322558,20912011113
Dog                       |298403,74187879030|298403,74187879030|298403,74187879030|298403,74187879030|298403,74187879030|298403,74187879030|298403,74187879030|298403,74187879030|302265,03739432653|302265,03739432653|298403,74187879030|279235,81844472146|  0,00000000000|298403,74187879030|298116,66681189206|298116,66681189206|298403,74187879030|298403,74187879030|157436,99989824260|279235,81844472146|279235,81844472146|298403,74187879030|298403,74187879030|292637,75332586020|292637,75332586020|292637,75332586020|292637,75332586020|297490,57151868740|316301,81675910274|302434,17198956510|297490,57151868740|322558,20912011113
Pig                       |297898,62886076870|297898,62886076870|297898,62886076870|297898,62886076870|297898,62886076870|297898,62886076870|297898,62886076870|297898,62886076870|302265,03739432653|302265,03739432653|297898,62886076870|298403,74187879030|298403,74187879030|  0,00000000000|298403,74187879030|298403,74187879030|285613,12649247155|285613,12649247155|298403,74187879030|298403,74187879030|298403,74187879030|285613,12649247155|285613,12649247155|298403,74187879030|298403,74187879030|298403,74187879030|298403,74187879030|298403,74187879030|316301,81675910274|302434,17198956510|298403,74187879030|322558,20912011113
Sheep                     |298403,74187879030|298403,74187879030|298403,74187879030|298403,74187879030|298403,74187879030|298403,74187879030|298403,74187879030|298403,74187879030|302265,03739432653|302265,03739432653|298403,74187879030|298116,66681189206|298116,66681189206|298403,74187879030|  0,00000000000|200305,79386510496|298403,74187879030|298403,74187879030|298116,66681189206|298116,66681189206|298116,66681189206|298403,74187879030|298403,74187879030|298116,66681189206|298116,66681189206|298116,66681189206|298116,66681189206|298116,66681189206|316301,81675910274|302434,17198956510|298116,66681189206|322558,20912011113
Goat                      |298403,74187879030|298403,74187879030|298403,74187879030|298403,74187879030|298403,74187879030|298403,74187879030|298403,74187879030|298403,74187879030|302265,03739432653|302265,03739432653|298403,74187879030|298116,66681189206|298116,66681189206|298403,74187879030|200305,79386510496|  0,00000000000|298403,74187879030|298403,74187879030|298116,66681189206|298116,66681189206|298116,66681189206|298403,74187879030|298403,74187879030|298116,66681189206|298116,66681189206|298116,66681189206|298116,66681189206|298116,66681189206|316301,81675910274|302434,17198956510|298116,66681189206|322558,20912011113
Cow                       |297898,62886076870|297898,62886076870|297898,62886076870|297898,62886076870|297898,62886076870|297898,62886076870|297898,62886076870|297898,62886076870|302265,03739432653|302265,03739432653|297898,62886076870|298403,74187879030|298403,74187879030|285613,12649247155|298403,74187879030|298403,74187879030|  0,00000000000|229371,04041932177|298403,74187879030|298403,74187879030|298403,74187879030|284487,43651710370|284487,43651710370|298403,74187879030|298403,74187879030|298403,74187879030|298403,74187879030|298403,74187879030|316301,81675910274|302434,17198956510|298403,74187879030|322558,20912011113
Buffalo                   |297898,62886076870|297898,62886076870|297898,62886076870|297898,62886076870|297898,62886076870|297898,62886076870|297898,62886076870|297898,62886076870|302265,03739432653|302265,03739432653|297898,62886076870|298403,74187879030|298403,74187879030|285613,12649247155|298403,74187879030|298403,74187879030|229371,04041932177|  0,00000000000|298403,74187879030|298403,74187879030|298403,74187879030|284487,43651710370|284487,43651710370|298403,74187879030|298403,74187879030|298403,74187879030|298403,74187879030|298403,74187879030|316301,81675910274|302434,17198956510|298403,74187879030|322558,20912011113
Wolf                      |298403,74187879030|298403,74187879030|298403,74187879030|298403,74187879030|298403,74187879030|298403,74187879030|298403,74187879030|298403,74187879030|302265,03739432653|302265,03739432653|298403,74187879030|279235,81844472146|157436,99989824260|298403,74187879030|298116,66681189206|298116,66681189206|298403,74187879030|298403,74187879030|  0,00000000000|279235,81844472146|279235,81844472146|298403,74187879030|298403,74187879030|292637,75332586020|292637,75332586020|292637,75332586020|292637,75332586020|297490,57151868740|316301,81675910274|302434,17198956510|297490,57151868740|322558,20912011113
Tiger                     |298403,74187879030|298403,74187879030|298403,74187879030|298403,74187879030|298403,74187879030|298403,74187879030|298403,74187879030|298403,74187879030|302265,03739432653|302265,03739432653|298403,74187879030|269813,64941408170|279235,81844472146|298403,74187879030|298116,66681189206|298116,66681189206|298403,74187879030|298403,74187879030|279235,81844472146|  0,00000000000|269813,64941408170|298403,74187879030|298403,74187879030|292637,75332586020|292637,75332586020|292637,75332586020|292637,75332586020|297490,57151868740|316301,81675910274|302434,17198956510|297490,57151868740|322558,20912011113
Leopard                   |298403,74187879030|298403,74187879030|298403,74187879030|298403,74187879030|298403,74187879030|298403,74187879030|298403,74187879030|298403,74187879030|302265,03739432653|302265,03739432653|298403,74187879030|204614,48955287418|279235,81844472146|298403,74187879030|298116,66681189206|298116,66681189206|298403,74187879030|298403,74187879030|279235,81844472146|269813,64941408170|  0,00000000000|298403,74187879030|298403,74187879030|292637,75332586020|292637,75332586020|292637,75332586020|292637,75332586020|297490,57151868740|316301,81675910274|302434,17198956510|297490,57151868740|322558,20912011113
Indian_Rhino              |297898,62886076870|297898,62886076870|297898,62886076870|297898,62886076870|297898,62886076870|297898,62886076870|297898,62886076870|297898,62886076870|302265,03739432653|302265,03739432653|297898,62886076870|298403,74187879030|298403,74187879030|285613,12649247155|298403,74187879030|298403,74187879030|284487,43651710370|284487,43651710370|298403,74187879030|298403,74187879030|298403,74187879030|  0,00000000000|209644,64574884180|298403,74187879030|298403,74187879030|298403,74187879030|298403,74187879030|298403,74187879030|316301,81675910274|302434,17198956510|298403,74187879030|322558,20912011113
White_Rhino               |297898,62886076870|297898,62886076870|297898,62886076870|297898,62886076870|297898,62886076870|297898,62886076870|297898,62886076870|297898,62886076870|302265,03739432653|302265,03739432653|297898,62886076870|298403,74187879030|298403,74187879030|285613,12649247155|298403,74187879030|298403,74187879030|284487,43651710370|284487,43651710370|298403,74187879030|298403,74187879030|298403,74187879030|209644,64574884180|  0,00000000000|298403,74187879030|298403,74187879030|298403,74187879030|298403,74187879030|298403,74187879030|316301,81675910274|302434,17198956510|298403,74187879030|322558,20912011113
Black_Bear                |298403,74187879030|298403,74187879030|298403,74187879030|298403,74187879030|298403,74187879030|298403,74187879030|298403,74187879030|298403,74187879030|302265,03739432653|302265,03739432653|298403,74187879030|292637,75332586020|292637,75332586020|298403,74187879030|298116,66681189206|298116,66681189206|298403,74187879030|298403,74187879030|292637,75332586020|292637,75332586020|292637,75332586020|298403,74187879030|298403,74187879030|  0,00000000000|182017,18543782080|182017,18543782080|238700,18838296438|297490,57151868740|316301,81675910274|302434,17198956510|297490,57151868740|322558,20912011113
Brown_Bear                |298403,74187879030|298403,74187879030|298403,74187879030|298403,74187879030|298403,74187879030|298403,74187879030|298403,74187879030|298403,74187879030|302265,03739432653|302265,03739432653|298403,74187879030|292637,75332586020|292637,75332586020|298403,74187879030|298116,66681189206|298116,66681189206|298403,74187879030|298403,74187879030|292637,75332586020|292637,75332586020|292637,75332586020|298403,74187879030|298403,74187879030|182017,18543782080|  0,00000000000|141548,61146276176|238700,18838296438|297490,57151868740|316301,81675910274|302434,17198956510|297490,57151868740|322558,20912011113
Polar_Bear                |298403,74187879030|298403,74187879030|298403,74187879030|298403,74187879030|298403,74187879030|298403,74187879030|298403,74187879030|298403,74187879030|302265,03739432653|302265,03739432653|298403,74187879030|292637,75332586020|292637,75332586020|298403,74187879030|298116,66681189206|298116,66681189206|298403,74187879030|298403,74187879030|292637,75332586020|292637,75332586020|292637,75332586020|298403,74187879030|298403,74187879030|182017,18543782080|141548,61146276176|  0,00000000000|238700,18838296438|297490,57151868740|316301,81675910274|302434,17198956510|297490,57151868740|322558,20912011113
Giant_Panda               |298403,74187879030|298403,74187879030|298403,74187879030|298403,74187879030|298403,74187879030|298403,74187879030|298403,74187879030|298403,74187879030|302265,03739432653|302265,03739432653|298403,74187879030|292637,75332586020|292637,75332586020|298403,74187879030|298116,66681189206|298116,66681189206|298403,74187879030|298403,74187879030|292637,75332586020|292637,75332586020|292637,75332586020|298403,74187879030|298403,74187879030|238700,18838296438|238700,18838296438|238700,18838296438|  0,00000000000|297490,57151868740|316301,81675910274|302434,17198956510|297490,57151868740|322558,20912011113
Rabbit                    |298403,74187879030|298403,74187879030|298403,74187879030|298403,74187879030|298403,74187879030|298403,74187879030|298403,74187879030|298403,74187879030|302265,03739432653|302265,03739432653|298403,74187879030|297490,57151868740|297490,57151868740|298403,74187879030|298116,66681189206|298116,66681189206|298403,74187879030|298403,74187879030|297490,57151868740|297490,57151868740|297490,57151868740|298403,74187879030|298403,74187879030|297490,57151868740|297490,57151868740|297490,57151868740|297490,57151868740|  0,00000000000|316301,81675910274|302434,17198956510|295565,41003203095|322558,20912011113
Hedgehog                  |316301,81675910274|316301,81675910274|316301,81675910274|316301,81675910274|316301,81675910274|316301,81675910274|316301,81675910274|316301,81675910274|316301,81675910274|316301,81675910274|316301,81675910274|316301,81675910274|316301,81675910274|316301,81675910274|316301,81675910274|316301,81675910274|316301,81675910274|316301,81675910274|316301,81675910274|316301,81675910274|316301,81675910274|316301,81675910274|316301,81675910274|316301,81675910274|316301,81675910274|316301,81675910274|316301,81675910274|316301,81675910274|  0,00000000000|316301,81675910274|316301,81675910274|322558,20912011113
Dormouse                  |302434,17198956510|302434,17198956510|302434,17198956510|302434,17198956510|302434,17198956510|302434,17198956510|302434,17198956510|302434,17198956510|302434,17198956510|302434,17198956510|302434,17198956510|302434,17198956510|302434,17198956510|302434,17198956510|302434,17198956510|302434,17198956510|302434,17198956510|302434,17198956510|302434,17198956510|302434,17198956510|302434,17198956510|302434,17198956510|302434,17198956510|302434,17198956510|302434,17198956510|302434,17198956510|302434,17198956510|302434,17198956510|316301,81675910274|  0,00000000000|302434,17198956510|322558,20912011113
Squirrel                  |298403,74187879030|298403,74187879030|298403,74187879030|298403,74187879030|298403,74187879030|298403,74187879030|298403,74187879030|298403,74187879030|302265,03739432653|302265,03739432653|298403,74187879030|297490,57151868740|297490,57151868740|298403,74187879030|298116,66681189206|298116,66681189206|298403,74187879030|298403,74187879030|297490,57151868740|297490,57151868740|297490,57151868740|298403,74187879030|298403,74187879030|297490,57151868740|297490,57151868740|297490,57151868740|297490,57151868740|295565,41003203095|316301,81675910274|302434,17198956510|  0,00000000000|322558,20912011113
Blue_Whale                |322558,20912011113|322558,20912011113|322558,20912011113|322558,20912011113|322558,20912011113|322558,20912011113|322558,20912011113|322558,20912011113|322558,20912011113|322558,20912011113|322558,20912011113|322558,20912011113|322558,20912011113|322558,20912011113|322558,20912011113|322558,20912011113|322558,20912011113|322558,20912011113|322558,20912011113|322558,20912011113|322558,20912011113|322558,20912011113|322558,20912011113|322558,20912011113|322558,20912011113|322558,20912011113|322558,20912011113|322558,20912011113|322558,20912011113|322558,20912011113|322558,20912011113|  0,00000000000
| 10,10944033813| 10,10944033813| 10,10944033813| 10,27484963314| 10,27484963314| 10,10944033813| 10,09714268201| 10,09714268201| 10,10944033813|  0,00000000000|  5,90714285579| 10,10944033813| 10,10944033813| 10,09714268201| 10,09714268201| 10,09714268201| 10,10944033813| 10,10944033813| 10,09714268201| 10,09714268201| 10,09714268201| 10,09714268201| 10,09714268201| 10,87615398027| 10,28209498229| 10,09714268201| 11,14416388669
Goat                      | 10,10944033813| 10,10944033813| 10,10944033813| 10,10944033813| 10,10944033813| 10,10944033813| 10,10944033813| 10,10944033813| 10,27484963314| 10,27484963314| 10,10944033813| 10,09714268201| 10,09714268201| 10,10944033813|  5,90714285579|  0,00000000000| 10,10944033813| 10,10944033813| 10,09714268201| 10,09714268201| 10,09714268201| 10,10944033813| 10,10944033813| 10,09714268201| 10,09714268201| 10,09714268201| 10,09714268201| 10,09714268201| 10,87615398027| 10,28209498229| 10,09714268201| 11,14416388669
Cow                       | 10,08780242208| 10,08780242208| 10,08780242208| 10,08780242208| 10,08780242208| 10,08780242208| 10,08780242208| 10,08780242208| 10,27484963314| 10,27484963314| 10,08780242208| 10,10944033813| 10,10944033813|  9,56151887877| 10,10944033813| 10,10944033813|  0,00000000000|  7,15223324648| 10,10944033813| 10,10944033813| 10,10944033813|  9,51329682882|  9,51329682882| 10,10944033813| 10,10944033813| 10,10944033813| 10,10944033813| 10,10944033813| 10,87615398027| 10,28209498229| 10,10944033813| 11,14416388669
Buffalo                   | 10,08780242208| 10,08780242208| 10,08780242208| 10,08780242208| 10,08780242208| 10,08780242208| 10,08780242208| 10,08780242208| 10,27484963314| 10,27484963314| 10,08780242208| 10,10944033813| 10,10944033813|  9,56151887877| 10,10944033813| 10,10944033813|  7,15223324648|  0,00000000000| 10,10944033813| 10,10944033813| 10,10944033813|  9,51329682882|  9,51329682882| 10,10944033813| 10,10944033813| 10,10944033813| 10,10944033813| 10,10944033813| 10,87615398027| 10,28209498229| 10,10944033813| 11,14416388669
Wolf                      | 10,10944033813| 10,10944033813| 10,10944033813| 10,10944033813| 10,10944033813| 10,10944033813| 10,10944033813| 10,10944033813| 10,27484963314| 10,27484963314| 10,10944033813|  9,28832921379|  4,07073925505| 10,10944033813| 10,09714268201| 10,09714268201| 10,10944033813| 10,10944033813|  0,00000000000|  9,28832921379|  9,28832921379| 10,10944033813| 10,10944033813|  9,86243823798|  9,86243823798|  9,86243823798|  9,86243823798| 10,07032215489| 10,87615398027| 10,28209498229| 10,07032215489| 11,14416388669
Tiger                     | 10,10944033813| 10,10944033813| 10,10944033813| 10,10944033813| 10,10944033813| 10,10944033813| 10,10944033813| 10,10944033813| 10,27484963314| 10,27484963314| 10,10944033813|  8,88470448975|  9,28832921379| 10,10944033813| 10,09714268201| 10,09714268201| 10,10944033813| 10,10944033813|  9,28832921379|  0,00000000000|  8,88470448975| 10,10944033813| 10,10944033813|  9,86243823798|  9,86243823798|  9,86243823798|  9,86243823798| 10,07032215489| 10,87615398027| 10,28209498229| 10,07032215489| 11,14416388669
Leopard                   | 10,10944033813| 10,10944033813| 10,10944033813| 10,10944033813| 10,10944033813| 10,10944033813| 10,10944033813| 10,10944033813| 10,27484963314| 10,27484963314| 10,10944033813|  6,09171777716|  9,28832921379| 10,10944033813| 10,09714268201| 10,09714268201| 10,10944033813| 10,10944033813|  9,28832921379|  8,88470448975|  0,00000000000| 10,10944033813| 10,10944033813|  9,86243823798|  9,86243823798|  9,86243823798|  9,86243823798| 10,07032215489| 10,87615398027| 10,28209498229| 10,07032215489| 11,14416388669
Indian_Rhino              | 10,08780242208| 10,08780242208| 10,08780242208| 10,08780242208| 10,08780242208| 10,08780242208| 10,08780242208| 10,08780242208| 10,27484963314| 10,27484963314| 10,08780242208| 10,10944033813| 10,10944033813|  9,56151887877| 10,10944033813| 10,10944033813|  9,51329682882|  9,51329682882| 10,10944033813| 10,10944033813| 10,10944033813|  0,00000000000|  6,30719845893| 10,10944033813| 10,10944033813| 10,10944033813| 10,10944033813| 10,10944033813| 10,87615398027| 10,28209498229| 10,10944033813| 11,14416388669
White_Rhino               | 10,08780242208| 10,08780242208| 10,08780242208| 10,08780242208| 10,08780242208| 10,08780242208| 10,08780242208| 10,08780242208| 10,27484963314| 10,27484963314| 10,08780242208| 10,10944033813| 10,10944033813|  9,56151887877| 10,10944033813| 10,10944033813|  9,51329682882|  9,51329682882| 10,10944033813| 10,10944033813| 10,10944033813|  6,30719845893|  0,00000000000| 10,10944033813| 10,10944033813| 10,10944033813| 10,10944033813| 10,10944033813| 10,87615398027| 10,28209498229| 10,10944033813| 11,14416388669
Black_Bear                | 10,10944033813| 10,10944033813| 10,10944033813| 10,10944033813| 10,10944033813| 10,10944033813| 10,10944033813| 10,10944033813| 10,27484963314| 10,27484963314| 10,10944033813|  9,86243823798|  9,86243823798| 10,10944033813| 10,09714268201| 10,09714268201| 10,10944033813| 10,10944033813|  9,86243823798|  9,86243823798|  9,86243823798| 10,10944033813| 10,10944033813|  0,00000000000|  5,12369962680|  5,12369962680|  7,55187315531| 10,07032215489| 10,87615398027| 10,28209498229| 10,07032215489| 11,14416388669
Brown_Bear                | 10,10944033813| 10,10944033813| 10,10944033813| 10,10944033813| 10,10944033813| 10,10944033813| 10,10944033813| 10,10944033813| 10,27484963314| 10,27484963314| 10,10944033813|  9,86243823798|  9,86243823798| 10,10944033813| 10,09714268201| 10,09714268201| 10,10944033813| 10,10944033813|  9,86243823798|  9,86243823798|  9,86243823798| 10,10944033813| 10,10944033813|  5,12369962680|  0,00000000000|  3,39011610163|  7,55187315531| 10,07032215489| 10,87615398027| 10,28209498229| 10,07032215489| 11,14416388669
Polar_Bear                | 10,10944033813| 10,10944033813| 10,10944033813| 10,10944033813| 10,10944033813| 10,10944033813| 10,10944033813| 10,10944033813| 10,27484963314| 10,27484963314| 10,10944033813|  9,86243823798|  9,86243823798| 10,10944033813| 10,09714268201| 10,09714268201| 10,10944033813| 10,10944033813|  9,86243823798|  9,86243823798|  9,86243823798| 10,10944033813| 10,10944033813|  5,12369962680|  3,39011610163|  0,00000000000|  7,55187315531| 10,07032215489| 10,87615398027| 10,28209498229| 10,07032215489| 11,14416388669
Giant_Panda               | 10,10944033813| 10,10944033813| 10,10944033813| 10,10944033813| 10,10944033813| 10,10944033813| 10,10944033813| 10,10944033813| 10,27484963314| 10,27484963314| 10,10944033813|  9,86243823798|  9,86243823798| 10,10944033813| 10,09714268201| 10,09714268201| 10,10944033813| 10,10944033813|  9,86243823798|  9,86243823798|  9,86243823798| 10,10944033813| 10,10944033813|  7,55187315531|  7,55187315531|  7,55187315531|  0,00000000000| 10,07032215489| 10,87615398027| 10,28209498229| 10,07032215489| 11,14416388669
Rabbit                    | 10,10944033813| 10,10944033813| 10,10944033813| 10,10944033813| 10,10944033813| 10,10944033813| 10,10944033813| 10,10944033813| 10,27484963314| 10,27484963314| 10,10944033813| 10,07032215489| 10,07032215489| 10,10944033813| 10,09714268201| 10,09714268201| 10,10944033813| 10,10944033813| 10,07032215489| 10,07032215489| 10,07032215489| 10,10944033813| 10,10944033813| 10,07032215489| 10,07032215489| 10,07032215489| 10,07032215489|  0,00000000000| 10,87615398027| 10,28209498229|  9,98785252701| 11,14416388669
Hedgehog                  | 10,87615398027| 10,87615398027| 10,87615398027| 10,87615398027| 10,87615398027| 10,87615398027| 10,87615398027| 10,87615398027| 10,87615398027| 10,87615398027| 10,87615398027| 10,87615398027| 10,87615398027| 10,87615398027| 10,87615398027| 10,87615398027| 10,87615398027| 10,87615398027| 10,87615398027| 10,87615398027| 10,87615398027| 10,87615398027| 10,87615398027| 10,87615398027| 10,87615398027| 10,87615398027| 10,87615398027| 10,87615398027|  0,00000000000| 10,87615398027| 10,87615398027| 11,14416388669
Dormouse                  | 10,28209498229| 10,28209498229| 10,28209498229| 10,28209498229| 10,28209498229| 10,28209498229| 10,28209498229| 10,28209498229| 10,28209498229| 10,28209498229| 10,28209498229| 10,28209498229| 10,28209498229| 10,28209498229| 10,28209498229| 10,28209498229| 10,28209498229| 10,28209498229| 10,28209498229| 10,28209498229| 10,28209498229| 10,28209498229| 10,28209498229| 10,28209498229| 10,28209498229| 10,28209498229| 10,28209498229| 10,28209498229| 10,87615398027|  0,00000000000| 10,28209498229| 11,14416388669
Squirrel                  | 10,10944033813| 10,10944033813| 10,10944033813| 10,10944033813| 10,10944033813| 10,10944033813| 10,10944033813| 10,10944033813| 10,27484963314| 10,27484963314| 10,10944033813| 10,07032215489| 10,07032215489| 10,10944033813| 10,09714268201| 10,09714268201| 10,10944033813| 10,10944033813| 10,07032215489| 10,07032215489| 10,07032215489| 10,10944033813| 10,10944033813| 10,07032215489| 10,07032215489| 10,07032215489| 10,07032215489|  9,98785252701| 10,87615398027| 10,28209498229|  0,00000000000| 11,14416388669
Blue_Whale                | 11,14416388669| 11,14416388669| 11,14416388669| 11,14416388669| 11,14416388669| 11,14416388669| 11,14416388669| 11,14416388669| 11,14416388669| 11,14416388669| 11,14416388669| 11,14416388669| 11,14416388669| 11,14416388669| 11,14416388669| 11,14416388669| 11,14416388669| 11,14416388669| 11,14416388669| 11,14416388669| 11,14416388669| 11,14416388669| 11,14416388669| 11,14416388669| 11,14416388669| 11,14416388669| 11,14416388669| 11,14416388669| 11,14416388669| 11,14416388669| 11,14416388669|  0,00000000000
                           |Human          |Hum_shortened  |Pig_Chim       |Com_Chim       |Gibbon         |Baboon         |Ver_Monkey     |Macaca_Thibet  |Bor_Oran       |Sum_Oran       |Gorilla        |Cat            |Dog            |Pig            |Sheep          |Goat           |Cow            |Buffalo        |Wolf           |Tiger          |Leopard        |Indian_Rhino   |White_Rhino    |Black_Bear     |Brown_Bear     |Polar_Bear     |Giant_Panda    |Rabbit         |Hedgehog       |Dormouse       |Squirrel       |Blue_Whale     
Human                     |  0,00000000000|  1,34703628940|  6,42753038252|  6,42753038252|  8,72052342738|  9,95185945816|  9,81646301186|  9,81646301186| 10,27484963314| 10,27484963314|  6,42753038252| 10,10944033813| 10,10944033813| 10,08780242208| 10,10944033813| 10,10944033813| 10,08780242208| 10,08780242208| 10,10944033813| 10,10944033813| 10,10944033813| 10,08780242208| 10,08780242208| 10,10944033813| 10,10944033813| 10,10944033813| 10,10944033813| 10,10944033813| 10,87615398027| 10,28209498229| 10,10944033813| 11,14416388669
Hum_shortened             |  1,34703628940|  0,00000000000|  6,42753038252|  6,42753038252|  8,72052342738|  9,95185945816|  9,81646301186|  9,81646301186| 10,27484963314| 10,27484963314|  6,42753038252| 10,10944033813| 10,10944033813| 10,08780242208| 10,10944033813| 10,10944033813| 10,08780242208| 10,08780242208| 10,10944033813| 10,10944033813| 10,10944033813| 10,08780242208| 10,08780242208| 10,10944033813| 10,10944033813| 10,10944033813| 10,10944033813| 10,10944033813| 10,87615398027| 10,28209498229| 10,10944033813| 11,14416388669
Pig_Chim                  |  6,42753038252|  6,42753038252|  0,00000000000|  6,02514748026|  8,72052342738|  9,95185945816|  9,81646301186|  9,81646301186| 10,27484963314| 10,27484963314|  6,02514748026| 10,10944033813| 10,10944033813| 10,08780242208| 10,10944033813| 10,10944033813| 10,08780242208| 10,08780242208| 10,10944033813| 10,10944033813| 10,10944033813| 10,08780242208| 10,08780242208| 10,10944033813| 10,10944033813| 10,10944033813| 10,10944033813| 10,10944033813| 10,87615398027| 10,28209498229| 10,10944033813| 11,14416388669
Com_Chim                  |  6,42753038252|  6,42753038252|  6,02514748026|  0,00000000000|  8,72052342738|  9,95185945816|  9,81646301186|  9,81646301186| 10,27484963314| 10,27484963314|  5,60151550546| 10,10944033813| 10,10944033813| 10,08780242208| 10,10944033813| 10,10944033813| 10,08780242208| 10,08780242208| 10,10944033813| 10,10944033813| 10,10944033813| 10,08780242208| 10,08780242208| 10,10944033813| 10,10944033813| 10,10944033813| 10,10944033813| 10,10944033813| 10,87615398027| 10,28209498229| 10,10944033813| 11,14416388669
Gibbon                    |  8,72052342738|  8,72052342738|  8,72052342738|  8,72052342738|  0,00000000000|  9,95185945816|  9,81646301186|  9,81646301186| 10,27484963314| 10,27484963314|  8,72052342738| 10,10944033813| 10,10944033813| 10,08780242208| 10,10944033813| 10,10944033813| 10,08780242208| 10,08780242208| 10,10944033813| 10,10944033813| 10,10944033813| 10,08780242208| 10,08780242208| 10,10944033813| 10,10944033813| 10,10944033813| 10,10944033813| 10,10944033813| 10,87615398027| 10,28209498229| 10,10944033813| 11,14416388669
Baboon                    |  9,95185945816|  9,95185945816|  9,95185945816|  9,95185945816|  9,95185945816|  0,00000000000|  9,95185945816|  9,95185945816| 10,27484963314| 10,27484963314|  9,95185945816| 10,10944033813| 10,10944033813| 10,08780242208| 10,10944033813| 10,10944033813| 10,08780242208| 10,08780242208| 10,10944033813| 10,10944033813| 10,10944033813| 10,08780242208| 10,08780242208| 10,10944033813| 10,10944033813| 10,10944033813| 10,10944033813| 10,10944033813| 10,87615398027| 10,28209498229| 10,10944033813| 11,14416388669
Ver_Monkey                |  9,81646301186|  9,81646301186|  9,81646301186|  9,81646301186|  9,81646301186|  9,95185945816|  0,00000000000|  8,66033352759| 10,27484963314| 10,27484963314|  9,81646301186| 10,10944033813| 10,10944033813| 10,08780242208| 10,10944033813| 10,10944033813| 10,08780242208| 10,08780242208| 10,10944033813| 10,10944033813| 10,10944033813| 10,08780242208| 10,08780242208| 10,10944033813| 10,10944033813| 10,10944033813| 10,10944033813| 10,10944033813| 10,87615398027| 10,28209498229| 10,10944033813| 11,14416388669
Macaca_Thibet             |  9,81646301186|  9,81646301186|  9,81646301186|  9,81646301186|  9,81646301186|  9,95185945816|  8,66033352759|  0,00000000000| 10,27484963314| 10,27484963314|  9,81646301186| 10,10944033813| 10,10944033813| 10,08780242208| 10,10944033813| 10,10944033813| 10,08780242208| 10,08780242208| 10,10944033813| 10,10944033813| 10,10944033813| 10,08780242208| 10,08780242208| 10,10944033813| 10,10944033813| 10,10944033813| 10,10944033813| 10,10944033813| 10,87615398027| 10,28209498229| 10,10944033813| 11,14416388669
Bor_Oran                  | 10,27484963314| 10,27484963314| 10,27484963314| 10,27484963314| 10,27484963314| 10,27484963314| 10,27484963314| 10,27484963314|  0,00000000000|  7,85463478704| 10,27484963314| 10,27484963314| 10,27484963314| 10,27484963314| 10,27484963314| 10,27484963314| 10,27484963314| 10,27484963314| 10,27484963314| 10,27484963314| 10,27484963314| 10,27484963314| 10,27484963314| 10,27484963314| 10,27484963314| 10,27484963314| 10,27484963314| 10,27484963314| 10,87615398027| 10,28209498229| 10,27484963314| 11,14416388669
Sum_Oran                  | 10,27484963314| 10,27484963314| 10,27484963314| 10,27484963314| 10,27484963314| 10,27484963314| 10,27484963314| 10,27484963314|  7,85463478704|  0,00000000000| 10,27484963314| 10,27484963314| 10,27484963314| 10,27484963314| 10,27484963314| 10,27484963314| 10,27484963314| 10,27484963314| 10,27484963314| 10,27484963314| 10,27484963314| 10,27484963314| 10,27484963314| 10,27484963314| 10,27484963314| 10,27484963314| 10,27484963314| 10,27484963314| 10,87615398027| 10,28209498229| 10,27484963314| 11,14416388669
Gorilla                   |  6,42753038252|  6,42753038252|  6,02514748026|  5,60151550546|  8,72052342738|  9,95185945816|  9,81646301186|  9,81646301186| 10,27484963314| 10,27484963314|  0,00000000000| 10,10944033813| 10,10944033813| 10,08780242208| 10,10944033813| 10,10944033813| 10,08780242208| 10,08780242208| 10,10944033813| 10,10944033813| 10,10944033813| 10,08780242208| 10,08780242208| 10,10944033813| 10,10944033813| 10,10944033813| 10,10944033813| 10,10944033813| 10,87615398027| 10,28209498229| 10,10944033813| 11,14416388669
Cat                       | 10,10944033813| 10,10944033813| 10,10944033813| 10,10944033813| 10,10944033813| 10,10944033813| 10,10944033813| 10,10944033813| 10,27484963314| 10,27484963314| 10,10944033813|  0,00000000000|  9,28832921379| 10,10944033813| 10,09714268201| 10,09714268201| 10,10944033813| 10,10944033813|  9,28832921379|  8,88470448975|  6,09171777716| 10,10944033813| 10,10944033813|  9,86243823798|  9,86243823798|  9,86243823798|  9,86243823798| 10,07032215489| 10,87615398027| 10,28209498229| 10,07032215489| 11,14416388669
Dog                       | 10,10944033813| 10,10944033813| 10,10944033813| 10,10944033813| 10,10944033813| 10,10944033813| 10,10944033813| 10,10944033813| 10,27484963314| 10,27484963314| 10,10944033813|  9,28832921379|  0,00000000000| 10,10944033813| 10,09714268201| 10,09714268201| 10,10944033813| 10,10944033813|  4,07073925505|  9,28832921379|  9,28832921379| 10,10944033813| 10,10944033813|  9,86243823798|  9,86243823798|  9,86243823798|  9,86243823798| 10,07032215489| 10,87615398027| 10,28209498229| 10,07032215489| 11,14416388669
Pig                       | 10,08780242208| 10,08780242208| 10,08780242208| 10,08780242208| 10,08780242208| 10,08780242208| 10,08780242208| 10,08780242208| 10,27484963314| 10,27484963314| 10,08780242208| 10,10944033813| 10,10944033813|  0,00000000000| 10,10944033813| 10,10944033813|  9,56151887877|  9,56151887877| 10,10944033813| 10,10944033813| 10,10944033813|  9,56151887877|  9,56151887877| 10,10944033813| 10,10944033813| 10,10944033813| 10,10944033813| 10,10944033813| 10,87615398027| 10,28209498229| 10,10944033813| 11,14416388669
Sheep                     | 10,10944033813| 10,10944033813| 10,10944033813| 10,10944033813| 10,10944033813                           |Human          |Hum_shortened  |Pig_Chim       |Com_Chim       |Gibbon         |Baboon         |Ver_Monkey     |Macaca_Thibet  |Bor_Oran       |Sum_Oran       |Gorilla        |Cat            |Dog            |Pig            |Sheep          |Goat           |Cow            |Buffalo        |Wolf           |Tiger          |Leopard        |Indian_Rhino   |White_Rhino    |Black_Bear     |Brown_Bear     |Polar_Bear     |Giant_Panda    |Rabbit         |Hedgehog       |Dormouse       |Squirrel       |Blue_Whale     
Human                     |  0,00000000000|  2,00000000000|  4,00000000000|  5,00000000000|  4,00000000000|  6,00000000000|  6,00000000000|  6,00000000000| 10,00000000000| 10,00000000000|  5,00000000000| 14,00000000000| 13,00000000000|  8,00000000000| 10,00000000000| 10,00000000000| 10,00000000000| 10,00000000000| 13,00000000000| 13,00000000000| 14,00000000000| 10,00000000000| 10,00000000000| 13,00000000000| 14,00000000000| 14,00000000000| 12,00000000000| 11,00000000000| 11,00000000000| 10,00000000000| 11,00000000000| 12,00000000000
Hum_shortened             |  2,00000000000|  0,00000000000|  4,00000000000|  5,00000000000|  4,00000000000|  6,00000000000|  6,00000000000|  6,00000000000| 10,00000000000| 10,00000000000|  5,00000000000| 14,00000000000| 13,00000000000|  8,00000000000| 10,00000000000| 10,00000000000| 10,00000000000| 10,00000000000| 13,00000000000| 13,00000000000| 14,00000000000| 10,00000000000| 10,00000000000| 13,00000000000| 14,00000000000| 14,00000000000| 12,00000000000| 11,00000000000| 11,00000000000| 10,00000000000| 11,00000000000| 12,00000000000
Pig_Chim                  |  4,00000000000|  4,00000000000|  0,00000000000|  3,00000000000|  4,00000000000|  6,00000000000|  6,00000000000|  6,00000000000| 10,00000000000| 10,00000000000|  3,00000000000| 14,00000000000| 13,00000000000|  8,00000000000| 10,00000000000| 10,00000000000| 10,00000000000| 10,00000000000| 13,00000000000| 13,00000000000| 14,00000000000| 10,00000000000| 10,00000000000| 13,00000000000| 14,00000000000| 14,00000000000| 12,00000000000| 11,00000000000| 11,00000000000| 10,00000000000| 11,00000000000| 12,00000000000
Com_Chim                  |  5,00000000000|  5,00000000000|  3,00000000000|  0,00000000000|  5,00000000000|  7,00000000000|  7,00000000000|  7,00000000000| 11,00000000000| 11,00000000000|  2,00000000000| 15,00000000000| 14,00000000000|  9,00000000000| 11,00000000000| 11,00000000000| 11,00000000000| 11,00000000000| 14,00000000000| 14,00000000000| 15,00000000000| 11,00000000000| 11,00000000000| 14,00000000000| 15,00000000000| 15,00000000000| 13,00000000000| 12,00000000000| 12,00000000000| 11,00000000000| 12,00000000000| 13,00000000000
Gibbon                    |  4,00000000000|  4,00000000000|  4,00000000000|  5,00000000000|  0,00000000000|  4,00000000000|  4,00000000000|  4,00000000000|  8,00000000000|  8,00000000000|  5,00000000000| 12,00000000000| 11,00000000000|  6,00000000000|  8,00000000000|  8,00000000000|  8,00000000000|  8,00000000000| 11,00000000000| 11,00000000000| 12,00000000000|  8,00000000000|  8,00000000000| 11,00000000000| 12,00000000000| 12,00000000000| 10,00000000000|  9,00000000000|  9,00000000000|  8,00000000000|  9,00000000000| 10,00000000000
Baboon                    |  6,00000000000|  6,00000000000|  6,00000000000|  7,00000000000|  4,00000000000|  0,00000000000|  4,00000000000|  4,00000000000|  6,00000000000|  6,00000000000|  7,00000000000| 10,00000000000|  9,00000000000|  4,00000000000|  6,00000000000|  6,00000000000|  6,00000000000|  6,00000000000|  9,00000000000|  9,00000000000| 10,00000000000|  6,00000000000|  6,00000000000|  9,00000000000| 10,00000000000| 10,00000000000|  8,00000000000|  7,00000000000|  7,00000000000|  6,00000000000|  7,00000000000|  8,00000000000
Ver_Monkey                |  6,00000000000|  6,00000000000|  6,00000000000|  7,00000000000|  4,00000000000|  4,00000000000|  0,00000000000|  2,00000000000|  8,00000000000|  8,00000000000|  7,00000000000| 12,00000000000| 11,00000000000|  6,00000000000|  8,00000000000|  8,00000000000|  8,00000000000|  8,00000000000| 11,00000000000| 11,00000000000| 12,00000000000|  8,00000000000|  8,00000000000| 11,00000000000| 12,00000000000| 12,00000000000| 10,00000000000|  9,00000000000|  9,00000000000|  8,00000000000|  9,00000000000| 10,00000000000
Macaca_Thibet             |  6,00000000000|  6,00000000000|  6,00000000000|  7,00000000000|  4,00000000000|  4,00000000000|  2,00000000000|  0,00000000000|  8,00000000000|  8,00000000000|  7,00000000000| 12,00000000000| 11,00000000000|  6,00000000000|  8,00000000000|  8,00000000000|  8,00000000000|  8,00000000000| 11,00000000000| 11,00000000000| 12,00000000000|  8,00000000000|  8,00000000000| 11,00000000000| 12,00000000000| 12,00000000000| 10,00000000000|  9,00000000000|  9,00000000000|  8,00000000000|  9,00000000000| 10,00000000000
Bor_Oran                  | 10,00000000000| 10,00000000000| 10,00000000000| 11,00000000000|  8,00000000000|  6,00000000000|  8,00000000000|  8,00000000000|  0,00000000000|  2,00000000000| 11,00000000000| 10,00000000000|  9,00000000000|  6,00000000000|  6,00000000000|  6,00000000000|  8,00000000000|  8,00000000000|  9,00000000000|  9,00000000000| 10,00000000000|  8,00000000000|  8,00000000000|  9,00000000000| 10,00000000000| 10,00000000000|  8,00000000000|  7,00000000000|  5,00000000000|  4,00000000000|  7,00000000000|  6,00000000000
Sum_Oran                  | 10,00000000000| 10,00000000000| 10,00000000000| 11,00000000000|  8,00000000000|  6,00000000000|  8,00000000000|  8,00000000000|  2,00000000000|  0,00000000000| 11,00000000000| 10,00000000000|  9,00000000000|  6,00000000000|  6,00000000000|  6,00000000000|  8,00000000000|  8,00000000000|  9,00000000000|  9,00000000000| 10,00000000000|  8,00000000000|  8,00000000000|  9,00000000000| 10,00000000000| 10,00000000000|  8,00000000000|  7,00000000000|  5,00000000000|  4,00000000000|  7,00000000000|  6,00000000000
Gorilla                   |  5,00000000000|  5,00000000000|  3,00000000000|  2,00000000000|  5,00000000000|  7,00000000000|  7,00000000000|  7,00000000000| 11,00000000000| 11,00000000000|  0,00000000000| 15,00000000000| 14,00000000000|  9,00000000000| 11,00000000000| 11,00000000000| 11,00000000000| 11,00000000000| 14,00000000000| 14,00000000000| 15,00000000000| 11,00000000000| 11,00000000000| 14,00000000000| 15,00000000000| 15,00000000000| 13,00000000000| 12,00000000000| 12,00000000000| 11,00000000000| 12,00000000000| 13,00000000000
Cat                       | 14,00000000000| 14,00000000000| 14,00000000000| 15,00000000000| 12,00000000000| 10,00000000000| 12,00000000000| 12,00000000000| 10,00000000000| 10,00000000000| 15,00000000000|  0,00000000000|  5,00000000000| 10,00000000000|  8,00000000000|  8,00000000000| 12,00000000000| 12,00000000000|  5,00000000000|  3,00000000000|  2,00000000000| 12,00000000000| 12,00000000000|  7,00000000000|  8,00000000000|  8,00000000000|  6,00000000000|  7,00000000000| 11,00000000000| 10,00000000000|  7,00000000000| 12,00000000000
Dog                       | 13,00000000000| 13,00000000000| 13,00000000000| 14,00000000000| 11,00000000000|  9,00000000000| 11,00000000000| 11,00000000000|  9,00000000000|  9,00000000000| 14,00000000000|  5,00000000000|  0,00000000000|  9,00000000000|  7,00000000000|  7,00000000000| 11,00000000000| 11,00000000000|  2,00000000000|  4,00000000000|  5,00000000000| 11,00000000000| 11,00000000000|  6,00000000000|  7,00000000000|  7,00000000000|  5,00000000000|  6,00000000000| 10,00000000000|  9,00000000000|  6,00000000000| 11,00000000000
Pig                       |  8,00000000000|  8,00000000000|  8,00000000000|  9,00000000000|  6,00000000000|  4,00000000000|  6,00000000000|  6,00000000000|  6,00000000000|  6,00000000000|  9,00000000000| 10,00000000000|  9,00000000000|  0,00000000000|  6,00000000000|  6,00000000000|  4,00000000000|  4,00000000000|  9,00000000000|  9,00000000000| 10,00000000000|  4,00000000000|  4,00000000000|  9,00000000000| 10,00000000000| 10,00000000000|  8,00000000000|  7,00000000000|  7,00000000000|  6,00000000000|  7,00000000000|  8,00000000000
Sheep                     | 10,00000000000| 10,00000000000| 10,00000000000| 11,00000000000|  8,00000000000|  6,00000000000|  8,00000000000|  8,00000000000|  6,00000000000|  6,00000000000| 11,00000000000|  8,00000000000|  7,00000000000|  6,00000000000|  0,00000000000|  2,00000000000|  8,00000000000|  8,00000000000|  7,00000000000|  7,00000000000|  8,00000000000|  8,00000000000|  8,00000000000|  7,00000000000|  8,00000000000|  8,00000000000|  6,00000000000|  5,00000000000|  7,00000000000|  6,00000000000|  5,00000000000|  8,00000000000
Goat                      | 10,00000000000| 10,00000000000| 10,00000000000| 11,00000000000|  8,00000000000|  6,00000000000|  8,00000000000|  8,00000000000|  6,00000000000|  6,00000000000| 11,00000000000|  8,00000000000|  7,00000000000|  6,00000000000|  2,00000000000|  0,00000000000|  8,00000000000|  8,00000000000|  7,00000000000|  7,00000000000|  8,00000000000|  8,00000000000|  8,00000000000|  7,00000000000|  8,00000000000|  8,00000000000|  6,00000000000|  5,00000000000|  7,00000000000|  6,00000000000|  5,00000000000|  8,00000000000
Cow                       | 10,00000000000| 10,00000000000| 10,00000000000| 11,00000000000|  8,00000000000|  6,00000000000|  8,00000000000|  8,00000000000|  8,00000000000|  8,00000000000| 11,00000000000| 12,00000000000| 11,00000000000|  4,00000000000|  8,00000000000|  8,00000000000|  0,00000000000|  2,00000000000| 11,00000000000| 11,00000000000| 12,00000000000|  4,00000000000|  4,00000000000| 11,00000000000| 12,00000000000| 12,00000000000| 10,00000000000|  9,00000000000|  9,00000000000|  8,00000000000|  9,00000000000| 10,00000000000
Buffalo                   | 10,00000000000| 10,00000000000| 10,00000000000| 11,00000000000|  8,00000000000|  6,00000000000|  8,00000000000|  8,00000000000|  8,00000000000|  8,00000000000| 11,00000000000| 12,00000000000| 11,00000000000|  4,00000000000|  8,00000000000|  8,00000000000|  2,00000000000|  0,00000000000| 11,00000000000| 11,00000000000| 12,00000000000|  4,00000000000|  4,00000000000| 11,00000000000| 12,00000000000| 12,00000000000| 10,00000000000|  9,00000000000|  9,00000000000|  8,00000000000|  9,00000000000| 10,00000000000
Wolf                      | 13,00000000000| 13,00000000000| 13,00000000000| 14,00000000000| 11,00000000000|  9,00000000000| 11,00000000000| 11,00000000000|  9,00000000000|  9,00000000000| 14,00000000000|  5,00000000000|  2,00000000000|  9,00000000000|  7,00000000000|  7,00000000000| 11,00000000000| 11,00000000000|  0,00000000000|  4,00000000000|  5,00000000000| 11,00000000000| 11,00000000000|  6,00000000000|  7,00000000000|  7,00000000000|  5,00000000000|  6,00000000000| 10,00000000000|  9,00000000000|  6,00000000000| 11,00000000000
Tiger                     | 13,00000000000| 13,00000000000| 13,00000000000| 14,00000000000| 11,00000000000|  9,00000000000| 11,00000000000| 11,00000000000|  9,00000000000|  9,00000000000| 14,00000000000|  3,00000000000|  4,00000000000|  9,00000000000|  7,00000000000|  7,00000000000| 11,00000000000| 11,00000000000|  4,00000000000|  0,00000000000|  3,00000000000| 11,00000000000| 11,00000000000|  6,00000000000|  7,00000000000|  7,00000000000|  5,00000000000|  6,00000000000| 10,00000000000|  9,00000000000|  6,00000000000| 11,00000000000
Leopard                   | 14,00000000000| 14,00000000000| 14,00000000000| 15,00000000000| 12,00000000000| 10,00000000000| 12,00000000000| 12,00000000000| 10,00000000000| 10,00000000000| 15,00000000000|  2,00000000000|  5,00000000000| 10,00000000000|  8,00000000000|  8,00000000000| 12,00000000000| 12,00000000000|  5,00000000000|  3,00000000000|  0,00000000000| 12,00000000000| 12,00000000000|  7,00000000000|  8,00000000000|  8,00000000000|  6,00000000000|  7,00000000000| 11,00000000000| 10,00000000000|  7,00000000000| 12,00000000000
Indian_Rhino              | 10,00000000000| 10,00000000000| 10,00000000000| 11,00000000000|  8,00000000000|  6,00000000000|  8,00000000000|  8,00000000000|  8,00000000000|  8,00000000000| 11,00000000000| 12,00000000000| 11,00000000000|  4,00000000000|  8,00000000000|  8,00000000000|  4,00000000000|  4,00000000000| 11,00000000000| 11,00000000000| 12,00000000000|  0,00000000000|  2,00000000000| 11,00000000000| 12,00000000000| 12,00000000000| 10,00000000000|  9,00000000000|  9,00000000000|  8,00000000000|  9,00000000000| 10,00000000000
White_Rhino               | 10,00000000000| 10,00000000000| 10,00000000000| 11,00000000000|  8,00000000000|  6,00000000000|  8,00000000000|  8,00000000000|  8,00000000000|  8,00000000000| 11,00000000000| 12,00000000000| 11,00000000000|  4,00000000000|  8,00000000000|  8,00000000000|  4,00000000000|  4,00000000000| 11,00000000000| 11,00000000000| 12,00000000000|  2,00000000000|  0,00000000000| 11,00000000000| 12,00000000000| 12,00000000000| 10,00000000000|  9,00000000000|  9,00000000000|  8,00000000000|  9,00000000000| 10,00000000000
Black_Bear                | 13,00000000000| 13,00000000000| 13,00000000000| 14,00000000000| 11,00000000000|  9,00000000000| 11,00000000000| 11,00000000000|  9,00000000000|  9,00000000000| 14,00000000000|  7,00000000000|  6,00000000000|  9,00000000000|  7,00000000000|  7,00000000000| 11,00000000000| 11,00000000000|  6,00000000000|  6,00000000000|  7,00000000000| 11,00000000000| 11,00000000000|  0,00000000000|  3,00000000000|  3,00000000000|  3,00000000000|  6,00000000000| 10,00000000000|  9,00000000000|  6,00000000000| 11,00000000000
Brown_Bear                | 14,00000000000| 14,00000000000| 14,00000000000| 15,00000000000| 12,00000000000| 10,00000000000| 12,00000000000| 12,00000000000| 10,00000000000| 10,00000000000| 15,00000000000|  8,00000000000|  7,00000000000| 10,00000000000|  8,00000000000|  8,00000000000| 12,00000000000| 12,00000000000|  7,00000000000|  7,00000000000|  8,00000000000| 12,00000000000| 12,00000000000|  3,00000000000|  0,00000000000|  2,00000000000|  4,00000000000|  7,00000000000| 11,00000000000| 10,00000000000|  7,00000000000| 12,00000000000
Polar_Bear                | 14,00000000000| 14,00000000000| 14,00000000000| 15,00000000000| 12,00000000000| 10,00000000000| 12,00000000000| 12,00000000000| 10,00000000000| 10,00000000000| 15,00000000000|  8,00000000000|  7,00000000000| 10,00000000000|  8,00000000000|  8,00000000000| 12,00000000000| 12,00000000000|  7,00000000000|  7,00000000000|  8,00000000000| 12,00000000000| 12,00000000000|  3,00000000000|  2,00000000000|  0,00000000000|  4,00000000000|  7,00000000000| 11,00000000000| 10,00000000000|  7,00000000000| 12,00000000000
Giant_Panda               | 12,00000000000| 12,00000000000| 12,00000000000| 13,00000000000| 10,00000000000|  8,00000000000| 10,00000000000| 10,00000000000|  8,00000000000|  8,00000000000| 13,00000000000|  6,00000000000|  5,00000000000|  8,00000000000|  6,00000000000|  6,00000000000| 10,00000000000| 10,00000000000|  5,00000000000|  5,00000000000|  6,00000000000| 10,00000000000| 10,00000000000|  3,00000000000|  4,00000000000|  4,00000000000|  0,00000000000|  5,00000000000|  9,00000000000|  8,00000000000|  5,00000000000| 10,00000000000
Rabbit                    | 11,00000000000| 11,00000000000| 11,00000000000| 12,00000000000|  9,00000000000|  7,00000000000|  9,00000000000|  9,00000000000|  7,00000000000|  7,00000000000| 12,00000000000|  7,00000000000|  6,00000000000|  7,00000000000|  5,00000000000|  5,00000000000|  9,00000000000|  9,00000000000|  6,00000000000|  6,00000000000|  7,00000000000|  9,00000000000|  9,00000000000|  6,00000000000|  7,00000000000|  7,00000000000|  5,00000000000|  0,00000000000|  8,00000000000|  7,00000000000|  2,00000000000|  9,00000000000
Hedgehog                  | 11,00000000000| 11,00000000000| 11,00000000000| 12,00000000000|  9,00000000000|  7,00000000000|  9,00000000000|  9,00000000000|  5,00000000000|  5,00000000000| 12,00000000000| 11,00000000000| 10,00000000000|  7,00000000000|  7,00000000000|  7,00000000000|  9,00000000000|  9,00000000000| 10,00000000000| 10,00000000000| 11,00000000000|  9,00000000000|  9,00000000000| 10,00000000000| 11,00000000000| 11,00000000000|  9,00000000000|  8,00000000000|  0,00000000000|  3,00000000000|  8,00000000000|  3,00000000000
Dormouse                  | 10,00000000000| 10,00000000000| 10,00000000000| 11,00000000000|  8,00000000000|  6,00000000000|  8,00000000000|  8,00000000000|  4,00000000000|  4,00000000000| 11,00000000000| 10,00000000000|  9,00000000000|  6,00000000000|  6,00000000000|  6,00000000000|  8,00000000000|  8,00000000000|  9,00000000000|  9,00000000000| 10,00000000000|  8,00000000000|  8,00000000000|  9,00000000000| 10,00000000000| 10,00000000000|  8,00000000000|  7,00000000000|  3,00000000000|  0,00000000000|  7,00000000000|  4,00000000000
Squirrel                  | 11,00000000000| 11,00000000000| 11,00000000000| 12,00000000000|  9,00000000000|  7,00000000000|  9,00000000000|  9,00000000000|  7,00000000000|  7,00000000000| 12,00000000000|  7,00000000000|  6,00000000000|  7,00000000000|  5,00000000000|  5,00000000000|  9,00000000000|  9,00000000000|  6,00000000000|  6,00000000000|  7,00000000000|  9,00000000000|  9,00000000000|  6,00000000000|  7,00000000000|  7,00000000000|  5,00000000000|  2,00000000000|  8,00000000000|  7,00000000000|  0,00000000000|  9,00000000000
Blue_Whale                | 12,00000000000| 12,00000000000| 12,00000000000| 13,00000000000| 10,00000000000|  8,00000000000| 10,00000000000| 10,00000000000|  6,00000000000|  6,00000000000| 13,00000000000| 12,00000000000| 11,00000000000|  8,00000000000|  8,00000000000|  8,00000000000| 10,00000000000| 10,00000000000| 11,00000000000| 11,00000000000| 12,00000000000| 10,00000000000| 10,00000000000| 11,00000000000| 12,00000000000| 12,00000000000| 10,00000000000|  9,00000000000|  3,00000000000|  4,00000000000|  9,00000000000|  0,00000000000
| 10,10944033813| 10,10944033813| 10,10944033813| 10,27484963314| 10,27484963314| 10,10944033813| 10,09714268201| 10,09714268201| 10,10944033813|  0,00000000000|  5,90714285579| 10,10944033813| 10,10944033813| 10,09714268201| 10,09714268201| 10,09714268201| 10,10944033813| 10,10944033813| 10,09714268201| 10,09714268201| 10,09714268201| 10,09714268201| 10,09714268201| 10,87615398027| 10,28209498229| 10,09714268201| 11,14416388669
Goat                      | 10,10944033813| 10,10944033813| 10,10944033813| 10,10944033813| 10,10944033813| 10,10944033813| 10,10944033813| 10,10944033813| 10,27484963314| 10,27484963314| 10,10944033813| 10,09714268201| 10,09714268201| 10,10944033813|  5,90714285579|  0,00000000000| 10,10944033813| 10,10944033813| 10,09714268201| 10,09714268201| 10,09714268201| 10,10944033813| 10,10944033813| 10,09714268201| 10,09714268201| 10,09714268201| 10,09714268201| 10,09714268201| 10,87615398027| 10,28209498229| 10,09714268201| 11,14416388669
Cow                       | 10,08780242208| 10,08780242208| 10,08780242208| 10,08780242208| 10,08780242208| 10,08780242208| 10,08780242208| 10,08780242208| 10,27484963314| 10,27484963314| 10,08780242208| 10,10944033813| 10,10944033813|  9,56151887877| 10,10944033813| 10,10944033813|  0,00000000000|  7,15223324648| 10,10944033813| 10,10944033813| 10,10944033813|  9,51329682882|  9,51329682882| 10,10944033813| 10,10944033813| 10,10944033813| 10,10944033813| 10,10944033813| 10,87615398027| 10,28209498229| 10,10944033813| 11,14416388669
Buffalo                   | 10,08780242208| 10,08780242208| 10,08780242208| 10,08780242208| 10,08780242208| 10,08780242208| 10,08780242208| 10,08780242208| 10,27484963314| 10,27484963314| 10,08780242208| 10,10944033813| 10,10944033813|  9,56151887877| 10,10944033813| 10,10944033813|  7,15223324648|  0,00000000000| 10,10944033813| 10,10944033813| 10,10944033813|  9,51329682882|  9,51329682882| 10,10944033813| 10,10944033813| 10,10944033813| 10,10944033813| 10,10944033813| 10,87615398027| 10,28209498229| 10,10944033813| 11,14416388669
Wolf                      | 10,10944033813| 10,10944033813| 10,10944033813| 10,10944033813| 10,10944033813| 10,10944033813| 10,10944033813| 10,10944033813| 10,27484963314| 10,27484963314| 10,10944033813|  9,28832921379|  4,07073925505| 10,10944033813| 10,09714268201| 10,09714268201| 10,10944033813| 10,10944033813|  0,00000000000|  9,28832921379|  9,28832921379| 10,10944033813| 10,10944033813|  9,86243823798|  9,86243823798|  9,86243823798|  9,86243823798| 10,07032215489| 10,87615398027| 10,28209498229| 10,07032215489| 11,14416388669
Tiger                     | 10,10944033813| 10,10944033813| 10,10944033813| 10,10944033813| 10,10944033813| 10,10944033813| 10,10944033813| 10,10944033813| 10,27484963314| 10,27484963314| 10,10944033813|  8,88470448975|  9,28832921379| 10,10944033813| 10,09714268201| 10,09714268201| 10,10944033813| 10,10944033813|  9,28832921379|  0,00000000000|  8,88470448975| 10,10944033813| 10,10944033813|  9,86243823798|  9,86243823798|  9,86243823798|  9,86243823798| 10,07032215489| 10,87615398027| 10,28209498229| 10,07032215489| 11,14416388669
Leopard                   | 10,10944033813| 10,10944033813| 10,10944033813| 10,10944033813| 10,10944033813| 10,10944033813| 10,10944033813| 10,10944033813| 10,27484963314| 10,27484963314| 10,10944033813|  6,09171777716|  9,28832921379| 10,10944033813| 10,09714268201| 10,09714268201| 10,10944033813| 10,10944033813|  9,28832921379|  8,88470448975|  0,00000000000| 10,10944033813| 10,10944033813|  9,86243823798|  9,86243823798|  9,86243823798|  9,86243823798| 10,07032215489| 10,87615398027| 10,28209498229| 10,07032215489| 11,14416388669
Indian_Rhino              | 10,08780242208| 10,08780242208| 10,08780242208| 10,08780242208| 10,08780242208| 10,08780242208| 10,08780242208| 10,08780242208| 10,27484963314| 10,27484963314| 10,08780242208| 10,10944033813| 10,10944033813|  9,56151887877| 10,10944033813| 10,10944033813|  9,51329682882|  9,51329682882| 10,10944033813| 10,10944033813| 10,10944033813|  0,00000000000|  6,30719845893| 10,10944033813| 10,10944033813| 10,10944033813| 10,10944033813| 10,10944033813| 10,87615398027| 10,28209498229| 10,10944033813| 11,14416388669
White_Rhino               | 10,08780242208| 10,08780242208| 10,08780242208| 10,08780242208| 10,08780242208| 10,08780242208| 10,08780242208| 10,08780242208| 10,27484963314| 10,27484963314| 10,08780242208| 10,10944033813| 10,10944033813|  9,56151887877| 10,10944033813| 10,10944033813|  9,51329682882|  9,51329682882| 10,10944033813| 10,10944033813| 10,10944033813|  6,30719845893|  0,00000000000| 10,10944033813| 10,10944033813| 10,10944033813| 10,10944033813| 10,10944033813| 10,87615398027| 10,28209498229| 10,10944033813| 11,14416388669
Black_Bear                | 10,10944033813| 10,10944033813| 10,10944033813| 10,10944033813| 10,10944033813| 10,10944033813| 10,10944033813| 10,10944033813| 10,27484963314| 10,27484963314| 10,10944033813|  9,86243823798|  9,86243823798| 10,10944033813| 10,09714268201| 10,09714268201| 10,10944033813| 10,10944033813|  9,86243823798|  9,86243823798|  9,86243823798| 10,10944033813| 10,10944033813|  0,00000000000|  5,12369962680|  5,12369962680|  7,55187315531| 10,07032215489| 10,87615398027| 10,28209498229| 10,07032215489| 11,14416388669
Brown_Bear                | 10,10944033813| 10,10944033813| 10,10944033813| 10,10944033813| 10,10944033813| 10,10944033813| 10,10944033813| 10,10944033813| 10,27484963314| 10,27484963314| 10,10944033813|  9,86243823798|  9,86243823798| 10,10944033813| 10,09714268201| 10,09714268201| 10,10944033813| 10,10944033813|  9,86243823798|  9,86243823798|  9,86243823798| 10,10944033813| 10,10944033813|  5,12369962680|  0,00000000000|  3,39011610163|  7,55187315531| 10,07032215489| 10,87615398027| 10,28209498229| 10,07032215489| 11,14416388669
Polar_Bear                | 10,10944033813| 10,10944033813| 10,10944033813| 10,10944033813| 10,10944033813| 10,10944033813| 10,10944033813| 10,10944033813| 10,27484963314| 10,27484963314| 10,10944033813|  9,86243823798|  9,86243823798| 10,10944033813| 10,09714268201| 10,09714268201| 10,10944033813| 10,10944033813|  9,86243823798|  9,86243823798|  9,86243823798| 10,10944033813| 10,10944033813|  5,12369962680|  3,39011610163|  0,00000000000|  7,55187315531| 10,07032215489| 10,87615398027| 10,28209498229| 10,07032215489| 11,14416388669
Giant_Panda               | 10,10944033813| 10,10944033813| 10,10944033813| 10,10944033813| 10,10944033813| 10,10944033813| 10,10944033813| 10,10944033813| 10,27484963314| 10,27484963314| 10,10944033813|  9,86243823798|  9,86243823798| 10,10944033813| 10,09714268201| 10,09714268201| 10,10944033813| 10,10944033813|  9,86243823798|  9,86243823798|  9,86243823798| 10,10944033813| 10,10944033813|  7,55187315531|  7,55187315531|  7,55187315531|  0,00000000000| 10,07032215489| 10,87615398027| 10,28209498229| 10,07032215489| 11,14416388669
Rabbit                    | 10,10944033813| 10,10944033813| 10,10944033813| 10,10944033813| 10,10944033813| 10,10944033813| 10,10944033813| 10,10944033813| 10,27484963314| 10,27484963314| 10,10944033813| 10,07032215489| 10,07032215489| 10,10944033813| 10,09714268201| 10,09714268201| 10,10944033813| 10,10944033813| 10,07032215489| 10,07032215489| 10,07032215489| 10,10944033813| 10,10944033813| 10,07032215489| 10,07032215489| 10,07032215489| 10,07032215489|  0,00000000000| 10,87615398027| 10,28209498229|  9,98785252701| 11,14416388669
Hedgehog                  | 10,87615398027| 10,87615398027| 10,87615398027| 10,87615398027| 10,87615398027| 10,87615398027| 10,87615398027| 10,87615398027| 10,87615398027| 10,87615398027| 10,87615398027| 10,87615398027| 10,87615398027| 10,87615398027| 10,87615398027| 10,87615398027| 10,87615398027| 10,87615398027| 10,87615398027| 10,87615398027| 10,87615398027| 10,87615398027| 10,87615398027| 10,87615398027| 10,87615398027| 10,87615398027| 10,87615398027| 10,87615398027|  0,00000000000| 10,87615398027| 10,87615398027| 11,14416388669
Dormouse                  | 10,28209498229| 10,28209498229| 10,28209498229| 10,28209498229| 10,28209498229| 10,28209498229| 10,28209498229| 10,28209498229| 10,28209498229| 10,28209498229| 10,28209498229| 10,28209498229| 10,28209498229| 10,28209498229| 10,28209498229| 10,28209498229| 10,28209498229| 10,28209498229| 10,28209498229| 10,28209498229| 10,28209498229| 10,28209498229| 10,28209498229| 10,28209498229| 10,28209498229| 10,28209498229| 10,28209498229| 10,28209498229| 10,87615398027|  0,00000000000| 10,28209498229| 11,14416388669
Squirrel                  | 10,10944033813| 10,10944033813| 10,10944033813| 10,10944033813| 10,10944033813| 10,10944033813| 10,10944033813| 10,10944033813| 10,27484963314| 10,27484963314| 10,10944033813| 10,07032215489| 10,07032215489| 10,10944033813| 10,09714268201| 10,09714268201| 10,10944033813| 10,10944033813| 10,07032215489| 10,07032215489| 10,07032215489| 10,10944033813| 10,10944033813| 10,07032215489| 10,07032215489| 10,07032215489| 10,07032215489|  9,98785252701| 10,87615398027| 10,28209498229|  0,00000000000| 11,14416388669
Blue_Whale                | 11,14416388669| 11,14416388669| 11,14416388669| 11,14416388669| 11,14416388669| 11,14416388669| 11,14416388669| 11,14416388669| 11,14416388669| 11,14416388669| 11,14416388669| 11,14416388669| 11,14416388669| 11,14416388669| 11,14416388669| 11,14416388669| 11,14416388669| 11,14416388669| 11,14416388669| 11,14416388669| 11,14416388669| 11,14416388669| 11,14416388669| 11,14416388669| 11,14416388669| 11,14416388669| 11,14416388669| 11,14416388669| 11,14416388669| 11,14416388669| 11,14416388669|  0,00000000000
                           |Human          |Hum_shortened  |Pig_Chim       |Com_Chim       |Gibbon         |Baboon         |Ver_Monkey     |Macaca_Thibet  |Bor_Oran       |Sum_Oran       |Gorilla        |Cat            |Dog            |Pig            |Sheep          |Goat           |Cow            |Buffalo        |Wolf           |Tiger          |Leopard        |Indian_Rhino   |White_Rhino    |Black_Bear     |Brown_Bear     |Polar_Bear     |Giant_Panda    |Rabbit         |Hedgehog       |Dormouse       |Squirrel       |Blue_Whale     
Human                     |  0,00000000000|  2,00000000000|  4,00000000000|  5,00000000000|  4,00000000000|  6,00000000000|  6,00000000000|  6,00000000000| 10,00000000000| 10,00000000000|  5,00000000000| 14,00000000000| 13,00000000000|  8,00000000000| 10,00000000000| 10,00000000000| 10,00000000000| 10,00000000000| 13,00000000000| 13,00000000000| 14,00000000000| 10,00000000000| 10,00000000000| 13,00000000000| 14,00000000000| 14,00000000000| 12,00000000000| 11,00000000000| 11,00000000000| 10,00000000000| 11,00000000000| 12,00000000000
Hum_shortened             |  2,00000000000|  0,00000000000|  4,00000000000|  5,00000000000|  4,00000000000|  6,00000000000|  6,00000000000|  6,00000000000| 10,00000000000| 10,00000000000|  5,00000000000| 14,00000000000| 13,00000000000|  8,00000000000| 10,00000000000| 10,00000000000| 10,00000000000| 10,00000000000| 13,00000000000| 13,00000000000| 14,00000000000| 10,00000000000| 10,00000000000| 13,00000000000| 14,00000000000| 14,00000000000| 12,00000000000| 11,00000000000| 11,00000000000| 10,00000000000| 11,00000000000| 12,00000000000
Pig_Chim                  |  4,00000000000|  4,00000000000|  0,00000000000|  3,00000000000|  4,00000000000|  6,00000000000|  6,00000000000|  6,00000000000| 10,00000000000| 10,00000000000|  3,00000000000| 14,00000000000| 13,00000000000|  8,00000000000| 10,00000000000| 10,00000000000| 10,00000000000| 10,00000000000| 13,00000000000| 13,00000000000| 14,00000000000| 10,00000000000| 10,00000000000| 13,00000000000| 14,00000000000| 14,00000000000| 12,00000000000| 11,00000000000| 11,00000000000| 10,00000000000| 11,00000000000| 12,00000000000
Com_Chim                  |  5,00000000000|  5,00000000000|  3,00000000000|  0,00000000000|  5,00000000000|  7,00000000000|  7,00000000000|  7,00000000000| 11,00000000000| 11,00000000000|  2,00000000000| 15,00000000000| 14,00000000000|  9,00000000000| 11,00000000000| 11,00000000000| 11,00000000000| 11,00000000000| 14,00000000000| 14,00000000000| 15,00000000000| 11,00000000000| 11,00000000000| 14,00000000000| 15,00000000000| 15,00000000000| 13,00000000000| 12,00000000000| 12,00000000000| 11,00000000000| 12,00000000000| 13,00000000000
Gibbon                    |  4,00000000000|  4,00000000000|  4,00000000000|  5,00000000000|  0,00000000000|  4,00000000000|  4,00000000000|  4,00000000000|  8,00000000000|  8,00000000000|  5,00000000000| 12,00000000000| 11,00000000000|  6,00000000000|  8,00000000000|  8,00000000000|  8,00000000000|  8,00000000000| 11,00000000000| 11,00000000000| 12,00000000000|  8,00000000000|  8,00000000000| 11,00000000000| 12,00000000000| 12,00000000000| 10,00000000000|  9,00000000000|  9,00000000000|  8,00000000000|  9,00000000000| 10,00000000000
Baboon                    |  6,00000000000|  6,00000000000|  6,00000000000|  7,00000000000|  4,00000000000|  0,00000000000|  4,00000000000|  4,00000000000|  6,00000000000|  6,00000000000|  7,00000000000| 10,00000000000|  9,00000000000|  4,00000000000|  6,00000000000|  6,00000000000|  6,00000000000|  6,00000000000|  9,00000000000|  9,00000000000| 10,00000000000|  6,00000000000|  6,00000000000|  9,00000000000| 10,00000000000| 10,00000000000|  8,00000000000|  7,00000000000|  7,00000000000|  6,00000000000|  7,00000000000|  8,00000000000
Ver_Monkey                |  6,00000000000|  6,00000000000|  6,00000000000|  7,00000000000|  4,00000000000|  4,00000000000|  0,00000000000|  2,00000000000|  8,00000000000|  8,00000000000|  7,00000000000| 12,00000000000| 11,00000000000|  6,00000000000|  8,00000000000|  8,00000000000|  8,00000000000|  8,00000000000| 11,00000000000| 11,00000000000| 12,00000000000|  8,00000000000|  8,00000000000| 11,00000000000| 12,00000000000| 12,00000000000| 10,00000000000|  9,00000000000|  9,00000000000|  8,00000000000|  9,00000000000| 10,00000000000
Macaca_Thibet             |  6,00000000000|  6,00000000000|  6,00000000000|  7,00000000000|  4,00000000000|  4,00000000000|  2,00000000000|  0,00000000000|  8,00000000000|  8,00000000000|  7,00000000000| 12,00000000000| 11,00000000000|  6,00000000000|  8,00000000000|  8,00000000000|  8,00000000000|  8,00000000000| 11,00000000000| 11,00000000000| 12,00000000000|  8,00000000000|  8,00000000000| 11,00000000000| 12,00000000000| 12,00000000000| 10,00000000000|  9,00000000000|  9,00000000000|  8,00000000000|  9,00000000000| 10,00000000000
Bor_Oran                  | 10,00000000000| 10,00000000000| 10,00000000000| 11,00000000000|  8,00000000000|  6,00000000000|  8,00000000000|  8,00000000000|  0,00000000000|  2,00000000000| 11,00000000000| 10,00000000000|  9,00000000000|  6,00000000000|  6,00000000000|  6,00000000000|  8,00000000000|  8,00000000000|  9,00000000000|  9,00000000000| 10,00000000000|  8,00000000000|  8,00000000000|  9,00000000000| 10,00000000000| 10,00000000000|  8,00000000000|  7,00000000000|  5,00000000000|  4,00000000000|  7,00000000000|  6,00000000000
Sum_Oran                  | 10,00000000000| 10,00000000000| 10,00000000000| 11,00000000000|  8,00000000000|  6,00000000000|  8,00000000000|  8,00000000000|  2,00000000000|  0,00000000000| 11,00000000000| 10,00000000000|  9,00000000000|  6,00000000000|  6,00000000000|  6,00000000000|  8,00000000000|  8,00000000000|  9,00000000000|  9,00000000000| 10,00000000000|  8,00000000000|  8,00000000000|  9,00000000000| 10,00000000000| 10,00000000000|  8,00000000000|  7,00000000000|  5,00000000000|  4,00000000000|  7,00000000000|  6,00000000000
Gorilla                   |  5,00000000000|  5,00000000000|  3,00000000000|  2,00000000000|  5,00000000000|  7,00000000000|  7,00000000000|  7,00000000000| 11,00000000000| 11,00000000000|  0,00000000000| 15,00000000000| 14,00000000000|  9,00000000000| 11,00000000000| 11,00000000000| 11,00000000000| 11,00000000000| 14,00000000000| 14,00000000000| 15,00000000000| 11,00000000000| 11,00000000000| 14,00000000000| 15,00000000000| 15,00000000000| 13,00000000000| 12,00000000000| 12,00000000000| 11,00000000000| 12,00000000000| 13,00000000000
Cat                       | 14,00000000000| 14,00000000000| 14,00000000000| 15,00000000000| 12,00000000000| 10,00000000000| 12,00000000000| 12,00000000000| 10,00000000000| 10,00000000000| 15,00000000000|  0,00000000000|  5,00000000000| 10,00000000000|  8,00000000000|  8,00000000000| 12,00000000000| 12,00000000000|  5,00000000000|  3,00000000000|  2,00000000000| 12,00000000000| 12,00000000000|  7,00000000000|  8,00000000000|  8,00000000000|  6,00000000000|  7,00000000000| 11,00000000000| 10,00000000000|  7,00000000000| 12,00000000000
Dog                       | 13,00000000000| 13,00000000000| 13,00000000000| 14,00000000000| 11,00000000000|  9,00000000000| 11,00000000000| 11,00000000000|  9,00000000000|  9,00000000000| 14,00000000000|  5,00000000000|  0,00000000000|  9,00000000000|  7,00000000000|  7,00000000000| 11,00000000000| 11,00000000000|  2,00000000000|  4,00000000000|  5,00000000000| 11,00000000000| 11,00000000000|  6,00000000000|  7,00000000000|  7,00000000000|  5,00000000000|  6,00000000000| 10,00000000000|  9,00000000000|  6,00000000000| 11,00000000000
Pig                       |  8,00000000000|  8,00000000000|  8,00000000000|  9,00000000000|  6,00000000000|  4,00000000000|  6,00000000000|  6,00000000000|  6,00000000000|  6,00000000000|  9,00000000000| 10,00000000000|  9,00000000000|  0,00000000000|  6,00000000000|  6,00000000000|  4,00000000000|  4,00000000000|  9,00000000000|  9,00000000000| 10,00000000000|  4,00000000000|  4,00000000000|  9,00000000000| 10,00000000000| 10,00000000000|  8,00000000000|  7,00000000000|  7,00000000000|  6,00000000000|  7,00000000000|  8,00000000000
Sheep                     | 10,00000000000| 10,00000000000| 10,00000000000| 11,00000000000|  8,00000000000|  6,00000000000|  8,00000000000|  8,00000000000|  6,00000000000|  6,00000000000| 11,00000000000|  8,00000000000|  7,00000000000|  6,00000000000|  0,00000000000|  2,00000000000|  8,00000000000|  8,00000000000|  7,00000000000|  7,00000000000|  8,00000000000|  8,00000000000|  8,00000000000|  7,00000000000|  8,00000000000|  8,00000000000|  6,00000000000|  5,00000000000|  7,00000000000|  6,00000000000|  5,00000000000|  8,00000000000
Goat                      | 10,00000000000| 10,00000000000| 10,00000000000| 11,00000000000|  8,00000000000|  6,00000000000|  8,00000000000|  8,00000000000|  6,00000000000|  6,00000000000| 11,00000000000|  8,00000000000|  7,00000000000|  6,00000000000|  2,00000000000|  0,00000000000|  8,00000000000|  8,00000000000|  7,00000000000|  7,00000000000|  8,00000000000|  8,00000000000|  8,00000000000|  7,00000000000|  8,00000000000|  8,00000000000|  6,00000000000|  5,00000000000|  7,00000000000|  6,00000000000|  5,00000000000|  8,00000000000
Cow                       | 10,00000000000| 10,00000000000| 10,00000000000| 11,00000000000|  8,00000000000|  6,00000000000|  8,00000000000|  8,00000000000|  8,00000000000|  8,00000000000| 11,00000000000| 12,00000000000| 11,00000000000|  4,00000000000|  8,00000000000|  8,00000000000|  0,00000000000|  2,00000000000| 11,00000000000| 11,00000000000| 12,00000000000|  4,00000000000|  4,00000000000| 11,00000000000| 12,00000000000| 12,00000000000| 10,00000000000|  9,00000000000|  9,00000000000|  8,00000000000|  9,00000000000| 10,00000000000
Buffalo                   | 10,00000000000| 10,00000000000| 10,00000000000| 11,00000000000|  8,00000000000|  6,00000000000|  8,00000000000|  8,00000000000|  8,00000000000|  8,00000000000| 11,00000000000| 12,00000000000| 11,00000000000|  4,00000000000|  8,00000000000|  8,00000000000|  2,00000000000|  0,00000000000| 11,00000000000| 11,00000000000| 12,00000000000|  4,00000000000|  4,00000000000| 11,00000000000| 12,00000000000| 12,00000000000| 10,00000000000|  9,00000000000|  9,00000000000|  8,00000000000|  9,00000000000| 10,00000000000
Wolf                      | 13,00000000000| 13,00000000000| 13,00000000000| 14,00000000000| 11,00000000000|  9,00000000000| 11,00000000000| 11,00000000000|  9,00000000000|  9,00000000000| 14,00000000000|  5,00000000000|  2,00000000000|  9,00000000000|  7,00000000000|  7,00000000000| 11,00000000000| 11,00000000000|  0,00000000000|  4,00000000000|  5,00000000000| 11,00000000000| 11,00000000000|  6,00000000000|  7,00000000000|  7,00000000000|  5,00000000000|  6,00000000000| 10,00000000000|  9,00000000000|  6,00000000000| 11,00000000000
Tiger                     | 13,00000000000| 13,00000000000| 13,00000000000| 14,00000000000| 11,00000000000|  9,00000000000| 11,00000000000| 11,00000000000|  9,00000000000|  9,00000000000| 14,00000000000|  3,00000000000|  4,00000000000|  9,00000000000|  7,00000000000|  7,00000000000| 11,00000000000| 11,00000000000|  4,00000000000|  0,00000000000|  3,00000000000| 11,00000000000| 11,00000000000|  6,00000000000|  7,00000000000|  7,00000000000|  5,00000000000|  6,00000000000| 10,00000000000|  9,00000000000|  6,00000000000| 11,00000000000
Leopard                   | 14,00000000000| 14,00000000000| 14,00000000000| 15,00000000000| 12,00000000000| 10,00000000000| 12,00000000000| 12,00000000000| 10,00000000000| 10,00000000000| 15,00000000000|  2,00000000000|  5,00000000000| 10,00000000000|  8,00000000000|  8,00000000000| 12,00000000000| 12,00000000000|  5,00000000000|  3,00000000000|  0,00000000000| 12,00000000000| 12,00000000000|  7,00000000000|  8,00000000000|  8,00000000000|  6,00000000000|  7,00000000000| 11,00000000000| 10,00000000000|  7,00000000000| 12,00000000000
Indian_Rhino              | 10,00000000000| 10,00000000000| 10,00000000000| 11,00000000000|  8,00000000000|  6,00000000000|  8,00000000000|  8,00000000000|  8,00000000000|  8,00000000000| 11,00000000000| 12,00000000000| 11,00000000000|  4,00000000000|  8,00000000000|  8,00000000000|  4,00000000000|  4,00000000000| 11,00000000000| 11,00000000000| 12,00000000000|  0,00000000000|  2,00000000000| 11,00000000000| 12,00000000000| 12,00000000000| 10,00000000000|  9,00000000000|  9,00000000000|  8,00000000000|  9,00000000000| 10,00000000000
White_Rhino               | 10,00000000000| 10,00000000000| 10,00000000000| 11,00000000000|  8,00000000000|  6,00000000000|  8,00000000000|  8,00000000000|  8,00000000000|  8,00000000000| 11,00000000000| 12,00000000000| 11,00000000000|  4,00000000000|  8,00000000000|  8,00000000000|  4,00000000000|  4,00000000000| 11,00000000000| 11,00000000000| 12,00000000000|  2,00000000000|  0,00000000000| 11,00000000000| 12,00000000000| 12,00000000000| 10,00000000000|  9,00000000000|  9,00000000000|  8,00000000000|  9,00000000000| 10,00000000000
Black_Bear                | 13,00000000000| 13,00000000000| 13,00000000000| 14,00000000000| 11,00000000000|  9,00000000000| 11,00000000000| 11,00000000000|  9,00000000000|  9,00000000000| 14,00000000000|  7,00000000000|  6,00000000000|  9,00000000000|  7,00000000000|  7,00000000000| 11,00000000000| 11,00000000000|  6,00000000000|  6,00000000000|  7,00000000000| 11,00000000000| 11,00000000000|  0,00000000000|  3,00000000000|  3,00000000000|  3,00000000000|  6,00000000000| 10,00000000000|  9,00000000000|  6,00000000000| 11,00000000000
Brown_Bear                | 14,00000000000| 14,00000000000| 14,00000000000| 15,00000000000| 12,00000000000| 10,00000000000| 12,00000000000| 12,00000000000| 10,00000000000| 10,00000000000| 15,00000000000|  8,00000000000|  7,00000000000| 10,00000000000|  8,00000000000|  8,00000000000| 12,00000000000| 12,00000000000|  7,00000000000|  7,00000000000|  8,00000000000| 12,00000000000| 12,00000000000|  3,00000000000|  0,00000000000|  2,00000000000|  4,00000000000|  7,00000000000| 11,00000000000| 10,00000000000|  7,00000000000| 12,00000000000
Polar_Bear                | 14,00000000000| 14,00000000000| 14,00000000000| 15,00000000000| 12,00000000000| 10,00000000000| 12,00000000000| 12,00000000000| 10,00000000000| 10,00000000000| 15,00000000000|  8,00000000000|  7,00000000000| 10,00000000000|  8,00000000000|  8,00000000000| 12,00000000000| 12,00000000000|  7,00000000000|  7,00000000000|  8,00000000000| 12,00000000000| 12,00000000000|  3,00000000000|  2,00000000000|  0,00000000000|  4,00000000000|  7,00000000000| 11,00000000000| 10,00000000000|  7,00000000000| 12,00000000000
Giant_Panda               | 12,00000000000| 12,00000000000| 12,00000000000| 13,00000000000| 10,00000000000|  8,00000000000| 10,00000000000| 10,00000000000|  8,00000000000|  8,00000000000| 13,00000000000|  6,00000000000|  5,00000000000|  8,00000000000|  6,00000000000|  6,00000000000| 10,00000000000| 10,00000000000|  5,00000000000|  5,00000000000|  6,00000000000| 10,00000000000| 10,00000000000|  3,00000000000|  4,00000000000|  4,00000000000|  0,00000000000|  5,00000000000|  9,00000000000|  8,00000000000|  5,00000000000| 10,00000000000
Rabbit                    | 11,00000000000| 11,00000000000| 11,00000000000| 12,00000000000|  9,00000000000|  7,00000000000|  9,00000000000|  9,00000000000|  7,00000000000|  7,00000000000| 12,00000000000|  7,00000000000|  6,00000000000|  7,00000000000|  5,00000000000|  5,00000000000|  9,00000000000|  9,00000000000|  6,00000000000|  6,00000000000|  7,00000000000|  9,00000000000|  9,00000000000|  6,00000000000|  7,00000000000|  7,00000000000|  5,00000000000|  0,00000000000|  8,00000000000|  7,00000000000|  2,00000000000|  9,00000000000
Hedgehog                  | 11,00000000000| 11,00000000000| 11,00000000000| 12,00000000000|  9,00000000000|  7,00000000000|  9,00000000000|  9,00000000000|  5,00000000000|  5,00000000000| 12,00000000000| 11,00000000000| 10,00000000000|  7,00000000000|  7,00000000000|  7,00000000000|  9,00000000000|  9,00000000000| 10,00000000000| 10,00000000000| 11,00000000000|  9,00000000000|  9,00000000000| 10,00000000000| 11,00000000000| 11,00000000000|  9,00000000000|  8,00000000000|  0,00000000000|  3,00000000000|  8,00000000000|  3,00000000000
Dormouse                  | 10,00000000000| 10,00000000000| 10,00000000000| 11,00000000000|  8,00000000000|  6,00000000000|  8,00000000000|  8,00000000000|  4,00000000000|  4,00000000000| 11,00000000000| 10,00000000000|  9,00000000000|  6,00000000000|  6,00000000000|  6,00000000000|  8,00000000000|  8,00000000000|  9,00000000000|  9,00000000000| 10,00000000000|  8,00000000000|  8,00000000000|  9,00000000000| 10,00000000000| 10,00000000000|  8,00000000000|  7,00000000000|  3,00000000000|  0,00000000000|  7,00000000000|  4,00000000000
Squirrel                  | 11,00000000000| 11,00000000000| 11,00000000000| 12,00000000000|  9,00000000000|  7,00000000000|  9,00000000000|  9,00000000000|  7,00000000000|  7,00000000000| 12,00000000000|  7,00000000000|  6,00000000000|  7,00000000000|  5,00000000000|  5,00000000000|  9,00000000000|  9,00000000000|  6,00000000000|  6,00000000000|  7,00000000000|  9,00000000000|  9,00000000000|  6,00000000000|  7,00000000000|  7,00000000000|  5,00000000000|  2,00000000000|  8,00000000000|  7,00000000000|  0,00000000000|  9,00000000000
Blue_Whale                | 12,00000000000| 12,00000000000| 12,00000000000| 13,00000000000| 10,00000000000|  8,00000000000| 10,00000000000| 10,00000000000|  6,00000000000|  6,00000000000| 13,00000000000| 12,00000000000| 11,00000000000|  8,00000000000|  8,00000000000|  8,00000000000| 10,00000000000| 10,00000000000| 11,00000000000| 11,00000000000| 12,00000000000| 10,00000000000| 10,00000000000| 11,00000000000| 12,00000000000| 12,00000000000| 10,00000000000|  9,00000000000|  3,00000000000|  4,00000000000|  9,00000000000|  0,00000000000
