                           |Human          |Pig_Chim       |Com_Chim       |Gibbon         |Baboon         |Ver_Monkey     |Macaca_Thibet  |Bor_Oran       |Sum_Oran       |Gorilla        |Cat            |Dog            |Pig            |Sheep          |Goat           |Cow            |Buffalo        |Wolf           |Tiger          |Leopard        |Indian_Rhino   |White_Rhino    |Black_Bear     |Brown_Bear     |Polar_Bear     |Giant_Panda    |Rabbit         |Hedgehog       |Dormouse       |Squirrel       |Blue_Whale     
Human                     |  0,00000000000|27120,42859984747|39202,39382926740|39202,39382926740|49067,00260565040|49067,00260565040|51657,54990572128|51657,54990572128|64808,81777364176|53604,49316834068|50513,44339492155|55508,02858649196|55845,07359840744|55508,02858649196|55508,02858649196|55508,02858649196|55508,02858649196|55508,02858649196|55845,07359840744|55845,07359840744|55508,02858649196|55508,02858649196|55508,02858649196|57759,31465266881|57759,31465266881|57759,31465266881|57759,31465266881|55845,07359840744|65245,47478039417|56153,75041143564|55845,07359840744
Pig_Chim                  |27120,42859984747|  0,00000000000|39202,39382926740|39202,39382926740|49067,00260565040|49067,00260565040|51657,54990572128|51657,54990572128|64808,81777364176|53604,49316834068|50513,44339492155|55508,02858649196|55845,07359840744|55508,02858649196|55508,02858649196|55508,02858649196|55508,02858649196|55508,02858649196|55845,07359840744|55845,07359840744|55508,02858649196|55508,02858649196|55508,02858649196|57759,31465266881|57759,31465266881|57759,31465266881|57759,31465266881|55845,07359840744|65245,47478039417|56153,75041143564|55845,07359840744
Com_Chim                  |39202,39382926740|39202,39382926740|  0,00000000000|31712,61343470937|49067,00260565040|49067,00260565040|51657,54990572128|51657,54990572128|64808,81777364176|53604,49316834068|50513,44339492155|55508,02858649196|55845,07359840744|55508,02858649196|55508,02858649196|55508,02858649196|55508,02858649196|55508,02858649196|55845,07359840744|55845,07359840744|55508,02858649196|55508,02858649196|55508,02858649196|57759,31465266881|57759,31465266881|57759,31465266881|57759,31465266881|55845,07359840744|65245,47478039417|56153,75041143564|55845,07359840744
Gibbon                    |39202,39382926740|39202,39382926740|31712,61343470937|  0,00000000000|49067,00260565040|49067,00260565040|51657,54990572128|51657,54990572128|64808,81777364176|53604,49316834068|50513,44339492155|55508,02858649196|55845,07359840744|55508,02858649196|55508,02858649196|55508,02858649196|55508,02858649196|55508,02858649196|55845,07359840744|55845,07359840744|55508,02858649196|55508,02858649196|55508,02858649196|57759,31465266881|57759,31465266881|57759,31465266881|57759,31465266881|55845,07359840744|65245,47478039417|56153,75041143564|55845,07359840744
Baboon                    |49067,00260565040|49067,00260565040|49067,00260565040|49067,00260565040|  0,00000000000|48676,97319244719|51657,54990572128|51657,54990572128|64808,81777364176|53604,49316834068|50513,44339492155|55508,02858649196|55845,07359840744|55508,02858649196|55508,02858649196|55508,02858649196|55508,02858649196|55508,02858649196|55845,07359840744|55845,07359840744|55508,02858649196|55508,02858649196|55508,02858649196|57759,31465266881|57759,31465266881|57759,31465266881|57759,31465266881|55845,07359840744|65245,47478039417|56153,75041143564|55845,07359840744
Ver_Monkey                |49067,00260565040|49067,00260565040|49067,00260565040|49067,00260565040|48676,97319244719|  0,00000000000|51657,54990572128|51657,54990572128|64808,81777364176|53604,49316834068|50513,44339492155|55508,02858649196|55845,07359840744|55508,02858649196|55508,02858649196|55508,02858649196|55508,02858649196|55508,02858649196|55845,07359840744|55845,07359840744|55508,02858649196|55508,02858649196|55508,02858649196|57759,31465266881|57759,31465266881|57759,31465266881|57759,31465266881|55845,07359840744|65245,47478039417|56153,75041143564|55845,07359840744
Macaca_Thibet             |51657,54990572128|51657,54990572128|51657,54990572128|51657,54990572128|51657,54990572128|51657,54990572128|  0,00000000000|49556,22052729069|64808,81777364176|53604,49316834068|51657,54990572128|55508,02858649196|55845,07359840744|55508,02858649196|55508,02858649196|55508,02858649196|55508,02858649196|55508,02858649196|55845,07359840744|55845,07359840744|55508,02858649196|55508,02858649196|55508,02858649196|57759,31465266881|57759,31465266881|57759,31465266881|57759,31465266881|55845,07359840744|65245,47478039417|56153,75041143564|55845,07359840744
Bor_Oran                  |51657,54990572128|51657,54990572128|51657,54990572128|51657,54990572128|51657,54990572128|51657,54990572128|49556,22052729069|  0,00000000000|64808,81777364176|53604,49316834068|51657,54990572128|55508,02858649196|55845,07359840744|55508,02858649196|55508,02858649196|55508,02858649196|55508,02858649196|55508,02858649196|55845,07359840744|55845,07359840744|55508,02858649196|55508,02858649196|55508,02858649196|57759,31465266881|57759,31465266881|57759,31465266881|57759,31465266881|55845,07359840744|65245,47478039417|56153,75041143564|55845,07359840744
Sum_Oran                  |64808,81777364176|64808,81777364176|64808,81777364176|64808,81777364176|64808,81777364176|64808,81777364176|64808,81777364176|64808,81777364176|  0,00000000000|64808,81777364176|64808,81777364176|64808,81777364176|64808,81777364176|64808,81777364176|64808,81777364176|64808,81777364176|64808,81777364176|64808,81777364176|64808,81777364176|64808,81777364176|64808,81777364176|64808,81777364176|64808,81777364176|64808,81777364176|64808,81777364176|64808,81777364176|64808,81777364176|64808,81777364176|65245,47478039417|64808,81777364176|64808,81777364176
Gorilla                   |53604,49316834068|53604,49316834068|53604,49316834068|53604,49316834068|53604,49316834068|53604,49316834068|53604,49316834068|53604,49316834068|64808,81777364176|  0,00000000000|53604,49316834068|55508,02858649196|55845,07359840744|55508,02858649196|55508,02858649196|55508,02858649196|55508,02858649196|55508,02858649196|55845,07359840744|55845,07359840744|55508,02858649196|55508,02858649196|55508,02858649196|57759,31465266881|57759,31465266881|57759,31465266881|57759,31465266881|55845,07359840744|65245,47478039417|56153,75041143564|55845,07359840744
Cat                       |50513,44339492155|50513,44339492155|50513,44339492155|50513,44339492155|50513,44339492155|50513,44339492155|51657,54990572128|51657,54990572128|64808,81777364176|53604,49316834068|  0,00000000000|55508,02858649196|55845,07359840744|55508,02858649196|55508,02858649196|55508,02858649196|55508,02858649196|55508,02858649196|55845,07359840744|55845,07359840744|55508,02858649196|55508,02858649196|55508,02858649196|57759,31465266881|57759,31465266881|57759,31465266881|57759,31465266881|55845,07359840744|65245,47478039417|56153,75041143564|55845,07359840744
Dog                       |55508,02858649196|55508,02858649196|55508,02858649196|55508,02858649196|55508,02858649196|55508,02858649196|55508,02858649196|55508,02858649196|64808,81777364176|55508,02858649196|55508,02858649196|  0,00000000000|55845,07359840744|53488,37326735068|50807,03321739085|50807,03321739085|53488,37326735068|53488,37326735068|55845,07359840744|55845,07359840744|43487,97509962093|53488,37326735068|53488,37326735068|57759,31465266881|57759,31465266881|57759,31465266881|57759,31465266881|55845,07359840744|65245,47478039417|56153,75041143564|55845,07359840744
Pig                       |55845,07359840744|55845,07359840744|55845,07359840744|55845,07359840744|55845,07359840744|55845,07359840744|55845,07359840744|55845,07359840744|64808,81777364176|55845,07359840744|55845,07359840744|55845,07359840744|  0,00000000000|55845,07359840744|55845,07359840744|55845,07359840744|55845,07359840744|55845,07359840744|45180,56353941708|55244,29848877931|55845,07359840744|55845,07359840744|55845,07359840744|57759,31465266881|57759,31465266881|57759,31465266881|57759,31465266881|52528,60465572809|65245,47478039417|56153,75041143564|53627,41111359142
Sheep                     |55508,02858649196|55508,02858649196|55508,02858649196|55508,02858649196|55508,02858649196|55508,02858649196|55508,02858649196|55508,02858649196|64808,81777364176|55508,02858649196|55508,02858649196|53488,37326735068|55845,07359840744|  0,00000000000|53488,37326735068|53488,37326735068|50913,53234353980|50913,53234353980|55845,07359840744|55845,07359840744|53488,37326735068|50913,53234353980|50913,53234353980|57759,31465266881|57759,31465266881|57759,31465266881|57759,31465266881|55845,07359840744|65245,47478039417|56153,75041143564|55845,07359840744
Goat                      |55508,02858649196|55508,02858649196|55508,02858649196|55508,02858649196|55508,02858649196|55508,02858649196|55508,02858649196|55508,02858649196|64808,81777364176|55508,02858649196|55508,02858649196|50807,03321739085|55845,07359840744|53488,37326735068|  0,00000000000|44940,33291935692|53488,37326735068|53488,37326735068|55845,07359840744|55845,07359840744|50807,03321739085|53488,37326735068|53488,37326735068|57759,31465266881|57759,31465266881|57759,31465266881|57759,31465266881|55845,07359840744|65245,47478039417|56153,75041143564|55845,07359840744
Cow                       |55508,02858649196|55508,02858649196|55508,02858649196|55508,02858649196|55508,02858649196|55508,02858649196|55508,02858649196|55508,02858649196|64808,81777364176|55508,02858649196|55508,02858649196|50807,03321739085|55845,07359840744|53488,37326735068|44940,33291935692|  0,00000000000|53488,37326735068|53488,37326735068|55845,07359840744|55845,07359840744|50807,03321739085|53488,37326735068|53488,37326735068|57759,31465266881|57759,31465266881|57759,31465266881|57759,31465266881|55845,07359840744|65245,47478039417|56153,75041143564|55845,07359840744
Buffalo                   |55508,02858649196|55508,02858649196|55508,02858649196|55508,02858649196|55508,02858649196|55508,02858649196|55508,02858649196|55508,02858649196|64808,81777364176|55508,02858649196|55508,02858649196|53488,37326735068|55845,07359840744|50913,53234353980|53488,37326735068|53488,37326735068|  0,00000000000|48377,66359146239|55845,07359840744|55845,07359840744|53488,37326735068|50237,48543812092|50237,48543812092|57759,31465266881|57759,31465266881|57759,31465266881|57759,31465266881|55845,07359840744|65245,47478039417|56153,75041143564|55845,07359840744
Wolf                      |55508,02858649196|55508,02858649196|55508,02858649196|55508,02858649196|55508,02858649196|55508,02858649196|55508,02858649196|55508,02858649196|64808,81777364176|55508,02858649196|55508,02858649196|53488,37326735068|55845,07359840744|50913,53234353980|53488,37326735068|53488,37326735068|48377,66359146239|  0,00000000000|55845,07359840744|55845,07359840744|53488,37326735068|50237,48543812092|50237,48543812092|57759,31465266881|57759,31465266881|57759,31465266881|57759,31465266881|55845,07359840744|65245,47478039417|56153,75041143564|55845,07359840744
Tiger                     |55845,07359840744|55845,07359840744|55845,07359840744|55845,07359840744|55845,07359840744|55845,07359840744|55845,07359840744|55845,07359840744|64808,81777364176|55845,07359840744|55845,07359840744|55845,07359840744|45180,56353941708|55845,07359840744|55845,07359840744|55845,07359840744|55845,07359840744|55845,07359840744|  0,00000000000|55244,29848877931|55845,07359840744|55845,07359840744|55845,07359840744|57759,31465266881|57759,31465266881|57759,31465266881|57759,31465266881|52528,60465572809|65245,47478039417|56153,75041143564|53627,41111359142
Leopard                   |55845,07359840744|55845,07359840744|55845,07359840744|55845,07359840744|55845,07359840744|55845,07359840744|55845,07359840744|55845,07359840744|64808,81777364176|55845,07359840744|55845,07359840744|55845,07359840744|55244,29848877931|55845,07359840744|55845,07359840744|55845,07359840744|55845,07359840744|55845,07359840744|55244,29848877931|  0,00000000000|55845,07359840744|55845,07359840744|55845,07359840744|57759,31465266881|57759,31465266881|57759,31465266881|57759,31465266881|55244,29848877931|65245,47478039417|56153,75041143564|55244,29848877931
Indian_Rhino              |55508,02858649196|55508,02858649196|55508,02858649196|55508,02858649196|55508,02858649196|55508,02858649196|55508,02858649196|55508,02858649196|64808,81777364176|55508,02858649196|55508,02858649196|43487,97509962093|55845,07359840744|53488,37326735068|50807,03321739085|50807,03321739085|53488,37326735068|53488,37326735068|55845,07359840744|55845,07359840744|  0,00000000000|53488,37326735068|53488,37326735068|57759,31465266881|57759,31465266881|57759,31465266881|57759,31465266881|55845,07359840744|65245,47478039417|56153,75041143564|55845,07359840744
White_Rhino               |55508,02858649196|55508,02858649196|55508,02858649196|55508,02858649196|55508,02858649196|55508,02858649196|55508,02858649196|55508,02858649196|64808,81777364176|55508,02858649196|55508,02858649196|53488,37326735068|55845,07359840744|50913,53234353980|53488,37326735068|53488,37326735068|50237,48543812092|50237,48543812092|55845,07359840744|55845,07359840744|53488,37326735068|  0,00000000000|47699,35888812674|57759,31465266881|57759,31465266881|57759,31465266881|57759,31465266881|55845,07359840744|65245,47478039417|56153,75041143564|55845,07359840744
Black_Bear                |55508,02858649196|55508,02858649196|55508,02858649196|55508,02858649196|55508,02858649196|55508,02858649196|55508,02858649196|55508,02858649196|64808,81777364176|55508,02858649196|55508,02858649196|53488,37326735068|55845,07359840744|50913,53234353980|53488,37326735068|53488,37326735068|50237,48543812092|50237,48543812092|55845,07359840744|55845,07359840744|53488,37326735068|47699,35888812674|  0,00000000000|57759,31465266881|57759,31465266881|57759,31465266881|57759,31465266881|55845,07359840744|65245,47478039417|56153,75041143564|55845,07359840744
Brown_Bear                |57759,31465266881|57759,31465266881|57759,31465266881|57759,31465266881|57759,31465266881|57759,31465266881|57759,31465266881|57759,31465266881|64808,81777364176|57759,31465266881|57759,31465266881|57759,31465266881|57759,31465266881|57759,31465266881|57759,31465266881|57759,31465266881|57759,31465266881|57759,31465266881|57759,31465266881|57759,31465266881|57759,31465266881|57759,31465266881|57759,31465266881|  0,00000000000|40013,21615777764|40013,21615777764|55374,17101130375|57759,31465266881|65245,47478039417|57759,31465266881|57759,31465266881
Polar_Bear                |57759,31465266881|57759,31465266881|57759,31465266881|57759,31465266881|57759,31465266881|57759,31465266881|57759,31465266881|57759,31465266881|64808,81777364176|57759,31465266881|57759,31465266881|57759,31465266881|57759,31465266881|57759,31465266881|57759,31465266881|57759,31465266881|57759,31465266881|57759,31465266881|57759,31465266881|57759,31465266881|57759,31465266881|57759,31465266881|57759,31465266881|40013,21615777764|  0,00000000000|39459,21319172351|55374,17101130375|57759,31465266881|65245,47478039417|57759,31465266881|57759,31465266881
Giant_Panda               |57759,31465266881|57759,31465266881|57759,31465266881|57759,31465266881|57759,31465266881|57759,31465266881|57759,31465266881|57759,31465266881|64808,81777364176|57759,31465266881|57759,31465266881|57759,31465266881|57759,31465266881|57759,31465266881|57759,31465266881|57759,31465266881|57759,31465266881|57759,31465266881|57759,31465266881|57759,31465266881|57759,31465266881|57759,31465266881|57759,31465266881|40013,21615777764|39459,21319172351|  0,00000000000|55374,17101130375|57759,31465266881|65245,47478039417|57759,31465266881|57759,31465266881
Rabbit                    |57759,31465266881|57759,31465266881|57759,31465266881|57759,31465266881|57759,31465266881|57759,31465266881|57759,31465266881|57759,31465266881|64808,81777364176|57759,31465266881|57759,31465266881|57759,31465266881|57759,31465266881|57759,31465266881|57759,31465266881|57759,31465266881|57759,31465266881|57759,31465266881|57759,31465266881|57759,31465266881|57759,31465266881|57759,31465266881|57759,31465266881|55374,17101130375|55374,17101130375|55374,17101130375|  0,00000000000|57759,31465266881|65245,47478039417|57759,31465266881|57759,31465266881
Hedgehog                  |55845,07359840744|55845,07359840744|55845,07359840744|55845,07359840744|55845,07359840744|55845,07359840744|55845,07359840744|55845,07359840744|64808,81777364176|55845,07359840744|55845,07359840744|55845,07359840744|52528,60465572809|55845,07359840744|55845,07359840744|55845,07359840744|55845,07359840744|55845,07359840744|52528,60465572809|55244,29848877931|55845,07359840744|55845,07359840744|55845,07359840744|57759,31465266881|57759,31465266881|57759,31465266881|57759,31465266881|  0,00000000000|65245,47478039417|56153,75041143564|53627,41111359142
Dormouse                  |65245,47478039417|65245,47478039417|65245,47478039417|65245,47478039417|65245,47478039417|65245,47478039417|65245,47478039417|65245,47478039417|65245,47478039417|65245,47478039417|65245,47478039417|65245,47478039417|65245,47478039417|65245,47478039417|65245,47478039417|65245,47478039417|65245,47478039417|65245,47478039417|65245,47478039417|65245,47478039417|65245,47478039417|65245,47478039417|65245,47478039417|65245,47478039417|65245,47478039417|65245,47478039417|65245,47478039417|65245,47478039417|  0,00000000000|65245,47478039417|65245,47478039417
Squirrel                  |56153,75041143564|56153,75041143564|56153,75041143564|56153,75041143564|56153,75041143564|56153,75041143564|56153,75041143564|56153,75041143564|64808,81777364176|56153,75041143564|56153,75041143564|56153,75041143564|56153,75041143564|56153,75041143564|56153,75041143564|56153,75041143564|56153,75041143564|56153,75041143564|56153,75041143564|56153,75041143564|56153,75041143564|56153,75041143564|56153,75041143564|57759,31465266881|57759,31465266881|57759,31465266881|57759,31465266881|56153,75041143564|65245,47478039417|  0,00000000000|56153,75041143564
Blue_Whale                |55845,07359840744|55845,07359840744|55845,07359840744|55845,07359840744|55845,07359840744|55845,07359840744|55845,07359840744|55845,07359840744|64808,81777364176|55845,07359840744|55845,07359840744|55845,07359840744|53627,41111359142|55845,07359840744|55845,07359840744|55845,07359840744|55845,07359840744|55845,07359840744|53627,41111359142|55244,29848877931|55845,07359840744|55845,07359840744|55845,07359840744|57759,31465266881|57759,31465266881|57759,31465266881|57759,31465266881|53627,41111359142|65245,47478039417|56153,75041143564|  0,00000000000
                           |Human          |Pig_Chim       |Com_Chim       |Gibbon         |Baboon         |Ver_Monkey     |Macaca_Thibet  |Bor_Oran       |Sum_Oran       |Gorilla        |Cat            |Dog            |Pig            |Sheep          |Goat           |Cow            |Buffalo        |Wolf           |Tiger          |Leopard        |Indian_Rhino   |White_Rhino    |Black_Bear     |Brown_Bear     |Polar_Bear     |Giant_Panda    |Rabbit         |Hedgehog       |Dormouse       |Squirrel       |Blue_Whale     
Human                     |  0,00000000000|  3,86125702566|  6,40737362560|  6,40737362560|  8,48621127168|  8,48621127168|  9,03213532943|  9,03213532943| 11,80359351467|  9,44242823013|  8,79102980364|  9,84357349373|  9,91460133427|  9,84357349373|  9,84357349373|  9,84357349373|  9,84357349373|  9,84357349373|  9,91460133427|  9,91460133427|  9,84357349373|  9,84357349373|  9,84357349373| 10,31800267106| 10,31800267106| 10,31800267106| 10,31800267106|  9,91460133427| 11,89561328399|  9,97965094687|  9,91460133427
Pig_Chim                  |  3,86125702566|  0,00000000000|  6,40737362560|  6,40737362560|  8,48621127168|  8,48621127168|  9,03213532943|  9,03213532943| 11,80359351467|  9,44242823013|  8,79102980364|  9,84357349373|  9,91460133427|  9,84357349373|  9,84357349373|  9,84357349373|  9,84357349373|  9,84357349373|  9,91460133427|  9,91460133427|  9,84357349373|  9,84357349373|  9,84357349373| 10,31800267106| 10,31800267106| 10,31800267106| 10,31800267106|  9,91460133427| 11,89561328399|  9,97965094687|  9,91460133427
Com_Chim                  |  6,40737362560|  6,40737362560|  0,00000000000|  4,82900008865|  8,48621127168|  8,48621127168|  9,03213532943|  9,03213532943| 11,80359351467|  9,44242823013|  8,79102980364|  9,84357349373|  9,91460133427|  9,84357349373|  9,84357349373|  9,84357349373|  9,84357349373|  9,84357349373|  9,91460133427|  9,91460133427|  9,84357349373|  9,84357349373|  9,84357349373| 10,31800267106| 10,31800267106| 10,31800267106| 10,31800267106|  9,91460133427| 11,89561328399|  9,97965094687|  9,91460133427
Gibbon                    |  6,40737362560|  6,40737362560|  4,82900008865|  0,00000000000|  8,48621127168|  8,48621127168|  9,03213532943|  9,03213532943| 11,80359351467|  9,44242823013|  8,79102980364|  9,84357349373|  9,91460133427|  9,84357349373|  9,84357349373|  9,84357349373|  9,84357349373|  9,84357349373|  9,91460133427|  9,91460133427|  9,84357349373|  9,84357349373|  9,84357349373| 10,31800267106| 10,31800267106| 10,31800267106| 10,31800267106|  9,91460133427| 11,89561328399|  9,97965094687|  9,91460133427
Baboon                    |  8,48621127168|  8,48621127168|  8,48621127168|  8,48621127168|  0,00000000000|  8,40401765958|  9,03213532943|  9,03213532943| 11,80359351467|  9,44242823013|  8,79102980364|  9,84357349373|  9,91460133427|  9,84357349373|  9,84357349373|  9,84357349373|  9,84357349373|  9,84357349373|  9,91460133427|  9,91460133427|  9,84357349373|  9,84357349373|  9,84357349373| 10,31800267106| 10,31800267106| 10,31800267106| 10,31800267106|  9,91460133427| 11,89561328399|  9,97965094687|  9,91460133427
Ver_Monkey                |  8,48621127168|  8,48621127168|  8,48621127168|  8,48621127168|  8,40401765958|  0,00000000000|  9,03213532943|  9,03213532943| 11,80359351467|  9,44242823013|  8,79102980364|  9,84357349373|  9,91460133427|  9,84357349373|  9,84357349373|  9,84357349373|  9,84357349373|  9,84357349373|  9,91460133427|  9,91460133427|  9,84357349373|  9,84357349373|  9,84357349373| 10,31800267106| 10,31800267106| 10,31800267106| 10,31800267106|  9,91460133427| 11,89561328399|  9,97965094687|  9,91460133427
Macaca_Thibet             |  9,03213532943|  9,03213532943|  9,03213532943|  9,03213532943|  9,03213532943|  9,03213532943|  0,00000000000|  8,58930756832| 11,80359351467|  9,44242823013|  9,03213532943|  9,84357349373|  9,91460133427|  9,84357349373|  9,84357349373|  9,84357349373|  9,84357349373|  9,84357349373|  9,91460133427|  9,91460133427|  9,84357349373|  9,84357349373|  9,84357349373| 10,31800267106| 10,31800267106| 10,31800267106| 10,31800267106|  9,91460133427| 11,89561328399|  9,97965094687|  9,91460133427
Bor_Oran                  |  9,03213532943|  9,03213532943|  9,03213532943|  9,03213532943|  9,03213532943|  9,03213532943|  8,58930756832|  0,00000000000| 11,80359351467|  9,44242823013|  9,03213532943|  9,84357349373|  9,91460133427|  9,84357349373|  9,84357349373|  9,84357349373|  9,84357349373|  9,84357349373|  9,91460133427|  9,91460133427|  9,84357349373|  9,84357349373|  9,84357349373| 10,31800267106| 10,31800267106| 10,31800267106| 10,31800267106|  9,91460133427| 11,89561328399|  9,97965094687|  9,91460133427
Sum_Oran                  | 11,80359351467| 11,80359351467| 11,80359351467| 11,80359351467| 11,80359351467| 11,80359351467| 11,80359351467| 11,80359351467|  0,00000000000| 11,80359351467| 11,80359351467| 11,80359351467| 11,80359351467| 11,80359351467| 11,80359351467| 11,80359351467| 11,80359351467| 11,80359351467| 11,80359351467| 11,80359351467| 11,80359351467| 11,80359351467| 11,80359351467| 11,80359351467| 11,80359351467| 11,80359351467| 11,80359351467| 11,80359351467| 11,89561328399| 11,80359351467| 11,80359351467
Gorilla                   |  9,44242823013|  9,44242823013|  9,44242823013|  9,44242823013|  9,44242823013|  9,44242823013|  9,44242823013|  9,44242823013| 11,80359351467|  0,00000000000|  9,44242823013|  9,84357349373|  9,91460133427|  9,84357349373|  9,84357349373|  9,84357349373|  9,84357349373|  9,84357349373|  9,91460133427|  9,91460133427|  9,84357349373|  9,84357349373|  9,84357349373| 10,31800267106| 10,31800267106| 10,31800267106| 10,31800267106|  9,91460133427| 11,89561328399|  9,97965094687|  9,91460133427
Cat                       |  8,79102980364|  8,79102980364|  8,79102980364|  8,79102980364|  8,79102980364|  8,79102980364|  9,03213532943|  9,03213532943| 11,80359351467|  9,44242823013|  0,00000000000|  9,84357349373|  9,91460133427|  9,84357349373|  9,84357349373|  9,84357349373|  9,84357349373|  9,84357349373|  9,91460133427|  9,91460133427|  9,84357349373|  9,84357349373|  9,84357349373| 10,31800267106| 10,31800267106| 10,31800267106| 10,31800267106|  9,91460133427| 11,89561328399|  9,97965094687|  9,91460133427
Dog                       |  9,84357349373|  9,84357349373|  9,84357349373|  9,84357349373|  9,84357349373|  9,84357349373|  9,84357349373|  9,84357349373| 11,80359351467|  9,84357349373|  9,84357349373|  0,00000000000|  9,91460133427|  9,41795747542|  8,85290002974|  8,85290002974|  9,41795747542|  9,41795747542|  9,91460133427|  9,91460133427|  7,31050398607|  9,41795747542|  9,41795747542| 10,31800267106| 10,31800267106| 10,31800267106| 10,31800267106|  9,91460133427| 11,89561328399|  9,97965094687|  9,91460133427
Pig                       |  9,91460133427|  9,91460133427|  9,91460133427|  9,91460133427|  9,91460133427|  9,91460133427|  9,91460133427|  9,91460133427| 11,80359351467|  9,91460133427|  9,91460133427|  9,91460133427|  0,00000000000|  9,91460133427|  9,91460133427|  9,91460133427|  9,91460133427|  9,91460133427|  7,66719492514|  9,78799581518|  9,91460133427|  9,91460133427|  9,91460133427| 10,31800267106| 10,31800267106| 10,31800267106| 10,31800267106|  9,21569875776| 11,89561328399|  9,97965094687|  9,44725788820
Sheep                     |  9,84357349373|  9,84357349373|  9,84357349373|  9,84357349373|  9,84357349373|  9,84357349373|  9,84357349373|  9,84357349373| 11,80359351467|  9,84357349373|  9,84357349373|  9,41795747542|  9,91460133427|  0,00000000000|  9,41795747542|  9,41795747542|  8,87534333163|  8,87534333163|  9,91460133427|  9,91460133427|  9,41795747542|  8,87534333163|  8,87534333163| 10,31800267106| 10,31800267106| 10,31800267106| 10,31800267106|  9,91460133427| 11,89561328399|  9,97965094687|  9,91460133427
Goat                      |  9,84357349373|  9,84357349373|  9,84357349373|  9,84357349373|  9,84357349373|  9,84357349373|  9,84357349373|  9,84357349373| 11,80359351467|  9,84357349373|  9,84357349373|  8,85290002974|  9,91460133427|  9,41795747542|  0,00000000000|  7,61656945503|  9,41795747542|  9,41795747542|  9,91460133427|  9,91460133427|  8,85290002974|  9,41795747542|  9,41795747542| 10,31800267106| 10,31800267106| 10,31800267106| 10,31800267106|  9,91460133427| 11,89561328399|  9,97965094687|  9,91460133427
Cow                       |  9,84357349373|  9,84357349373|  9,84357349373|  9,84357349373|  9,84357349373|  9,84357349373|  9,84357349373|  9,84357349373| 11,80359351467|  9,84357349373|  9,84357349373|  8,85290002974|  9,91460133427|  9,41795747542|  7,61656945503|  0,00000000000|  9,41795747542|  9,41795747542|  9,91460133427|  9,91460133427|  8,85290002974|  9,41795747542|  9,41795747542| 10,31800267106| 10,31800267106| 10,31800267106| 10,31800267106|  9,91460133427| 11,89561328399|  9,97965094687|  9,91460133427
Buffalo                   |  9,84357349373|  9,84357349373|  9,84357349373|  9,84357349373|  9,84357349373|  9,84357349373|  9,84357349373|  9,84357349373| 11,80359351467|  9,84357349373|  9,84357349373|  9,41795747542|  9,91460133427|  8,87534333163|  9,41795747542|  9,41795747542|  0,00000000000|  8,34094206475|  9,91460133427|  9,91460133427|  9,41795747542|  8,73287526327|  8,73287526327| 10,31800267106| 10,31800267106| 10,31800267106| 10,31800267106|  9,91460133427| 11,89561328399|  9,97965094687|  9,91460133427
Wolf                      |  9,84357349373|  9,84357349373|  9,84357349373|  9,84357349373|  9,84357349373|  9,84357349373|  9,84357349373|  9,84357349373| 11,80359351467|  9,84357349373|  9,84357349373|  9,41795747542|  9,91460133427|  8,87534333163|  9,41795747542|  9,41795747542|  8,34094206475|  0,00000000000|  9,91460133427|  9,91460133427|  9,41795747542|  8,73287526327|  8,73287526327| 10,31800267106| 10,31800267106| 10,31800267106| 10,31800267106|  9,91460133427| 11,89561328399|  9,97965094687|  9,91460133427
Tiger                     |  9,91460133427|  9,91460133427|  9,91460133427|  9,91460133427|  9,91460133427|  9,91460133427|  9,91460133427|  9,91460133427| 11,80359351467|  9,91460133427|  9,91460133427|  9,91460133427|  7,66719492514|  9,91460133427|  9,91460133427|  9,91460133427|  9,91460133427|  9,91460133427|  0,00000000000|  9,78799581518|  9,91460133427|  9,91460133427|  9,91460133427| 10,31800267106| 10,31800267106| 10,31800267106| 10,31800267106|  9,21569875776| 11,89561328399|  9,97965094687|  9,44725788820
Leopard                   |  9,91460133427|  9,91460133427|  9,91460133427|  9,91460133427|  9,91460133427|  9,91460133427|  9,91460133427|  9,91460133427| 11,80359351467|  9,91460133427|  9,91460133427|  9,91460133427|  9,78799581518|  9,91460133427|  9,91460133427|  9,91460133427|  9,91460133427|  9,91460133427|  9,78799581518|  0,00000000000|  9,91460133427|  9,91460133427|  9,91460133427| 10,31800267106| 10,31800267106| 10,31800267106| 10,31800267106|  9,78799581518| 11,89561328399|  9,97965094687|  9,78799581518
Indian_Rhino              |  9,84357349373|  9,84357349373|  9,84357349373|  9,84357349373|  9,84357349373|  9,84357349373|  9,84357349373|  9,84357349373| 11,80359351467|  9,84357349373|  9,84357349373|  7,31050398607|  9,91460133427|  9,41795747542|  8,85290002974|  8,85290002974|  9,41795747542|  9,41795747542|  9,91460133427|  9,91460133427|  0,00000000000|  9,41795747542|  9,41795747542| 10,31800267106| 10,31800267106| 10,31800267106| 10,31800267106|  9,91460133427| 11,89561328399|  9,97965094687|  9,91460133427
White_Rhino               |  9,84357349373|  9,84357349373|  9,84357349373|  9,84357349373|  9,84357349373|  9,84357349373|  9,84357349373|  9,84357349373| 11,80359351467|  9,84357349373|  9,84357349373|  9,41795747542|  9,91460133427|  8,87534333163|  9,41795747542|  9,41795747542|  8,73287526327|  8,73287526327|  9,91460133427|  9,91460133427|  9,41795747542|  0,00000000000|  8,19799819493| 10,31800267106| 10,31800267106| 10,31800267106| 10,31800267106|  9,91460133427| 11,89561328399|  9,97965094687|  9,91460133427
Black_Bear                |  9,84357349373|  9,84357349373|  9,84357349373|  9,84357349373|  9,84357349373|  9,84357349373|  9,84357349373|  9,84357349373| 11,80359351467|  9,84357349373|  9,84357349373|  9,41795747542|  9,91460133427|  8,87534333163|  9,41795747542|  9,41795747542|  8,73287526327|  8,73287526327|  9,91460133427|  9,91460133427|  9,41795747542|  8,19799819493|  0,00000000000| 10,31800267106| 10,31800267106| 10,31800267106| 10,31800267106|  9,91460133427| 11,89561328399|  9,97965094687|  9,91460133427
Brown_Bear                | 10,31800267106| 10,31800267106| 10,31800267106| 10,31800267106| 10,31800267106| 10,31800267106| 10,31800267106| 10,31800267106| 11,80359351467| 10,31800267106| 10,31800267106| 10,31800267106| 10,31800267106| 10,31800267106| 10,31800267106| 10,31800267106| 10,31800267106| 10,31800267106| 10,31800267106| 10,31800267106| 10,31800267106| 10,31800267106| 10,31800267106|  0,00000000000|  6,57824385665|  6,57824385665|  9,81536475552| 10,31800267106| 11,89561328399| 10,31800267106| 10,31800267106
Polar_Bear                | 10,31800267106| 10,31800267106| 10,31800267106| 10,31800267106| 10,31800267106| 10,31800267106| 10,31800267106| 10,31800267106| 11,80359351467| 10,31800267106| 10,31800267106| 10,31800267106| 10,31800267106| 10,31800267106| 10,31800267106| 10,31800267106| 10,31800267106| 10,31800267106| 10,31800267106| 10,31800267106| 10,31800267106| 10,31800267106| 10,31800267106|  6,57824385665|  0,00000000000|  6,46149495682|  9,81536475552| 10,31800267106| 11,89561328399| 10,31800267106| 10,31800267106
Giant_Panda               | 10,31800267106| 10,31800267106| 10,31800267106| 10,31800267106| 10,31800267106| 10,31800267106| 10,31800267106| 10,31800267106| 11,80359351467| 10,31800267106| 10,31800267106| 10,31800267106| 10,31800267106| 10,31800267106| 10,31800267106| 10,31800267106| 10,31800267106| 10,31800267106| 10,31800267106| 10,31800267106| 10,31800267106| 10,31800267106| 10,31800267106|  6,57824385665|  6,46149495682|  0,00000000000|  9,81536475552| 10,31800267106| 11,89561328399| 10,31800267106| 10,31800267106
Rabbit                    | 10,31800267106| 10,31800267106| 10,31800267106| 10,31800267106| 10,31800267106| 10,31800267106| 10,31800267106| 10,31800267106| 11,80359351467| 10,31800267106| 10,31800267106| 10,31800267106| 10,31800267106| 10,31800267106| 10,31800267106| 10,31800267106| 10,31800267106| 10,31800267106| 10,31800267106| 10,31800267106| 10,31800267106| 10,31800267106| 10,31800267106|  9,81536475552|  9,81536475552|  9,81536475552|  0,00000000000| 10,31800267106| 11,89561328399| 10,31800267106| 10,31800267106
Hedgehog                  |  9,91460133427|  9,91460133427|  9,91460133427|  9,91460133427|  9,91460133427|  9,91460133427|  9,91460133427|  9,91460133427| 11,80359351467|  9,91460133427|  9,91460133427|  9,91460133427|  9,21569875776|  9,91460133427|  9,91460133427|  9,91460133427|  9,91460133427|  9,91460133427|  9,21569875776|  9,78799581518|  9,91460133427|  9,91460133427|  9,91460133427| 10,31800267106| 10,31800267106| 10,31800267106| 10,31800267106|  0,00000000000| 11,89561328399|  9,97965094687|  9,44725788820
Dormouse                  | 11,89561328399| 11,89561328399| 11,89561328399| 11,89561328399| 11,89561328399| 11,89561328399| 11,89561328399| 11,89561328399| 11,89561328399| 11,89561328399| 11,89561328399| 11,89561328399| 11,89561328399| 11,89561328399| 11,89561328399| 11,89561328399| 11,89561328399| 11,89561328399| 11,89561328399| 11,89561328399| 11,89561328399| 11,89561328399| 11,89561328399| 11,89561328399| 11,89561328399| 11,89561328399| 11,89561328399| 11,89561328399|  0,00000000000| 11,89561328399| 11,89561328399
Squirrel                  |  9,97965094687|  9,97965094687|  9,97965094687|  9,97965094687|  9,97965094687|  9,97965094687|  9,97965094687|  9,97965094687| 11,80359351467|  9,97965094687|  9,97965094687|  9,97965094687|  9,97965094687|  9,97965094687|  9,97965094687|  9,97965094687|  9,97965094687|  9,97965094687|  9,97965094687|  9,97965094687|  9,97965094687|  9,97965094687|  9,97965094687| 10,31800267106| 10,31800267106| 10,31800267106| 10,31800267106|  9,97965094687| 11,89561328399|  0,00000000000|  9,97965094687
Blue_Whale                |  9,91460133427|  9,91460133427|  9,91460133427|  9,91460133427|  9,91460133427|  9,91460133427|  9,91460133427|  9,91460133427| 11,80359351467|  9,91460133427|  9,91460133427|  9,91460133427|  9,44725788820|  9,91460133427|  9,91460133427|  9,91460133427|  9,91460133427|  9,91460133427|  9,44725788820|  9,78799581518|  9,91460133427|  9,91460133427|  9,91460133427| 10,31800267106| 10,31800267106| 10,31800267106| 10,31800267106|  9,44725788820| 11,89561328399|  9,97965094687|  0,00000000000
                           |Human          |Pig_Chim       |Com_Chim       |Gibbon         |Baboon         |Ver_Monkey     |Macaca_Thibet  |Bor_Oran       |Sum_Oran       |Gorilla        |Cat            |Dog            |Pig            |Sheep          |Goat           |Cow            |Buffalo        |Wolf           |Tiger          |Leopard        |Indian_Rhino   |White_Rhino    |Black_Bear     |Brown_Bear     |Polar_Bear     |Giant_Panda    |Rabbit         |Hedgehog       |Dormouse       |Squirrel       |Blue_Whale     
Human                     |  0,00000000000|  2,00000000000|  4,00000000000|  4,00000000000|  5,00000000000|  5,00000000000|  7,00000000000|  7,00000000000| 12,00000000000|  7,00000000000|  5,00000000000| 11,00000000000| 13,00000000000| 10,00000000000| 11,00000000000| 11,00000000000| 12,00000000000| 12,00000000000| 13,00000000000| 10,00000000000| 11,00000000000| 12,00000000000| 12,00000000000| 13,00000000000| 14,00000000000| 14,00000000000| 12,00000000000| 12,00000000000| 13,00000000000| 10,00000000000| 11,00000000000
Pig_Chim                  |  2,00000000000|  0,00000000000|  4,00000000000|  4,00000000000|  5,00000000000|  5,00000000000|  7,00000000000|  7,00000000000| 12,00000000000|  7,00000000000|  5,00000000000| 11,00000000000| 13,00000000000| 10,00000000000| 11,00000000000| 11,00000000000| 12,00000000000| 12,00000000000| 13,00000000000| 10,00000000000| 11,00000000000| 12,00000000000| 12,00000000000| 13,00000000000| 14,00000000000| 14,00000000000| 12,00000000000| 12,00000000000| 13,00000000000| 10,00000000000| 11,00000000000
Com_Chim                  |  4,00000000000|  4,00000000000|  0,00000000000|  2,00000000000|  5,00000000000|  5,00000000000|  7,00000000000|  7,00000000000| 12,00000000000|  7,00000000000|  5,00000000000| 11,00000000000| 13,00000000000| 10,00000000000| 11,00000000000| 11,00000000000| 12,00000000000| 12,00000000000| 13,00000000000| 10,00000000000| 11,00000000000| 12,00000000000| 12,00000000000| 13,00000000000| 14,00000000000| 14,00000000000| 12,00000000000| 12,00000000000| 13,00000000000| 10,00000000000| 11,00000000000
Gibbon                    |  4,00000000000|  4,00000000000|  2,00000000000|  0,00000000000|  5,00000000000|  5,00000000000|  7,00000000000|  7,00000000000| 12,00000000000|  7,00000000000|  5,00000000000| 11,00000000000| 13,00000000000| 10,00000000000| 11,00000000000| 11,00000000000| 12,00000000000| 12,00000000000| 13,00000000000| 10,00000000000| 11,00000000000| 12,00000000000| 12,00000000000| 13,00000000000| 14,00000000000| 14,00000000000| 12,00000000000| 12,00000000000| 13,00000000000| 10,00000000000| 11,00000000000
Baboon                    |  5,00000000000|  5,00000000000|  5,00000000000|  5,00000000000|  0,00000000000|  2,00000000000|  6,00000000000|  6,00000000000| 11,00000000000|  6,00000000000|  4,00000000000| 10,00000000000| 12,00000000000|  9,00000000000| 10,00000000000| 10,00000000000| 11,00000000000| 11,00000000000| 12,00000000000|  9,00000000000| 10,00000000000| 11,00000000000| 11,00000000000| 12,00000000000| 13,00000000000| 13,00000000000| 11,00000000000| 11,00000000000| 12,00000000000|  9,00000000000| 10,00000000000
Ver_Monkey                |  5,00000000000|  5,00000000000|  5,00000000000|  5,00000000000|  2,00000000000|  0,00000000000|  6,00000000000|  6,00000000000| 11,00000000000|  6,00000000000|  4,00000000000| 10,00000000000| 12,00000000000|  9,00000000000| 10,00000000000| 10,00000000000| 11,00000000000| 11,00000000000| 12,00000000000|  9,00000000000| 10,00000000000| 11,00000000000| 11,00000000000| 12,00000000000| 13,00000000000| 13,00000000000| 11,00000000000| 11,00000000000| 12,00000000000|  9,00000000000| 10,00000000000
Macaca_Thibet             |  7,00000000000|  7,00000000000|  7,00000000000|  7,00000000000|  6,00000000000|  6,00000000000|  0,00000000000|  2,00000000000|  9,00000000000|  4,00000000000|  4,00000000000|  8,00000000000| 10,00000000000|  7,00000000000|  8,00000000000|  8,00000000000|  9,00000000000|  9,00000000000| 10,00000000000|  7,00000000000|  8,00000000000|  9,00000000000|  9,00000000000| 10,00000000000| 11,00000000000| 11,00000000000|  9,00000000000|  9,00000000000| 10,00000000000|  7,00000000000|  8,00000000000
Bor_Oran                  |  7,00000000000|  7,00000000000|  7,00000000000|  7,00000000000|  6,00000000000|  6,00000000000|  2,00000000000|  0,00000000000|  9,00000000000|  4,00000000000|  4,00000000000|  8,00000000000| 10,00000000000|  7,00000000000|  8,00000000000|  8,00000000000|  9,00000000000|  9,00000000000| 10,00000000000|  7,00000000000|  8,00000000000|  9,00000000000|  9,00000000000| 10,00000000000| 11,00000000000| 11,00000000000|  9,00000000000|  9,00000000000| 10,00000000000|  7,00000000000|  8,00000000000
Sum_Oran                  | 12,00000000000| 12,00000000000| 12,00000000000| 12,00000000000| 11,00000000000| 11,00000000000|  9,00000000000|  9,00000000000|  0,00000000000|  7,00000000000|  9,00000000000|  9,00000000000|  9,00000000000|  8,00000000000|  9,00000000000|  9,00000000000| 10,00000000000| 10,00000000000|  9,00000000000|  6,00000000000|  9,00000000000| 10,00000000000| 10,00000000000|  5,00000000000|  6,00000000000|  6,00000000000|  4,00000000000|  8,00000000000|  3,00000000000|  4,00000000000|  7,00000000000
Gorilla                   |  7,00000000000|  7,00000000000|  7,00000000000|  7,00000000000|  6,00000000000|  6,00000000000|  4,00000000000|  4,00000000000|  7,00000000000|  0,00000000000|  4,00000000000|  6,00000000000|  8,00000000000|  5,00000000000|  6,00000000000|  6,00000000000|  7,00000000000|  7,00000000000|  8,00000000000|  5,00000000000|  6,00000000000|  7,00000000000|  7,00000000000|  8,00000000000|  9,00000000000|  9,00000000000|  7,00000000000|  7,00000000000|  8,00000000000|  5,00000000000|  6,00000000000
Cat                       |  5,00000000000|  5,00000000000|  5,00000000000|  5,00000000000|  4,00000000000|  4,00000000000|  4,00000000000|  4,00000000000|  9,00000000000|  4,00000000000|  0,00000000000|  8,00000000000| 10,00000000000|  7,00000000000|  8,00000000000|  8,00000000000|  9,00000000000|  9,00000000000| 10,00000000000|  7,00000000000|  8,00000000000|  9,00000000000|  9,00000000000| 10,00000000000| 11,00000000000| 11,00000000000|  9,00000000000|  9,00000000000| 10,00000000000|  7,00000000000|  8,00000000000
Dog                       | 11,00000000000| 11,00000000000| 11,00000000000| 11,00000000000| 10,00000000000| 10,00000000000|  8,00000000000|  8,00000000000|  9,00000000000|  6,00000000000|  8,00000000000|  0,00000000000| 10,00000000000|  5,00000000000|  4,00000000000|  4,00000000000|  7,00000000000|  7,00000000000| 10,00000000000|  7,00000000000|  2,00000000000|  7,00000000000|  7,00000000000| 10,00000000000| 11,00000000000| 11,00000000000|  9,00000000000|  9,00000000000| 10,00000000000|  7,00000000000|  8,00000000000
Pig                       | 13,00000000000| 13,00000000000| 13,00000000000| 13,00000000000| 12,00000000000| 12,00000000000| 10,00000000000| 10,00000000000|  9,00000000000|  8,00000000000| 10,00000000000| 10,00000000000|  0,00000000000|  9,00000000000| 10,00000000000| 10,00000000000| 11,00000000000| 11,00000000000|  2,00000000000|  5,00000000000| 10,00000000000| 11,00000000000| 11,00000000000| 10,00000000000| 11,00000000000| 11,00000000000|  9,00000000000|  3,00000000000| 10,00000000000|  7,00000000000|  4,00000000000
Sheep                     | 10,00000000000| 10,00000000000| 10,00000000000| 10,00000000000|  9,00000000000|  9,00000000000|  7,00000000000|  7,00000000000|  8,00000000000|  5,00000000000|  7,00000000000|  5,00000000000|  9,00000000000|  0,00000000000|  5,00000000000|  5,00000000000|  4,00000000000|  4,00000000000|  9,00000000000|  6,00000000000|  5,00000000000|  4,00000000000|  4,00000000000|  9,00000000000| 10,00000000000| 10,00000000000|  8,00000000000|  8,00000000000|  9,00000000000|  6,00000000000|  7,00000000000
Goat                      | 11,00000000000| 11,00000000000| 11,00000000000| 11,00000000000| 10,00000000000| 10,00000000000|  8,00000000000|  8,00000000000|  9,00000000000|  6,00000000000|  8,00000000000|  4,00000000000| 10,00000000000|  5,00000000000|  0,00000000000|  2,00000000000|  7,00000000000|  7,00000000000| 10,00000000000|  7,00000000000|  4,00000000000|  7,00000000000|  7,00000000000| 10,00000000000| 11,00000000000| 11,00000000000|  9,00000000000|  9,00000000000| 10,00000000000|  7,00000000000|  8,00000000000
Cow                       | 11,00000000000| 11,00000000000| 11,00000000000| 11,00000000000| 10,00000000000| 10,00000000000|  8,00000000000|  8,00000000000|  9,00000000000|  6,00000000000|  8,00000000000|  4,00000000000| 10,00000000000|  5,00000000000|  2,00000000000|  0,00000000000|  7,00000000000|  7,00000000000| 10,00000000000|  7,00000000000|  4,00000000000|  7,00000000000|  7,00000000000| 10,00000000000| 11,00000000000| 11,00000000000|  9,00000000000|  9,00000000000| 10,00000000000|  7,00000000000|  8,00000000000
Buffalo                   | 12,00000000000| 12,00000000000| 12,00000000000| 12,00000000000| 11,00000000000| 11,00000000000|  9,00000000000|  9,00000000000| 10,00000000000|  7,00000000000|  9,00000000000|  7,00000000000| 11,00000000000|  4,00000000000|  7,00000000000|  7,00000000000|  0,00000000000|  2,00000000000| 11,00000000000|  8,00000000000|  7,00000000000|  4,00000000000|  4,00000000000| 11,00000000000| 12,00000000000| 12,00000000000| 10,00000000000| 10,00000000000| 11,00000000000|  8,00000000000|  9,00000000000
Wolf                      | 12,00000000000| 12,00000000000| 12,00000000000| 12,00000000000| 11,00000000000| 11,00000000000|  9,00000000000|  9,00000000000| 10,00000000000|  7,00000000000|  9,00000000000|  7,00000000000| 11,00000000000|  4,00000000000|  7,00000000000|  7,00000000000|  2,00000000000|  0,00000000000| 11,00000000000|  8,00000000000|  7,00000000000|  4,00000000000|  4,00000000000| 11,00000000000| 12,00000000000| 12,00000000000| 10,00000000000| 10,00000000000| 11,00000000000|  8,00000000000|  9,00000000000
Tiger                     | 13,00000000000| 13,00000000000| 13,00000000000| 13,00000000000| 12,00000000000| 12,00000000000| 10,00000000000| 10,00000000000|  9,00000000000|  8,00000000000| 10,00000000000| 10,00000000000|  2,00000000000|  9,00000000000| 10,00000000000| 10,00000000000| 11,00000000000| 11,00000000000|  0,00000000000|  5,00000000000| 10,00000000000| 11,00000000000| 11,00000000000| 10,00000000000| 11,00000000000| 11,00000000000|  9,00000000000|  3,00000000000| 10,00000000000|  7,00000000000|  4,00000000000
Leopard                   | 10,00000000000| 10,00000000000| 10,00000000000| 10,00000000000|  9,00000000000|  9,00000000000|  7,00000000000|  7,00000000000|  6,00000000000|  5,00000000000|  7,00000000000|  7,00000000000|  5,00000000000|  6,00000000000|  7,00000000000|  7,00000000000|  8,00000000000|  8,00000000000|  5,00000000000|  0,00000000000|  7,00000000000|  8,00000000000|  8,00000000000|  7,00000000000|  8,00000000000|  8,00000000000|  6,00000000000|  4,00000000000|  7,00000000000|  4,00000000000|  3,00000000000
Indian_Rhino              | 11,00000000000| 11,00000000000| 11,00000000000| 11,00000000000| 10,00000000000| 10,00000000000|  8,00000000000|  8,00000000000|  9,00000000000|  6,00000000000|  8,00000000000|  2,00000000000| 10,00000000000|  5,00000000000|  4,00000000000|  4,00000000000|  7,00000000000|  7,00000000000| 10,00000000000|  7,00000000000|  0,00000000000|  7,00000000000|  7,00000000000| 10,00000000000| 11,00000000000| 11,00000000000|  9,00000000000|  9,00000000000| 10,00000000000|  7,00000000000|  8,00000000000
White_Rhino               | 12,00000000000| 12,00000000000| 12,00000000000| 12,00000000000| 11,00000000000| 11,00000000000|  9,00000000000|  9,00000000000| 10,00000000000|  7,00000000000|  9,00000000000|  7,00000000000| 11,00000000000|  4,00000000000|  7,00000000000|  7,00000000000|  4,00000000000|  4,00000000000| 11,00000000000|  8,00000000000|  7,00000000000|  0,00000000000|  2,00000000000| 11,00000000000| 12,00000000000| 12,00000000000| 10,00000000000| 10,00000000000| 11,00000000000|  8,00000000000|  9,00000000000
Black_Bear                | 12,00000000000| 12,00000000000| 12,00000000000| 12,00000000000| 11,00000000000| 11,00000000000|  9,00000000000|  9,00000000000| 10,00000000000|  7,00000000000|  9,00000000000|  7,00000000000| 11,00000000000|  4,00000000000|  7,00000000000|  7,00000000000|  4,00000000000|  4,00000000000| 11,00000000000|  8,00000000000|  7,00000000000|  2,00000000000|  0,00000000000| 11,00000000000| 12,00000000000| 12,00000000000| 10,00000000000| 10,00000000000| 11,00000000000|  8,00000000000|  9,00000000000
Brown_Bear                | 13,00000000000| 13,00000000000| 13,00000000000| 13,00000000000| 12,00000000000| 12,00000000000| 10,00000000000| 10,00000000000|  5,00000000000|  8,00000000000| 10,00000000000| 10,00000000000| 10,00000000000|  9,00000000000| 10,00000000000| 10,00000000000| 11,00000000000| 11,00000000000| 10,00000000000|  7,00000000000| 10,00000000000| 11,00000000000| 11,00000000000|  0,00000000000|  3,00000000000|  3,00000000000|  3,00000000000|  9,00000000000|  6,00000000000|  5,00000000000|  8,00000000000
Polar_Bear                | 14,00000000000| 14,00000000000| 14,00000000000| 14,00000000000| 13,00000000000| 13,00000000000| 11,00000000000| 11,00000000000|  6,00000000000|  9,00000000000| 11,00000000000| 11,00000000000| 11,00000000000| 10,00000000000| 11,00000000000| 11,00000000000| 12,00000000000| 12,00000000000| 11,00000000000|  8,00000000000| 11,00000000000| 12,00000000000| 12,00000000000|  3,00000000000|  0,00000000000|  2,00000000000|  4,00000000000| 10,00000000000|  7,00000000000|  6,00000000000|  9,00000000000
Giant_Panda               | 14,00000000000| 14,00000000000| 14,00000000000| 14,00000000000| 13,00000000000| 13,00000000000| 11,00000000000| 11,00000000000|  6,00000000000|  9,00000000000| 11,00000000000| 11,00000000000| 11,00000000000| 10,00000000000| 11,00000000000| 11,00000000000| 12,00000000000| 12,00000000000| 11,00000000000|  8,00000000000| 11,00000000000| 12,00000000000| 12,00000000000|  3,00000000000|  2,00000000000|  0,00000000000|  4,00000000000| 10,00000000000|  7,00000000000|  6,00000000000|  9,00000000000
Rabbit                    | 12,00000000000| 12,00000000000| 12,00000000000| 12,00000000000| 11,00000000000| 11,00000000000|  9,00000000000|  9,00000000000|  4,00000000000|  7,00000000000|  9,00000000000|  9,00000000000|  9,00000000000|  8,00000000000|  9,00000000000|  9,00000000000| 10,00000000000| 10,00000000000|  9,00000000000|  6,00000000000|  9,00000000000| 10,00000000000| 10,00000000000|  3,00000000000|  4,00000000000|  4,00000000000|  0,00000000000|  8,00000000000|  5,00000000000|  4,00000000000|  7,00000000000
Hedgehog                  | 12,00000000000| 12,00000000000| 12,00000000000| 12,00000000000| 11,00000000000| 11,00000000000|  9,00000000000|  9,00000000000|  8,00000000000|  7,00000000000|  9,00000000000|  9,00000000000|  3,00000000000|  8,00000000000|  9,00000000000|  9,00000000000| 10,00000000000| 10,00000000000|  3,00000000000|  4,00000000000|  9,00000000000| 10,00000000000| 10,00000000000|  9,00000000000| 10,00000000000| 10,00000000000|  8,00000000000|  0,00000000000|  9,00000000000|  6,00000000000|  3,00000000000
Dormouse                  | 13,00000000000| 13,00000000000| 13,00000000000| 13,00000000000| 12,00000000000| 12,00000000000| 10,00000000000| 10,00000000000|  3,00000000000|  8,00000000000| 10,00000000000| 10,00000000000| 10,00000000000|  9,00000000000| 10,00000000000| 10,00000000000| 11,00000000000| 11,00000000000| 10,00000000000|  7,00000000000| 10,00000000000| 11,00000000000| 11,00000000000|  6,00000000000|  7,00000000000|  7,00000000000|  5,00000000000|  9,00000000000|  0,00000000000|  5,00000000000|  8,00000000000
Squirrel                  | 10,00000000000| 10,00000000000| 10,00000000000| 10,00000000000|  9,00000000000|  9,00000000000|  7,00000000000|  7,00000000000|  4,00000000000|  5,00000000000|  7,00000000000|  7,00000000000|  7,00000000000|  6,00000000000|  7,00000000000|  7,00000000000|  8,00000000000|  8,00000000000|  7,00000000000|  4,00000000000|  7,00000000000|  8,00000000000|  8,00000000000|  5,00000000000|  6,00000000000|  6,00000000000|  4,00000000000|  6,00000000000|  5,00000000000|  0,00000000000|  5,00000000000
Blue_Whale                | 11,00000000000| 11,00000000000| 11,00000000000| 11,00000000000| 10,00000000000| 10,00000000000|  8,00000000000|  8,00000000000|  7,00000000000|  6,00000000000|  8,00000000000|  8,00000000000|  4,00000000000|  7,00000000000|  8,00000000000|  8,00000000000|  9,00000000000|  9,00000000000|  4,00000000000|  3,00000000000|  8,00000000000|  9,00000000000|  9,00000000000|  8,00000000000|  9,00000000000|  9,00000000000|  7,00000000000|  3,00000000000|  8,00000000000|  5,00000000000|  0,00000000000
