                           |Human          |Pig_Chim       |Com_Chim       |Gibbon         |Baboon         |Ver_Monkey     |Macaca_Thibet  |Bor_Oran       |Sum_Oran       |Gorilla        |Cat            |Dog            |Pig            |Sheep          |Goat           |Cow            |Buffalo        |Wolf           |Tiger          |Leopard        |Indian_Rhino   |White_Rhino    |Black_Bear     |Brown_Bear     |Polar_Bear     |Giant_Panda    |Rabbit         |Hedgehog       |Dormouse       |Squirrel       |Blue_Whale     
Human                     |  0,00000000000|  8,20022493453|  8,14586106326|  8,75689323429|  9,25186404512|  9,51298448289|  9,22273969186|  8,68510445130|  8,75067467581|  8,14943103590| 10,44764233319| 10,51180939167| 11,37776182086| 11,31314830278| 11,10996610706| 10,83489565146| 10,40043501291| 10,46177774079| 10,14126390232| 10,50664307962| 10,43955800275| 10,19887723348| 10,88010239317| 10,96721247492| 11,22938083914| 12,06124523992| 10,46370611676| 13,17607678526| 11,99310245166| 11,52236549046| 10,45165200001
Pig_Chim                  |  8,20022493453|  0,00000000000|  7,57523216126|  8,62402492232|  9,11715477834|  9,40243964368|  9,13849818246|  8,73116753422|  8,74844828368|  7,97623510749| 10,12579968601| 10,10014041682| 10,77269914645| 10,85233096895| 10,71145822808| 10,47983796428| 10,18613787464| 10,01135699383|  9,81235796619| 10,24534559092| 10,02915316694|  9,77382181946| 10,50103297129| 10,65630593623| 10,96726804415| 11,62253066249| 10,05622404984| 12,57653198383| 11,37672468654| 11,02696772511| 10,07590098801
Com_Chim                  |  8,14586106326|  7,57523216126|  0,00000000000|  8,57350123079|  9,09845906510|  9,36515593715|  9,09411395764|  8,69556792186|  8,76571080763|  7,91378926415| 10,14391179451| 10,16034164193| 10,78438280346| 10,84946806562| 10,69675061261| 10,44199088464| 10,13332157675| 10,08100467554|  9,78919515465| 10,19915387784| 10,01219747981|  9,79324308745| 10,50967248710| 10,71130695587| 11,00510891496| 11,66708643542| 10,11269949885| 12,56748024670| 11,45144339178| 11,04128578442| 10,14558188410
Gibbon                    |  8,75689323429|  8,62402492232|  8,57350123079|  0,00000000000|  9,11604598721|  9,29810553086|  9,09226570626|  8,75434471919|  8,77400597172|  8,69736247661| 10,50694315746| 10,50589382164| 11,43430525456| 11,35615087957| 11,07042648942| 10,93206670437| 10,43745457336| 10,41110310739| 10,09258902443| 10,51745262600| 10,42017033981| 10,10522962778| 10,92393352100| 11,07153879407| 11,33081237886| 12,15963425761| 10,43969335335| 13,34020121290| 11,91331774266| 11,53780830139| 10,42085344612
Baboon                    |  9,25186404512|  9,11715477834|  9,09845906510|  9,11604598721|  0,00000000000|  8,94055893028|  8,68043528144|  9,17941115650|  9,16723466933|  9,03418309831| 10,38550997463| 10,48510194135| 11,10986434336| 11,08473816172| 10,85460769341| 10,83094293659| 10,29013477851| 10,39583610732| 10,09373316879| 10,33281515014| 10,30835168235|  9,91143252015| 10,70687927406| 10,87927135206| 11,02145478067| 11,84016121053| 10,25428107558| 13,05768884641| 11,59964339597| 11,31431858738| 10,25660754737
Ver_Monkey                |  9,51298448289|  9,40243964368|  9,36515593715|  9,29810553086|  8,94055893028|  0,00000000000|  8,99125790625|  9,46502435740|  9,57416935757|  9,31511475040| 10,29186720974| 10,27880655553| 11,03560987003| 10,91525221486| 10,69043655993| 10,58241630335| 10,18123901149| 10,21750037058| 10,00779882069| 10,24787566551| 10,34048094957| 10,03029628138| 10,51565730304| 10,63684784624| 10,85022546227| 11,61338435989| 10,17970420935| 12,45745442778| 11,34404192705| 11,09492300142| 10,16450925104
Macaca_Thibet             |  9,22273969186|  9,13849818246|  9,09411395764|  9,09226570626|  8,68043528144|  8,99125790625|  0,00000000000|  9,26266602657|  9,24576556871|  9,10198285026| 10,29219335641| 10,34236130885| 11,12431704117| 10,89088514664| 10,79549764655| 10,69797906251| 10,31462625792| 10,24922174893|  9,98904824411| 10,26559242217| 10,13880232247|  9,94982807232| 10,55439326946| 10,75820880847| 10,97272158621| 11,73697021378| 10,26560266168| 12,64412285328| 11,56140356731| 11,15370776873| 10,26379997434
Bor_Oran                  |  8,68510445130|  8,73116753422|  8,69556792186|  8,75434471919|  9,17941115650|  9,46502435740|  9,26266602657|  0,00000000000|  8,06017283664|  8,69568342706| 10,67246676163| 10,84755748213| 11,73560557957| 11,53675432744| 11,21307930814| 11,13406727281| 10,61920249025| 10,65529045280| 10,39360290938| 10,57804105899| 10,71296316356| 10,34627686685| 11,15778430823| 11,25878139540| 11,49473397065| 12,51572066685| 10,70873614412| 13,88714468009| 12,39589493024| 11,81778775716| 10,77950558092
Sum_Oran                  |  8,75067467581|  8,74844828368|  8,76571080763|  8,77400597172|  9,16723466933|  9,57416935757|  9,24576556871|  8,06017283664|  0,00000000000|  8,76216393102| 10,75755880972| 10,88578919757| 11,74561097153| 11,46331237807| 11,16571357223| 11,09677156034| 10,56873626538| 10,68693847458| 10,32878290188| 10,58360909669| 10,68246323474| 10,28025251214| 11,09408819813| 11,29371850475| 11,48920558983| 12,49947119783| 10,66835933354| 13,85931295240| 12,37738817333| 11,81594205291| 10,74201502960
Gorilla                   |  8,14943103590|  7,97623510749|  7,91378926415|  8,69736247661|  9,03418309831|  9,31511475040|  9,10198285026|  8,69568342706|  8,76216393102|  0,00000000000| 10,11545617253| 10,13896379975| 10,90884971291| 10,99338015224| 10,74115534886| 10,57395442067| 10,08092289643| 10,05983613256|  9,75108631969| 10,19197952613| 10,09025461937|  9,86321887393| 10,51626416684| 10,66905838191| 10,97808389489| 11,72984996029| 10,19141633848| 12,84876284635| 11,47860413890| 11,22142480308| 10,21339592203
Cat                       | 10,44764233319| 10,12579968601| 10,14391179451| 10,50694315746| 10,38550997463| 10,29186720974| 10,29219335641| 10,67246676163| 10,75755880972| 10,11545617253|  0,00000000000|  9,29125714695|  9,32097055033|  9,33684660779|  9,32660023438|  9,16793930051|  9,21507589266|  9,12306035542|  8,40861052238|  8,38079402221|  9,28923654389|  9,15213157415|  9,09367489903|  9,22671955453|  9,49856236486|  9,38714914425|  9,52330688486| 10,56773334467|  9,77706433478|  9,63355063010|  9,19337114247
Dog                       | 10,51180939167| 10,10014041682| 10,16034164193| 10,50589382164| 10,48510194135| 10,27880655553| 10,34236130885| 10,84755748213| 10,88578919757| 10,13896379975|  9,29125714695|  0,00000000000|  9,09126690931|  9,31456139276|  9,39955167752|  9,29079756499|  9,21484493440|  7,52691711939|  9,42989691532|  9,50925777402|  9,19816498108|  9,13596692380|  9,15204699589|  9,42986635811|  9,71134915811|  9,64623842382|  9,38905329056| 10,12585549815|  9,57133929959|  9,53377180861|  9,31457639061
Pig                       | 11,37776182086| 10,77269914645| 10,78438280346| 11,43430525456| 11,10986434336| 11,03560987003| 11,12431704117| 11,73560557957| 11,74561097153| 10,90884971291|  9,32097055033|  9,09126690931|  0,00000000000|  8,84602690259|  9,05938394816|  9,10814464452|  9,06458902968|  9,05588478059|  9,57246769173|  9,51758151790|  9,10660216838|  9,10089724161|  9,05138674917|  9,55711854957|  9,82156735809|  9,23540924027|  9,52107290769|  9,43919816981|  9,18917143843|  9,01772417376|  9,08094341817
Sheep                     | 11,31314830278| 10,85233096895| 10,84946806562| 11,35615087957| 11,08473816172| 10,91525221486| 10,89088514664| 11,53675432744| 11,46331237807| 10,99338015224|  9,33684660779|  9,31456139276|  8,84602690259|  0,00000000000|  8,09650154249|  8,53981793998|  8,57402792233|  9,21402051062|  9,62375400057|  9,44322607339|  9,20489788466|  9,28566167116|  9,13402489120|  9,61393408010|  9,66711832150|  9,06488415301|  9,36285294338|  9,68795692615|  9,46419341697|  9,18167219446|  8,90607503154
Goat                      | 11,10996610706| 10,71145822808| 10,69675061261| 11,07042648942| 10,85460769341| 10,69043655993| 10,79549764655| 11,21307930814| 11,16571357223| 10,74115534886|  9,32660023438|  9,39955167752|  9,05938394816|  8,09650154249|  0,00000000000|  8,67907207587|  8,52980457258|  9,30713500508|  9,56384238858|  9,36973221498|  9,37334845033|  9,35763233044|  9,12053527629|  9,53158612948|  9,55248273085|  9,28823257762|  9,45559329784| 10,03551782283|  9,51094335532|  9,46871103598|  8,90855336375
Cow                       | 10,83489565146| 10,47983796428| 10,44199088464| 10,93206670437| 10,83094293659| 10,58241630335| 10,69797906251| 11,13406727281| 11,09677156034| 10,57395442067|  9,16793930051|  9,29079756499|  9,10814464452|  8,53981793998|  8,67907207587|  0,00000000000|  8,55646026494|  9,18891774496|  9,35438174385|  9,39804012381|  9,30892057743|  9,23010102955|  9,11165913803|  9,42812725475|  9,53611722915|  9,22312824522|  9,27947613771| 10,05663898846|  9,66038872471|  9,33971427503|  8,88885116028
Buffalo                   | 10,40043501291| 10,18613787464| 10,13332157675| 10,43745457336| 10,29013477851| 10,18123901149| 10,31462625792| 10,61920249025| 10,56873626538| 10,08092289643|  9,21507589266|  9,21484493440|  9,06458902968|  8,57402792233|  8,52980457258|  8,55646026494|  0,00000000000|  9,15291191145|  9,38288792031|  9,28438481264|  9,28116111884|  9,09296944512|  9,18995994653|  9,57958972824|  9,69450095956|  9,71014550328|  9,40317708031| 10,43996277629|  9,83756514764|  9,54444160323|  9,02412256925
Wolf                      | 10,46177774079| 10,01135699383| 10,08100467554| 10,41110310739| 10,39583610732| 10,21750037058| 10,24922174893| 10,65529045280| 10,68693847458| 10,05983613256|  9,12306035542|  7,52691711939|  9,05588478059|  9,21402051062|  9,30713500508|  9,18891774496|  9,15291191145|  0,00000000000|  9,22432985942|  9,30706301816|  9,07977674378|  9,01434143942|  9,09069564625|  9,38599250007|  9,63875144023|  9,58775028841|  9,35780168904| 10,25102031327|  9,64581808059|  9,58154782412|  9,24618008319
Tiger                     | 10,14126390232|  9,81235796619|  9,78919515465| 10,09258902443| 10,09373316879| 10,00779882069|  9,98904824411| 10,39360290938| 10,32878290188|  9,75108631969|  8,40861052238|  9,42989691532|  9,57246769173|  9,62375400057|  9,56384238858|  9,35438174385|  9,38288792031|  9,22432985942|  0,00000000000|  8,34696454280|  9,32119503522|  9,18820698684|  9,29268531446|  9,30304741063|  9,61345613209|  9,72647143313|  9,55177543874| 11,00326922333|  9,99276808170|  9,86831199297|  9,30394987362
Leopard                   | 10,50664307962| 10,24534559092| 10,19915387784| 10,51745262600| 10,33281515014| 10,24787566551| 10,26559242217| 10,57804105899| 10,58360909669| 10,19197952613|  8,38079402221|  9,50925777402|  9,51758151790|  9,44322607339|  9,36973221498|  9,39804012381|  9,28438481264|  9,30706301816|  8,34696454280|  0,00000000000|  9,52325190559|  9,24610163988|  9,04463362912|  9,12846676645|  9,28485885579|  9,48135767405|  9,61400572259| 10,81620078756| 10,04427033397|  9,76848695073|  9,27624827983
Indian_Rhino              | 10,43955800275| 10,02915316694| 10,01219747981| 10,42017033981| 10,30835168235| 10,34048094957| 10,13880232247| 10,71296316356| 10,68246323474| 10,09025461937|  9,28923654389|  9,19816498108|  9,10660216838|  9,20489788466|  9,37334845033|  9,30892057743|  9,28116111884|  9,07977674378|  9,32119503522|  9,52325190559|  0,00000000000|  8,16387703702|  9,39440314048|  9,70180246209| 10,05391167681|  9,85754391776|  9,43936352742| 10,32474982375|  9,71236117168|  9,61234093052|  9,18112155044
White_Rhino               | 10,19887723348|  9,77382181946|  9,79324308745| 10,10522962778|  9,91143252015| 10,03029628138|  9,94982807232| 10,34627686685| 10,28025251214|  9,86321887393|  9,15213157415|  9,13596692380|  9,10089724161|  9,28566167116|  9,35763233044|  9,23010102955|  9,09296944512|  9,01434143942|  9,18820698684|  9,24610163988|  8,16387703702|  0,00000000000|  9,41758675481|  9,72411886829|  9,97002238039|  9,90055778599|  9,31913987288| 10,61656055264|  9,97422416665|  9,68180227667|  9,13256596467
Black_Bear                | 10,88010239317| 10,50103297129| 10,50967248710| 10,92393352100| 10,70687927406| 10,51565730304| 10,55439326946| 11,15778430823| 11,09408819813| 10,51626416684|  9,09367489903|  9,15204699589|  9,05138674917|  9,13402489120|  9,12053527629|  9,11165913803|  9,18995994653|  9,09069564625|  9,29268531446|  9,04463362912|  9,39440314048|  9,41758675481|  0,00000000000|  8,37764938574|  8,34895415883|  8,79033904514|  9,26698493440| 10,19840253845|  9,58748339516|  9,33240191908|  9,07256022915
Brown_Bear                | 10,96721247492| 10,65630593623| 10,71130695587| 11,07153879407| 10,87927135206| 10,63684784624| 10,75820880847| 11,25878139540| 11,29371850475| 10,66905838191|  9,22671955453|  9,42986635811|  9,55711854957|  9,61393408010|  9,53158612948|  9,42812725475|  9,57958972824|  9,38599250007|  9,30304741063|  9,12846676645|  9,70180246209|  9,72411886829|  8,37764938574|  0,00000000000|  7,50363656569|  8,96807038906|  9,59214583550| 10,72001432049| 10,09456163906|  9,82917334223|  9,44462572698
Polar_Bear                | 11,22938083914| 10,96726804415| 11,00510891496| 11,33081237886| 11,02145478067| 10,85022546227| 10,97272158621| 11,49473397065| 11,48920558983| 10,97808389489|  9,49856236486|  9,71134915811|  9,82156735809|  9,66711832150|  9,55248273085|  9,53611722915|  9,69450095956|  9,63875144023|  9,61345613209|  9,28485885579| 10,05391167681|  9,97002238039|  8,34895415883|  7,50363656569|  0,00000000000|  8,97361802058|  9,70729027699| 11,00044015944| 10,25455914161| 10,01812229546|  9,63520805863
Giant_Panda               | 12,06124523992| 11,62253066249| 11,66708643542| 12,15963425761| 11,84016121053| 11,61338435989| 11,73697021378| 12,51572066685| 12,49947119783| 11,72984996029|  9,38714914425|  9,64623842382|  9,23540924027|  9,06488415301|  9,28823257762|  9,22312824522|  9,71014550328|  9,58775028841|  9,72647143313|  9,48135767405|  9,85754391776|  9,90055778599|  8,79033904514|  8,96807038906|  8,97361802058|  0,00000000000|  9,66717729718|  9,65979410333|  9,37860572065|  9,29654692534|  9,48653819173
Rabbit                    | 10,46370611676| 10,05622404984| 10,11269949885| 10,43969335335| 10,25428107558| 10,17970420935| 10,26560266168| 10,70873614412| 10,66835933354| 10,19141633848|  9,52330688486|  9,38905329056|  9,52107290769|  9,36285294338|  9,45559329784|  9,27947613771|  9,40317708031|  9,35780168904|  9,55177543874|  9,61400572259|  9,43936352742|  9,31913987288|  9,26698493440|  9,59214583550|  9,70729027699|  9,66717729718|  0,00000000000| 10,33756908827|  9,58751546053|  9,42973165726|  9,20255089150
Hedgehog                  | 13,17607678526| 12,57653198383| 12,56748024670| 13,34020121290| 13,05768884641| 12,45745442778| 12,64412285328| 13,88714468009| 13,85931295240| 12,84876284635| 10,56773334467| 10,12585549815|  9,43919816981|  9,68795692615| 10,03551782283| 10,05663898846| 10,43996277629| 10,25102031327| 11,00326922333| 10,81620078756| 10,32474982375| 10,61656055264| 10,19840253845| 10,72001432049| 11,00044015944|  9,65979410333| 10,33756908827|  0,00000000000|  9,35156301786|  9,46066634597| 10,38215470715
Dormouse                  | 11,99310245166| 11,37672468654| 11,45144339178| 11,91331774266| 11,59964339597| 11,34404192705| 11,56140356731| 12,39589493024| 12,37738817333| 11,47860413890|  9,77706433478|  9,57133929959|  9,18917143843|  9,46419341697|  9,51094335532|  9,66038872471|  9,83756514764|  9,64581808059|  9,99276808170| 10,04427033397|  9,71236117168|  9,97422416665|  9,58748339516| 10,09456163906| 10,25455914161|  9,37860572065|  9,58751546053|  9,35156301786|  0,00000000000|  9,09433376489|  9,69307701445
Squirrel                  | 11,52236549046| 11,02696772511| 11,04128578442| 11,53780830139| 11,31431858738| 11,09492300142| 11,15370776873| 11,81778775716| 11,81594205291| 11,22142480308|  9,63355063010|  9,53377180861|  9,01772417376|  9,18167219446|  9,46871103598|  9,33971427503|  9,54444160323|  9,58154782412|  9,86831199297|  9,76848695073|  9,61234093052|  9,68180227667|  9,33240191908|  9,82917334223| 10,01812229546|  9,29654692534|  9,42973165726|  9,46066634597|  9,09433376489|  0,00000000000|  9,45770688484
Blue_Whale                | 10,45165200001| 10,07590098801| 10,14558188410| 10,42085344612| 10,25660754737| 10,16450925104| 10,26379997434| 10,77950558092| 10,74201502960| 10,21339592203|  9,19337114247|  9,31457639061|  9,08094341817|  8,90607503154|  8,90855336375|  8,88885116028|  9,02412256925|  9,24618008319|  9,30394987362|  9,27624827983|  9,18112155044|  9,13256596467|  9,07256022915|  9,44462572698|  9,63520805863|  9,48653819173|  9,20255089150| 10,38215470715|  9,69307701445|  9,45770688484|  0,00000000000
