<?xml version="1.0" encoding="UTF-8"?>
<svg xmlns="http://www.w3.org/2000/svg" xmlns:xlink="http://www.w3.org/1999/xlink" contentScriptType="text/ecmascript" width="20cm" zoomAndPan="magnify" contentStyleType="text/css" height="15.037593984962406cm" viewBox="0 0 1.33 1.0" preserveAspectRatio="xMidYMid meet" version="1.0">
<defs/>
<style type="text/css" xml:space="preserve">
.axis-label{fill:black;
font-family:'Times New Roman', serif;
font-size:2.0;
}

.key-caption{font-size:0.7000000000000001;
font-family:'Times New Roman', serif;
fill:black;
font-weight:bold;
}

.key-hierarchy{stroke:black;
stroke-width:0.4170323914242463;
stroke-linecap:round;
fill:none;
}

.axis{stroke:black;
stroke-width:0.2;
}

.key-hierarchy_0{stroke:#ed420e;
stroke-width:0.4170323914242463;
stroke-linecap:round;
fill:none;
}

.key-hierarchy_1{stroke:#fdca19;
stroke-width:0.4170323914242463;
stroke-linecap:round;
fill:none;
}

.axis-tick{stroke:grey;
stroke-width:0.2;
}
</style>
<g transform="scale(0.0105055292) translate(13.3 10)">
<line y2="0" x1="0" x2="0" class="axis" y1="75.1879699248"/>
<line y2="75.1879699248" x1="0.7518796992" x2="-0.7518796992" class="axis-tick" y1="75.1879699248"/>
<text x="-1.8796992481" y="75.8879699248" class="axis-label" text-anchor="end">0</text>
<line y2="72.7625515401" x1="0.7518796992" x2="-0.7518796992" class="axis-tick" y1="72.7625515401"/>
<text x="-1.8796992481" y="73.4625515401" class="axis-label" text-anchor="end">1</text>
<line y2="70.3371331555" x1="0.7518796992" x2="-0.7518796992" class="axis-tick" y1="70.3371331555"/>
<text x="-1.8796992481" y="71.0371331555" class="axis-label" text-anchor="end">2</text>
<line y2="67.9117147708" x1="0.7518796992" x2="-0.7518796992" class="axis-tick" y1="67.9117147708"/>
<text x="-1.8796992481" y="68.6117147708" class="axis-label" text-anchor="end">3</text>
<line y2="65.4862963861" x1="0.7518796992" x2="-0.7518796992" class="axis-tick" y1="65.4862963861"/>
<text x="-1.8796992481" y="66.1862963861" class="axis-label" text-anchor="end">4</text>
<line y2="63.0608780015" x1="0.7518796992" x2="-0.7518796992" class="axis-tick" y1="63.0608780015"/>
<text x="-1.8796992481" y="63.7608780015" class="axis-label" text-anchor="end">5</text>
<line y2="60.6354596168" x1="0.7518796992" x2="-0.7518796992" class="axis-tick" y1="60.6354596168"/>
<text x="-1.8796992481" y="61.3354596168" class="axis-label" text-anchor="end">6</text>
<line y2="58.2100412321" x1="0.7518796992" x2="-0.7518796992" class="axis-tick" y1="58.2100412321"/>
<text x="-1.8796992481" y="58.9100412321" class="axis-label" text-anchor="end">7</text>
<line y2="55.7846228474" x1="0.7518796992" x2="-0.7518796992" class="axis-tick" y1="55.7846228474"/>
<text x="-1.8796992481" y="56.4846228474" class="axis-label" text-anchor="end">8</text>
<line y2="53.3592044628" x1="0.7518796992" x2="-0.7518796992" class="axis-tick" y1="53.3592044628"/>
<text x="-1.8796992481" y="54.0592044628" class="axis-label" text-anchor="end">9</text>
<line y2="50.9337860781" x1="0.7518796992" x2="-0.7518796992" class="axis-tick" y1="50.9337860781"/>
<text x="-1.8796992481" y="51.6337860781" class="axis-label" text-anchor="end">10</text>
<line y2="48.5083676934" x1="0.7518796992" x2="-0.7518796992" class="axis-tick" y1="48.5083676934"/>
<text x="-1.8796992481" y="49.2083676934" class="axis-label" text-anchor="end">11</text>
<line y2="46.0829493088" x1="0.7518796992" x2="-0.7518796992" class="axis-tick" y1="46.0829493088"/>
<text x="-1.8796992481" y="46.7829493088" class="axis-label" text-anchor="end">12</text>
<line y2="43.6575309241" x1="0.7518796992" x2="-0.7518796992" class="axis-tick" y1="43.6575309241"/>
<text x="-1.8796992481" y="44.3575309241" class="axis-label" text-anchor="end">13</text>
<line y2="41.2321125394" x1="0.7518796992" x2="-0.7518796992" class="axis-tick" y1="41.2321125394"/>
<text x="-1.8796992481" y="41.9321125394" class="axis-label" text-anchor="end">14</text>
<line y2="38.8066941547" x1="0.7518796992" x2="-0.7518796992" class="axis-tick" y1="38.8066941547"/>
<text x="-1.8796992481" y="39.5066941547" class="axis-label" text-anchor="end">15</text>
<line y2="36.3812757701" x1="0.7518796992" x2="-0.7518796992" class="axis-tick" y1="36.3812757701"/>
<text x="-1.8796992481" y="37.0812757701" class="axis-label" text-anchor="end">16</text>
<line y2="33.9558573854" x1="0.7518796992" x2="-0.7518796992" class="axis-tick" y1="33.9558573854"/>
<text x="-1.8796992481" y="34.6558573854" class="axis-label" text-anchor="end">17</text>
<line y2="31.5304390007" x1="0.7518796992" x2="-0.7518796992" class="axis-tick" y1="31.5304390007"/>
<text x="-1.8796992481" y="32.2304390007" class="axis-label" text-anchor="end">18</text>
<line y2="29.1050206161" x1="0.7518796992" x2="-0.7518796992" class="axis-tick" y1="29.1050206161"/>
<text x="-1.8796992481" y="29.8050206161" class="axis-label" text-anchor="end">19</text>
<line y2="26.6796022314" x1="0.7518796992" x2="-0.7518796992" class="axis-tick" y1="26.6796022314"/>
<text x="-1.8796992481" y="27.3796022314" class="axis-label" text-anchor="end">20</text>
<line y2="24.2541838467" x1="0.7518796992" x2="-0.7518796992" class="axis-tick" y1="24.2541838467"/>
<text x="-1.8796992481" y="24.9541838467" class="axis-label" text-anchor="end">21</text>
<line y2="21.828765462" x1="0.7518796992" x2="-0.7518796992" class="axis-tick" y1="21.828765462"/>
<text x="-1.8796992481" y="22.528765462" class="axis-label" text-anchor="end">22</text>
<line y2="19.4033470774" x1="0.7518796992" x2="-0.7518796992" class="axis-tick" y1="19.4033470774"/>
<text x="-1.8796992481" y="20.1033470774" class="axis-label" text-anchor="end">23</text>
<line y2="16.9779286927" x1="0.7518796992" x2="-0.7518796992" class="axis-tick" y1="16.9779286927"/>
<text x="-1.8796992481" y="17.6779286927" class="axis-label" text-anchor="end">24</text>
<line y2="14.552510308" x1="0.7518796992" x2="-0.7518796992" class="axis-tick" y1="14.552510308"/>
<text x="-1.8796992481" y="15.252510308" class="axis-label" text-anchor="end">25</text>
<line y2="12.1270919234" x1="0.7518796992" x2="-0.7518796992" class="axis-tick" y1="12.1270919234"/>
<text x="-1.8796992481" y="12.8270919234" class="axis-label" text-anchor="end">26</text>
<line y2="9.7016735387" x1="0.7518796992" x2="-0.7518796992" class="axis-tick" y1="9.7016735387"/>
<text x="-1.8796992481" y="10.4016735387" class="axis-label" text-anchor="end">27</text>
<line y2="7.276255154" x1="0.7518796992" x2="-0.7518796992" class="axis-tick" y1="7.276255154"/>
<text x="-1.8796992481" y="7.976255154" class="axis-label" text-anchor="end">28</text>
<line y2="4.8508367693" x1="0.7518796992" x2="-0.7518796992" class="axis-tick" y1="4.8508367693"/>
<text x="-1.8796992481" y="5.5508367693" class="axis-label" text-anchor="end">29</text>
<line y2="2.4254183847" x1="0.7518796992" x2="-0.7518796992" class="axis-tick" y1="2.4254183847"/>
<text x="-1.8796992481" y="3.1254183847" class="axis-label" text-anchor="end">30</text>
<line y2="0" x1="0.7518796992" x2="-0.7518796992" class="axis-tick" y1="0"/>
<text x="-1.8796992481" y="0.7" class="axis-label" text-anchor="end">31</text>
<text x="35" y="78.9473684211" style="font-size: 2.5; font-family:'Times New Roman';" transform="rotate(60 35.0 78.94736842105263)">canAlb</text>
<text x="45" y="78.9473684211" style="font-size: 2.5; font-family:'Times New Roman';" transform="rotate(60 45.0 78.94736842105263)">canDub</text>
<text x="25" y="78.9473684211" style="font-size: 2.5; font-family:'Times New Roman';" transform="rotate(60 25.0 78.94736842105263)">canSoj</text>
<text x="85" y="78.9473684211" style="font-size: 2.5; font-family:'Times New Roman';" transform="rotate(60 85.0 78.94736842105263)">sacPas</text>
<text x="15" y="78.9473684211" style="font-size: 2.5; font-family:'Times New Roman';" transform="rotate(60 15.0 78.94736842105263)">canMal</text>
<text x="75" y="78.9473684211" style="font-size: 2.5; font-family:'Times New Roman';" transform="rotate(60 75.0 78.94736842105263)">debHan</text>
<text x="65" y="78.9473684211" style="font-size: 2.5; font-family:'Times New Roman';" transform="rotate(60 65.0 78.94736842105263)">canPar</text>
<text x="55" y="78.9473684211" style="font-size: 2.5; font-family:'Times New Roman';" transform="rotate(60 55.0 78.94736842105263)">canTro</text>
<text x="5" y="78.9473684211" style="font-size: 2.5; font-family:'Times New Roman';" transform="rotate(60 5.0 78.94736842105263)">aspNig</text>
<text x="95" y="78.9473684211" style="font-size: 2.5; font-family:'Times New Roman';" transform="rotate(60 95.0 78.94736842105263)">sacCer</text>
<path class="key-hierarchy_0" d="M35 75.1879699248 V68.3374415252 H45 V75.1879699248 M40 68.3374415252 V65.4808768778 H55 V75.1879699248 M25 75.1879699248 V63.5953601645 H47.5 V65.4808768778 M85 75.1879699248 V61.2071027635 H95 V75.1879699248 M15 75.1879699248 V56.4944545747 H36.25 V63.5953601645 M75 75.1879699248 V51.1798052477 H90 V61.2071027635 M65 75.1879699248 V44.1894964163 H82.5 V51.1798052477 M25.625 56.4944545747 V38.6845878018 H73.75 V44.1894964163 M5 75.1879699248 V1.8143627617 H49.6875 V38.6845878018 M27.34375 1.8143627617 "/>
</g>
</svg>
