                           |aspNig         |debHan         |canMal         |canAlb         |canDub         |canSoj         |canTro         |canPar         |sacPas         |sacCer         
aspNig                    |  0,00000000000| 20,85059731965| 20,85059731965| 20,85059731965| 20,85059731965| 20,85059731965| 20,85059731965| 20,85059731965| 20,85059731965| 20,85059731965
debHan                    | 20,85059731965|  0,00000000000| 13,30077125331| 13,30077125331| 13,30077125331| 13,30077125331| 13,30077125331| 10,44099367476|  8,62429599190|  7,86449408844
canMal                    | 20,85059731965| 13,30077125331|  0,00000000000|  6,71913887449|  6,71913887449|  6,71913887449|  6,71913887449| 13,30077125331| 13,30077125331| 13,30077125331
canAlb                    | 20,85059731965| 13,30077125331|  6,71913887449|  0,00000000000|  5,14702481377|  5,14702481377|  5,01489646768| 13,30077125331| 13,30077125331| 13,30077125331
canDub                    | 20,85059731965| 13,30077125331|  6,71913887449|  5,14702481377|  0,00000000000|  5,02465493290|  5,14702481377| 13,30077125331| 13,30077125331| 13,30077125331
canSoj                    | 20,85059731965| 13,30077125331|  6,71913887449|  5,14702481377|  5,02465493290|  0,00000000000|  5,14702481377| 13,30077125331| 13,30077125331| 13,30077125331
canTro                    | 20,85059731965| 13,30077125331|  6,71913887449|  5,01489646768|  5,14702481377|  5,14702481377|  0,00000000000| 13,30077125331| 13,30077125331| 13,30077125331
canPar                    | 20,85059731965| 10,44099367476| 13,30077125331| 13,30077125331| 13,30077125331| 13,30077125331| 13,30077125331|  0,00000000000| 10,44099367476| 10,44099367476
sacPas                    | 20,85059731965|  8,62429599190| 13,30077125331| 13,30077125331| 13,30077125331| 13,30077125331| 13,30077125331| 10,44099367476|  0,00000000000|  8,62429599190
sacCer                    | 20,85059731965|  7,86449408844| 13,30077125331| 13,30077125331| 13,30077125331| 13,30077125331| 13,30077125331| 10,44099367476|  8,62429599190|  0,00000000000
                           |aspNig         |debHan         |canMal         |canAlb         |canDub         |canSoj         |canTro         |canPar         |sacPas         |sacCer         
aspNig                    |  0,00000000000| 11,61822847397| 11,61822847397| 11,61822847397| 11,61822847397| 11,61822847397| 11,61822847397| 11,61822847397| 11,61822847397| 11,61822847397
debHan                    | 11,61822847397|  0,00000000000| 10,13500436634| 10,13500436634| 10,13500436634| 10,13500436634| 10,13500436634|  9,57317803952|  9,21627315512|  9,06700395469
canMal                    | 11,61822847397| 10,13500436634|  0,00000000000|  8,84198970268|  8,84198970268|  8,84198970268|  8,84198970268| 10,13500436634| 10,13500436634| 10,13500436634
canAlb                    | 11,61822847397| 10,13500436634|  8,84198970268|  0,00000000000|  8,53313523977|  8,53313523977|  8,50717756254| 10,13500436634| 10,13500436634| 10,13500436634
canDub                    | 11,61822847397| 10,13500436634|  8,84198970268|  8,53313523977|  0,00000000000|  8,50909469158|  8,53313523977| 10,13500436634| 10,13500436634| 10,13500436634
canSoj                    | 11,61822847397| 10,13500436634|  8,84198970268|  8,53313523977|  8,50909469158|  0,00000000000|  8,53313523977| 10,13500436634| 10,13500436634| 10,13500436634
canTro                    | 11,61822847397| 10,13500436634|  8,84198970268|  8,50717756254|  8,53313523977|  8,53313523977|  0,00000000000| 10,13500436634| 10,13500436634| 10,13500436634
canPar                    | 11,61822847397|  9,57317803952| 10,13500436634| 10,13500436634| 10,13500436634| 10,13500436634| 10,13500436634|  0,00000000000|  9,57317803952|  9,57317803952
sacPas                    | 11,61822847397|  9,21627315512| 10,13500436634| 10,13500436634| 10,13500436634| 10,13500436634| 10,13500436634|  9,57317803952|  0,00000000000|  9,21627315512
sacCer                    | 11,61822847397|  9,06700395469| 10,13500436634| 10,13500436634| 10,13500436634| 10,13500436634| 10,13500436634|  9,57317803952|  9,21627315512|  0,00000000000
                           |aspNig         |debHan         |canMal         |canAlb         |canDub         |canSoj         |canTro         |canPar         |sacPas         |sacCer         
aspNig                    |  0,00000000000|  6,00000000000|  4,00000000000|  6,00000000000|  6,00000000000|  6,00000000000|  6,00000000000|  4,00000000000|  5,00000000000|  6,00000000000
debHan                    |  6,00000000000|  0,00000000000|  6,00000000000|  8,00000000000|  8,00000000000|  8,00000000000|  8,00000000000|  4,00000000000|  3,00000000000|  2,00000000000
canMal                    |  4,00000000000|  6,00000000000|  0,00000000000|  4,00000000000|  4,00000000000|  4,00000000000|  4,00000000000|  4,00000000000|  5,00000000000|  6,00000000000
canAlb                    |  6,00000000000|  8,00000000000|  4,00000000000|  0,00000000000|  4,00000000000|  4,00000000000|  2,00000000000|  6,00000000000|  7,00000000000|  8,00000000000
canDub                    |  6,00000000000|  8,00000000000|  4,00000000000|  4,00000000000|  0,00000000000|  2,00000000000|  4,00000000000|  6,00000000000|  7,00000000000|  8,00000000000
canSoj                    |  6,00000000000|  8,00000000000|  4,00000000000|  4,00000000000|  2,00000000000|  0,00000000000|  4,00000000000|  6,00000000000|  7,00000000000|  8,00000000000
canTro                    |  6,00000000000|  8,00000000000|  4,00000000000|  2,00000000000|  4,00000000000|  4,00000000000|  0,00000000000|  6,00000000000|  7,00000000000|  8,00000000000
canPar                    |  4,00000000000|  4,00000000000|  4,00000000000|  6,00000000000|  6,00000000000|  6,00000000000|  6,00000000000|  0,00000000000|  3,00000000000|  4,00000000000
sacPas                    |  5,00000000000|  3,00000000000|  5,00000000000|  7,00000000000|  7,00000000000|  7,00000000000|  7,00000000000|  3,00000000000|  0,00000000000|  3,00000000000
sacCer                    |  6,00000000000|  2,00000000000|  6,00000000000|  8,00000000000|  8,00000000000|  8,00000000000|  8,00000000000|  4,00000000000|  3,00000000000|  0,00000000000
