<?xml version="1.0" encoding="UTF-8"?>
<svg xmlns="http://www.w3.org/2000/svg" xmlns:xlink="http://www.w3.org/1999/xlink" contentScriptType="text/ecmascript" width="20cm" zoomAndPan="magnify" contentStyleType="text/css" height="15.037593984962406cm" viewBox="0 0 1.33 1.0" preserveAspectRatio="xMidYMid meet" version="1.0">
<defs/>
<style type="text/css" xml:space="preserve">
.axis-label{fill:black;
font-family:'Times New Roman', serif;
font-size:2.0;
}

.key-caption{font-size:0.7000000000000001;
font-family:'Times New Roman', serif;
fill:black;
font-weight:bold;
}

.key-hierarchy{stroke:black;
stroke-width:0.4170323914242463;
stroke-linecap:round;
fill:none;
}

.axis{stroke:black;
stroke-width:0.2;
}

.key-hierarchy_0{stroke:#ed420e;
stroke-width:0.4170323914242463;
stroke-linecap:round;
fill:none;
}

.key-hierarchy_1{stroke:#fdca19;
stroke-width:0.4170323914242463;
stroke-linecap:round;
fill:none;
}

.axis-tick{stroke:grey;
stroke-width:0.2;
}
</style>
<g transform="scale(0.0105055292) translate(13.3 10)">
<line y2="0" x1="0" x2="0" class="axis" y1="75.1879699248"/>
<line y2="75.1879699248" x1="0.7518796992" x2="-0.7518796992" class="axis-tick" y1="75.1879699248"/>
<text x="-1.8796992481" y="75.8879699248" class="axis-label" text-anchor="end">0</text>
<line y2="67.6691729323" x1="0.7518796992" x2="-0.7518796992" class="axis-tick" y1="67.6691729323"/>
<text x="-1.8796992481" y="68.3691729323" class="axis-label" text-anchor="end">1</text>
<line y2="60.1503759398" x1="0.7518796992" x2="-0.7518796992" class="axis-tick" y1="60.1503759398"/>
<text x="-1.8796992481" y="60.8503759398" class="axis-label" text-anchor="end">2</text>
<line y2="52.6315789474" x1="0.7518796992" x2="-0.7518796992" class="axis-tick" y1="52.6315789474"/>
<text x="-1.8796992481" y="53.3315789474" class="axis-label" text-anchor="end">3</text>
<line y2="45.1127819549" x1="0.7518796992" x2="-0.7518796992" class="axis-tick" y1="45.1127819549"/>
<text x="-1.8796992481" y="45.8127819549" class="axis-label" text-anchor="end">4</text>
<line y2="37.5939849624" x1="0.7518796992" x2="-0.7518796992" class="axis-tick" y1="37.5939849624"/>
<text x="-1.8796992481" y="38.2939849624" class="axis-label" text-anchor="end">5</text>
<line y2="30.0751879699" x1="0.7518796992" x2="-0.7518796992" class="axis-tick" y1="30.0751879699"/>
<text x="-1.8796992481" y="30.7751879699" class="axis-label" text-anchor="end">6</text>
<line y2="22.5563909774" x1="0.7518796992" x2="-0.7518796992" class="axis-tick" y1="22.5563909774"/>
<text x="-1.8796992481" y="23.2563909774" class="axis-label" text-anchor="end">7</text>
<line y2="15.037593985" x1="0.7518796992" x2="-0.7518796992" class="axis-tick" y1="15.037593985"/>
<text x="-1.8796992481" y="15.737593985" class="axis-label" text-anchor="end">8</text>
<line y2="7.5187969925" x1="0.7518796992" x2="-0.7518796992" class="axis-tick" y1="7.5187969925"/>
<text x="-1.8796992481" y="8.2187969925" class="axis-label" text-anchor="end">9</text>
<line y2="0" x1="0.7518796992" x2="-0.7518796992" class="axis-tick" y1="0"/>
<text x="-1.8796992481" y="0.7" class="axis-label" text-anchor="end">10</text>
<text x="35" y="78.9473684211" style="font-size: 2.5; font-family:'Times New Roman';" transform="rotate(60 35.0 78.94736842105263)">canDub</text>
<text x="25" y="78.9473684211" style="font-size: 2.5; font-family:'Times New Roman';" transform="rotate(60 25.0 78.94736842105263)">canAlb</text>
<text x="45" y="78.9473684211" style="font-size: 2.5; font-family:'Times New Roman';" transform="rotate(60 45.0 78.94736842105263)">canSoj</text>
<text x="15" y="78.9473684211" style="font-size: 2.5; font-family:'Times New Roman';" transform="rotate(60 15.0 78.94736842105263)">canMal</text>
<text x="85" y="78.9473684211" style="font-size: 2.5; font-family:'Times New Roman';" transform="rotate(60 85.0 78.94736842105263)">debHan</text>
<text x="75" y="78.9473684211" style="font-size: 2.5; font-family:'Times New Roman';" transform="rotate(60 75.0 78.94736842105263)">canPar</text>
<text x="65" y="78.9473684211" style="font-size: 2.5; font-family:'Times New Roman';" transform="rotate(60 65.0 78.94736842105263)">sacPas</text>
<text x="55" y="78.9473684211" style="font-size: 2.5; font-family:'Times New Roman';" transform="rotate(60 55.0 78.94736842105263)">canTro</text>
<text x="5" y="78.9473684211" style="font-size: 2.5; font-family:'Times New Roman';" transform="rotate(60 5.0 78.94736842105263)">aspNig</text>
<text x="95" y="78.9473684211" style="font-size: 2.5; font-family:'Times New Roman';" transform="rotate(60 95.0 78.94736842105263)">sacCer</text>
<path class="key-hierarchy_0" d="M35 75.1879699248 V64.1583883411 H45 V75.1879699248 M25 75.1879699248 V64.1115232629 H40 V64.1583883411 M32.5 64.1115232629 V60.441743072 H55 V75.1879699248 M15 75.1879699248 V59.4663615589 H43.75 V60.441743072 M85 75.1879699248 V56.8430325405 H95 V75.1879699248 M75 75.1879699248 V53.1750977475 H90 V56.8430325405 M65 75.1879699248 V43.4043408099 H82.5 V53.1750977475 M29.375 59.4663615589 V36.5603450459 H73.75 V43.4043408099 M5 75.1879699248 V1.0971952286 H51.5625 V36.5603450459 M28.28125 1.0971952286 "/>
</g>
</svg>
