                           |aspNig         |debHan         |canMal         |canAlb         |canDub         |canSoj         |canTro         |canPar         |sacPas         |sacCer         
aspNig                    |  0,00000000000|6432,87247030487|6432,87247030487|6432,87247030487|6432,87247030487|6432,87247030487|6432,87247030487|6432,87247030487|6432,87247030487|6432,87247030487
debHan                    |6432,87247030487|  0,00000000000|3528,67375278172|3528,67375278172|3528,67375278172|3528,67375278172|3528,67375278172|3528,67375278172|3528,67375278172|3528,67375278172
canMal                    |6432,87247030487|3528,67375278172|  0,00000000000|2100,62523014204|2100,62523014204|2100,62523014204|2100,62523014204|2238,35944001344|2836,70461460382|2836,70461460382
canAlb                    |6432,87247030487|3528,67375278172|2100,62523014204|  0,00000000000|1646,71139228162|1425,91610371545|1443,13197230635|2238,35944001344|2836,70461460382|2836,70461460382
canDub                    |6432,87247030487|3528,67375278172|2100,62523014204|1646,71139228162|  0,00000000000|1646,71139228162|1646,71139228162|2238,35944001344|2836,70461460382|2836,70461460382
canSoj                    |6432,87247030487|3528,67375278172|2100,62523014204|1425,91610371545|1646,71139228162|  0,00000000000|1443,13197230635|2238,35944001344|2836,70461460382|2836,70461460382
canTro                    |6432,87247030487|3528,67375278172|2100,62523014204|1443,13197230635|1646,71139228162|1443,13197230635|  0,00000000000|2238,35944001344|2836,70461460382|2836,70461460382
canPar                    |6432,87247030487|3528,67375278172|2238,35944001344|2238,35944001344|2238,35944001344|2238,35944001344|2238,35944001344|  0,00000000000|2836,70461460382|2836,70461460382
sacPas                    |6432,87247030487|3528,67375278172|2836,70461460382|2836,70461460382|2836,70461460382|2836,70461460382|2836,70461460382|2836,70461460382|  0,00000000000|1077,62910356491
sacCer                    |6432,87247030487|3528,67375278172|2836,70461460382|2836,70461460382|2836,70461460382|2836,70461460382|2836,70461460382|2836,70461460382|1077,62910356491|  0,00000000000
                           |aspNig         |debHan         |canMal         |canAlb         |canDub         |canSoj         |canTro         |canPar         |sacPas         |sacCer         
aspNig                    |  0,00000000000| 11,84960546057| 11,84960546057| 11,84960546057| 11,84960546057| 11,84960546057| 11,84960546057| 11,84960546057| 11,84960546057| 11,84960546057
debHan                    | 11,84960546057|  0,00000000000| 10,11544836963| 10,11544836963| 10,11544836963| 10,11544836963| 10,11544836963| 10,11544836963| 10,11544836963| 10,11544836963
canMal                    | 11,84960546057| 10,11544836963|  0,00000000000|  9,26273107560|  9,26273107560|  9,26273107560|  9,26273107560|  9,34497501961|  9,70225929258|  9,70225929258
canAlb                    | 11,84960546057| 10,11544836963|  9,26273107560|  0,00000000000|  8,99168973953|  8,85984830837|  8,87012825940|  9,34497501961|  9,70225929258|  9,70225929258
canDub                    | 11,84960546057| 10,11544836963|  9,26273107560|  8,99168973953|  0,00000000000|  8,99168973953|  8,99168973953|  9,34497501961|  9,70225929258|  9,70225929258
canSoj                    | 11,84960546057| 10,11544836963|  9,26273107560|  8,85984830837|  8,99168973953|  0,00000000000|  8,87012825940|  9,34497501961|  9,70225929258|  9,70225929258
canTro                    | 11,84960546057| 10,11544836963|  9,26273107560|  8,87012825940|  8,99168973953|  8,87012825940|  0,00000000000|  9,34497501961|  9,70225929258|  9,70225929258
canPar                    | 11,84960546057| 10,11544836963|  9,34497501961|  9,34497501961|  9,34497501961|  9,34497501961|  9,34497501961|  0,00000000000|  9,70225929258|  9,70225929258
sacPas                    | 11,84960546057| 10,11544836963|  9,70225929258|  9,70225929258|  9,70225929258|  9,70225929258|  9,70225929258|  9,70225929258|  0,00000000000|  8,65187894065
sacCer                    | 11,84960546057| 10,11544836963|  9,70225929258|  9,70225929258|  9,70225929258|  9,70225929258|  9,70225929258|  9,70225929258|  8,65187894065|  0,00000000000
                           |aspNig         |debHan         |canMal         |canAlb         |canDub         |canSoj         |canTro         |canPar         |sacPas         |sacCer         
aspNig                    |  0,00000000000|  3,00000000000|  6,00000000000|  9,00000000000|  7,00000000000|  9,00000000000|  8,00000000000|  5,00000000000|  5,00000000000|  5,00000000000
debHan                    |  3,00000000000|  0,00000000000|  5,00000000000|  8,00000000000|  6,00000000000|  8,00000000000|  7,00000000000|  4,00000000000|  4,00000000000|  4,00000000000
canMal                    |  6,00000000000|  5,00000000000|  0,00000000000|  5,00000000000|  3,00000000000|  5,00000000000|  4,00000000000|  3,00000000000|  5,00000000000|  5,00000000000
canAlb                    |  9,00000000000|  8,00000000000|  5,00000000000|  0,00000000000|  4,00000000000|  2,00000000000|  3,00000000000|  6,00000000000|  8,00000000000|  8,00000000000
canDub                    |  7,00000000000|  6,00000000000|  3,00000000000|  4,00000000000|  0,00000000000|  4,00000000000|  3,00000000000|  4,00000000000|  6,00000000000|  6,00000000000
canSoj                    |  9,00000000000|  8,00000000000|  5,00000000000|  2,00000000000|  4,00000000000|  0,00000000000|  3,00000000000|  6,00000000000|  8,00000000000|  8,00000000000
canTro                    |  8,00000000000|  7,00000000000|  4,00000000000|  3,00000000000|  3,00000000000|  3,00000000000|  0,00000000000|  5,00000000000|  7,00000000000|  7,00000000000
canPar                    |  5,00000000000|  4,00000000000|  3,00000000000|  6,00000000000|  4,00000000000|  6,00000000000|  5,00000000000|  0,00000000000|  4,00000000000|  4,00000000000
sacPas                    |  5,00000000000|  4,00000000000|  5,00000000000|  8,00000000000|  6,00000000000|  8,00000000000|  7,00000000000|  4,00000000000|  0,00000000000|  2,00000000000
sacCer                    |  5,00000000000|  4,00000000000|  5,00000000000|  8,00000000000|  6,00000000000|  8,00000000000|  7,00000000000|  4,00000000000|  2,00000000000|  0,00000000000
