                           |aspNig         |canZem         |yarLip         |canSub         |canAlb         |canNer         |canFri         |canPar         |sacPas         |sacCer         |sacSer         
aspNig                    |  0,00000000000|784,66586992292|775,17213278294|1281,10753741716|775,17213278294|775,17213278294|775,17213278294|775,17213278294|775,17213278294|775,17213278294|775,17213278294
canZem                    |784,66586992292|  0,00000000000|784,66586992292|1281,10753741716|784,66586992292|784,66586992292|784,66586992292|784,66586992292|784,66586992292|784,66586992292|784,66586992292
yarLip                    |775,17213278294|784,66586992292|  0,00000000000|1281,10753741716|759,60495442691|773,54737506592|773,54737506592|773,54737506592|773,54737506592|773,54737506592|773,54737506592
canSub                    |1281,10753741716|1281,10753741716|1281,10753741716|  0,00000000000|1281,10753741716|1281,10753741716|1281,10753741716|1281,10753741716|1281,10753741716|1281,10753741716|1281,10753741716
canAlb                    |775,17213278294|784,66586992292|759,60495442691|1281,10753741716|  0,00000000000|773,54737506592|773,54737506592|773,54737506592|773,54737506592|773,54737506592|773,54737506592
canNer                    |775,17213278294|784,66586992292|773,54737506592|1281,10753741716|773,54737506592|  0,00000000000|536,44660812337|711,14845757477|773,54433840043|773,54433840043|773,54433840043
canFri                    |775,17213278294|784,66586992292|773,54737506592|1281,10753741716|773,54737506592|536,44660812337|  0,00000000000|711,14845757477|773,54433840043|773,54433840043|773,54433840043
canPar                    |775,17213278294|784,66586992292|773,54737506592|1281,10753741716|773,54737506592|711,14845757477|711,14845757477|  0,00000000000|773,54433840043|773,54433840043|773,54433840043
sacPas                    |775,17213278294|784,66586992292|773,54737506592|1281,10753741716|773,54737506592|773,54433840043|773,54433840043|773,54433840043|  0,00000000000|459,72303014329|643,99903837064
sacCer                    |775,17213278294|784,66586992292|773,54737506592|1281,10753741716|773,54737506592|773,54433840043|773,54433840043|773,54433840043|459,72303014329|  0,00000000000|643,99903837064
sacSer                    |775,17213278294|784,66586992292|773,54737506592|1281,10753741716|773,54737506592|773,54433840043|773,54433840043|773,54433840043|643,99903837064|643,99903837064|  0,00000000000
                           |aspNig         |canZem         |yarLip         |canSub         |canAlb         |canNer         |canFri         |canPar         |sacPas         |sacCer         |sacSer         
aspNig                    |  0,00000000000|  9,68722090880|  9,64220901463| 12,04095995470|  9,64220901463|  9,64220901463|  9,64220901463|  9,64220901463|  9,64220901463|  9,64220901463|  9,64220901463
canZem                    |  9,68722090880|  0,00000000000|  9,68722090880| 12,04095995470|  9,68722090880|  9,68722090880|  9,68722090880|  9,68722090880|  9,68722090880|  9,68722090880|  9,68722090880
yarLip                    |  9,64220901463|  9,68722090880|  0,00000000000| 12,04095995470|  9,56840160093|  9,63450568123|  9,63450568123|  9,63450568123|  9,63450568123|  9,63450568123|  9,63450568123
canSub                    | 12,04095995470| 12,04095995470| 12,04095995470|  0,00000000000| 12,04095995470| 12,04095995470| 12,04095995470| 12,04095995470| 12,04095995470| 12,04095995470| 12,04095995470
canAlb                    |  9,64220901463|  9,68722090880|  9,56840160093| 12,04095995470|  0,00000000000|  9,63450568123|  9,63450568123|  9,63450568123|  9,63450568123|  9,63450568123|  9,63450568123
canNer                    |  9,64220901463|  9,68722090880|  9,63450568123| 12,04095995470|  9,63450568123|  0,00000000000|  8,51035883879|  9,33865870033|  9,63449128373|  9,63449128373|  9,63449128373
canFri                    |  9,64220901463|  9,68722090880|  9,63450568123| 12,04095995470|  9,63450568123|  8,51035883879|  0,00000000000|  9,33865870033|  9,63449128373|  9,63449128373|  9,63449128373
canPar                    |  9,64220901463|  9,68722090880|  9,63450568123| 12,04095995470|  9,63450568123|  9,33865870033|  9,33865870033|  0,00000000000|  9,63449128373|  9,63449128373|  9,63449128373
sacPas                    |  9,64220901463|  9,68722090880|  9,63450568123| 12,04095995470|  9,63450568123|  9,63449128373|  9,63449128373|  9,63449128373|  0,00000000000|  8,14659549446|  9,02028854682
sacCer                    |  9,64220901463|  9,68722090880|  9,63450568123| 12,04095995470|  9,63450568123|  9,63449128373|  9,63449128373|  9,63449128373|  8,14659549446|  0,00000000000|  9,02028854682
sacSer                    |  9,64220901463|  9,68722090880|  9,63450568123| 12,04095995470|  9,63450568123|  9,63449128373|  9,63449128373|  9,63449128373|  9,02028854682|  9,02028854682|  0,00000000000
                           |aspNig         |canZem         |yarLip         |canSub         |canAlb         |canNer         |canFri         |canPar         |sacPas         |sacCer         |sacSer         
aspNig                    |  0,00000000000|  3,00000000000|  4,00000000000|  4,00000000000|  4,00000000000|  6,00000000000|  6,00000000000|  5,00000000000|  6,00000000000|  6,00000000000|  5,00000000000
canZem                    |  3,00000000000|  0,00000000000|  5,00000000000|  3,00000000000|  5,00000000000|  7,00000000000|  7,00000000000|  6,00000000000|  7,00000000000|  7,00000000000|  6,00000000000
yarLip                    |  4,00000000000|  5,00000000000|  0,00000000000|  6,00000000000|  2,00000000000|  6,00000000000|  6,00000000000|  5,00000000000|  6,00000000000|  6,00000000000|  5,00000000000
canSub                    |  4,00000000000|  3,00000000000|  6,00000000000|  0,00000000000|  6,00000000000|  8,00000000000|  8,00000000000|  7,00000000000|  8,00000000000|  8,00000000000|  7,00000000000
canAlb                    |  4,00000000000|  5,00000000000|  2,00000000000|  6,00000000000|  0,00000000000|  6,00000000000|  6,00000000000|  5,00000000000|  6,00000000000|  6,00000000000|  5,00000000000
canNer                    |  6,00000000000|  7,00000000000|  6,00000000000|  8,00000000000|  6,00000000000|  0,00000000000|  2,00000000000|  3,00000000000|  6,00000000000|  6,00000000000|  5,00000000000
canFri                    |  6,00000000000|  7,00000000000|  6,00000000000|  8,00000000000|  6,00000000000|  2,00000000000|  0,00000000000|  3,00000000000|  6,00000000000|  6,00000000000|  5,00000000000
canPar                    |  5,00000000000|  6,00000000000|  5,00000000000|  7,00000000000|  5,00000000000|  3,00000000000|  3,00000000000|  0,00000000000|  5,00000000000|  5,00000000000|  4,00000000000
sacPas                    |  6,00000000000|  7,00000000000|  6,00000000000|  8,00000000000|  6,00000000000|  6,00000000000|  6,00000000000|  5,00000000000|  0,00000000000|  2,00000000000|  3,00000000000
sacCer                    |  6,00000000000|  7,00000000000|  6,00000000000|  8,00000000000|  6,00000000000|  6,00000000000|  6,00000000000|  5,00000000000|  2,00000000000|  0,00000000000|  3,00000000000
sacSer                    |  5,00000000000|  6,00000000000|  5,00000000000|  7,00000000000|  5,00000000000|  5,00000000000|  5,00000000000|  4,00000000000|  3,00000000000|  3,00000000000|  0,00000000000
