                           |aspNig         |canZem         |yarLip         |canSub         |canAlb         |canNer         |canFri         |canPar         |sacPas         |sacCer         |sacSer         
aspNig                    |  0,00000000000| 16,11957527575| 15,80958544905| 15,95586537789| 15,95586537789| 15,95586537789| 15,95586537789| 15,95586537789| 15,80958544905| 15,80958544905| 15,80958544905
canZem                    | 16,11957527575|  0,00000000000| 16,11957527575| 16,11957527575| 16,11957527575| 16,11957527575| 16,11957527575| 16,11957527575| 16,11957527575| 16,11957527575| 16,11957527575
yarLip                    | 15,80958544905| 16,11957527575|  0,00000000000| 15,95586537789| 15,95586537789| 15,95586537789| 15,95586537789| 15,95586537789| 15,79585117108| 15,79585117108| 15,79585117108
canSub                    | 15,95586537789| 16,11957527575| 15,95586537789|  0,00000000000| 15,64529221359| 15,64529221359| 15,64529221359| 15,64529221359| 15,95586537789| 15,95586537789| 15,95586537789
canAlb                    | 15,95586537789| 16,11957527575| 15,95586537789| 15,64529221359|  0,00000000000| 13,53368808840| 13,53368808840| 13,94185579451| 15,95586537789| 15,95586537789| 15,95586537789
canNer                    | 15,95586537789| 16,11957527575| 15,95586537789| 15,64529221359| 13,53368808840|  0,00000000000| 10,65765667037| 13,94185579451| 15,95586537789| 15,95586537789| 15,95586537789
canFri                    | 15,95586537789| 16,11957527575| 15,95586537789| 15,64529221359| 13,53368808840| 10,65765667037|  0,00000000000| 13,94185579451| 15,95586537789| 15,95586537789| 15,95586537789
canPar                    | 15,95586537789| 16,11957527575| 15,95586537789| 15,64529221359| 13,94185579451| 13,94185579451| 13,94185579451|  0,00000000000| 15,95586537789| 15,95586537789| 15,95586537789
sacPas                    | 15,80958544905| 16,11957527575| 15,79585117108| 15,95586537789| 15,95586537789| 15,95586537789| 15,95586537789| 15,95586537789|  0,00000000000|  9,61838368733| 13,97815464597
sacCer                    | 15,80958544905| 16,11957527575| 15,79585117108| 15,95586537789| 15,95586537789| 15,95586537789| 15,95586537789| 15,95586537789|  9,61838368733|  0,00000000000| 13,97815464597
sacSer                    | 15,80958544905| 16,11957527575| 15,79585117108| 15,95586537789| 15,95586537789| 15,95586537789| 15,95586537789| 15,95586537789| 13,97815464597| 13,97815464597|  0,00000000000
                           |aspNig         |canZem         |yarLip         |canSub         |canAlb         |canNer         |canFri         |canPar         |sacPas         |sacCer         |sacSer         
aspNig                    |  0,00000000000| 10,52149893613| 10,27555705891| 10,39161364271| 10,39161364271| 10,39161364271| 10,39161364271| 10,39161364271| 10,27555705891| 10,27555705891| 10,27555705891
canZem                    | 10,52149893613|  0,00000000000| 10,52149893613| 10,52149893613| 10,52149893613| 10,52149893613| 10,52149893613| 10,52149893613| 10,52149893613| 10,52149893613| 10,52149893613
yarLip                    | 10,27555705891| 10,52149893613|  0,00000000000| 10,39161364271| 10,39161364271| 10,39161364271| 10,39161364271| 10,39161364271| 10,26466046226| 10,26466046226| 10,26466046226
canSub                    | 10,39161364271| 10,52149893613| 10,39161364271|  0,00000000000| 10,14520895306| 10,14520895306| 10,14520895306| 10,14520895306| 10,39161364271| 10,39161364271| 10,39161364271
canAlb                    | 10,39161364271| 10,52149893613| 10,39161364271| 10,14520895306|  0,00000000000|  8,46988983685|  8,46988983685|  8,79372476050| 10,39161364271| 10,39161364271| 10,39161364271
canNer                    | 10,39161364271| 10,52149893613| 10,39161364271| 10,14520895306|  8,46988983685|  0,00000000000|  6,18808409687|  8,79372476050| 10,39161364271| 10,39161364271| 10,39161364271
canFri                    | 10,39161364271| 10,52149893613| 10,39161364271| 10,14520895306|  8,46988983685|  6,18808409687|  0,00000000000|  8,79372476050| 10,39161364271| 10,39161364271| 10,39161364271
canPar                    | 10,39161364271| 10,52149893613| 10,39161364271| 10,14520895306|  8,79372476050|  8,79372476050|  8,79372476050|  0,00000000000| 10,39161364271| 10,39161364271| 10,39161364271
sacPas                    | 10,27555705891| 10,52149893613| 10,26466046226| 10,39161364271| 10,39161364271| 10,39161364271| 10,39161364271| 10,39161364271|  0,00000000000|  5,36353849446|  8,82252379486
sacCer                    | 10,27555705891| 10,52149893613| 10,26466046226| 10,39161364271| 10,39161364271| 10,39161364271| 10,39161364271| 10,39161364271|  5,36353849446|  0,00000000000|  8,82252379486
sacSer                    | 10,27555705891| 10,52149893613| 10,26466046226| 10,39161364271| 10,39161364271| 10,39161364271| 10,39161364271| 10,39161364271|  8,82252379486|  8,82252379486|  0,00000000000
                           |aspNig         |canZem         |yarLip         |canSub         |canAlb         |canNer         |canFri         |canPar         |sacPas         |sacCer         |sacSer         
aspNig                    |  0,00000000000|  4,00000000000|  3,00000000000|  4,00000000000|  6,00000000000|  7,00000000000|  7,00000000000|  5,00000000000|  5,00000000000|  5,00000000000|  4,00000000000
canZem                    |  4,00000000000|  0,00000000000|  5,00000000000|  4,00000000000|  6,00000000000|  7,00000000000|  7,00000000000|  5,00000000000|  7,00000000000|  7,00000000000|  6,00000000000
yarLip                    |  3,00000000000|  5,00000000000|  0,00000000000|  5,00000000000|  7,00000000000|  8,00000000000|  8,00000000000|  6,00000000000|  4,00000000000|  4,00000000000|  3,00000000000
canSub                    |  4,00000000000|  4,00000000000|  5,00000000000|  0,00000000000|  4,00000000000|  5,00000000000|  5,00000000000|  3,00000000000|  7,00000000000|  7,00000000000|  6,00000000000
canAlb                    |  6,00000000000|  6,00000000000|  7,00000000000|  4,00000000000|  0,00000000000|  3,00000000000|  3,00000000000|  3,00000000000|  9,00000000000|  9,00000000000|  8,00000000000
canNer                    |  7,00000000000|  7,00000000000|  8,00000000000|  5,00000000000|  3,00000000000|  0,00000000000|  2,00000000000|  4,00000000000| 10,00000000000| 10,00000000000|  9,00000000000
canFri                    |  7,00000000000|  7,00000000000|  8,00000000000|  5,00000000000|  3,00000000000|  2,00000000000|  0,00000000000|  4,00000000000| 10,00000000000| 10,00000000000|  9,00000000000
canPar                    |  5,00000000000|  5,00000000000|  6,00000000000|  3,00000000000|  3,00000000000|  4,00000000000|  4,00000000000|  0,00000000000|  8,00000000000|  8,00000000000|  7,00000000000
sacPas                    |  5,00000000000|  7,00000000000|  4,00000000000|  7,00000000000|  9,00000000000| 10,00000000000| 10,00000000000|  8,00000000000|  0,00000000000|  2,00000000000|  3,00000000000
sacCer                    |  5,00000000000|  7,00000000000|  4,00000000000|  7,00000000000|  9,00000000000| 10,00000000000| 10,00000000000|  8,00000000000|  2,00000000000|  0,00000000000|  3,00000000000
sacSer                    |  4,00000000000|  6,00000000000|  3,00000000000|  6,00000000000|  8,00000000000|  9,00000000000|  9,00000000000|  7,00000000000|  3,00000000000|  3,00000000000|  0,00000000000
