                           |aspNig         |canZem         |yarLip         |canSub         |canAlb         |canNer         |canFri         |canPar         |sacPas         |sacCer         |sacSer         
aspNig                    |  0,00000000000|9311,84800122064|9352,66909310253|10869,25673763808|9311,84800122064|9311,84800122064|9311,84800122064|9311,84800122064|9311,84800122064|9311,84800122064|9311,84800122064
canZem                    |9311,84800122064|  0,00000000000|9352,66909310253|10869,25673763808|9179,14026545992|9179,14026545992|9179,14026545992|9179,14026545992|8795,05877845952|8795,05877845952|8795,05877845952
yarLip                    |9352,66909310253|9352,66909310253|  0,00000000000|10869,25673763808|9352,66909310253|9352,66909310253|9352,66909310253|9352,66909310253|9352,66909310253|9352,66909310253|9352,66909310253
canSub                    |10869,25673763808|10869,25673763808|10869,25673763808|  0,00000000000|10869,25673763808|10869,25673763808|10869,25673763808|10869,25673763808|10869,25673763808|10869,25673763808|10869,25673763808
canAlb                    |9311,84800122064|9179,14026545992|9352,66909310253|10869,25673763808|  0,00000000000|8053,36402283331|8053,36402283331|8053,36402283331|9179,14026545992|9179,14026545992|9179,14026545992
canNer                    |9311,84800122064|9179,14026545992|9352,66909310253|10869,25673763808|8053,36402283331|  0,00000000000|6633,13633538342|7811,27109672565|9179,14026545992|9179,14026545992|9179,14026545992
canFri                    |9311,84800122064|9179,14026545992|9352,66909310253|10869,25673763808|8053,36402283331|6633,13633538342|  0,00000000000|7811,27109672565|9179,14026545992|9179,14026545992|9179,14026545992
canPar                    |9311,84800122064|9179,14026545992|9352,66909310253|10869,25673763808|8053,36402283331|7811,27109672565|7811,27109672565|  0,00000000000|9179,14026545992|9179,14026545992|9179,14026545992
sacPas                    |9311,84800122064|8795,05877845952|9352,66909310253|10869,25673763808|9179,14026545992|9179,14026545992|9179,14026545992|9179,14026545992|  0,00000000000|5049,17029740591|8311,57885992018
sacCer                    |9311,84800122064|8795,05877845952|9352,66909310253|10869,25673763808|9179,14026545992|9179,14026545992|9179,14026545992|9179,14026545992|5049,17029740591|  0,00000000000|8311,57885992018
sacSer                    |9311,84800122064|8795,05877845952|9352,66909310253|10869,25673763808|9179,14026545992|9179,14026545992|9179,14026545992|9179,14026545992|8311,57885992018|8311,57885992018|  0,00000000000
                           |aspNig         |canZem         |yarLip         |canSub         |canAlb         |canNer         |canFri         |canPar         |sacPas         |sacCer         |sacSer         
aspNig                    |  0,00000000000| 10,05921800614| 10,09774701941| 11,52917922233| 10,05921800614| 10,05921800614| 10,05921800614| 10,05921800614| 10,05921800614| 10,05921800614| 10,05921800614
canZem                    | 10,05921800614|  0,00000000000| 10,09774701941| 11,52917922233|  9,93396172621|  9,93396172621|  9,93396172621|  9,93396172621|  9,57144617294|  9,57144617294|  9,57144617294
yarLip                    | 10,09774701941| 10,09774701941|  0,00000000000| 11,52917922233| 10,09774701941| 10,09774701941| 10,09774701941| 10,09774701941| 10,09774701941| 10,09774701941| 10,09774701941
canSub                    | 11,52917922233| 11,52917922233| 11,52917922233|  0,00000000000| 11,52917922233| 11,52917922233| 11,52917922233| 11,52917922233| 11,52917922233| 11,52917922233| 11,52917922233
canAlb                    | 10,05921800614|  9,93396172621| 10,09774701941| 11,52917922233|  0,00000000000|  8,87139711097|  8,87139711097|  8,87139711097|  9,93396172621|  9,93396172621|  9,93396172621
canNer                    | 10,05921800614|  9,93396172621| 10,09774701941| 11,52917922233|  8,87139711097|  0,00000000000|  7,53091431420|  8,64289755028|  9,93396172621|  9,93396172621|  9,93396172621
canFri                    | 10,05921800614|  9,93396172621| 10,09774701941| 11,52917922233|  8,87139711097|  7,53091431420|  0,00000000000|  8,64289755028|  9,93396172621|  9,93396172621|  9,93396172621
canPar                    | 10,05921800614|  9,93396172621| 10,09774701941| 11,52917922233|  8,87139711097|  8,64289755028|  8,64289755028|  0,00000000000|  9,93396172621|  9,93396172621|  9,93396172621
sacPas                    | 10,05921800614|  9,57144617294| 10,09774701941| 11,52917922233|  9,93396172621|  9,93396172621|  9,93396172621|  9,93396172621|  0,00000000000|  6,03588697221|  9,11511334749
sacCer                    | 10,05921800614|  9,57144617294| 10,09774701941| 11,52917922233|  9,93396172621|  9,93396172621|  9,93396172621|  9,93396172621|  6,03588697221|  0,00000000000|  9,11511334749
sacSer                    | 10,05921800614|  9,57144617294| 10,09774701941| 11,52917922233|  9,93396172621|  9,93396172621|  9,93396172621|  9,93396172621|  9,11511334749|  9,11511334749|  0,00000000000
                           |aspNig         |canZem         |yarLip         |canSub         |canAlb         |canNer         |canFri         |canPar         |sacPas         |sacCer         |sacSer         
aspNig                    |  0,00000000000|  4,00000000000|  3,00000000000|  4,00000000000|  4,00000000000|  6,00000000000|  6,00000000000|  5,00000000000|  6,00000000000|  6,00000000000|  5,00000000000
canZem                    |  4,00000000000|  0,00000000000|  5,00000000000|  6,00000000000|  4,00000000000|  6,00000000000|  6,00000000000|  5,00000000000|  4,00000000000|  4,00000000000|  3,00000000000
yarLip                    |  3,00000000000|  5,00000000000|  0,00000000000|  3,00000000000|  5,00000000000|  7,00000000000|  7,00000000000|  6,00000000000|  7,00000000000|  7,00000000000|  6,00000000000
canSub                    |  4,00000000000|  6,00000000000|  3,00000000000|  0,00000000000|  6,00000000000|  8,00000000000|  8,00000000000|  7,00000000000|  8,00000000000|  8,00000000000|  7,00000000000
canAlb                    |  4,00000000000|  4,00000000000|  5,00000000000|  6,00000000000|  0,00000000000|  4,00000000000|  4,00000000000|  3,00000000000|  6,00000000000|  6,00000000000|  5,00000000000
canNer                    |  6,00000000000|  6,00000000000|  7,00000000000|  8,00000000000|  4,00000000000|  0,00000000000|  2,00000000000|  3,00000000000|  8,00000000000|  8,00000000000|  7,00000000000
canFri                    |  6,00000000000|  6,00000000000|  7,00000000000|  8,00000000000|  4,00000000000|  2,00000000000|  0,00000000000|  3,00000000000|  8,00000000000|  8,00000000000|  7,00000000000
canPar                    |  5,00000000000|  5,00000000000|  6,00000000000|  7,00000000000|  3,00000000000|  3,00000000000|  3,00000000000|  0,00000000000|  7,00000000000|  7,00000000000|  6,00000000000
sacPas                    |  6,00000000000|  4,00000000000|  7,00000000000|  8,00000000000|  6,00000000000|  8,00000000000|  8,00000000000|  7,00000000000|  0,00000000000|  2,00000000000|  3,00000000000
sacCer                    |  6,00000000000|  4,00000000000|  7,00000000000|  8,00000000000|  6,00000000000|  8,00000000000|  8,00000000000|  7,00000000000|  2,00000000000|  0,00000000000|  3,00000000000
sacSer                    |  5,00000000000|  3,00000000000|  6,00000000000|  7,00000000000|  5,00000000000|  7,00000000000|  7,00000000000|  6,00000000000|  3,00000000000|  3,00000000000|  0,00000000000
