 | aspNigM | canZemM | yarLipM | canSubM | canAlbM | canNerM | canFriM | canParM | sacPasM | sacCerM | sacSerM
aspNigM | 0 | 8,190641031 | 8,21251954 | 10,17509576 | 10,40279675 | 10,40111458 | 10,23092069 | 10,59476196 | 10,31671339 | 10,75323633 | 10,92922504
canZemM | 8,190641031 | 0 | 7,513143217 | 9,921646855 | 10,14934785 | 10,14766568 | 9,977471787 | 10,34131305 | 10,06326448 | 10,49978742 | 10,67577614
yarLipM | 8,21251954 | 7,513143217 | 0 | 9,943525363 | 10,17122636 | 10,16954419 | 9,999350296 | 10,36319156 | 10,08514299 | 10,52166593 | 10,69765465
canSubM | 10,17509576 | 9,921646855 | 9,943525363 | 0 | 8,339760394 | 8,338078224 | 8,167884332 | 9,003190655 | 10,26791399 | 10,70443692 | 10,88042564
canAlbM | 10,40279675 | 10,14934785 | 10,17122636 | 8,339760394 | 0 | 7,596915661 | 7,974325602 | 9,23089165 | 10,49561498 | 10,93213792 | 11,10812664
canNerM | 10,40111458 | 10,14766568 | 10,16954419 | 8,338078224 | 7,596915661 | 0 | 7,972643433 | 9,22920948 | 10,49393281 | 10,93045575 | 11,10644447
canFriM | 10,23092069 | 9,977471787 | 9,999350296 | 8,167884332 | 7,974325602 | 7,972643433 | 0 | 9,059015588 | 10,32373892 | 10,76026186 | 10,93625058
canParM | 10,59476196 | 10,34131305 | 10,36319156 | 9,003190655 | 9,23089165 | 9,22920948 | 9,059015588 | 0 | 10,68758019 | 11,12410312 | 11,30009184
sacPasM | 10,31671339 | 10,06326448 | 10,08514299 | 10,26791399 | 10,49561498 | 10,49393281 | 10,32373892 | 10,68758019 | 0 | 10,04840944 | 10,55194704
sacCerM | 10,75323633 | 10,49978742 | 10,52166593 | 10,70443692 | 10,93213792 | 10,93045575 | 10,76026186 | 11,12410312 | 10,04840944 | 0 | 10,98846998
sacSerM | 10,92922504 | 10,67577614 | 10,69765465 | 10,88042564 | 11,10812664 | 11,10644447 | 10,93625058 | 11,30009184 | 10,55194704 | 10,98846998 | 0
