Human, C:\D\fiit\DP-ELKI\data\Mammals.fasta, Human
Pig_Chim, C:\D\fiit\DP-ELKI\data\Mammals.fasta, P_Chim
Com_Chim, C:\D\fiit\DP-ELKI\data\Mammals.fasta, Com_Chim
Gibbon, C:\D\fiit\DP-ELKI\data\Mammals.fasta, Gibbon
Baboon, C:\D\fiit\DP-ELKI\data\Mammals.fasta, Baboon
Ver_Monkey, C:\D\fiit\DP-ELKI\data\Mammals.fasta, Ver_Monkey
Macaca_Thibet, C:\D\fiit\DP-ELKI\data\Mammals.fasta, Macaca_Thibet
Bor_Oran, C:\D\fiit\DP-ELKI\data\Mammals.fasta, Bor_Oran
Sum_Oran, C:\D\fiit\DP-ELKI\data\Mammals.fasta, Sum_Oran
Gorilla, C:\D\fiit\DP-ELKI\data\Mammals.fasta, Gorilla
Cat, C:\D\fiit\DP-ELKI\data\Mammals.fasta, Cat
Dog, C:\D\fiit\DP-ELKI\data\Mammals.fasta, Dog
Pig, C:\D\fiit\DP-ELKI\data\Mammals.fasta, Pig
Sheep, C:\D\fiit\DP-ELKI\data\Mammals.fasta, Sheep
Goat, C:\D\fiit\DP-ELKI\data\Mammals.fasta, Goat
Cow, C:\D\fiit\DP-ELKI\data\Mammals.fasta, Cow
Buffalo, C:\D\fiit\DP-ELKI\data\Mammals.fasta, Buffalo
Wolf, C:\D\fiit\DP-ELKI\data\Mammals.fasta, Wolf
Tiger, C:\D\fiit\DP-ELKI\data\Mammals.fasta, Tiger
Leopard, C:\D\fiit\DP-ELKI\data\Mammals.fasta, Leopard
Indian_Rhino, C:\D\fiit\DP-ELKI\data\Mammals.fasta, Indian_Rhino
White_Rhino, C:\D\fiit\DP-ELKI\data\Mammals.fasta, White_Rhino
Black_Bear, C:\D\fiit\DP-ELKI\data\Mammals.fasta, Black_Bear
Brown_Bear, C:\D\fiit\DP-ELKI\data\Mammals.fasta, Brown_Bear
Polar_Bear, C:\D\fiit\DP-ELKI\data\Mammals.fasta, Polar_Bear
Giant_Panda, C:\D\fiit\DP-ELKI\data\Mammals.fasta, Giant_Panda
Rabbit, C:\D\fiit\DP-ELKI\data\Mammals.fasta, Rabbit
Hedgehog, C:\D\fiit\DP-ELKI\data\Mammals.fasta, Hedgehog
Dormouse, C:\D\fiit\DP-ELKI\data\Mammals.fasta, Dormouse
Squirrel, C:\D\fiit\DP-ELKI\data\Mammals.fasta, Squirrel
Blue_Whale, C:\D\fiit\DP-ELKI\data\Mammals.fasta, Blue_Whale